0	 1.0090359151968087
1	 1.1775848941594655
2	 1.1921363927157551
3	 0.8525900371397298
4	 1.7950298855307238
5	 1.4188755567363898
6	 0.7820877053357465
7	 1.1548335109861474
8	 1.4125003287919382
9	 1.5343535232771126
10	 1.4128007884079843
11	 0.6562313229400923
12	 1.3319599013623993
13	 1.3825126324331845
14	 0.7820877053357465
15	 0.42320347214706705
16	 0.9047750984843324
17	 0.9041680405234417
18	 0.8361173900526434
19	 0.7134526335495684
20	 1.3825126324331845
21	 1.2642808500195764
22	 0.38941874199261534
23	 0.8358444793453788
24	 1.3957355664415543
25	 1.3761675693160818
26	 0.9634340552613516
27	 0.4397286970229275
28	 1.1177204949195745
29	 0.6194383306706164
30	 1.322638718183213
31	 0.9018230882723268
32	 1.1740844159916144
33	 1.2311186696810885
34	 0.9634340552613516
35	 0.4397286970229275
36	 1.5950265738945935
37	 0.6194383306706164
38	 1.322638718183213
39	 0.9018230882723268
40	 0.8119407894077006
41	 0.5615271448406468
42	 0.6562313229400923
43	 0.7134526335495684
44	 1.4125003287919382
45	 0.8797665479190109
46	 0.5704990612063557
47	 0.3926828816029545
48	 1.5835428145471786
49	 1.3825126324331845
50	 1.3858590039529033
51	 1.3103345887188085
52	 1.2676455257039851
53	 0.6217295061659317
54	 0.797659628250695
55	 0.3745545417736371
56	 1.1999886022392046
57	 1.1853210446277134
58	 1.122583327412928
59	 0.951316044159022
60	 0.7265688167709925
61	 0.5422662127626984
62	 0.5325925073049125
63	 0.9564038320439981
64	 1.0364989044072037
65	 1.1563502837969701
66	 1.1563502837969701
67	 1.1504308344108565
68	 1.0364989044072037
69	 0.5384544352471556
70	 0.5387039807142074
71	 1.182131217705704
72	 1.2942311292324762
73	 0.7931315918857411
74	 0.7616715494277723
75	 0.7616715494277723
76	 1.4188755567363898
77	 1.2432623129642968
78	 1.2853792613481827
79	 1.4188755567363898
80	 1.4438023337137718
81	 1.2819877711990861
82	 0.8361173900526434
83	 0.7134526335495684
84	 1.4188755567363898
85	 1.2432623129642968
86	 1.2853792613481827
87	 1.4188755567363898
88	 1.7174154551255212
89	 1.507595827414408
90	 0.7134526335495684
91	 0.9482497684058653
92	 0.7722892122754299
93	 0.6615120304965393
94	 0.8006746189957566
95	 0.7134526335495684
96	 0.9120738239412504
97	 1.074064275416617
98	 0.8766362708039886
99	 0.6874822510465272
100	 1.0069606560632702
101	 0.9892182440659335
102	 1.057369864369608
103	 1.1919175311486763
104	 0.787333918676498
105	 0.8783613495132939
106	 0.8818107839707681
107	 0.8030295374994576
108	 0.7616715494277725
109	 0.8148954904273399
110	 0.7134526335495684
111	 1.0911105424632146
112	 0.6205336958830053
113	 1.0911105424632146
114	 0.7134526335495684
115	 0.890511709503732
116	 0.8879857987813394
117	 0.8917517473138661
118	 1.3522914959240275
119	 1.6064992516350576
120	 1.0392830119064456
121	 1.1796134305373096
122	 0.9783185088524387
123	 1.015585141107004
124	 0.8054562964581007
125	 0.9015659592272399
126	 1.1548335109861474
127	 1.6064992516350576
128	 1.0392830119064456
129	 1.0688410447009105
130	 0.8361173900526434
131	 0.3847063251561002
132	 1.4802242551397407
133	 1.4802242551397407
134	 1.4802242551397407
135	 1.4802242551397407
136	 0.8663208485210254
137	 0.47906615288218113
138	 1.0747556301011132
139	 1.031697347830487
140	 1.0249713806251899
141	 0.5576621248605647
142	 0.797659628250695
143	 0.7134526335495684
144	 0.933439999322547
145	 0.47906615288218113
146	 1.1122071084507426
147	 1.0100398770954193
148	 0.8789551654962611
149	 0.6756333168497045
150	 0.8361173900526434
151	 0.9195001022819913
152	 1.100549452106904
153	 1.0392830119064456
154	 0.42320347214706705
155	 0.8920286457077817
156	 0.9444974330613904
157	 0.17442602471131596
158	 0.4283433993027349
159	 0.7676350364644019
160	 0.6978590258709824
161	 0.6542268595644823
162	 0.6315608284812332
163	 0.6717046261291187
164	 1.0861256292625807
165	 0.7692552393593285
166	 0.30397489105662806
167	 0.6531860329585655
168	 0.7193401253053874
169	 0.658106031888254
170	 0.8861299091410753
171	 0.729480480499599
172	 0.8412908033934344
173	 0.7980909589998707
174	 1.0861256292625807
175	 1.1548335109861474
176	 1.2956396936935708
177	 0.8361173900526434
178	 0.7339061356020743
179	 1.1778695744406036
180	 1.5148158975693025
181	 0.5242965361793639
182	 0.4358476838629424
183	 0.8148954904273399
184	 1.2040047949174755
185	 0.6282760414654613
186	 0.6514895703837589
187	 0.40267714429929724
188	 0.8672128251975565
189	 0.47647527219171915
190	 1.0026682477526279
191	 0.9033341862723685
192	 1.2413715805751138
193	 1.4714174046943083
194	 1.4714174046943083
195	 1.4714174046943083
196	 0.9268931400776724
197	 1.2643798396199355
198	 1.43450520348911
199	 0.8525900371397298
200	 1.7950298855307238
201	 1.4188755567363898
202	 0.7820877053357465
203	 1.1548335109861474
204	 1.4125003287919382
205	 1.4125003287919382
206	 1.43450520348911
207	 0.6562313229400923
208	 1.3319599013623993
209	 1.3825126324331845
210	 0.7820877053357465
211	 0.42320347214706705
212	 0.9047750984843324
213	 0.9041680405234417
214	 0.8361173900526434
215	 0.7134526335495684
216	 1.3825126324331845
217	 1.2642808500195764
218	 0.38941874199261534
219	 0.8358444793453788
220	 1.3957355664415543
221	 1.3761675693160818
222	 0.9634340552613516
223	 0.4397286970229275
224	 0.9738133486950116
225	 0.6194383306706164
226	 1.322638718183213
227	 1.5511626682207695
228	 0.9228176624320714
229	 1.0445578867814524
230	 0.9634340552613516
231	 0.4397286970229275
232	 1.4137463210628753
233	 0.6194383306706164
234	 1.322638718183213
235	 1.5511626682207695
236	 0.33374218418413937
237	 0.7980909589998707
238	 0.7480614905555212
239	 0.6834172259778496
240	 1.1330630368624686
241	 1.1411116709174436
242	 0.7480614905555212
243	 0.6834172259778496
244	 0.9303994010660154
245	 0.9852951479793107
246	 0.4548076356237826
247	 0.3012697576976105
248	 0.7462813447380283
249	 1.435436439355615
250	 1.0497010714156483
251	 0.6671479819846117
252	 0.319562129088441
253	 0.5572075086033189
254	 1.0904598842159425
255	 0.8557232795131309
256	 0.7516517561416342
257	 0.999762149609629
258	 0.38941874199261534
259	 0.43255703711761184
260	 0.32543464697167424
261	 0.5069406766271832
262	 1.0100398770954193
263	 1.0002224000787157
264	 0.9325095536916618
265	 1.0881132885097817
266	 1.1917261030804263
267	 1.1917261030804263
268	 1.1481276066098032
269	 1.0713161553730342
270	 1.033545394523645
271	 1.175162372210562
272	 0.4492164960448523
273	 0.38696987291136375
274	 0.3798972164820071
275	 0.8361173900526434
276	 1.6314019672776339
277	 0.8557232795131309
278	 1.1548335109861476
279	 0.7422972751404621
280	 1.3507617032020613
281	 1.181880155291169
282	 1.1486780565514279
283	 1.2053138355680728
284	 1.626614760426492
285	 1.187714231847378
286	 1.2077632055706686
287	 1.218806382395241
288	 1.0552211042418236
289	 0.5202753404363308
290	 0.647627396487328
291	 1.5636247042926796
292	 1.523022382907531
293	 0.8301144411595882
294	 1.2044214881942965
295	 0.8946672978817667
296	 1.7638395558659334
297	 1.2184104372715083
298	 0.6303804927729041
299	 1.4026292572017456
300	 1.4188755567363898
301	 1.2432623129642968
302	 1.2853792613481827
303	 1.4188755567363898
304	 2.14179440518352
305	 1.5140981404246332
306	 1.0731879098966985
307	 1.122583327412928
308	 1.541421889753684
309	 1.5140981404246332
310	 0.8995957081359339
311	 0.7383221175122032
312	 0.620239016909282
313	 0.42468654360459174
314	 0.4662431343396005
315	 1.399160010289348
316	 0.8141752434123023
317	 1.0055329124879964
318	 0.9296266839059245
319	 0.5864308815515545
320	 0.6325282552203879
321	 1.3066067422286376
322	 1.3916338895489133
323	 1.3916338895489133
324	 1.2360523635768832
325	 0.4915901235981316
326	 0.5735775623135867
327	 0.5735775623135867
328	 1.212264463495741
329	 1.3436406572720139
330	 0.9146033939023757
331	 0.5248973658544637
332	 1.248910396640741
333	 0.9364238480953898
334	 1.1190606482192507
335	 0.9889210699247121
336	 0.6240096102241921
337	 0.7206167067842604
338	 0.7278580404072497
339	 0.6506485604438879
340	 0.5096112516584825
341	 0.6996303858322052
342	 0.5295934089821487
343	 0.6078899702037945
344	 1.7950298855307238
345	 1.4188755567363898
346	 0.4886202732489984
347	 0.4886202732489984
348	 1.2643798396199353
349	 1.2650174618705203
350	 0.7691240767938551
351	 0.6481802398112563
352	 1.3319599013623993
353	 1.3825126324331845
354	 0.7820877053357465
355	 0.42320347214706705
356	 0.9047750984843324
357	 0.9041680405234417
358	 0.8361173900526434
359	 0.7134526335495684
360	 1.3825126324331845
361	 1.2642808500195764
362	 0.38941874199261534
363	 0.8358444793453788
364	 1.508280402123533
365	 1.3761675693160818
366	 0.9634340552613516
367	 0.4397286970229275
368	 0.8600276444438884
369	 0.26175786299046166
370	 1.322638718183213
371	 0.9018230882723268
372	 1.2032539190262994
373	 1.2157729415906573
374	 0.9634340552613516
375	 0.4397286970229275
376	 1.4137463210628753
377	 0.26175786299046166
378	 1.322638718183213
379	 0.9018230882723268
380	 0.8119407894077006
381	 0.5615271448406468
382	 0.6562313229400923
383	 1.0124447095760067
384	 1.4345052034891101
385	 0.9634340552613516
386	 0.8797665479190109
387	 1.0883809897445533
388	 1.2853792613481827
389	 0.6592701865224403
390	 0.6592701865224403
391	 0.755479828605586
392	 0.8601583452117019
393	 0.9918636224320357
394	 0.7480614905555212
395	 1.0883809897445533
396	 1.0934921942278935
397	 0.49645608617882814
398	 1.0209788300596276
399	 0.8737306099921951
400	 1.2676455257039851
401	 0.48080638393986963
402	 1.0791146547501764
403	 1.2282553092754207
404	 1.1220154984835695
405	 1.0228015670226558
406	 1.1917261030804265
407	 1.1293785218003747
408	 1.3391652544915185
409	 0.9029376383988726
410	 0.7134526335495684
411	 0.7337773360068661
412	 1.3391652544915185
413	 1.1549214600297864
414	 0.6756333168497045
415	 0.7337773360068661
416	 1.166522515358076
417	 1.0224114528101362
418	 1.0692264394586084
419	 0.8014979454840238
420	 0.9231566583599826
421	 0.7209015002592355
422	 1.0124447095760067
423	 1.0124447095760067
424	 1.4188755567363898
425	 1.2432623129642968
426	 1.2853792613481827
427	 1.4188755567363898
428	 1.4802242551397407
429	 1.2819877711990861
430	 0.8361173900526434
431	 0.7134526335495684
432	 1.4188755567363898
433	 1.2432623129642968
434	 1.2853792613481827
435	 1.4188755567363898
436	 1.5747507248780679
437	 1.45749752847269
438	 0.7134526335495684
439	 1.2807711194115887
440	 0.12737867555239177
441	 0.21663382901654676
442	 0.13015777790854657
443	 0.7134526335495684
444	 0.7643411064344777
445	 0.9764623189446764
446	 0.9721785140265413
447	 0.6874822510465272
448	 1.0069606560632702
449	 0.9892182440659335
450	 1.057369864369608
451	 1.1919175311486763
452	 0.787333918676498
453	 0.8783613495132939
454	 0.8818107839707681
455	 0.6353445209638744
456	 0.890511709503732
457	 0.8148954904273399
458	 0.7134526335495684
459	 1.0911105424632146
460	 0.6205336958830053
461	 1.0911105424632146
462	 0.7134526335495684
463	 0.890511709503732
464	 0.8879857987813394
465	 0.8917517473138661
466	 1.3522914959240275
467	 1.6064992516350576
468	 1.0392830119064456
469	 1.1796134305373096
470	 0.9783185088524387
471	 1.015585141107004
472	 0.8054562964581007
473	 0.9015659592272399
474	 1.1548335109861474
475	 1.6064992516350576
476	 1.0392830119064456
477	 1.0688410447009105
478	 0.8361173900526434
479	 0.3312166029905393
480	 0.8737306099921951
481	 0.8737306099921951
482	 0.8737306099921951
483	 0.8737306099921951
484	 0.9107773970093773
485	 0.47906615288218113
486	 1.0747556301011132
487	 1.031697347830487
488	 1.0249713806251899
489	 0.5576621248605647
490	 0.797659628250695
491	 0.7134526335495684
492	 0.933439999322547
493	 0.47906615288218113
494	 0.9559115324388961
495	 1.0100398770954193
496	 0.8789551654962611
497	 0.6756333168497045
498	 0.8361173900526434
499	 0.9195001022819913
500	 1.4336022981314251
501	 0.6424539248101766
502	 0.8995957081359339
503	 0.8233306304185952
504	 0.7356264105334789
505	 0.17442602471131596
506	 0.4283433993027349
507	 0.7676350364644019
508	 0.6978590258709824
509	 0.6542268595644823
510	 0.6315608284812332
511	 0.6717046261291187
512	 0.5280685922269877
513	 0.5666678375349995
514	 0.30397489105662806
515	 0.6531860329585655
516	 0.7193401253053874
517	 0.658106031888254
518	 0.8861299091410753
519	 0.729480480499599
520	 0.609687346366
521	 0.44351006621871997
522	 0.8995957081359339
523	 0.8233306304185952
524	 1.1919175311486763
525	 0.4805892921468624
526	 0.6768262490698229
527	 0.6481802398112563
528	 1.329099850803255
529	 1.0131413123326027
530	 0.5872226407983091
531	 0.7134526335495684
532	 0.5918072016048359
533	 0.7038026223439962
534	 0.6514895703837589
535	 0.3218577917288823
536	 1.2588480763177328
537	 0.7780411894093914
538	 1.2161169575980337
539	 0.5872226407983091
540	 0.9783185088524387
541	 1.0907122346601477
542	 1.1624986217213336
543	 1.1624986217213336
