0	 1.4605934866804429
1	 1.4605934866804429
2	 1.7888543819998317
3	 1.7888543819998317
4	 2.966479394838265
5	 0.0
6	 0.0
7	 2.1291625896895083
8	 1.7888543819998317
9	 1.7888543819998317
10	 1.4605934866804429
11	 2.309401076758503
12	 2.966479394838265
13	 1.4605934866804429
14	 0.0
15	 2.1291625896895083
16	 4.258325179379016
17	 2.309401076758503
18	 2.1291625896895083
19	 2.1291625896895083
20	 1.4605934866804429
21	 1.7888543819998317
22	 4.258325179379016
23	 4.163331998932265
24	 2.1291625896895083
25	 2.309401076758503
26	 1.7888543819998317
27	 3.5777087639996634
28	 2.9211869733608857
29	 4.163331998932265
30	 1.7888543819998317
31	 4.163331998932265
32	 2.1291625896895083
33	 1.7888543819998317
34	 2.1291625896895083
35	 3.5777087639996634
36	 2.1291625896895083
37	 4.163331998932265
38	 1.7888543819998317
39	 2.1291625896895083
40	 2.1291625896895083
41	 4.258325179379016
42	 2.1291625896895083
43	 2.309401076758503
44	 1.4605934866804429
45	 1.4605934866804429
46	 2.1291625896895083
47	 1.4605934866804429
48	 1.7888543819998317
49	 1.7888543819998317
50	 1.7888543819998317
51	 1.7888543819998317
52	 1.4605934866804429
53	 2.1291625896895083
54	 2.9211869733608857
55	 2.309401076758503
56	 1.4605934866804429
57	 1.4605934866804429
58	 2.1291625896895083
59	 2.1291625896895083
60	 2.1291625896895083
61	 3.5777087639996634
62	 3.5777087639996634
63	 4.163331998932265
64	 2.9211869733608857
65	 2.9211869733608857
66	 2.9211869733608857
67	 1.7888543819998317
68	 2.1291625896895083
69	 3.5777087639996634
70	 4.163331998932265
71	 4.163331998932265
72	 1.4605934866804429
73	 2.1291625896895083
74	 2.1291625896895083
75	 0.0
76	 0.0
77	 1.4605934866804429
78	 1.4605934866804429
79	 0.0
80	 1.4605934866804429
81	 1.4605934866804429
82	 2.1291625896895083
83	 2.1291625896895083
84	 0.0
85	 1.4605934866804429
86	 1.4605934866804429
87	 0.0
88	 1.4605934866804429
89	 1.4605934866804429
90	 2.1291625896895083
91	 2.1291625896895083
92	 4.163331998932265
93	 4.163331998932265
94	 2.309401076758503
95	 2.1291625896895083
96	 2.966479394838265
97	 2.1291625896895083
98	 2.966479394838265
99	 2.966479394838265
100	 1.7888543819998317
101	 2.9211869733608857
102	 2.1291625896895083
103	 2.9211869733608857
104	 2.1291625896895083
105	 2.966479394838265
106	 2.966479394838265
107	 4.163331998932265
108	 2.1291625896895083
109	 2.1291625896895083
110	 2.966479394838265
111	 2.1291625896895083
112	 2.1291625896895083
113	 1.4605934866804429
114	 2.966479394838265
115	 2.1291625896895083
116	 2.1291625896895083
117	 2.309401076758503
118	 1.4605934866804429
119	 1.4605934866804429
120	 2.1291625896895083
121	 1.7888543819998317
122	 1.7888543819998317
123	 2.1291625896895083
124	 1.7888543819998317
125	 2.966479394838265
126	 1.7888543819998317
127	 1.4605934866804429
128	 2.1291625896895083
129	 1.7888543819998317
130	 1.7888543819998317
131	 2.309401076758503
132	 0.0
133	 0.0
134	 0.0
135	 0.0
136	 2.1291625896895083
137	 2.309401076758503
138	 2.966479394838265
139	 2.309401076758503
140	 2.966479394838265
141	 2.309401076758503
142	 2.1291625896895083
143	 2.1291625896895083
144	 2.966479394838265
145	 2.309401076758503
146	 2.966479394838265
147	 2.309401076758503
148	 2.309401076758503
149	 2.966479394838265
150	 2.1291625896895083
151	 2.309401076758503
152	 2.1291625896895083
153	 2.1291625896895083
154	 2.1291625896895083
155	 2.1291625896895083
156	 2.966479394838265
157	 4.258325179379016
158	 2.309401076758503
159	 2.309401076758503
160	 4.163331998932265
161	 4.163331998932265
162	 2.966479394838265
163	 0.0
164	 3.5777087639996634
165	 2.1291625896895083
166	 2.309401076758503
167	 2.309401076758503
168	 4.163331998932265
169	 4.163331998932265
170	 2.966479394838265
171	 4.163331998932265
172	 1.7888543819998317
173	 2.1291625896895083
174	 2.309401076758503
175	 1.7888543819998317
176	 3.5777087639996634
177	 2.1291625896895083
178	 2.309401076758503
179	 1.4605934866804429
180	 2.309401076758503
181	 2.966479394838265
182	 2.1291625896895083
183	 1.7888543819998317
184	 2.309401076758503
185	 2.309401076758503
186	 2.309401076758503
187	 2.966479394838265
188	 2.1291625896895083
189	 2.1291625896895083
190	 2.1291625896895083
191	 2.966479394838265
192	 3.5777087639996634
193	 2.309401076758503
194	 2.309401076758503
195	 2.309401076758503
196	 2.309401076758503
197	 2.309401076758503
198	 1.7888543819998317
199	 1.7888543819998317
200	 2.966479394838265
201	 0.0
202	 0.0
203	 2.1291625896895083
204	 1.7888543819998317
205	 1.7888543819998317
206	 1.4605934866804429
207	 2.309401076758503
208	 2.966479394838265
209	 1.4605934866804429
210	 0.0
211	 2.1291625896895083
212	 4.258325179379016
213	 2.309401076758503
214	 2.1291625896895083
215	 2.1291625896895083
216	 1.4605934866804429
217	 1.7888543819998317
218	 4.258325179379016
219	 4.163331998932265
220	 2.1291625896895083
221	 2.309401076758503
222	 1.7888543819998317
223	 3.5777087639996634
224	 2.966479394838265
225	 4.163331998932265
226	 1.7888543819998317
227	 1.7888543819998317
228	 2.1291625896895083
229	 1.7888543819998317
230	 2.1291625896895083
231	 3.5777087639996634
232	 4.163331998932265
233	 4.163331998932265
234	 1.7888543819998317
235	 1.4605934866804429
236	 2.1291625896895083
237	 2.1291625896895083
238	 2.309401076758503
239	 2.309401076758503
240	 2.1291625896895083
241	 2.966479394838265
242	 2.309401076758503
243	 2.309401076758503
244	 2.966479394838265
245	 3.5777087639996634
246	 3.5777087639996634
247	 3.5777087639996634
248	 2.966479394838265
249	 3.5777087639996634
250	 2.9211869733608857
251	 2.966479394838265
252	 2.1291625896895083
253	 2.966479394838265
254	 2.309401076758503
255	 2.966479394838265
256	 2.966479394838265
257	 2.966479394838265
258	 2.966479394838265
259	 2.1291625896895083
260	 2.309401076758503
261	 2.966479394838265
262	 2.1291625896895083
263	 2.1291625896895083
264	 2.1291625896895083
265	 2.1291625896895083
266	 1.4605934866804429
267	 0.0
268	 2.966479394838265
269	 2.309401076758503
270	 2.309401076758503
271	 2.309401076758503
272	 4.258325179379016
273	 4.258325179379016
274	 4.258325179379016
275	 2.309401076758503
276	 1.4605934866804429
277	 3.5777087639996634
278	 2.966479394838265
279	 2.9211869733608857
280	 2.966479394838265
281	 2.966479394838265
282	 2.1291625896895083
283	 2.9211869733608857
284	 2.1291625896895083
285	 4.258325179379016
286	 2.966479394838265
287	 2.9211869733608857
288	 2.1291625896895083
289	 2.966479394838265
290	 3.5777087639996634
291	 3.5777087639996634
292	 2.9211869733608857
293	 3.5777087639996634
294	 3.5777087639996634
295	 2.966479394838265
296	 2.1291625896895083
297	 2.1291625896895083
298	 3.5777087639996634
299	 4.163331998932265
300	 0.0
301	 1.4605934866804429
302	 1.4605934866804429
303	 0.0
304	 2.9211869733608857
305	 2.966479394838265
306	 2.1291625896895083
307	 1.4605934866804429
308	 2.966479394838265
309	 2.1291625896895083
310	 1.7888543819998317
311	 2.966479394838265
312	 2.1291625896895083
313	 2.1291625896895083
314	 2.9211869733608857
315	 2.309401076758503
316	 2.9211869733608857
317	 2.1291625896895083
318	 1.7888543819998317
319	 1.7888543819998317
320	 2.966479394838265
321	 2.309401076758503
322	 1.4605934866804429
323	 1.4605934866804429
324	 2.309401076758503
325	 2.966479394838265
326	 3.5777087639996634
327	 3.5777087639996634
328	 2.966479394838265
329	 4.258325179379016
330	 2.9211869733608857
331	 2.966479394838265
332	 2.966479394838265
333	 2.966479394838265
334	 2.966479394838265
335	 2.966479394838265
336	 2.1291625896895083
337	 2.1291625896895083
338	 2.1291625896895083
339	 2.1291625896895083
340	 2.1291625896895083
341	 2.1291625896895083
342	 2.1291625896895083
343	 2.1291625896895083
344	 2.966479394838265
345	 0.0
346	 1.4605934866804429
347	 1.4605934866804429
348	 2.309401076758503
349	 2.309401076758503
350	 2.966479394838265
351	 2.1291625896895083
352	 2.966479394838265
353	 1.4605934866804429
354	 0.0
355	 2.1291625896895083
356	 4.258325179379016
357	 2.309401076758503
358	 2.1291625896895083
359	 2.1291625896895083
360	 1.4605934866804429
361	 1.7888543819998317
362	 4.258325179379016
363	 4.163331998932265
364	 2.309401076758503
365	 2.309401076758503
366	 1.7888543819998317
367	 3.5777087639996634
368	 4.163331998932265
369	 4.163331998932265
370	 1.7888543819998317
371	 4.163331998932265
372	 2.9211869733608857
373	 2.9211869733608857
374	 2.1291625896895083
375	 3.5777087639996634
376	 4.163331998932265
377	 4.163331998932265
378	 1.7888543819998317
379	 2.1291625896895083
380	 2.1291625896895083
381	 4.258325179379016
382	 2.1291625896895083
383	 2.1291625896895083
384	 1.4605934866804429
385	 1.4605934866804429
386	 2.1291625896895083
387	 2.1291625896895083
388	 1.4605934866804429
389	 2.1291625896895083
390	 2.1291625896895083
391	 2.1291625896895083
392	 2.1291625896895083
393	 2.1291625896895083
394	 2.1291625896895083
395	 2.1291625896895083
396	 1.4605934866804429
397	 2.1291625896895083
398	 1.7888543819998317
399	 0.0
400	 1.4605934866804429
401	 2.1291625896895083
402	 1.4605934866804429
403	 1.4605934866804429
404	 2.1291625896895083
405	 2.9211869733608857
406	 1.7888543819998317
407	 1.4605934866804429
408	 2.9211869733608857
409	 2.966479394838265
410	 2.309401076758503
411	 1.7888543819998317
412	 2.1291625896895083
413	 2.309401076758503
414	 2.1291625896895083
415	 0.0
416	 1.4605934866804429
417	 2.309401076758503
418	 2.966479394838265
419	 2.309401076758503
420	 4.163331998932265
421	 4.163331998932265
422	 2.966479394838265
423	 0.0
424	 0.0
425	 1.4605934866804429
426	 1.4605934866804429
427	 0.0
428	 0.0
429	 1.4605934866804429
430	 2.1291625896895083
431	 2.1291625896895083
432	 0.0
433	 1.4605934866804429
434	 1.4605934866804429
435	 0.0
436	 1.4605934866804429
437	 2.309401076758503
438	 2.1291625896895083
439	 1.4605934866804429
440	 2.9211869733608857
441	 2.966479394838265
442	 2.1291625896895083
443	 2.1291625896895083
444	 2.966479394838265
445	 2.1291625896895083
446	 2.966479394838265
447	 2.966479394838265
448	 1.7888543819998317
449	 2.9211869733608857
450	 2.1291625896895083
451	 2.9211869733608857
452	 2.1291625896895083
453	 2.966479394838265
454	 2.966479394838265
455	 4.163331998932265
456	 2.1291625896895083
457	 2.1291625896895083
458	 2.966479394838265
459	 2.1291625896895083
460	 2.1291625896895083
461	 1.4605934866804429
462	 2.966479394838265
463	 2.1291625896895083
464	 2.1291625896895083
465	 2.309401076758503
466	 1.4605934866804429
467	 1.4605934866804429
468	 2.1291625896895083
469	 1.7888543819998317
470	 1.7888543819998317
471	 2.1291625896895083
472	 1.7888543819998317
473	 2.966479394838265
474	 1.7888543819998317
475	 1.4605934866804429
476	 2.1291625896895083
477	 1.7888543819998317
478	 1.7888543819998317
479	 2.966479394838265
480	 0.0
481	 0.0
482	 0.0
483	 0.0
484	 2.1291625896895083
485	 2.309401076758503
486	 2.966479394838265
487	 2.309401076758503
488	 2.966479394838265
489	 2.309401076758503
490	 2.1291625896895083
491	 2.1291625896895083
492	 2.966479394838265
493	 2.309401076758503
494	 2.966479394838265
495	 2.309401076758503
496	 2.309401076758503
497	 2.966479394838265
498	 2.1291625896895083
499	 2.309401076758503
500	 1.4605934866804429
501	 2.1291625896895083
502	 2.1291625896895083
503	 2.309401076758503
504	 2.966479394838265
505	 4.258325179379016
506	 2.309401076758503
507	 2.309401076758503
508	 4.163331998932265
509	 4.163331998932265
510	 2.966479394838265
511	 0.0
512	 3.5777087639996634
513	 2.1291625896895083
514	 2.309401076758503
515	 2.309401076758503
516	 3.5777087639996634
517	 4.163331998932265
518	 2.966479394838265
519	 4.163331998932265
520	 2.1291625896895083
521	 2.1291625896895083
522	 2.309401076758503
523	 2.309401076758503
524	 2.9211869733608857
525	 4.258325179379016
526	 2.309401076758503
527	 2.1291625896895083
528	 1.7888543819998317
529	 2.9211869733608857
530	 3.5777087639996634
531	 2.966479394838265
532	 2.966479394838265
533	 2.309401076758503
534	 2.309401076758503
535	 2.309401076758503
536	 2.309401076758503
537	 2.966479394838265
538	 2.966479394838265
539	 2.966479394838265
540	 2.9211869733608857
541	 2.9211869733608857
542	 2.9211869733608857
543	 2.9211869733608857
