0	 0.0
1	 0.0
2	 0.0
3	 0.0
4	 0.3546495250665471
5	 0.6125087900926025
6	 0.8656535678009578
7	 0.25
8	 0.8644344934278314
9	 0.20417850609670346
10	 0.6110132589467216
11	 0.09224885964315
12	 0.6333218692482575
13	 0.08566258755487793
14	 0.270584266129438
15	 0.19381378215210276
16	 0.0
17	 0.0
