1	 0.0
2	 1.4605934866804429
3	 1.7888543819998317
4	 1.4605934866804429
6	 1.7888543819998317
7	 1.4605934866804429
9	 0.0
10	 1.4605934866804429
11	 1.7888543819998317
12	 1.4605934866804429
14	 1.7888543819998317
15	 1.4605934866804429
17	 0.0
18	 2.1291625896895083
25	 0.0
26	 2.1291625896895083
33	 0.0
34	 1.7888543819998317
37	 2.966479394838265
38	 1.7888543819998317
40	 2.966479394838265
41	 0.0
42	 1.7888543819998317
45	 2.966479394838265
46	 1.7888543819998317
48	 2.966479394838265
49	 0.0
50	 1.4605934866804429
51	 1.7888543819998317
52	 1.4605934866804429
54	 1.7888543819998317
55	 1.4605934866804429
57	 0.0
58	 1.4605934866804429
59	 1.7888543819998317
60	 1.4605934866804429
62	 1.7888543819998317
63	 1.4605934866804429
65	 0.0
66	 1.4605934866804429
67	 1.7888543819998317
68	 1.4605934866804429
69	 1.7888543819998317
71	 1.4605934866804429
72	 1.7888543819998317
73	 0.0
74	 1.4605934866804429
75	 1.7888543819998317
76	 1.4605934866804429
77	 1.7888543819998317
79	 1.4605934866804429
80	 1.7888543819998317
81	 0.0
82	 2.1291625896895083
83	 2.966479394838265
84	 2.1291625896895083
86	 2.966479394838265
87	 2.1291625896895083
89	 0.0
90	 2.1291625896895083
91	 2.966479394838265
92	 2.1291625896895083
94	 2.966479394838265
95	 2.1291625896895083
97	 0.0
98	 1.7888543819998317
105	 0.0
106	 1.7888543819998317
113	 0.0
114	 2.309401076758503
121	 0.0
122	 2.309401076758503
129	 0.0
130	 1.7888543819998317
132	 2.1291625896895083
133	 1.7888543819998317
135	 2.1291625896895083
136	 1.7888543819998317
137	 0.0
138	 1.7888543819998317
140	 2.1291625896895083
141	 1.7888543819998317
143	 2.1291625896895083
144	 1.7888543819998317
145	 0.0
146	 1.4605934866804429
148	 1.7888543819998317
149	 2.1291625896895083
150	 1.4605934866804429
151	 1.7888543819998317
152	 2.1291625896895083
153	 0.0
154	 1.4605934866804429
156	 1.7888543819998317
157	 2.1291625896895083
158	 1.4605934866804429
159	 1.7888543819998317
160	 2.1291625896895083
161	 0.0
162	 1.4605934866804429
163	 1.7888543819998317
164	 1.4605934866804429
166	 1.7888543819998317
167	 1.4605934866804429
169	 0.0
170	 1.4605934866804429
171	 1.7888543819998317
172	 1.4605934866804429
174	 1.7888543819998317
175	 1.4605934866804429
177	 0.0
178	 1.7888543819998317
179	 2.966479394838265
180	 1.7888543819998317
181	 3.5777087639996634
182	 2.966479394838265
183	 1.7888543819998317
184	 3.5777087639996634
185	 0.0
186	 1.7888543819998317
187	 2.966479394838265
188	 1.7888543819998317
189	 3.5777087639996634
190	 2.966479394838265
191	 1.7888543819998317
192	 3.5777087639996634
193	 0.0
194	 1.4605934866804429
195	 1.7888543819998317
196	 1.4605934866804429
197	 1.7888543819998317
199	 1.4605934866804429
200	 1.7888543819998317
201	 0.0
202	 1.4605934866804429
203	 1.7888543819998317
204	 1.4605934866804429
205	 1.7888543819998317
207	 1.4605934866804429
208	 1.7888543819998317
209	 0.0
210	 1.7888543819998317
211	 2.966479394838265
212	 1.7888543819998317
213	 3.5777087639996634
214	 2.966479394838265
215	 1.7888543819998317
216	 3.5777087639996634
217	 0.0
218	 1.7888543819998317
219	 2.966479394838265
220	 1.7888543819998317
221	 3.5777087639996634
222	 2.966479394838265
223	 1.7888543819998317
224	 3.5777087639996634
225	 0.0
226	 1.7888543819998317
233	 0.0
234	 1.7888543819998317
241	 0.0
242	 2.309401076758503
249	 0.0
250	 2.309401076758503
257	 0.0
258	 1.7888543819998317
260	 2.1291625896895083
261	 1.7888543819998317
263	 2.1291625896895083
264	 1.7888543819998317
265	 0.0
266	 1.7888543819998317
268	 2.1291625896895083
269	 1.7888543819998317
271	 2.1291625896895083
272	 1.7888543819998317
273	 0.0
274	 1.4605934866804429
276	 1.7888543819998317
277	 2.1291625896895083
278	 1.4605934866804429
279	 1.7888543819998317
280	 2.1291625896895083
281	 0.0
282	 1.4605934866804429
284	 1.7888543819998317
285	 2.1291625896895083
286	 1.4605934866804429
287	 1.7888543819998317
288	 2.1291625896895083
289	 0.0
290	 1.4605934866804429
291	 1.7888543819998317
292	 1.4605934866804429
294	 1.7888543819998317
295	 1.4605934866804429
297	 0.0
298	 1.4605934866804429
299	 1.7888543819998317
300	 1.4605934866804429
302	 1.7888543819998317
303	 1.4605934866804429
305	 0.0
306	 1.4605934866804429
307	 2.1291625896895083
308	 1.4605934866804429
309	 1.7888543819998317
310	 2.1291625896895083
311	 1.4605934866804429
312	 1.7888543819998317
313	 0.0
314	 1.4605934866804429
315	 2.1291625896895083
316	 1.4605934866804429
317	 1.7888543819998317
318	 2.1291625896895083
319	 1.4605934866804429
320	 1.7888543819998317
321	 0.0
323	 1.4605934866804429
325	 2.309401076758503
326	 1.4605934866804429
328	 2.309401076758503
329	 0.0
331	 1.4605934866804429
333	 2.309401076758503
334	 1.4605934866804429
336	 2.309401076758503
337	 0.0
338	 2.966479394838265
341	 3.5777087639996634
342	 2.966479394838265
344	 3.5777087639996634
345	 0.0
346	 2.966479394838265
349	 3.5777087639996634
350	 2.966479394838265
352	 3.5777087639996634
353	 0.0
354	 1.4605934866804429
355	 2.9211869733608857
356	 1.7888543819998317
357	 1.4605934866804429
358	 2.9211869733608857
359	 1.7888543819998317
360	 1.4605934866804429
361	 0.0
362	 1.4605934866804429
363	 2.9211869733608857
364	 1.7888543819998317
365	 1.4605934866804429
366	 2.9211869733608857
367	 1.7888543819998317
368	 1.4605934866804429
369	 0.0
370	 1.7888543819998317
371	 3.5777087639996634
372	 1.7888543819998317
373	 2.966479394838265
374	 3.5777087639996634
375	 1.7888543819998317
376	 2.966479394838265
377	 0.0
378	 1.7888543819998317
379	 3.5777087639996634
380	 1.7888543819998317
381	 2.966479394838265
382	 3.5777087639996634
383	 1.7888543819998317
384	 2.966479394838265
385	 0.0
386	 2.1291625896895083
388	 2.966479394838265
389	 2.1291625896895083
391	 2.966479394838265
392	 2.1291625896895083
393	 0.0
394	 2.1291625896895083
396	 2.966479394838265
397	 2.1291625896895083
399	 2.966479394838265
400	 2.1291625896895083
401	 0.0
402	 1.7888543819998317
409	 0.0
410	 1.7888543819998317
417	 0.0
418	 1.4605934866804429
420	 2.1291625896895083
422	 1.4605934866804429
423	 2.1291625896895083
425	 0.0
426	 1.4605934866804429
428	 2.1291625896895083
430	 1.4605934866804429
431	 2.1291625896895083
433	 0.0
434	 1.4605934866804429
436	 1.7888543819998317
437	 2.1291625896895083
438	 1.4605934866804429
439	 1.7888543819998317
440	 2.1291625896895083
441	 0.0
442	 1.4605934866804429
444	 1.7888543819998317
445	 2.1291625896895083
446	 1.4605934866804429
447	 1.7888543819998317
448	 2.1291625896895083
449	 0.0
450	 1.4605934866804429
451	 2.966479394838265
452	 1.7888543819998317
453	 3.5777087639996634
454	 2.966479394838265
455	 1.7888543819998317
456	 3.5777087639996634
457	 0.0
458	 1.4605934866804429
459	 2.966479394838265
460	 1.7888543819998317
461	 3.5777087639996634
462	 2.966479394838265
463	 1.7888543819998317
464	 3.5777087639996634
465	 0.0
466	 1.7888543819998317
473	 0.0
474	 1.7888543819998317
481	 0.0
482	 1.4605934866804429
484	 2.1291625896895083
486	 1.4605934866804429
487	 2.1291625896895083
489	 0.0
490	 1.4605934866804429
492	 2.1291625896895083
494	 1.4605934866804429
495	 2.1291625896895083
497	 0.0
498	 1.4605934866804429
500	 1.7888543819998317
501	 2.1291625896895083
502	 1.4605934866804429
503	 1.7888543819998317
504	 2.1291625896895083
505	 0.0
506	 1.4605934866804429
508	 1.7888543819998317
509	 2.1291625896895083
510	 1.4605934866804429
511	 1.7888543819998317
512	 2.1291625896895083
513	 0.0
515	 1.4605934866804429
516	 2.1291625896895083
517	 1.4605934866804429
519	 2.1291625896895083
520	 1.4605934866804429
521	 0.0
523	 1.4605934866804429
524	 2.1291625896895083
525	 1.4605934866804429
527	 2.1291625896895083
528	 1.4605934866804429
529	 0.0
531	 1.4605934866804429
532	 1.7888543819998317
533	 0.0
534	 1.4605934866804429
535	 0.0
536	 1.7888543819998317
537	 0.0
538	 1.7888543819998317
539	 1.4605934866804429
540	 1.7888543819998317
541	 1.4605934866804429
542	 2.1291625896895083
543	 1.4605934866804429
544	 2.1291625896895083
545	 0.0
546	 2.309401076758503
550	 2.966479394838265
551	 2.309401076758503
558	 2.966479394838265
559	 2.309401076758503
561	 1.7888543819998317
