total length (in divisions): 3312
divisions_per_quarter_note: 12
start_time pitch midi_pitch duration bar_number staff_number voice
0 G# 56 4 1 1 1
0 C# 37 48 1 2 5
0 C# 49 48 1 2 5
4 C# 61 4 1 1 1
8 E 64 4 1 1 1
12 G# 56 4 1 1 1
16 C# 61 4 1 1 1
20 E 64 4 1 1 1
24 G# 56 4 1 1 1
28 C# 61 4 1 1 1
32 E 64 4 1 1 1
36 G# 56 4 1 1 1
40 C# 61 4 1 1 1
44 E 64 4 1 1 1
48 G# 56 4 2 1 1
48 B 35 48 2 2 5
48 B 47 48 2 2 5
52 C# 61 4 2 1 1
56 E 64 4 2 1 1
60 G# 56 4 2 1 1
64 C# 61 4 2 1 1
68 E 64 4 2 1 1
72 G# 56 4 2 1 1
76 C# 61 4 2 1 1
80 E 64 4 2 1 1
84 G# 56 4 2 1 1
88 C# 61 4 2 1 1
92 E 64 4 2 1 1
96 A 57 4 3 1 1
96 A 33 24 3 2 5
96 A 45 24 3 2 5
100 C# 61 4 3 1 1
104 E 64 4 3 1 1
108 A 57 4 3 1 1
112 C# 61 4 3 1 1
116 E 64 4 3 1 1
120 A 57 4 3 1 1
120 F# 30 24 3 2 5
120 F# 42 24 3 2 5
124 D 62 4 3 1 1
128 F# 66 4 3 1 1
132 A 57 4 3 1 1
136 D 62 4 3 1 1
140 F# 66 4 3 1 1
144 G# 56 4 4 1 1
144 G# 32 24 4 2 5
144 G# 44 24 4 2 5
148 B# 60 4 4 1 1
152 F# 66 4 4 1 1
156 G# 56 4 4 1 1
160 C# 61 4 4 1 1
164 E 64 4 4 1 1
168 G# 56 4 4 1 1
168 G# 32 24 4 2 5
168 G# 44 24 4 2 5
172 C# 61 4 4 1 1
176 D# 63 4 4 1 1
180 F# 54 4 4 1 1
184 B# 60 4 4 1 1
188 D# 63 4 4 1 1
192 E 52 4 5 2 5
192 C# 37 48 5 2 6
192 C# 49 48 5 2 6
196 G# 56 4 5 2 5
200 C# 61 4 5 2 5
204 G# 56 4 5 1 2
208 C# 61 4 5 1 2
212 E 64 4 5 1 2
216 G# 56 4 5 1 2
220 C# 61 4 5 1 2
224 E 64 4 5 1 2
228 G# 68 9 5 1 1
228 G# 56 4 5 1 2
232 C# 61 4 5 1 2
236 E 64 4 5 1 2
237 G# 68 3 5 1 1
240 G# 56 4 6 1 1
240 G# 68 4 6 1 1
240 B# 36 48 6 2 5
240 G# 44 48 6 2 5
240 B# 48 48 6 2 5
244 D# 63 4 6 1 1
244 G# 68 4 6 1 1
248 F# 66 4 6 1 1
248 G# 68 4 6 1 1
252 G# 68 24 6 1 1
252 G# 56 4 6 1 2
256 D# 63 4 6 1 2
260 F# 66 4 6 1 2
264 G# 56 4 6 1 2
268 D# 63 4 6 1 2
272 F# 66 4 6 1 2
276 G# 56 4 6 1 1
276 G# 68 9 6 1 2
280 D# 63 4 6 1 1
284 F# 66 4 6 1 1
285 G# 68 3 6 1 2
288 G# 56 4 7 1 1
288 G# 68 4 7 1 1
288 C# 37 24 7 2 5
288 C# 49 24 7 2 5
292 C# 61 4 7 1 1
292 G# 68 4 7 1 1
296 E 64 4 7 1 1
296 G# 68 4 7 1 1
300 G# 68 12 7 1 1
300 G# 56 4 7 1 2
304 C# 61 4 7 1 2
308 E 64 4 7 1 2
312 A 57 4 7 1 1
312 A 69 4 7 1 1
312 F# 30 24 7 2 5
312 F# 42 24 7 2 5
316 C# 61 4 7 1 1
316 A 69 4 7 1 1
320 F# 66 4 7 1 1
320 A 69 4 7 1 1
324 A 69 12 7 1 1
324 A 57 4 7 1 2
328 C# 61 4 7 1 2
332 F# 66 4 7 1 2
336 G# 56 4 8 1 2
336 G# 68 4 8 1 2
336 B 35 24 8 2 5
336 B 47 24 8 2 5
340 B 59 4 8 1 2
340 G# 68 4 8 1 2
344 E 64 4 8 1 2
344 G# 68 4 8 1 2
348 G# 56 4 8 1 1
348 G# 68 12 8 1 2
352 B 59 4 8 1 1
356 E 64 4 8 1 1
360 F# 66 12 8 1 1
360 A 57 4 8 1 2
360 B 35 24 8 2 5
360 B 47 24 8 2 5
364 B 59 4 8 1 2
368 D# 63 4 8 1 2
372 B 71 12 8 1 1
372 A 57 4 8 1 2
376 B 59 4 8 1 2
380 D# 63 4 8 1 2
384 G# 56 4 9 1 1
384 E 64 4 9 1 1
384 E 40 48 9 2 5
384 E 52 48 9 2 5
388 B 59 4 9 1 1
388 E 64 4 9 1 1
392 E 64 4 9 1 1
396 G# 56 4 9 1 1
400 B 59 4 9 1 1
404 E 64 4 9 1 1
408 G# 56 4 9 1 1
412 B 59 4 9 1 1
416 E 64 4 9 1 1
420 G# 56 4 9 1 1
424 B 59 4 9 1 1
428 E 64 4 9 1 1
432 G 55 4 10 1 2
432 E 40 48 10 2 5
432 E 52 48 10 2 5
436 B 59 4 10 1 2
440 E 64 4 10 1 2
444 G 55 4 10 1 2
448 B 59 4 10 1 2
452 E 64 4 10 1 2
456 G 55 4 10 1 2
460 B 59 4 10 1 2
464 E 64 4 10 1 2
468 G 67 9 10 1 1
468 G 55 4 10 1 2
472 B 59 4 10 1 2
476 E 64 4 10 1 2
477 G 67 3 10 1 1
480 G 55 4 11 1 2
480 G 67 4 11 1 2
480 D 38 48 11 2 5
480 D 50 48 11 2 5
484 B 59 4 11 1 2
484 G 67 4 11 1 2
488 E# 65 4 11 1 2
488 G 67 4 11 1 2
492 G 55 4 11 1 1
492 G 67 24 11 1 2
496 B 59 4 11 1 1
500 E# 65 4 11 1 1
504 G 55 4 11 1 1
508 B 59 4 11 1 1
512 E# 65 4 11 1 1
516 G 67 9 11 1 1
516 G 55 4 11 1 2
520 B 59 4 11 1 2
524 E# 65 4 11 1 2
525 G 67 3 11 1 1
528 G 55 4 12 1 2
528 G 67 4 12 1 2
528 B# 36 12 12 2 5
528 B# 48 12 12 2 5
532 B# 60 4 12 1 2
532 G 67 4 12 1 2
536 E 64 4 12 1 2
536 G 67 4 12 1 2
540 G 55 4 12 1 1
540 G 67 24 12 1 2
540 B 35 12 12 2 5
540 B 47 12 12 2 5
544 B 59 4 12 1 1
548 E 64 4 12 1 1
552 G 55 4 12 1 1
552 A# 34 24 12 2 5
552 A# 46 24 12 2 5
556 C# 61 4 12 1 1
560 E 64 4 12 1 1
564 F# 66 12 12 1 1
564 A# 34 4 12 1 2
568 C# 61 4 12 1 2
572 E 64 4 12 1 2
576 F# 54 4 13 1 2
576 F# 66 4 13 1 2
576 B 35 24 13 2 5
576 B 47 24 13 2 5
580 B 59 4 13 1 2
580 F# 66 4 13 1 2
584 D 62 4 13 1 2
584 F# 66 4 13 1 2
588 F# 54 4 13 1 1
588 F# 66 12 13 1 2
592 B 59 4 13 1 1
596 D 62 4 13 1 1
600 G 67 12 13 1 1
600 G 55 4 13 1 2
600 E 40 12 13 2 5
604 B 59 4 13 1 2
608 C# 61 4 13 1 2
612 E 64 12 13 1 1
612 E 52 4 13 1 2
612 G 43 12 13 2 5
616 B 59 4 13 1 2
620 C# 61 4 13 1 2
624 F# 54 4 14 1 1
624 F# 66 4 14 1 1
624 F# 42 24 14 2 5
628 B 59 4 14 1 1
628 F# 66 4 14 1 1
632 D 62 4 14 1 1
632 F# 66 4 14 1 1
636 F# 66 12 14 1 1
636 F# 54 4 14 1 2
640 B 59 4 14 1 2
644 D 62 4 14 1 2
648 F# 54 4 14 1 1
648 F# 66 4 14 1 1
648 F# 30 24 14 2 5
648 F# 42 24 14 2 5
652 A# 58 4 14 1 1
652 F# 66 4 14 1 1
656 C# 61 4 14 1 1
656 F# 66 4 14 1 1
660 F# 66 12 14 1 1
660 F# 54 4 14 1 2
664 A# 58 4 14 1 2
668 C# 61 4 14 1 2
672 B 59 12 15 1 1
672 B 35 48 15 2 5
672 B 47 48 15 2 5
676 D 62 4 15 1 2
680 F# 66 4 15 1 2
684 B 59 4 15 1 2
688 D 62 4 15 1 2
692 F# 66 4 15 1 2
696 B 59 4 15 1 2
700 D# 63 4 15 1 2
704 F# 66 4 15 1 2
708 B 71 12 15 1 1
708 B 59 4 15 1 2
712 D# 63 4 15 1 2
716 F# 66 4 15 1 2
720 B 59 4 16 1 1
720 B# 72 4 16 1 1
720 B 35 12 16 2 5
720 B 47 12 16 2 5
724 E 64 4 16 1 1
724 B# 72 4 16 1 1
728 G 67 4 16 1 1
728 B# 72 4 16 1 1
732 B# 72 24 16 1 1
732 B 59 4 16 1 2
732 E 40 12 16 2 5
732 E 52 12 16 2 5
736 E 64 4 16 1 2
740 G 67 4 16 1 2
744 B 59 4 16 1 2
744 G 43 12 16 2 5
744 G 55 12 16 2 5
748 E 64 4 16 1 2
752 G 67 4 16 1 2
756 B 59 4 16 1 1
756 A# 70 12 16 1 2
756 E 40 12 16 2 5
756 E 52 12 16 2 5
760 E 64 4 16 1 1
764 G 67 4 16 1 1
768 B 59 4 17 1 1
768 B 71 4 17 1 1
768 B 35 48 17 2 5
768 B 47 48 17 2 5
772 D# 63 4 17 1 1
772 B 71 4 17 1 1
776 F# 66 4 17 1 1
776 B 71 4 17 1 1
780 B 71 24 17 1 1
780 B 59 4 17 1 2
784 D# 63 4 17 1 2
788 F# 66 4 17 1 2
792 B 59 4 17 1 2
796 D# 63 4 17 1 2
800 F# 66 4 17 1 2
804 B 59 4 17 1 1
804 B 71 12 17 1 2
808 D# 63 4 17 1 1
812 F# 66 4 17 1 1
816 B 59 4 18 1 1
816 B# 72 4 18 1 1
816 B 35 12 18 2 5
816 B 47 12 18 2 5
820 E 64 4 18 1 1
820 B# 72 4 18 1 1
824 G 67 4 18 1 1
824 B# 72 4 18 1 1
828 B# 72 24 18 1 1
828 B 59 4 18 1 2
828 E 40 12 18 2 5
828 E 52 12 18 2 5
832 E 64 4 18 1 2
836 G 67 4 18 1 2
840 B 59 4 18 1 2
840 G 43 12 18 2 5
840 G 55 12 18 2 5
844 E 64 4 18 1 2
848 G 67 4 18 1 2
852 B 59 4 18 1 1
852 A# 70 12 18 1 2
852 E 40 12 18 2 5
852 E 52 12 18 2 5
856 E 64 4 18 1 1
860 G 67 4 18 1 1
864 B 59 4 19 1 1
864 B 71 4 19 1 1
864 B 35 24 19 2 5
864 B 47 24 19 2 5
868 D# 63 4 19 1 1
868 B 71 4 19 1 1
872 F# 66 4 19 1 1
872 B 71 4 19 1 1
876 B 71 12 19 1 1
876 B 59 4 19 1 2
880 D# 63 4 19 1 2
884 F# 66 4 19 1 2
888 B 59 4 19 1 1
888 B 71 4 19 1 1
888 G# 32 24 19 2 5
888 G# 44 24 19 2 5
892 D 62 4 19 1 1
892 B 71 4 19 1 1
896 E# 65 4 19 1 1
896 B 71 4 19 1 1
900 B 71 12 19 1 1
900 B 59 4 19 1 2
904 D 62 4 19 1 2
908 E# 65 4 19 1 2
912 B 59 4 20 1 1
912 B 71 4 20 1 1
912 E# 29 24 20 2 5
912 E# 41 24 20 2 5
916 C# 61 4 20 1 1
916 B 71 4 20 1 1
920 G# 68 4 20 1 1
920 B 71 4 20 1 1
924 B 71 12 20 1 1
924 B 59 4 20 1 2
928 C# 61 4 20 1 2
932 G# 68 4 20 1 2
936 A 57 4 20 1 1
936 A 69 4 20 1 1
936 F# 30 24 20 2 5
936 F# 42 24 20 2 5
940 C# 61 4 20 1 1
940 A 69 4 20 1 1
944 F# 66 4 20 1 1
944 A 69 4 20 1 1
948 A 69 12 20 1 1
948 A 57 4 20 1 2
952 C# 61 4 20 1 2
956 F# 66 4 20 1 2
960 G 55 4 21 1 1
960 G 67 4 21 1 1
960 B 35 24 21 2 5
960 B 47 24 21 2 5
964 B 59 4 21 1 1
964 G 67 4 21 1 1
968 D 62 4 21 1 1
968 G 67 4 21 1 1
972 G 67 12 21 1 1
972 G 55 4 21 1 2
976 B 59 4 21 1 2
980 D 62 4 21 1 2
984 F# 54 4 21 1 1
984 F# 66 4 21 1 1
984 B# 36 24 21 2 5
984 B# 48 24 21 2 5
988 A 57 4 21 1 1
988 F# 66 4 21 1 1
992 D# 63 4 21 1 1
992 F# 66 4 21 1 1
996 F# 66 12 21 1 1
996 F# 54 4 21 1 2
1000 A 57 4 21 1 2
1004 D# 63 4 21 1 2
1008 C# 49 4 22 1 2
1008 C# 61 4 22 1 2
1008 C# 37 24 22 2 5
1012 F# 54 4 22 1 2
1012 C# 61 4 22 1 2
1016 A 57 4 22 1 2
1016 C# 61 4 22 1 2
1020 C# 49 4 22 1 1
1020 C# 61 12 22 1 2
1024 F# 54 4 22 1 1
1028 A 57 4 22 1 1
1032 C# 61 12 22 1 1
1032 C# 49 4 22 1 2
1032 C# 37 24 22 2 5
1036 F# 54 4 22 1 2
1040 G# 56 4 22 1 2
1044 C# 61 12 22 1 1
1044 C# 49 4 22 1 2
1048 E# 53 4 22 1 2
1052 G# 56 4 22 1 2
1056 F# 54 4 23 1 2
1056 F# 30 48 23 2 5
1056 F# 42 48 23 2 5
1060 A 57 4 23 1 2
1064 C# 61 4 23 1 2
1068 A 57 4 23 1 2
1072 C# 61 4 23 1 2
1076 F# 66 4 23 1 2
1080 C# 61 4 23 1 2
1084 F# 66 4 23 1 2
1088 A 69 4 23 1 2
1092 C# 73 9 23 1 1
1092 C# 61 4 23 1 2
1096 F# 66 4 23 1 2
1100 A 69 4 23 1 2
1101 C# 73 3 23 1 1
1104 C# 61 4 24 1 1
1104 C# 73 4 24 1 1
1104 E# 41 48 24 2 5
1104 E# 53 48 24 2 5
1108 G# 68 4 24 1 1
1108 C# 73 4 24 1 1
1112 B 71 4 24 1 1
1112 C# 73 4 24 1 1
1116 C# 73 24 24 1 1
1116 C# 61 4 24 1 2
1120 G# 68 4 24 1 2
1124 B 71 4 24 1 2
1128 C# 61 4 24 1 2
1132 G# 68 4 24 1 2
1136 B 71 4 24 1 2
1140 C# 61 4 24 1 1
1140 C# 73 9 24 1 2
1144 G# 68 4 24 1 1
1148 B 71 4 24 1 1
1149 C# 73 3 24 1 2
1152 C# 61 4 25 1 2
1152 C# 73 4 25 1 2
1152 F# 42 24 25 2 5
1152 F# 54 24 25 2 5
1156 F# 66 4 25 1 2
1156 C# 73 4 25 1 2
1160 A 69 4 25 1 2
1160 C# 73 4 25 1 2
1164 C# 61 4 25 1 1
1164 C# 73 12 25 1 2
1168 F# 66 4 25 1 1
1172 A 69 4 25 1 1
1176 B# 72 12 25 1 1
1176 B# 60 4 25 1 2
1176 D# 39 12 25 2 5
1176 D# 51 12 25 2 5
1180 F# 66 4 25 1 2
1184 A 69 4 25 1 2
1188 C# 73 12 25 1 1
1188 C# 61 4 25 1 2
1188 C# 37 12 25 2 5
1188 C# 49 12 25 2 5
1192 F# 66 4 25 1 2
1196 A 69 4 25 1 2
1200 D# 63 4 26 1 1
1200 D# 75 4 26 1 1
1200 B# 36 36 26 2 5
1200 G# 44 36 26 2 5
1200 B# 48 36 26 2 5
1204 F# 66 4 26 1 1
1204 D# 75 4 26 1 1
1208 G# 68 4 26 1 1
1208 D# 75 4 26 1 1
1212 D# 75 24 26 1 1
1212 D# 63 4 26 1 2
1216 F# 66 4 26 1 2
1220 G# 68 4 26 1 2
1224 D# 63 4 26 1 2
1228 F# 66 4 26 1 2
1232 G# 68 4 26 1 2
1236 D# 63 4 26 1 1
1236 D# 75 12 26 1 2
1236 B# 36 12 26 2 5
1236 G# 44 12 26 2 5
1236 B# 48 12 26 2 5
1240 F# 66 4 26 1 1
1244 G# 68 4 26 1 1
1248 E 64 4 27 1 2
1248 E 76 4 27 1 2
1248 C# 37 24 27 2 5
1248 G# 44 24 27 2 5
1248 C# 49 24 27 2 5
1252 G# 68 4 27 1 2
1252 E 76 4 27 1 2
1256 C# 73 4 27 1 2
1256 E 76 4 27 1 2
1260 E 64 4 27 1 1
1260 E 76 12 27 1 2
1264 G# 68 4 27 1 1
1268 C# 73 4 27 1 1
1272 D# 75 12 27 1 1
1272 D# 63 4 27 1 2
1272 F# 30 12 27 2 5
1272 F# 42 12 27 2 5
1276 F# 66 4 27 1 2
1280 A 69 4 27 1 2
1284 C# 73 12 27 1 1
1284 C# 61 4 27 1 2
1284 G 31 12 27 2 5
1284 G 43 12 27 2 5
1288 E 64 4 27 1 2
1292 A# 70 4 27 1 2
1296 B# 72 4 28 1 2
1296 G# 32 48 28 2 5
1296 G# 44 48 28 2 5
1300 B# 60 4 28 1 2
1304 D# 63 4 28 1 2
1308 G# 68 12 28 1 1
1312 B# 60 4 28 1 2
1316 D# 63 4 28 1 2
1320 A 69 12 28 1 1
1324 B# 60 4 28 1 2
1328 D# 63 4 28 1 2
1332 F# 66 12 28 1 1
1336 B# 60 4 28 1 2
1340 D# 63 4 28 1 2
1344 G# 32 48 29 2 5
1344 G# 44 48 29 2 5
1348 B# 60 4 29 1 1
1352 D# 63 4 29 1 1
1356 G# 56 12 29 1 2
1360 B# 60 4 29 1 1
1364 D# 63 4 29 1 1
1368 A 57 12 29 1 2
1372 B# 60 4 29 1 1
1376 D# 63 4 29 1 1
1380 F# 54 12 29 1 2
1384 B# 60 4 29 1 1
1388 D# 63 4 29 1 1
1392 E 52 4 30 1 2
1392 G# 32 48 30 2 5
1392 G# 44 48 30 2 5
1396 E 64 4 30 1 2
1400 G# 68 4 30 1 2
1404 C# 73 12 30 1 1
1408 E 64 4 30 1 2
1412 G# 68 4 30 1 2
1416 E 76 12 30 1 1
1420 E 64 4 30 1 2
1424 G# 68 4 30 1 2
1428 C# 73 12 30 1 1
1432 E 64 4 30 1 2
1436 G# 68 4 30 1 2
1440 G# 32 48 31 2 5
1440 G# 44 48 31 2 5
1444 E 52 4 31 1 2
1448 G# 56 4 31 1 2
1452 C# 61 12 31 1 1
1456 E 52 4 31 1 2
1460 G# 56 4 31 1 2
1464 E 64 12 31 1 1
1468 E 52 4 31 1 2
1472 G# 56 4 31 1 2
1476 C# 61 12 31 1 1
1480 E 52 4 31 1 2
1484 G# 56 4 31 1 2
1488 D# 51 4 32 1 1
1488 G# 32 48 32 2 5
1488 G# 44 48 32 2 5
1492 A 57 4 32 1 1
1496 F# 54 4 32 1 1
1500 B# 60 4 32 1 1
1504 A 57 4 32 1 1
1508 D# 63 4 32 1 1
1512 B# 60 4 32 1 1
1516 F# 66 4 32 1 1
1520 D# 63 4 32 1 1
1524 A 69 4 32 1 1
1528 F# 66 4 32 1 1
1532 B# 72 4 32 1 1
1536 E 52 4 33 1 1
1536 G# 32 48 33 2 5
1536 G# 44 48 33 2 5
1540 C# 61 4 33 1 1
1544 G# 56 4 33 1 1
1548 E 64 4 33 1 1
1552 C# 61 4 33 1 1
1556 G# 68 4 33 1 1
1560 E 64 4 33 1 1
1564 C# 73 4 33 1 1
1568 G# 68 4 33 1 1
1572 E 76 4 33 1 1
1576 C# 73 4 33 1 1
1580 G# 68 4 33 1 1
1584 C# 61 4 34 1 1
1584 G# 32 48 34 2 5
1584 G# 44 48 34 2 5
1588 G 67 4 34 1 1
1592 E 64 4 34 1 1
1596 A# 70 4 34 1 1
1600 G 67 4 34 1 1
1604 C# 73 4 34 1 1
1608 A# 70 4 34 1 1
1612 E 76 4 34 1 1
1616 C# 73 4 34 1 1
1620 G 79 4 34 1 1
1624 E 76 4 34 1 1
1628 A# 82 4 34 1 1
1632 F# 66 4 35 1 1
1632 G# 32 48 35 2 5
1632 G# 44 48 35 2 5
1636 B# 72 4 35 1 1
1640 A 69 4 35 1 1
1644 D# 75 4 35 1 1
1648 B# 72 4 35 1 1
1652 F# 78 4 35 1 1
1656 D# 75 4 35 1 1
1660 A 81 4 35 1 1
1664 F# 78 4 35 1 1
1668 B# 84 4 35 1 1
1672 A 81 4 35 1 1
1676 D# 87 4 35 1 1
1680 B# 84 4 36 1 1
1680 G# 32 48 36 2 5
1680 G# 44 48 36 2 5
1684 F# 78 4 36 1 1
1688 A 81 4 36 1 1
1692 D# 75 4 36 1 1
1696 F# 78 4 36 1 1
1700 B# 72 4 36 1 1
1704 D# 75 4 36 1 1
1708 A 69 4 36 1 1
1712 B# 72 4 36 1 1
1716 F# 66 4 36 1 1
1720 A 69 4 36 1 1
1724 D# 63 4 36 1 1
1728 F# 66 4 37 1 1
1728 G# 32 48 37 2 5
1728 G# 44 48 37 2 5
1732 B# 60 4 37 1 1
1736 D# 63 4 37 1 1
1740 A 57 4 37 1 1
1744 B# 60 4 37 1 1
1748 F# 54 4 37 1 1
1752 A 57 4 37 1 1
1756 D# 51 4 37 1 1
1760 D# 51 4 37 1 1
1760 F# 54 4 37 1 1
1764 C# 49 4 37 1 1
1768 F# 54 4 37 1 1
1772 F# 54 4 37 1 1
1772 A 57 4 37 1 1
1776 B# 48 4 38 1 1
1776 G# 32 48 38 2 5
1776 G# 44 48 38 2 5
1780 F# 54 4 38 1 1
1784 G# 56 4 38 1 1
1788 A 57 4 38 1 1
1792 G# 56 4 38 1 1
1796 F# 54 4 38 1 1
1800 D# 51 12 38 1 2
1804 F# 54 4 38 1 1
1808 A 57 4 38 1 1
1812 C# 49 12 38 1 2
1816 F# 54 4 38 1 1
1820 A 57 4 38 1 1
1824 B# 48 4 39 1 1
1824 G# 32 48 39 2 5
1824 G# 44 48 39 2 5
1828 F# 54 4 39 1 1
1832 G# 56 4 39 1 1
1836 A 57 4 39 1 1
1840 G# 56 4 39 1 1
1844 F# 54 4 39 1 1
1848 D 50 12 39 1 2
1852 F# 54 4 39 1 1
1856 A 57 4 39 1 1
1860 C# 49 12 39 1 2
1864 F# 54 4 39 1 1
1868 A 57 4 39 1 1
1872 B# 48 4 40 1 1
1872 G# 32 24 40 2 5
1872 G# 44 24 40 2 5
1876 F# 54 4 40 1 1
1880 G# 56 4 40 1 1
1884 A 57 4 40 1 1
1888 G# 56 4 40 1 1
1892 F# 54 4 40 1 1
1896 C# 49 4 40 1 1
1896 A 33 24 40 2 5
1896 A 45 24 40 2 5
1900 E 52 4 40 1 1
1904 C# 61 4 40 1 1
1908 C# 49 4 40 1 1
1912 E 52 4 40 1 1
1916 C# 61 4 40 1 1
1920 D# 51 4 41 1 1
1920 F# 30 24 41 2 5
1920 F# 42 24 41 2 5
1924 A 57 4 41 1 1
1928 C# 61 4 41 1 1
1932 D# 51 4 41 1 1
1936 A 57 4 41 1 1
1940 C# 61 4 41 1 1
1944 D# 51 4 41 1 1
1944 G# 32 24 41 2 5
1944 G# 44 24 41 2 5
1948 G# 56 4 41 1 1
1952 B# 60 4 41 1 1
1956 D# 51 4 41 1 1
1960 F# 54 4 41 1 1
1964 B# 60 4 41 1 1
1968 E 52 4 42 1 2
1968 C# 37 48 42 2 5
1968 C# 49 48 42 2 5
1972 G# 56 4 42 1 2
1976 C# 61 4 42 1 2
1980 G# 56 4 42 1 2
1984 C# 61 4 42 1 2
1988 E 64 4 42 1 2
1992 G# 56 4 42 1 2
1996 C# 61 4 42 1 2
2000 E 64 4 42 1 2
2004 G# 68 9 42 1 1
2004 G# 56 4 42 1 2
2008 C# 61 4 42 1 2
2012 E 64 4 42 1 2
2013 G# 68 3 42 1 1
2016 G# 56 4 43 1 1
2016 G# 68 4 43 1 1
2016 B# 36 48 43 2 5
2016 B# 48 48 43 2 5
2020 D# 63 4 43 1 1
2020 G# 68 4 43 1 1
2024 F# 66 4 43 1 1
2024 G# 68 4 43 1 1
2028 G# 68 24 43 1 1
2028 G# 56 4 43 1 2
2032 D# 63 4 43 1 2
2036 F# 66 4 43 1 2
2040 G# 56 4 43 1 2
2044 D# 63 4 43 1 2
2048 F# 66 4 43 1 2
2052 G# 56 4 43 1 1
2052 G# 68 9 43 1 2
2056 D# 63 4 43 1 1
2060 F# 66 4 43 1 1
2061 G# 68 3 43 1 2
2064 G# 56 4 44 1 1
2064 G# 68 4 44 1 1
2064 C# 37 24 44 2 5
2064 C# 49 24 44 2 5
2068 C# 61 4 44 1 1
2068 G# 68 4 44 1 1
2072 E 64 4 44 1 1
2072 G# 68 4 44 1 1
2076 G# 68 12 44 1 1
2076 G# 56 4 44 1 2
2080 C# 61 4 44 1 2
2084 E 64 4 44 1 2
2088 A 57 4 44 1 1
2088 A 69 4 44 1 1
2088 F# 30 24 44 2 5
2088 F# 42 24 44 2 5
2092 C# 61 4 44 1 1
2092 A 69 4 44 1 1
2096 F# 66 4 44 1 1
2096 A 69 4 44 1 1
2100 A 69 12 44 1 1
2100 A 57 4 44 1 2
2104 C# 61 4 44 1 2
2108 F# 66 4 44 1 2
2112 G# 56 4 45 1 2
2112 G# 68 4 45 1 2
2112 B 35 24 45 2 5
2112 B 47 24 45 2 5
2116 B 59 4 45 1 2
2116 G# 68 4 45 1 2
2120 E 64 4 45 1 2
2120 G# 68 4 45 1 2
2124 G# 56 4 45 1 1
2124 G# 68 12 45 1 2
2128 B 59 4 45 1 1
2132 E 64 4 45 1 1
2136 F# 66 12 45 1 1
2136 A 57 4 45 1 2
2136 B 35 24 45 2 5
2136 B 47 24 45 2 5
2140 B 59 4 45 1 2
2144 D# 63 4 45 1 2
2148 B 71 12 45 1 1
2148 A 57 4 45 1 2
2152 B 59 4 45 1 2
2156 D# 63 4 45 1 2
2160 G# 56 4 46 1 2
2160 E 64 4 46 1 2
2160 E 40 48 46 2 5
2160 E 52 48 46 2 5
2164 B 59 4 46 1 2
2164 E 64 4 46 1 2
2168 E 64 4 46 1 2
2172 B 59 4 46 1 2
2176 E 64 4 46 1 2
2180 G# 68 4 46 1 2
2184 B 59 4 46 1 2
2188 E 64 4 46 1 2
2192 G# 68 4 46 1 2
2196 B 71 9 46 1 1
2196 G# 56 4 46 1 2
2200 E 64 4 46 1 2
2204 G# 68 4 46 1 2
2205 B 71 3 46 1 1
2208 B 59 4 47 1 1
2208 B 71 4 47 1 1
2208 D# 39 48 47 2 5
2208 D# 51 48 47 2 5
2212 F# 66 4 47 1 1
2212 B 71 4 47 1 1
2216 A 69 4 47 1 1
2216 B 71 4 47 1 1
2220 B 71 24 47 1 1
2220 B 59 4 47 1 2
2224 F# 66 4 47 1 2
2228 A 69 4 47 1 2
2232 B 59 4 47 1 2
2236 F# 66 4 47 1 2
2240 A 69 4 47 1 2
2244 B 59 4 47 1 1
2244 B 71 9 47 1 2
2248 F# 66 4 47 1 1
2252 A 69 4 47 1 1
2253 B 71 3 47 1 2
2256 B 59 4 48 1 2
2256 B 71 4 48 1 2
2256 E 40 24 48 2 5
2256 E 52 24 48 2 5
2260 E 64 4 48 1 2
2260 B 71 4 48 1 2
2264 G# 68 4 48 1 2
2264 B 71 4 48 1 2
2268 B 59 4 48 1 1
2268 B 71 12 48 1 2
2272 E 64 4 48 1 1
2276 G# 68 4 48 1 1
2280 B# 72 12 48 1 1
2280 B# 60 4 48 1 2
2280 D# 39 12 48 2 5
2280 D# 51 12 48 2 5
2284 F# 66 4 48 1 2
2288 G# 68 4 48 1 2
2292 C# 73 12 48 1 1
2292 C# 61 4 48 1 2
2292 C# 37 12 48 2 5
2292 C# 49 12 48 2 5
2296 E 64 4 48 1 2
2300 G# 68 4 48 1 2
2304 D# 63 4 49 1 1
2304 D# 75 4 49 1 1
2304 B# 36 24 49 2 5
2304 B# 48 24 49 2 5
2308 F# 66 4 49 1 1
2308 D# 75 4 49 1 1
2312 G# 68 4 49 1 1
2312 D# 75 4 49 1 1
2316 D# 75 12 49 1 1
2316 D# 63 4 49 1 2
2320 F# 66 4 49 1 2
2324 G# 68 4 49 1 2
2328 E 64 4 49 1 1
2328 E 76 4 49 1 1
2328 C# 37 24 49 2 5
2328 C# 49 24 49 2 5
2332 G# 68 4 49 1 1
2332 E 76 4 49 1 1
2336 C# 73 4 49 1 1
2336 E 76 4 49 1 1
2340 E 76 12 49 1 1
2340 E 64 4 49 1 2
2344 G# 68 4 49 1 2
2348 C# 73 4 49 1 2
2352 D 62 4 50 1 1
2352 D 74 4 50 1 1
2352 F# 30 24 50 2 5
2352 F# 42 24 50 2 5
2356 F# 66 4 50 1 1
2356 D 74 4 50 1 1
2360 A 69 4 50 1 1
2360 D 74 4 50 1 1
2364 D 74 12 50 1 1
2364 D 62 4 50 1 2
2368 F# 66 4 50 1 2
2372 A 69 4 50 1 2
2376 B# 60 4 50 1 1
2376 B# 72 4 50 1 1
2376 G# 32 24 50 2 5
2376 G# 44 24 50 2 5
2380 F# 66 4 50 1 1
2380 B# 72 4 50 1 1
2384 G# 68 4 50 1 1
2384 B# 72 4 50 1 1
2388 B# 72 12 50 1 1
2388 B# 60 4 50 1 2
2392 F# 66 4 50 1 2
2396 G# 68 4 50 1 2
2400 C# 61 4 51 1 1
2400 C# 73 4 51 1 1
2400 C# 37 48 51 2 5
2400 C# 49 48 51 2 5
2404 E 64 4 51 1 1
2404 C# 73 4 51 1 1
2408 G# 68 4 51 1 1
2408 C# 73 4 51 1 1
2412 C# 73 24 51 1 1
2412 C# 61 4 51 1 2
2416 E 64 4 51 1 2
2420 G# 68 4 51 1 2
2424 C# 61 4 51 1 2
2428 E# 65 4 51 1 2
2432 G# 68 4 51 1 2
2436 C# 61 4 51 1 1
2436 C# 73 12 51 1 2
2440 E# 65 4 51 1 1
2444 G# 68 4 51 1 1
2448 C# 61 4 52 1 1
2448 D 74 4 52 1 1
2448 C# 37 12 52 2 5
2448 C# 49 12 52 2 5
2452 F# 66 4 52 1 1
2452 D 74 4 52 1 1
2456 A 69 4 52 1 1
2456 D 74 4 52 1 1
2460 D 74 24 52 1 1
2460 C# 61 4 52 1 2
2460 F# 42 12 52 2 5
2460 F# 54 12 52 2 5
2464 F# 66 4 52 1 2
2468 A 69 4 52 1 2
2472 C# 61 4 52 1 2
2472 A 45 12 52 2 5
2472 A 57 12 52 2 5
2476 F# 66 4 52 1 2
2480 A 69 4 52 1 2
2484 C# 61 4 52 1 1
2484 B# 72 12 52 1 2
2484 F# 42 12 52 2 5
2484 F# 54 12 52 2 5
2488 F# 66 4 52 1 1
2492 A 69 4 52 1 1
2496 C# 61 4 53 1 1
2496 C# 73 4 53 1 1
2496 C# 37 48 53 2 5
2496 C# 49 48 53 2 5
2500 E# 65 4 53 1 1
2500 C# 73 4 53 1 1
2504 G# 68 4 53 1 1
2504 C# 73 4 53 1 1
2508 C# 73 24 53 1 1
2508 C# 61 4 53 1 2
2512 E# 65 4 53 1 2
2516 G# 68 4 53 1 2
2520 C# 61 4 53 1 2
2524 E# 65 4 53 1 2
2528 G# 68 4 53 1 2
2532 C# 61 4 53 1 1
2532 C# 73 12 53 1 2
2536 E# 65 4 53 1 1
2540 G# 68 4 53 1 1
2544 C# 61 4 54 1 1
2544 D 74 4 54 1 1
2544 C# 37 12 54 2 5
2544 C# 49 12 54 2 5
2548 F# 66 4 54 1 1
2548 D 74 4 54 1 1
2552 A 69 4 54 1 1
2552 D 74 4 54 1 1
2556 D 74 24 54 1 1
2556 C# 61 4 54 1 2
2556 F# 42 12 54 2 5
2556 F# 54 12 54 2 5
2560 F# 66 4 54 1 2
2564 A 69 4 54 1 2
2568 C# 61 4 54 1 2
2568 A 45 12 54 2 5
2568 A 57 12 54 2 5
2572 F# 66 4 54 1 2
2576 A 69 4 54 1 2
2580 C# 61 4 54 1 1
2580 B# 72 12 54 1 2
2580 F# 42 12 54 2 5
2580 F# 54 12 54 2 5
2584 F# 66 4 54 1 1
2588 A 69 4 54 1 1
2592 C# 61 4 55 1 1
2592 C# 73 4 55 1 1
2592 C# 37 24 55 2 5
2592 C# 49 24 55 2 5
2596 E# 65 4 55 1 1
2596 C# 73 4 55 1 1
2600 G# 68 4 55 1 1
2600 C# 73 4 55 1 1
2604 C# 73 12 55 1 1
2604 C# 61 4 55 1 2
2608 E# 65 4 55 1 2
2612 G# 68 4 55 1 2
2616 C# 61 4 55 1 1
2616 C# 73 4 55 1 1
2616 F# 30 24 55 2 5
2616 F# 42 24 55 2 5
2620 F# 66 4 55 1 1
2620 C# 73 4 55 1 1
2624 A 69 4 55 1 1
2624 C# 73 4 55 1 1
2628 C# 73 12 55 1 1
2628 C# 61 4 55 1 2
2632 F# 66 4 55 1 2
2636 A 69 4 55 1 2
2640 B 59 4 56 1 2
2640 B 71 4 56 1 2
2640 D# 39 36 56 2 5
2640 D# 51 36 56 2 5
2644 F# 66 4 56 1 2
2644 B 71 4 56 1 2
2648 A 69 4 56 1 2
2648 B 71 4 56 1 2
2652 B 59 4 56 1 1
2652 B 71 24 56 1 2
2656 F# 66 4 56 1 1
2660 A 69 4 56 1 1
2664 B 59 4 56 1 1
2668 F# 66 4 56 1 1
2672 A 69 4 56 1 1
2676 B 71 12 56 1 1
2676 B 59 4 56 1 2
2676 E 40 12 56 2 5
2676 E 52 12 56 2 5
2680 E 64 4 56 1 2
2684 G# 68 4 56 1 2
2688 A 69 12 57 1 1
2688 A 57 4 57 1 2
2688 C# 37 12 57 2 5
2688 C# 49 12 57 2 5
2692 E 64 4 57 1 2
2696 G# 68 4 57 1 2
2700 A 69 12 57 1 1
2700 A 57 4 57 1 2
2700 D# 39 12 57 2 5
2700 D# 51 12 57 2 5
2704 D# 63 4 57 1 2
2708 F# 66 4 57 1 2
2712 G# 68 12 57 1 1
2712 G# 56 4 57 1 2
2712 B# 36 12 57 2 5
2712 B# 48 12 57 2 5
2716 D# 63 4 57 1 2
2720 F# 66 4 57 1 2
2724 G# 68 12 57 1 1
2724 G# 56 4 57 1 2
2724 C# 37 12 57 2 5
2724 C# 49 12 57 2 5
2728 C# 61 4 57 1 2
2732 E 64 4 57 1 2
2736 F# 54 4 58 1 2
2736 F# 66 4 58 1 2
2736 A 33 24 58 2 5
2736 A 45 24 58 2 5
2740 C# 61 4 58 1 2
2740 F# 66 4 58 1 2
2744 D# 63 4 58 1 2
2744 F# 66 4 58 1 2
2748 F# 54 4 58 1 1
2748 F# 66 12 58 1 2
2752 C# 61 4 58 1 1
2756 D# 63 4 58 1 1
2760 G# 68 12 58 1 1
2760 G# 56 4 58 1 2
2760 G# 32 12 58 2 5
2760 G# 44 12 58 2 5
2764 C# 61 4 58 1 2
2768 D# 63 4 58 1 2
2772 A 69 12 58 1 1
2772 A 57 4 58 1 2
2772 F# 30 12 58 2 5
2772 F# 42 12 58 2 5
2776 C# 61 4 58 1 2
2780 D# 63 4 58 1 2
2784 G# 56 4 59 1 1
2784 G# 68 4 59 1 1
2784 G# 32 24 59 2 5
2784 G# 44 24 59 2 5
2788 C# 61 4 59 1 1
2788 G# 68 4 59 1 1
2792 E 64 4 59 1 1
2792 G# 68 4 59 1 1
2796 G# 68 12 59 1 1
2796 G# 56 4 59 1 2
2800 C# 61 4 59 1 2
2804 E 64 4 59 1 2
2808 F# 54 4 59 1 1
2808 G# 68 4 59 1 1
2808 G# 32 24 59 2 5
2808 G# 44 24 59 2 5
2812 B# 60 4 59 1 1
2812 G# 68 4 59 1 1
2816 D# 63 4 59 1 1
2816 G# 68 4 59 1 1
2820 G# 68 12 59 1 1
2820 F# 54 4 59 1 2
2824 B# 60 4 59 1 2
2828 D# 63 4 59 1 2
2832 E 52 4 60 1 1
2832 C# 61 4 60 1 1
2832 G# 44 36 60 2 5
2832 C# 37 36 60 2 6
2836 G# 56 4 60 1 1
2836 C# 61 4 60 1 1
2840 C# 61 4 60 1 1
2844 G# 56 4 60 1 1
2848 C# 61 4 60 1 1
2852 E 64 4 60 1 1
2856 G# 56 4 60 1 1
2860 C# 61 4 60 1 1
2864 E 64 4 60 1 1
2868 G# 56 4 60 1 1
2868 C# 37 9 60 2 6
2868 G# 44 9 60 2 6
2872 C# 61 4 60 1 1
2876 E 64 4 60 1 1
2877 C# 37 3 60 2 6
2877 G# 44 3 60 2 6
2880 G# 56 4 61 1 1
2880 G# 44 36 61 2 5
2880 B# 36 36 61 2 6
2884 D# 63 4 61 1 1
2888 F# 66 4 61 1 1
2892 G# 56 4 61 1 1
2896 D# 63 4 61 1 1
2900 F# 66 4 61 1 1
2904 G# 56 4 61 1 1
2908 D# 63 4 61 1 1
2912 F# 66 4 61 1 1
2916 G# 56 4 61 1 1
2916 B# 36 9 61 2 6
2916 G# 44 9 61 2 6
2920 D# 63 4 61 1 1
2924 F# 66 4 61 1 1
2925 B# 36 3 61 2 6
2925 G# 44 3 61 2 6
2928 G# 56 4 62 1 1
2928 G# 44 36 62 2 5
2928 C# 37 36 62 2 6
2932 E 64 4 62 1 1
2936 C# 61 4 62 1 1
2940 G# 68 4 62 1 1
2944 E 64 4 62 1 1
2948 C# 73 4 62 1 1
2952 G# 68 4 62 1 1
2956 E 76 4 62 1 1
2960 C# 73 4 62 1 1
2964 G# 80 4 62 1 1
2964 C# 37 9 62 2 6
2964 G# 44 9 62 2 6
2968 E 76 4 62 1 1
2972 C# 73 4 62 1 1
2973 C# 37 3 62 2 6
2973 G# 44 3 62 2 6
2976 B# 72 4 63 1 1
2976 G# 44 36 63 2 5
2976 G# 32 36 63 2 6
2980 D# 75 4 63 1 1
2984 A 69 4 63 1 1
2988 B# 72 4 63 1 1
2992 F# 66 4 63 1 1
2996 A 69 4 63 1 1
3000 D# 63 4 63 1 1
3004 F# 66 4 63 1 1
3008 A 57 4 63 1 1
3012 A 57 12 63 1 1
3012 B# 60 12 63 1 2
3012 G# 32 9 63 2 6
3012 G# 44 9 63 2 6
3016 G# 56 4 63 1 3
3020 F# 54 4 63 1 3
3021 G# 32 3 63 2 6
3021 G# 44 3 63 2 6
3024 E 52 4 64 1 1
3024 C# 61 4 64 1 1
3024 G# 44 36 64 2 5
3024 C# 37 36 64 2 6
3028 E 64 4 64 1 1
3032 C# 61 4 64 1 1
3036 G# 68 4 64 1 1
3040 E 64 4 64 1 1
3044 C# 73 4 64 1 1
3048 G# 68 4 64 1 1
3052 E 76 4 64 1 1
3056 C# 73 4 64 1 1
3060 G# 80 4 64 1 1
3060 C# 37 9 64 2 6
3060 G# 44 9 64 2 6
3064 E 76 4 64 1 1
3068 C# 73 4 64 1 1
3069 C# 37 3 64 2 6
3069 G# 44 3 64 2 6
3072 B# 72 4 65 1 1
3072 G# 44 36 65 2 5
3072 G# 32 36 65 2 6
3076 D# 75 4 65 1 1
3080 A 69 4 65 1 1
3084 B# 72 4 65 1 1
3088 F# 66 4 65 1 1
3092 A 69 4 65 1 1
3096 D# 63 4 65 1 1
3100 F# 66 4 65 1 1
3104 A 57 4 65 1 1
3108 A 57 12 65 1 1
3108 B# 60 12 65 1 2
3108 G# 32 9 65 2 6
3108 G# 44 9 65 2 6
3112 G# 56 4 65 1 3
3116 F# 54 4 65 1 3
3117 G# 32 3 65 2 6
3117 G# 44 3 65 2 6
3120 E 52 4 66 1 1
3120 C# 61 4 66 1 1
3120 G# 44 24 66 2 5
3120 C# 37 24 66 2 6
3124 G# 56 4 66 1 1
3128 C# 61 4 66 1 1
3132 E 64 4 66 1 1
3136 C# 61 4 66 1 1
3140 G# 56 4 66 1 1
3144 C# 37 24 66 2 6
3144 C# 49 24 66 2 6
3148 E 52 4 66 1 1
3152 G# 56 4 66 1 1
3156 C# 61 4 66 1 1
3160 G# 56 4 66 1 1
3164 E 52 4 66 1 1
3168 C# 37 24 67 2 6
3168 G# 44 24 67 2 6
3172 C# 49 4 67 1 1
3176 E 52 4 67 1 1
3180 G# 56 4 67 1 1
3184 E 52 4 67 1 1
3188 C# 49 4 67 1 1
3192 C# 37 4 67 2 6
3192 G# 44 4 67 2 6
3196 C# 37 4 67 2 6
3196 C# 49 4 67 2 6
3200 C# 37 4 67 2 6
3200 G# 44 4 67 2 6
3204 C# 37 4 67 2 6
3204 E 40 4 67 2 6
3208 C# 37 4 67 2 6
3208 G# 44 4 67 2 6
3212 C# 37 4 67 2 6
3212 E 40 4 67 2 6
3216 C# 37 24 68 2 5
3240 E 52 24 68 1 1
3240 G# 56 24 68 1 1
3240 C# 61 24 68 1 1
3240 C# 37 24 68 2 5
3240 G# 44 24 68 2 5
3240 C# 49 24 68 2 5
3264 E 52 48 69 1 1
3264 G# 56 48 69 1 1
3264 C# 61 48 69 1 1
3264 C# 37 48 69 2 5
3264 G# 44 48 69 2 5
3264 C# 49 48 69 2 5
