E E E G G G C C C C C C C C C 
E E E G G G C C C E E E E E E 
E E E G G G C C C G G G G G G 
E E E G G G C C C C C C C C C 
E E E G G G C C C G G G G G G 
E E E G G G C C C E E E E E E 
E E E G G G C C C G G G G G G 
E E E G G G C C C E E E E E E 
E E E G G G C C C C C C C C C 
E E E G G G C C C E E E E E E 
E E E G G G C C C G G G G G G 
E E E G G G C C C C C C C C C 
E E E G G G C C C G G G G G G 
E E E G G G C C C E E E E E E 
E E E G G G C C C G G G G G G 
E E E G G G C C C E E E E E E 
F F F A A A C C C C C C C C C 
F F F A A A C C C F F F F F F 
F F F A A A C C C A A A A A A 
F F F A A A C C C C C C C C C 
F F F A A A C C C A A A A A A 
F F F A A A C C C F F F F F F 
F F F A A A C C C A A A A A A 
F F F A A A C C C F F F F F F 
F F F A A A C C C C C C C C C 
F F F A A A C C C F F F F F F 
F F F A A A C C C A A A A A A 
F F F A A A C C C C C C C C C 
F F F A A A C C C A A A A A A 
F F F A A A C C C F F F F F F 
F F F A A A C C C A A A A A A 
F F F A A A C C C F F F F F F 
G G G B B B C C C C C C C C C 
G G G B B B C C C G G G G G G 
G G G B B B C C C B B B B B B 
G G G B B B C C C C C C C C C 
G G G B B B C C C B B B B B B 
G G G B B B C C C G G G G G G 
G G G B B B C C C B B B B B B 
G G G B B B C C C G G G G G G 
G G G B B B C C C C C C C C C 
G G G B B B C C C G G G G G G 
G G G B B B C C C B B B B B B 
G G G B B B C C C C C C C C C 
G G G B B B C C C B B B B B B 
G G G B B B C C C G G G G G G 
G G G B B B C C C B B B B B B 
G G G B B B C C C G G G G G G 
E E E G G G C C C C C C C C C 
E E E G G G C C C G G G G G G 
E E E G G G C C C C C C C C C 
E E E G G G C C C E E E E E E 
E E E G G G C C C C C C C C C 
E E E G G G C C C B B B B B B 
E E E G G G C C C C C C C C C 
E E E G G G C C C B B B B B B 
E E E G G G C C C G G G G G G 
E E E G G G C C C F F F F F F 
E E E G G G C C C G G G G G G 
E E E G G G C C C F F F F F F 
E E E G G G C C C E E E E E E 
E E E G G G C C C C C C C C C 
E E E G G G C C C B B B B B B 
E E E G G G C C C G G G G G G 
F F F A A A C C C F F F F F F 
F F F A A A C C C A A A A A A 
F F F A A A C C C C C C C C C 
F F F A A A C C C F F F F F F 
F F F A A A C C C C C C C C C 
F F F A A A C C C A A A A A A 
F F F A A A C C C C C C C C C 
F F F A A A C C C A A A A A A 
F F F A A A C C C F F F F F F 
F F F A A A C C C A A A A A A 
F F F A A A C C C C C C C C C 
F F F A A A C C C F F F F F F 
F F F A A A C C C C C C C C C 
F F F A A A C C C A A A A A A 
F F F A A A C C C C C C C C C 
F F F A A A C C C A A A A A A 
G G G B B B D D D G G G G G G 
G G G B B B D D D B B B B B B 
G G G B B B D D D D D D D D D 
G G G B B B D D D G G G G G G 
G G G B B B D D D D D D D D D 
G G G B B B D D D B B B B B B 
G G G B B B D D D D D D D D D 
G G G B B B D D D B B B B B B 
G G G B B B D D D G G G G G G 
G G G B B B D D D B B B B B B 
G G G B B B D D D D D D D D D 
G G G B B B D D D E E E E E E 
G G G B B B D D D F F F F F F 
G G G B B B D D D E E E E E E 
G G G B B B D D D D D D D D D 
G G G B B B D D D B B B B B B 
G G G C C C E E E C C C C C C 
G G G C C C E E E E E E E E E 
G G G C C C E E E G G G G G G 
G G G C C C E E E C C C C C C 
G G G C C C E E E G G G G G G 
G G G C C C E E E E E E E E E 
G G G C C C E E E G G G G G G 
G G G C C C E E E E E E E E E 
A A A C C C F F F C C C C C C 
A A A C C C F F F F F F F F F 
A A A C C C F F F A A A A A A 
A A A C C C F F F C C C C C C 
A A A C C C F F F A A A A A A 
A A A C C C F F F F F F F F F 
A A A C C C F F F A A A A A A 
A A A C C C F F F F F F F F F 
G G G C C C E E E C C C C C C 
G G G C C C E E E E E E E E E 
G G G C C C E E E G G G G G G 
G G G C C C E E E C C C C C C 
G G G C C C E E E G G G G G G 
G G G C C C E E E E E E E E E 
G G G C C C E E E G G G G G G 
G G G C C C E E E E E E E E E 
G G G B B B D D D C C C C C C 
G G G B B B D D D D D D D D D 
G G G B B B D D D G G G G G G 
G G G B B B D D D B B B B B B 
G G G B B B D D D G G G G G G 
G G G B B B D D D D D D D D D 
G G G B B B D D D G G G G G G 
G G G B B B D D D D D D D D D 
E E E G G G C C C C C C C C C 
E E E G G G C C C E E E E E E 
E E E G G G C C C G G G G G G 
E E E G G G C C C C C C C C C 
E E E G G G C C C G G G G G G 
E E E G G G C C C E E E E E E 
E E E G G G C C C G G G G G G 
E E E G G G C C C E E E E E E 
C C C C C C 
G G G G G G G G G G G G 
B B B B B B B B B B B B 
G G G G G G G G G G G G 
F G F F F F F F F F F F 
E E E E E E E E E E E E 
C C C C C C C C C C C C 
B B B B B B B B B B B B 
C C C C C C C C C C C C 
C C C C C C C C C C C C 
C C C C C C E E E E E E G G G G G G C C C C C C C C C C C C C C C C C C 
C C C C C C E E E E E E G G G G G G C C C C C C C C C C C C C C C C C C 
C C C C C C E E E E E E G G G G G G C C C C C C C C C C C C C C C C C C 
C C C C C C E E E E E E G G G G G G C C C C C C C C C C C C C C C C C C 
C C C C C C E E E E E E G G G G G G C C C C C C C C C C C C C C C C C C 
C C C C C C E E E E E E G G G G G G C C C C C C C C C C C C C C C C C C 























































































































































































































































































































































































































































































































































































































































































































































































