A B 
A A C# C# 
A B E E 
C C E E 
A B E E 
A A B C# 
A B E E 
C C E E 
A B E E 
A A B C# 
A B E E 
C C E E 
E E E E 
A A C# C# 
C# C# E E 
C# C# E E 
D E E E 
A A C# C# 
E E E E 
E E G# G# 
D E E E 
A A C# C# 
E E E E 
E E G G 
D E E E 
A A C# C# 
E E E E 
E E G# G# 
E E E E 
A A A A 
A A E E 
E E 
Bb C 
A A F F 
Bb C C C 
Ab Ab C C 
Bb C C C 
A Bb F F 
Bb C C C 
Ab Ab C C 
Bb C C C 
A Bb F F 
Bb C C C 
Ab Ab C C 
C C F F 
A A F F 
A A C C 
A A C C 
A B 
A A A C C C E E 
A A C C C D E E 
E E 
A A A B C C D# D# 
A A A C C C E E 
A A C C C D E E 
E E 
A A A B C C D# D# 
A A B C C C E E 
A A A B C C E E 
A A B C C C D# D# 
A A C C C D D# D# 
B B D D E E G# G# 
B B D D E E G# G# 
E E F# F# 
E E G# G# 
A A 
G# G# 
A A 
B B 
A A C# C# 
A B E E 
C C E E 
A B E E 
A A B C# 
A B E E 
C C E E 
A B E E 
A A B C# 
A B E E 
C C E E 
E E E E 
A A C# C# 
C# C# E E 
C# C# E E 
D E E E 
A A C# C# 
E E E E 
E E G# G# 
D E E E 
A A C# C# 
E E E E 
E E G G 
D E 
C# C# 
E E 
C C E E E E G G 
B B D D E E G# G# 
A A A A C# C# E E 



