0	 0.0
1	 2.1291625896895083
2	 0.0
3	 0.0
4	 0.0
5	 0.0
6	 0.0
7	 0.0
8	 0.0
9	 0.7302967433402214
10	 0.0
11	 0.7302967433402214
12	 0.0
13	 0.0
14	 0.0
15	 0.0
16	 0.0
17	 0.8944271909999159
18	 0.0
19	 2.4765567494675613
20	 0.7302967433402215
21	 2.081665999466133
22	 1.1547005383792515
23	 0.7302967433402214
24	 0.8944271909999159
25	 2.4765567494675613
26	 0.0
27	 2.2803508501982757
28	 1.4832396974191324
29	 1.4605934866804429
30	 0.0
31	 0.3651483716701107
32	 1.0645812948447542
33	 2.129162589689508
34	 0.0
35	 2.2803508501982757
36	 1.4832396974191324
37	 1.4605934866804429
38	 0.0
39	 0.3651483716701107
40	 1.1547005383792515
41	 1.7888543819998317
42	 1.4605934866804429
43	 1.0954451150103321
44	 1.4832396974191324
45	 1.4832396974191324
46	 1.4832396974191324
47	 1.6733200530681511
48	 1.1547005383792515
49	 1.0645812948447542
50	 0.0
51	 0.0
52	 1.0645812948447542
53	 1.5110702608857516
54	 0.5773502691896257
55	 1.741646730348417
56	 0.0
57	 1.4832396974191324
58	 0.0
59	 1.6733200530681511
60	 0.8944271909999159
61	 0.7302967433402214
62	 2.0816659994661326
63	 2.0816659994661326
64	 2.556038601690775
65	 1.6733200530681511
66	 0.0
67	 0.7302967433402214
68	 0.0
69	 0.7302967433402212
70	 0.0
71	 1.591644851508443
72	 0.0
73	 1.4605934866804429
74	 0.0
75	 0.0
76	 0.0
77	 0.0
78	 0.0
79	 0.0
80	 0.0
81	 1.0645812948447542
82	 0.0
83	 1.0645812948447542
84	 0.0
85	 0.0
86	 0.0
87	 0.0
88	 0.0
89	 1.0645812948447542
90	 0.0
91	 1.4605934866804429
92	 1.4605934866804429
93	 2.033060090930254
94	 1.4605934866804429
95	 1.4832396974191326
96	 0.7302967433402215
97	 2.2803508501982757
98	 0.0
99	 2.0330600909302543
100	 0.0
101	 2.7446918466985206
102	 0.0
103	 2.74469184669852
104	 0.7302967433402214
105	 1.0
106	 0.7302967433402214
107	 2.8284271247461903
108	 2.9211869733608857
109	 1.4605934866804429
110	 3.5777087639996634
111	 2.9211869733608857
112	 0.7302967433402215
113	 1.4832396974191326
114	 1.4832396974191324
115	 2.129162589689508
116	 1.4605934866804429
117	 2.1291625896895083
118	 1.7888543819998317
119	 2.4765567494675613
120	 0.7302967433402214
121	 1.1547005383792515
122	 1.4605934866804429
123	 0.8944271909999159
124	 1.1547005383792515
125	 2.556038601690775
126	 0.7302967433402214
127	 1.4605934866804429
128	 1.1547005383792515
129	 1.2382783747337807
130	 0.8944271909999159
131	 1.0645812948447542
132	 1.1547005383792515
133	 0.7302967433402214
134	 0.8944271909999159
135	 1.0645812948447542
136	 1.0645812948447542
137	 1.4605934866804429
138	 0.0
139	 1.4605934866804429
140	 2.966479394838265
141	 2.9211869733608857
142	 2.9211869733608857
143	 1.4605934866804429
144	 0.8944271909999159
145	 2.0
146	 0.0
147	 2.966479394838265
148	 2.9211869733608857
149	 1.4605934866804429
150	 3.5777087639996634
151	 2.9211869733608857
152	 0.7302967433402215
153	 1.8257418583505538
154	 0.0
155	 0.8944271909999159
156	 0.0
157	 1.1547005383792515
158	 1.1547005383792515
159	 1.0645812948447542
160	 0.7302967433402214
161	 2.1291625896895083
162	 0.0
163	 1.2382783747337807
164	 1.1547005383792515
165	 0.7302967433402214
166	 0.7302967433402214
167	 0.7302967433402214
168	 1.1547005383792515
169	 0.8944271909999159
170	 0.0
171	 0.7302967433402214
172	 0.0
173	 0.7302967433402214
174	 0.0
175	 0.0
176	 0.0
177	 0.0
178	 0.0
179	 0.0
180	 0.0
181	 0.0
182	 0.0
183	 0.0
184	 0.0
185	 0.0
186	 0.0
187	 0.0
188	 0.0
189	 0.0
190	 0.0
191	 0.0
192	 0.0
193	 0.0
194	 0.0
195	 0.0
196	 0.0
197	 0.0
198	 0.0
199	 0.0
200	 0.0
201	 0.0
202	 0.0
203	 0.0
204	 0.0
205	 0.0
206	 0.0
207	 0.0
208	 0.0
209	 0.0
210	 0.0
211	 0.0
212	 0.0
213	 0.0
214	 0.0
215	 0.0
216	 0.0
217	 0.0
218	 0.0
219	 0.0
220	 0.0
221	 0.0
222	 0.0
223	 0.0
224	 0.0
225	 0.0
226	 0.0
227	 0.0
228	 0.0
229	 0.0
230	 0.0
231	 0.0
232	 0.0
233	 0.0
234	 0.0
235	 0.0
236	 0.0
237	 0.0
238	 0.0
239	 0.0
240	 0.0
241	 0.0
242	 0.0
243	 0.0
244	 0.0
245	 0.0
246	 0.0
247	 0.0
248	 0.0
249	 0.0
250	 0.0
251	 0.0
252	 0.0
253	 0.0
254	 0.0
255	 0.0
256	 0.0
257	 0.0
258	 0.0
259	 0.0
260	 0.0
261	 0.0
262	 0.0
263	 0.0
264	 0.0
265	 0.0
266	 0.0
267	 0.0
268	 0.0
269	 0.0
270	 0.0
271	 0.0
272	 0.0
273	 0.0
274	 0.0
275	 0.0
276	 0.0
277	 0.0
278	 0.0
279	 0.0
280	 0.0
281	 0.0
282	 0.0
283	 0.0
284	 0.0
285	 0.0
286	 0.0
287	 0.0
288	 0.0
289	 0.0
290	 0.0
291	 0.0
292	 0.0
293	 0.0
294	 0.0
295	 0.0
296	 0.0
297	 0.0
298	 0.0
299	 0.0
300	 0.0
301	 0.0
302	 0.0
303	 0.0
304	 0.0
305	 0.0
306	 0.0
307	 0.0
308	 0.0
309	 0.0
310	 0.0
311	 0.0
312	 0.0
313	 0.0
314	 0.0
315	 0.0
316	 0.0
317	 0.0
318	 0.0
319	 0.0
320	 0.0
321	 0.0
322	 0.0
323	 0.0
324	 0.0
325	 0.0
326	 0.0
327	 0.0
328	 0.0
329	 0.0
330	 0.0
331	 0.0
332	 0.0
333	 0.0
334	 0.0
335	 0.0
336	 0.0
337	 0.0
338	 0.0
339	 0.0
340	 0.0
341	 0.0
342	 0.0
343	 0.0
344	 0.0
345	 0.0
346	 0.0
347	 0.0
348	 0.0
349	 0.0
