0	 0.0
1	 0.0
2	 0.0
3	 0.0
4	 0.0
5	 0.0
6	 0.0
7	 0.0
8	 0.0
9	 0.0
10	 0.0
11	 0.0
12	 0.0
13	 0.0
14	 0.0
15	 0.0
16	 0.0
17	 0.0
18	 3.5777087639996634
19	 2.1291625896895083
20	 1.4605934866804429
21	 1.4605934866804429
22	 2.309401076758503
23	 2.309401076758503
24	 1.7888543819998317
25	 1.4605934866804429
26	 2.309401076758503
27	 2.309401076758503
28	 1.4605934866804429
29	 2.309401076758503
30	 0.0
31	 0.0
32	 1.4605934866804429
33	 2.1291625896895083
34	 2.309401076758503
35	 2.309401076758503
36	 1.4605934866804429
37	 2.309401076758503
38	 0.0
39	 0.0
40	 1.7888543819998317
41	 1.4605934866804429
42	 1.4605934866804429
43	 2.9211869733608857
44	 1.4605934866804429
45	 1.7888543819998317
46	 2.1291625896895083
47	 0.0
48	 1.4605934866804429
49	 1.7888543819998317
50	 1.4605934866804429
51	 1.4605934866804429
52	 1.4605934866804429
53	 0.0
54	 2.1291625896895083
55	 2.1291625896895083
56	 1.4605934866804429
57	 1.4605934866804429
58	 2.1291625896895083
59	 2.1291625896895083
60	 2.1291625896895083
61	 0.0
62	 0.0
63	 2.1291625896895083
64	 2.1291625896895083
65	 1.4605934866804429
66	 0.0
67	 0.0
68	 1.4605934866804429
69	 1.4605934866804429
70	 0.0
71	 0.0
72	 0.0
73	 0.0
74	 0.0
75	 0.0
76	 0.0
77	 0.0
78	 0.0
79	 0.0
80	 0.0
81	 0.0
82	 0.0
83	 0.0
84	 0.0
85	 0.0
86	 0.0
87	 0.0
88	 0.0
89	 0.0
90	 1.4605934866804429
91	 1.4605934866804429
92	 1.7888543819998317
93	 0.0
94	 2.1291625896895083
95	 0.0
96	 1.4605934866804429
97	 2.1291625896895083
98	 1.7888543819998317
99	 1.7888543819998317
100	 1.4605934866804429
101	 2.1291625896895083
102	 1.4605934866804429
103	 2.1291625896895083
104	 1.4605934866804429
105	 1.4605934866804429
106	 2.1291625896895083
107	 2.1291625896895083
108	 0.0
109	 0.0
110	 0.0
111	 0.0
112	 2.309401076758503
113	 0.0
114	 0.0
115	 1.4605934866804429
116	 0.0
117	 0.0
118	 0.0
119	 0.0
120	 2.1291625896895083
121	 2.1291625896895083
122	 1.4605934866804429
123	 2.1291625896895083
124	 1.4605934866804429
125	 2.966479394838265
126	 3.5777087639996634
127	 1.4605934866804429
128	 1.4605934866804429
129	 1.4605934866804429
130	 2.1291625896895083
131	 1.7888543819998317
132	 2.9211869733608857
133	 2.9211869733608857
134	 1.4605934866804429
135	 2.1291625896895083
136	 2.1291625896895083
137	 2.1291625896895083
138	 1.4605934866804429
139	 1.4605934866804429
140	 0.0
141	 0.0
142	 0.0
143	 0.0
144	 1.4605934866804429
145	 1.7888543819998317
146	 0.0
147	 0.0
148	 0.0
149	 0.0
150	 0.0
151	 0.0
152	 2.309401076758503
153	 0.0
154	 0.0
155	 0.0
156	 1.7888543819998317
157	 1.7888543819998317
158	 1.4605934866804429
159	 1.4605934866804429
160	 2.309401076758503
161	 1.7888543819998317
162	 0.0
163	 0.0
164	 1.4605934866804429
165	 0.0
166	 0.0
167	 2.1291625896895083
168	 2.1291625896895083
169	 1.4605934866804429
170	 0.0
171	 0.0
172	 1.4605934866804429
173	 1.4605934866804429
174	 0.0
175	 0.0
176	 0.0
177	 0.0
178	 0.0
179	 0.0
180	 0.0
181	 0.0
182	 0.0
183	 0.0
184	 0.0
185	 0.0
186	 0.0
187	 0.0
188	 0.0
189	 0.0
190	 0.0
191	 0.0
192	 0.0
193	 0.0
194	 0.0
195	 0.0
196	 0.0
197	 0.0
198	 0.0
199	 0.0
200	 0.0
201	 0.0
202	 0.0
203	 0.0
204	 0.0
205	 0.0
206	 0.0
207	 0.0
208	 0.0
209	 0.0
210	 0.0
211	 0.0
212	 0.0
213	 0.0
214	 0.0
215	 0.0
216	 0.0
217	 0.0
218	 0.0
219	 0.0
220	 0.0
221	 0.0
222	 0.0
223	 0.0
224	 0.0
225	 0.0
226	 0.0
227	 0.0
228	 0.0
229	 0.0
230	 0.0
231	 0.0
232	 0.0
233	 0.0
234	 0.0
235	 0.0
236	 0.0
237	 0.0
238	 0.0
239	 0.0
240	 0.0
241	 0.0
242	 0.0
243	 0.0
244	 0.0
245	 0.0
246	 0.0
247	 0.0
248	 0.0
249	 0.0
250	 0.0
251	 0.0
252	 0.0
253	 0.0
254	 0.0
255	 0.0
256	 0.0
257	 0.0
258	 0.0
259	 0.0
260	 0.0
261	 0.0
262	 0.0
263	 0.0
264	 0.0
265	 0.0
266	 0.0
267	 0.0
268	 0.0
269	 0.0
270	 0.0
271	 0.0
272	 0.0
273	 0.0
274	 0.0
275	 0.0
276	 0.0
277	 0.0
278	 0.0
279	 0.0
280	 0.0
281	 0.0
282	 0.0
283	 0.0
284	 0.0
285	 0.0
286	 0.0
287	 0.0
288	 0.0
289	 0.0
290	 0.0
291	 0.0
292	 0.0
293	 0.0
294	 0.0
295	 0.0
296	 0.0
297	 0.0
298	 0.0
299	 0.0
300	 0.0
301	 0.0
302	 0.0
303	 0.0
304	 0.0
305	 0.0
306	 0.0
307	 0.0
308	 0.0
309	 0.0
310	 0.0
311	 0.0
312	 0.0
313	 0.0
314	 0.0
315	 0.0
316	 0.0
317	 0.0
318	 0.0
319	 0.0
320	 0.0
321	 0.0
322	 0.0
323	 0.0
324	 0.0
325	 0.0
326	 0.0
327	 0.0
328	 0.0
329	 0.0
330	 0.0
331	 0.0
332	 0.0
333	 0.0
334	 0.0
335	 0.0
336	 0.0
337	 0.0
338	 0.0
339	 0.0
340	 0.0
341	 0.0
342	 0.0
343	 0.0
344	 0.0
345	 0.0
346	 0.0
347	 0.0
348	 0.0
349	 0.0
350	 0.0
