B Ab G D C
B G Ab D A
B G Ab D F#
B G Ab D F#
B F# D C
B F# D C
B F# D C
F# B D C
E B G F
E B G
E B G
E B G
B G E D A
B G E D A
B G E D A
B G E D A
C E G B
C G E
C G E
C G E
C G E
C G E Db
C G E
C G E
G C E Db
C G E
C G E D Db
C G E D Db
C G E Db
G C Db Ab D
C G A Bb Db
C A E Bb G
G D Ab Db B
Ab G B D C
G Ab D B C
G B D Ab
D F# B G Db
F# B G Db D
D F# B G Db
F# B G Db D
E D F# B F
E B G
E D B G
E B G D
E D Eb G B
D B E A G
A D Eb E B
B D C A G
C B D G E
C G E Db Ab
C E Db
C G E Db
C Bb G E Db
B C G E F#
C F# G E B
B F# C G E
E G F# F C
A E Bb B F#
A E Bb B F#
A Bb E B Db
A E B Db F#
A E C F Bb
E A Bb C B
E A Db F# D
G Db Ab A D
G B Ab D Eb
Ab D B G C
Ab B D G
A D B G E
B F# D G
F# B D Eb
B D F# A
B E D F# A
E B Ab
E B G Ab C
E B G Ab
E B G C Ab
B E Ab D G
A E B D G
A B E G D
B C D F# G
C Ab G
C E G Ab
C G E Db
E C G
F C A F#
F C A F#
F F# A
C F A F# Db
E B Ab
E B G C
E G B
E B G
D B A Ab E
D B A G Eb
D B A Ab E
D B A G F#
C Ab
C G E Ab
C E Db
E C G
F C A F#
F A C F#
F F# A
F A F# C
E B Ab
E B G C
E G B
E B G
C Ab E
C Db
C Ab E G
D A C E Eb
Ab G D B
G B D Ab C
G B D Ab
G B D Ab C
F# B D Db
F# B G D Db
F# B D G
F# B G D Db
E D B
E B G A F
E D B G
E B G D
E D G B
E B D G C
D A B Eb G
D B A E G
C E G D Db
C Db
C Db E
C E G
B C Ab G E
B C G
B G C E F#
B C G E
A E G C Bb
A E B Db C
A E B F C
A B E Db
A F Ab G F#
E C A B Db
E C B A Db
F# G A Db E
Ab D F# B G
G B D Eb Ab
Ab G A B Eb
Ab G A B D
D B G Bb Ab
F# B C D Db
F# A B D Db
B F# D A C
E B F C
E B G C
E G A B Bb
E B G C
E B D A G
D A B G F#
D Eb A B G
D B A G E
D C E B A
C G Db Ab E
C A G Ab Bb
C E G Db F
F E C G Db
F C A F#
F A C F#
F A F# Bb C
E F C F# G
E B G Ab C
E B A G F
E B G Ab C
E A B G D
D B A E G
D B A G Eb
B D A E G
B D A Eb G
C Ab G E
C E Db G Ab
C G Ab E Db
C G E Db Ab
C G Ab E Db
C G E Db
C G Ab E Db
C G Db Ab E
Ab G D B Eb
Ab G D B Eb
Ab B G D
B D Ab G Eb
G F# Db B D
G F# Db B A
G B F# Db D
B G F# D Db
E B G
E B G
E B D G
E B D G
A E G D B
A E B D G
A E B D G
A B E D G
C Ab
C G E Ab
C E Db
C E G Db
B Ab F# G C
B G E C F#
B E F# G C
B E F# G C
A E B F# G
A Bb E Db
A E B Db
A E F F# Ab
A E Bb
E C B A F#
G F# Db E A
G F# Db A E
Ab G D B Eb
G Ab B D Eb
Ab G B D
Ab G B D Eb
F# G Db B D
G F# Db B
G F# B D Db
G F# B D Db
E B G C
E B G F
E D B G A
E B D G F#
G A D B F
D B G E A
D B A G Eb
D B Eb G A
C E Eb D G
C G E Ab
C A Db E G
E C G F
F# F C Db A
F# F C A Db
F# C F A Db
F# C D Eb F
E B F# G C
E B C G
E B G C A
B E C G
D B C Eb G
D B Eb G A
D B G A Eb
B D Eb A G
C D Eb G E
C E G D B
C A G Db E
C D G Eb E
C D E Db G
C D G Eb E
C D Db G E
C G A D Ab
C Db D G Ab
C G Db D E
C G A Db Ab
C G D Ab E
G Db F# C D
G Db F# D
G Db A Bb Ab
G Db F# E C
Ab F# Db D E
Ab Eb D G
Ab A D Eb F
Ab D G Eb E
Ab G E D F
A E F
A E Bb F F#
A E Bb
Bb B E A C
C F# G E B
C B F# G E
C F# G E B
C B F# E G
C D G E Bb
C B E D A
C E G D A
C B E A G
C E B Eb G
C E B Db G
C B E G F#
C B E Eb Db
C B E Db F#
C B E Db F#
C B E Db F#
C B E Db F#
C B E F# G
C B E G Db
C B E F# G
C B E F# D
C B E F# Eb
C B E F# D
C B E F# Eb
C B E F# D
C B E F# Eb
C B E F# D
B C F# E Eb
B C E D Eb
C D E B G
C D E G
C D E B G
C D E G
C D B E G
C D E G
C D B E G
C D E G
D B E A Ab
D E C Ab
D B E A Ab
D E C Ab F#
D B E A F#
D E C F# A
D B E A F#
D E C F# A
E B Ab F Eb
E Ab B C D
E B Ab F Eb
E Ab B C D
E B Ab F Eb
E Ab C B D
E B Ab F Eb
E Ab C B D
B F A C E
F C A E D
B F A C E
F C A E D
Ab D F C A
Ab B F C A
Ab D F C A
Ab F B C A
E Ab B G D
Ab B G D C
Ab F C G B
Ab B G D C
Ab B G E D
Ab G B C E
Ab Bb B E D
Ab A B C E
Bb Ab G A E
A Ab G E C
Bb B A E Ab
A Ab C E Db
Ab B C A
E Ab B C
B Ab A C Bb
B C D E Ab
C G D F E
C A D G Ab
C Bb D Ab Db
C D A Db Ab
E Ab D B F
E B Ab F
E C B Ab F
E B Ab C
E B Ab C
E B C Ab A
E B C Ab A
E B Ab C F
E F Ab C
E Ab C
E Ab C
E Ab C
E Ab C
E Ab C
E Ab C
E Ab C A
E Ab A C
E A F Bb Ab
E A F Bb Ab
E A F Bb Ab
E A F Bb Ab
E A F Bb Ab
E A F Bb Ab
E A F Bb Ab
E A F Bb Ab
E A F Bb Ab
E A F Ab Bb
E B A Ab F
E F Bb Ab A
A E F# F Ab
A Bb F# E F
A D F# F Db
A D F# F E
A E F# D F
A D Ab E F#
A D E F F#
A B E F# F
E B Ab A F
B A Bb Eb Ab
Ab D Db B A
C Ab B A E
B F# A Db G
B A F# Db C
B A F# Db Eb
B F# A Eb C
E B Ab C A
E B A Ab F#
B D Ab A Db
C B Ab E F#
B F# Db A Eb
B F A Eb F#
B F# Db A Eb
B F# A F Eb
B Eb F# F A
B Eb F# F G
B Eb F# F
B Eb F F#
E B Ab C
E B Ab Eb C
D B Ab Db E
B C E F# Ab
E B Ab
E B Ab Eb C
D B Ab Db E
B C E F# Ab
E B Ab
E B Ab Eb C
B E D Ab Db
B E F# Ab Eb
D E B Ab Eb
E D B Ab A
A B Ab E
A E B D Ab
E A B Ab D
A B Ab E
A E Bb B Ab
E A B Ab
E B Ab
E Eb B Ab F#
D B Db Ab E
C B Ab E Db
B A Eb F# C
B A F# Eb Db
Eb E F# A Db
F# A Eb G Db
E Ab B A
E B Ab Bb
D B Db Ab E
B C Ab E F#
B A F# Eb Db
B A F# Eb Db
B A F# Eb Db
F# B A Eb Db
C E G Ab B
C E B G Ab
C E B G Bb
C E B Ab G
C G E
C E G Ab Bb
C D E
C G E D Bb
B G C D Ab
B G D F F#
B G D F E
B G D F
B G C F D
G B D
D G B E F
G D B Ab Eb
D G F# Ab Eb
D F# A Bb C
D F# A C Eb
D F# A C Bb
D F# A C Bb
D F# Bb A Eb
D F# A G C
D F# G A Bb
A E D F# Db
A E Db B G
E A Db G Bb
A E Db B G
A E Db G B
A E Db Ab B
A E Db Ab B
A E Db B Bb
E Ab A B Db
E B Ab Bb F
E Ab B Bb D
B E Ab D Db
E B Ab D C
E Ab B D C
E Ab B Bb A
E B Ab C D
E C B Ab D
C E B G Ab
C E Ab G Db
C E B Ab G
C B E Ab Bb
C E G Bb Ab
C
C F# G Bb E
C E G B D
D G B F
D G B A F
D G B
D G B A F
G D B F A
D G A B F
G D B A F
G D B E Ab
D F# A Bb C
D F# A Bb
D F# A G Bb
D F# A Bb
D F# A Bb C
D F# A Bb C
D G A F# Eb
D F# A Bb C
A F# Db E G
A Db G E F#
A Db F# E Bb
A E Db G B
A E Db B Ab
E A Db B Ab
A E B Db Ab
A E B Db Ab
E B Ab D Bb
E B Ab D
E B Ab D
D F# A C
C E G
C G Bb
C E Bb G
D A F#
G D B F Db
G B D C Ab
B G D Ab
G B D C Ab
F# B D
F# B G D C
F# B D G
F# B D G C
E B D G
E B G
E D B G
E B G D
D A B F# G
D B A G C
B D A G F#
D B A G E
C Db Ab G E
C G E A Ab
C Ab G E Db
C G E A Ab
C B F# Ab E
B C G E A
C B A F# Ab
B C G E A
A E G Bb F#
A C B E Db
A C E B Bb
A E G B F#
A C B E Bb
E A C B Db
E A Bb Db F#
G F# A Db E
Ab G D B Eb
G B Ab A F#
Ab G D B Eb
G D Ab B A
F# G Db D B
F# B G D A
G F# D B Db
F# G B D A
E B C G F
E B A G D
E B D G C
E G B A D
B D A G Eb
D B Eb G E
D B Eb G A
D B E G A
C E B Ab D
G C A F Db
C E Db
C G A E Ab
F# F C Db A
F F# A C Db
F# C Db E A
F F# C A G
A F# E Db Bb
E B A G C
E B G Bb F
B E C G A
E D C B G
D B G Eb A
D B A Eb G
B D Eb A G
C Eb E D G
C G D E B
E G C A Ab
E C G D Eb
E G C Ab F
E C G D Eb
G C A Ab F
G C Ab A E
C G E D Db
C E G D Db
C G A E Db
C Db E G
C Db A F G
G Db F# D
G F# Db D
G F# Db D
G F# Db D
Ab G D A Eb
Ab G D Eb
Ab D A Eb G
Ab G D
C A E Bb F#
C A B E Bb
C A E F# Bb
C B A E F#
C B F# Eb G
C B A F# G
C B A F# G
C B F# D Eb
C B F# Eb
B C F# Db D
B C F# Eb
B C F# D Eb
B C D A Eb
B C D Eb A
B C A F# D
B C D A Eb
C D Eb E G
C D E Eb G
C D Eb B E
C D E Eb G
C D B G E
C D E G
C B D E G
C D E G
D B E A F#
D E C A F#
D B E A F#
D E C A F#
C B E G F#
C E D G
C B E G F#
C E D G Bb
D B A F# E
D C E F# A
D B A F# E
D A C Db F
D B A F# E
D C E F# A
D B A E F#
D C E F# A
B E Ab Eb Bb
E C Ab B D
B E Ab Eb Bb
E C Ab B D
D B A F# C
D C E A F#
D B A F# C
D C E A F#
E B Ab Eb Bb
E C Ab B D
E B Ab Eb Bb
E C Ab B D
E B Ab Eb Bb
E C Ab B D
E B Ab C Bb
E C Ab B D
F B A C E
F C A E Db
F B A C E
F C A E Db
Ab D F C A
Ab F C A Db
Ab D F C A
Ab F C A Db
E Ab B G D
Ab B G C D
Ab C F G B
Ab B G C D
Ab B G E D
Ab C
Ab Bb B E D
Ab A D B E
Ab Bb C G A
A Ab G B E
Bb B C A Ab
A B Ab C E
Ab C B G A
C E Ab B D
C Ab A B E
C D Ab B F#
C F G D Ab
D C A Ab G
C D Bb A Db
D C A Db F
D E Ab Eb Bb
E B Ab F


B E Ab F# C
E B Ab D Eb
E B Ab D Eb
E B Ab D Eb
E Ab B D Eb
B E Ab D F#
E B Ab Eb D
E B Ab F# C
B E Ab F# D
B E Ab F#
E B Ab Eb D
Ab B E D F#