1	 0.0
3	 0.45485530509283656
4	 0.019564349447035057
5	 0.05668965253321345
6	 0.9379056560908566
7	 0.10471529247895256
8	 0.8061862178478973
9	 0.2579385408620364
10	 0.3540314479697144
11	 0.06047546350423372
12	 0.00184162688369649
13	 0.8125
14	 0.049306090567001304
15	 0.0
18	 0.039452421135242444
19	 0.7572478777137632
20	 0.0
23	 -1.1102230246251565E-16
24	 0.0
26	 0.012491565525056314
27	 0.015877081724072872
28	 0.0
35	 0.13511542057450415
36	 0.1685556841053405
37	 0.04996483962959036
38	 0.3285014148574912
39	 0.6714985851425088
40	 0.19381378215210282
41	 0.9419417382415922
42	 0.6386750490563073
43	 0.7567544895283753
44	 0.0015975426908533263
45	 0.9261547074672685
46	 0.3634000063560812
47	 0.49999999999999994
48	 0.11538461538461542
49	 0.16091827667310105
50	 0.3084397261623288
51	 0.8162167978824673
52	 0.01601266972311327
53	 0.009632675369446564
54	 0.0
57	 0.19381378215210276
58	 0.13242647794264745
59	 0.39807764281245833
60	 0.06276219988183102
61	 0.8766926505794959
62	 0.05378358920982196
63	 0.012955826898495726
64	 0.44518387379331065
65	 0.049925601388265684
66	 0.2661464133266287
67	 0.30235764623947625
68	 0.9841229182759271
69	 0.008292448919610618
70	 0.002868641000503158
71	 0.0
73	 0.11764705882352938
74	 0.8108411855707973
75	 0.7679129406169101
76	 0.06250000000000006
77	 0.04072067322815415
78	 0.8952847075210474
79	 0.49999999999999994
80	 0.18127028886132718
81	 0.0
85	 0.056649828510468236
86	 0.25304270971318443
87	 0.5600480576769077
88	 0.11427286185541141
89	 0.23473805771216294
90	 0.6250000000000006
91	 0.6249999999999996
92	 0.0
94	 0.13403747264430005
95	 0.0
98	 0.09607988960721181
99	 0.17594053804321513
100	 0.6459685520302855
101	 0.4757035234625068
102	 0.1776708143898479
103	 0.08139082086053928
104	 0.22656562919013468
105	 0.6714985851425088
106	 0.05776800574177421
107	 0.46814705053514843
108	 0.10471529247895256
109	 0.0
110	 0.625
111	 0.5083148763154718
112	 0.02137070018941789
113	 0.7515101075179156
114	 0.01753969944281264
115	 0.5653435567695326
116	 0.046752896113318954
117	 0.93939154245836
118	 0.2733768696331133
119	 0.037702433223277654
120	 0.7958813998853842
121	 0.047537302424635
122	 0.6504142093990467
123	 0.16104615965834979
124	 0.11020308360710218
125	 0.09627093355703376
126	 0.5994854798642109
127	 0.14078939594645018
128	 0.0
130	 0.229137274585259
131	 0.029326014045500615
132	 0.09534381170212802
133	 0.03821617301279995
134	 0.40846977039603605
135	 0.07915121168772898
136	 0.7689062534888997
137	 0.15046573540257951
138	 0.08286011720505343
139	 0.13072552706200186
140	 0.3285014148574912
141	 0.22131479914342322
142	 0.3749999999999999
143	 0.13971165393855395
144	 0.19897749503569795
145	 0.0
147	 0.11427286185541136
148	 0.8317428417066599
149	 0.010349516032813255
150	 0.02415569592130462
151	 0.11365835272255126
152	 0.147880908993829
153	 0.22591936896655335
154	 0.7420614591379635
155	 0.25092081344184824
156	 0.18915881442920274
157	 0.90625
158	 0.04996483962959036
159	 0.001440510051948396
160	 0.3100098510856627
161	 0.402332447991048
162	 0.06683728504182446
163	 0.5336336396998156
164	 0.9200840252084028
165	 0.625
166	 0.15625
167	 0.2922831089723762
168	 0.0
169	 0.07803923247763506
170	 0.033747595879843106
171	 0.8397911347683684
172	 0.22648736719240287
173	 0.0407206732281542
174	 0.19642857142857145
175	 0.4699939981993998
176	 0.0
178	 0.0665774421694647
179	 0.05530470403882165
180	 0.6550434182365104
181	 0.15996543274564762
182	 0.4003520417001374
183	 0.126227499201799
184	 0.5588235294117647
185	 0.20203466741460402
186	 0.7382015318662919
187	 0.03500944502472281
188	 0.6148198316929615
189	 0.10471529247895256
190	 0.0
194	 0.625
195	 0.061470990346485455
196	 0.1411442176479909
197	 0.2224951737871419
198	 0.0598392246551564
199	 0.8630921887069453
200	 0.5677907680683302
201	 0.03770243322327771
202	 0.5303204368357445
203	 0.1302415781454338
204	 0.004859201783950051
205	 0.261634352688602
206	 0.3301584448783105
207	 0.03406292724314075
208	 0.0
209	 0.2579385408620364
210	 0.0
212	 0.0665774421694647
213	 0.5262552515755251
214	 0.1998774760006095
215	 0.49999999999999994
216	 0.1938137821521027
217	 0.0625
218	 0.23569830564618421
219	 0.3761789009064856
220	 0.3285014148574912
221	 0.9607727832554183
222	 0.10686919618020035
223	 0.36793236405115637
224	 0.5
225	 1.0
226	 0.3285014148574912
227	 0.3843756774842799
228	 0.10705165013110557
229	 0.09978021113769892
230	 0.18493698109369777
231	 0.8001225239993905
232	 0.06678834900383446
233	 0.2579385408620365
234	 0.015877081724072872
235	 0.07679710934447437
236	 0.41774128717271025
237	 0.0
240	 0.6813690625275028
241	 0.7426813358485378
242	 0.44518387379331065
243	 0.33145003438418946
244	 0.03364234306896402
245	 0.7573425063274893
246	 0.8952847075210474
247	 0.8061862178478971
248	 0.19381378215210282
249	 0.625
250	 0.45712535371437274
251	 0.06678834900383446
252	 0.24948400357899314
253	 -1.1102230246251565E-16
254	 0.8863636363636365
255	 0.0
257	 0.25
258	 0.3363365823230057
259	 0.04992560138826574
260	 0.3749999999999999
261	 0.05463822858487677
262	 0.8295454545454546
263	 -1.1102230246251565E-16
264	 0.1938137821521027
265	 0.14078939594645018
266	 0.12255572393079578
267	 0.5324962691610396
268	 0.004170029114466789
269	 0.34802947741946233
270	 0.19998337812005268
271	 0.0
273	 0.584204133713576
274	 0.31000985108566276
275	 0.06209434390914331
276	 0.7258769757263127
277	 0.08928571428571436
278	 0.23208705938308988
279	 0.0
280	 0.1136583527225512
281	 0.2705842661294382
282	 -1.1102230246251565E-16
283	 0.625
284	 0.034366926333582515
285	 0.018015540976434152
286	 0.2279411764705882
287	 0.0
288	 0.8675735220573526
289	 0.15007289388811745
290	 0.27337686963311336
291	 0.13556550657216876
292	 0.0
294	 0.14982535413211923
295	 0.0
297	 0.3285014148574912
298	 0.5588235294117647
299	 0.8823529411764706
300	 0.05668965253321345
301	 0.0
303	 0.06250000000000006
304	 0.15412588091908358
305	 0.27328867184062133
306	 0.31863093747249704
307	 0.25793854086203655
308	 0.2661464133266286
309	 0.6636634176769942
310	 0.3363365823230058
311	 0.02284324228973622
312	 0.019564349447035057
313	 0.24197657672893003
314	 0.18455336592797755
315	 0.31863093747249704
316	 0.16104615965834979
317	 0.12396447650238324
318	 0.21729860290391217
319	 0.11304700502405246
320	 0.37333990072377526
321	 0.06209434390914337
322	 0.6419904585617662
323	 0.07618545526557752
324	 0.27152307655814656
325	 0.2960145731974314
326	 0.1167945774378879
327	 0.5187734815370659
328	 0.19605365288558207
329	 0.01990397119039672
330	 0.06631751781281603
331	 0.2992612328632585
332	 0.334867841388504
333	 0.16016082123920072
334	 0.5428746462856272
335	 0.6636634176769942
336	 0.06886860766507913
337	 0.099217084559451
338	 0.4496972727134042
339	 0.0
342	 0.3285014148574912
343	 0.6575315094531511
344	 0.25793854086203644
345	 0.1875
346	 0.8952847075210475
347	 0.6714985851425088
348	 0.0
349	 0.4885920838100931
350	 0.034366926333582515
351	 0.14078939594645018
352	 0.05643726913413499
353	 0.01159852023690322
354	 0.37499999999999994
355	 0.375
356	 0.6714985851425088
357	 0.18915881442920274
358	 0.9576931780273396
359	 0.23569830564618427
360	 0.32883670077963556
361	 0.17110324275986394
362	 0.025462220451983153
363	 0.7469572902868156
364	 0.1096876251001001
365	 0.016908228620619026
366	 0.20346639170059688
367	 0.375
368	 0.1307255270620018
369	 0.5454545454545454
370	 0.0
372	 1.1102230246251565E-16
373	 0.27058426612943826
374	 0.0
377	 0.25793854086203644
378	 0.0
379	 0.03422417904681291
380	 0.07221819434536608
381	 0.1569274627918283
382	 0.044645538618165725
383	 0.7411314131486805
384	 0.12719943246033705
385	 0.15328857811048408
386	 0.1162700932891107
387	 0.0
388	 0.9975526040028331
389	 0.034062927243140806
390	 0.061470990346485455
391	 0.3285014148574912
392	 0.6714985851425088
393	 0.375
394	 0.032562320869436334
395	 0.0
396	 0.047304090654928854
397	 0.18915881442920274
398	 0.90625
399	 0.01885022909616141
400	 0.05741147344114694
401	 0.02837889085810069
402	 0.13971165393855395
403	 0.05916898497761297
404	 0.4747676333655316
405	 0.08417225504725417
406	 0.03893103405383341
407	 0.03328832152104838
408	 0.8692744729379982
409	 0.13072552706200186
410	 0.11877181606068904
411	 0.1110066973922505
412	 0.22185304441670445
413	 0.8823529411764706
414	 0.11764705882352927
415	 0.0
417	 0.04072067322815409
418	 0.21119223266922305
419	 0.0
421	 0.13242647794264745
422	 0.19381378215210276
423	 0.0
424	 0.8952847075210475
425	 0.011205099714149458
426	 0.2921257050810796
427	 0.2233349999237228
428	 0.35864930145195606
429	 0.14291617961383057
430	 0.6266600992762248
431	 0.3285014148574912
432	 0.8952847075210474
433	 0.25793854086203644
434	 0.22049150281252627
435	 0.15767340155927118
436	 0.2213147991434231
437	 0.3285014148574912
438	 0.7948839123097942
439	 0.0
441	 0.8675735220573526
442	 0.05668965253321345
443	 0.2616343526886019
444	 0.5
445	 0.8952847075210474
446	 0.062499999999999944
447	 0.13606986787869474
448	 0.06206928720096666
449	 0.3431283660439719
450	 0.43549414418223253
451	 0.14982535413211934
452	 0.17653722848376807
453	 0.9500351603704096
454	 0.0625
455	 0.3749999999999999
456	 0.7411314131486805
457	 0.09052881586751482
458	 0.6197965893758539
459	 0.0
461	 0.625
462	 0.25
463	 0.4604715292478952
464	 0.25793854086203655
465	 0.0
467	 0.062499999999999944
468	 0.37499999999999994
469	 0.0
471	 0.04593931243236887
472	 0.5466252404120157
473	 0.3058549313211698
474	 0.9385290096535146
475	 0.0
476	 1.0
477	 0.10471529247895262
478	 0.0
479	 0.10471529247895262
480	 0.44264606653235955
481	 0.0
483	 0.09718538335281901
484	 0.902814616647181
485	 0.004101231261920968
486	 0.0
487	 0.2641487966130669
488	 0.27702935374603876
489	 0.8952847075210475
490	 0.0
493	 -1.1102230246251565E-16
494	 0.375
495	 0.3749999999999999
496	 0.10471529247895245
497	 0.43220923193166993
498	 0.16104615965834979
499	 0.8952847075210474
500	 0.1938137821521027
501	 0.0
502	 0.25793854086203644
503	 0.46047152924789525
504	 0.3285014148574912
505	 0.2308472890380226
506	 0.06889625392175275
507	 0.06889625392175264
508	 0.0
510	 0.11764705882352927
511	 0.030331781686137815
512	 0.7165063509461097
513	 0.10471529247895262
514	 0.0
526	 0.19851130586320875
527	 0.15624999999999994
528	 0.0
530	 0.4234534455380256
531	 0.44500733186699254
532	 0.0
534	 0.3615220726482506
535	 0.3906250000000001
536	 0.06250000000000006
537	 0.8061862178478971
538	 0.19381378215210276
539	 0.1562499999999999
540	 0.3109765212010708
541	 0.01725547771607422
542	 0.7538386642453212
543	 0.018015540976434152
544	 0.7210739529637138
545	 0.8692744729379982
546	 0.04072067322815415
547	 0.37707311222990264
548	 0.5573539334676404
549	 0.6714985851425088
550	 0.5588235294117647
551	 0.43220923193166993
552	 0.05300289046884926
553	 0.2588685868513194
554	 0.3932793027153793
555	 0.6420955202952487
556	 0.06954488812018383
557	 0.13175731022676285
558	 0.4097506409523555
559	 0.04230682197266045
560	 0.707716891027624
561	 0.5454545454545454
562	 0.026950083208733766
563	 0.6971244509626533
564	 0.1175383760825015
565	 0.00998104416757628
566	 0.599485479864211
567	 0.21601908287646765
568	 0.6660527910387678
569	 0.5428746462856271
570	 0.20146327255833518
571	 0.04016146283379218
572	 0.34246849054684897
573	 0.0
575	 0.9117581097845098
576	 0.0
577	 0.7401922307076305
578	 0.5765465544619742
579	 0.598058067569092
580	 0.014637328302924524
581	 0.0669872981077807
582	 0.6711632992203644
583	 0.09621357345637588
584	 0.658006432175072
585	 0.019928390758212067
586	 0.868723964895334
587	 0.0
589	 0.3285014148574912
590	 0.3956988171658735
591	 0.36396081507129785
592	 0.0
594	 0.06209434390914337
595	 0.3540314479697146
596	 0.3615220726482507
597	 0.3906249999999999
598	 0.19851130586320875
599	 0.6579968915880287
600	 0.0
601	 0.13971165393855395
602	 0.625
603	 0.22591936896655335
604	 0.014187293276528123
605	 -1.1102230246251565E-16
606	 0.15999537230627742
607	 0.6733438113203841
608	 0.5742610657232506
609	 0.1355655065721687
610	 0.4800689748705225
611	 0.0829866015622876
612	 0.0
614	 0.19381378215210276
615	 0.2834936490538903
616	 0.0
618	 0.24999999999999994
619	 0.1874999999999999
620	 0.0
622	 0.033747595879843106
623	 0.21415560909775277
624	 0.07694294388667539
625	 0.5668153104781062
626	 0.3424684905468489
627	 0.18915881442920274
628	 0.15412588091908352
629	 0.43220923193166993
630	 0.05668965253321345
631	 0.0
634	 0.7496673318553004
635	 0.22104743567091717
636	 0.10667677322915992
637	 0.13563829787234055
638	 0.18647285266430058
639	 0.03770243322327771
640	 0.211192232669223
641	 0.04072067322815409
642	 1.0
643	 0.13403747264430005
644	 0.08914016554130216
645	 0.5668153104781061
646	 0.33633658232300573
647	 0.10471529247895262
648	 0.43220923193166993
649	 0.13242647794264745
650	 0.25793854086203644
651	 0.005894115598690686
652	 0.9941058844013093
653	 0.010796953961686173
654	 4.947067600949429E-4
655	 0.788807767330777
656	 0.3424684905468489
657	 1.0
658	 0.13242647794264745
659	 0.6415098275354449
660	 0.0024610485767913026
661	 0.5548161262066893
662	 0.241817378336511
663	 0.17004399120195507
665	 0.0
667	 0.8692744729379982
668	 0.062499999999999944
669	 0.10374974283371402
670	 0.7948839123097942
671	 0.061470990346485455
672	 0.09718538335281895
673	 0.42345344553802566
675	 0.2661464133266286
676	 0.051789271499602385
677	 0.0
678	 0.2834936490538903
679	 0.1450238535955845
680	 0.04566968607014815
681	 0.6575315094531511
682	 0.37499999999999994
683	 0.25793854086203644
684	 0.5
685	 0.09718538335281907
686	 0.029955595627979115
687	 0.048011197177144804
688	 0.03266454586279249
689	 0.1368140011406802
690	 0.717406589136576
691	 0.043370348862590447
692	 0.5947420911199833
693	 0.0
694	 0.04072067322815409
695	 0.9375000000000001
696	 0.0
698	 0.019564349447035057
699	 0.39940208734777344
700	 0.00132802359361478
701	 0.2573186641514622
702	 0.051524449775758485
703	 0.20346639170059688
704	 0.0
718	 -1.1102230246251565E-16
719	 0.0
731	 0.6148198316929616
732	 0.2259193689665533
733	 0.0
737	 0.625
738	 0.0
743	 0.2259193689665533
744	 0.0
751	 0.2259193689665533
752	 0.030049613911622197
753	 0.0
756	 0.6998292970001156
757	 0.06669000133270064
758	 0.0
760	 0.049306090567001304
761	 0.8125
762	 0.0
767	 0.6998292970001156
768	 0.06669000133270064
769	 0.0
785	 0.04072067322815409
786	 0.0
787	 0.8952847075210474
788	 0.10471529247895245
789	 0.6148198316929616
790	 0.625
791	 0.20655948310343758
792	 0.24197657672892992
793	 0.0
795	 0.5376889180722204
796	 0.06657744216946493
797	 0.0
798	 0.19381378215210265
799	 0.8231151638207485
800	 0.0665774421694647
801	 0.0
827	 0.020813642496584295
828	 0.6197965893758539
829	 0.5988211768802618
830	 0.0
831	 0.8952847075210474
832	 0.1938137821521027
833	 0.5376889180722204
834	 0.1307255270620018
835	 0.625
836	 -1.1102230246251565E-16
837	 0.915337260936917
838	 0.0
840	 0.75
841	 0.08339744082916112
842	 0.40154733096709766
843	 0.5509433992240643
844	 0.3857367388732193
845	 0.34439700070875967
846	 0.03077675404403235
847	 0.18569072145314391
848	 0.8937807653241083
849	 0.0014405100519485625
850	 0.34439700070875967
851	 0.03077675404403235
852	 0.18569072145314391
853	 0.8937807653241083
854	 0.025916182460385573
855	 0.07618545526557757
856	 0.8347390747118684
857	 0.04930609056700136
858	 0.13690781129305468
859	 0.02206851088540651
860	 0.03581295444652005
861	 0.9739906747640861
862	 0.22591936896655335
863	 0.4011788231197382
864	 0.02989950527773161
865	 0.03581295444652005
866	 0.9803844614152614
867	 0.2705842661294382
868	 0.7294157338705618
869	 0.03033178168613787
870	 0.04875737180285977
871	 0.9803844614152614
872	 0.2705842661294382
873	 0.7294157338705618
874	 0.03033178168613787
875	 0.04875737180285977
876	 0.9506939094329987
877	 0.02029838819987645
878	 0.13072552706200186
879	 0.03033178168613787
880	 0.04875737180285977
881	 0.9506939094329987
882	 0.02029838819987645
883	 0.13072552706200186
884	 0.0
885	 0.10471529247895256
886	 0.7053959590644373
887	 0.02029838819987645
888	 0.22727272727272724
889	 0.07287890191137536
890	 0.14933242906112515
891	 0.7433196258689894
892	 5.551115123125783E-17
893	 0.0
