0	 1.9536055926134102
1	 1.777632441347987
2	 1.304722644410425
3	 0.9859860232764925
4	 0.9790233195990863
5	 1.7385641141002919
6	 2.4911838910119286
7	 1.705434318839154
8	 1.717553253566635
9	 1.8771447568305946
10	 0.6162718203967393
11	 1.305794547798219
12	 0.8797665479190109
13	 1.6335204862006882
14	 2.4911838910119286
15	 1.1423822384987141
16	 1.1166513536032632
17	 0.871828640753063
18	 0.7975957350783107
19	 0.8412908033934344
20	 2.343454966249049
21	 0.8141752434123019
22	 1.5380517236956825
23	 1.3259795516635713
24	 0.7600266035452921
25	 0.18252993956426256
26	 1.4545945066709598
27	 1.606199330702277
28	 1.1107678330044193
29	 1.654539567020787
30	 1.654539567020787
31	 1.0023433992142836
32	 0.39268288160295445
33	 0.6085916903014696
34	 1.496288690562085
35	 1.343640657272014
36	 0.8525900371397298
37	 1.7997169718701136
38	 2.1619854714676814
39	 1.7274843605296024
40	 1.06454364815978
41	 0.6548111355816865
42	 0.7975957350783107
43	 0.6834172259778496
44	 1.4545945066709598
45	 1.5138418605776935
46	 1.4697445964647509
47	 1.0502879292807705
48	 1.330509618719083
49	 1.0268812876069626
50	 0.8797665479190109
51	 1.1111697511516279
52	 1.2031693059737412
53	 1.7579261585280916
54	 1.254509197648818
55	 1.0492455813337718
56	 1.2112329168402474
57	 0.6528022509438316
58	 1.4188755567363898
59	 1.7034202177080648
60	 0.6258778199489099
61	 1.2360523635768832
62	 1.36825976292418
63	 0.9073749649320735
64	 0.8689858335078503
65	 0.8928972200113515
66	 0.8908951933330878
67	 0.941188292032766
68	 1.064520351537411
69	 0.5384544352471556
70	 1.0854737117209856
71	 0.8520661561128272
72	 0.7886995350671316
73	 0.39473524208970934
74	 0.4886202732489984
75	 0.4886202732489984
76	 1.4802242551397407
77	 0.8390096416831773
78	 0.4088975163012529
79	 0.7660855834853992
80	 2.253226393161001
81	 1.380404715595152
82	 0.6033723691671423
83	 0.8412908033934344
84	 1.1826801161035194
85	 1.2459780009443722
86	 0.8690208161127859
87	 0.7660855834853992
88	 1.3413326130521592
89	 0.9478961153544201
90	 0.8412908033934344
91	 0.38237793155598954
92	 0.3703073268055778
93	 0.2812346856002269
94	 0.4086590755896939
95	 0.8412908033934344
96	 0.5569423079573756
97	 0.4823447295209025
98	 0.4169518140036923
99	 0.5187744756781225
100	 0.2683359593900827
101	 0.6790571848664997
102	 0.37401580643795335
103	 0.14908856783655663
104	 0.3846447178925283
105	 0.3219861872243269
106	 0.46752489339581843
107	 0.47171977826640216
108	 0.6033723691671423
109	 1.2184104372715083
110	 0.7975957350783107
111	 0.9308093616451342
112	 2.0024566008022724
113	 0.5615271448406468
114	 0.7975957350783107
115	 0.9783185088524387
116	 1.0863695406432072
117	 0.8296777560217782
118	 0.8361173900526434
119	 0.5300640013281415
120	 1.6525317482085886
121	 0.5864308815515545
122	 0.6847971267194828
123	 0.47479663594427457
124	 1.2459780009443717
125	 0.3926828816029545
126	 1.7950298855307238
127	 1.207088996513513
128	 1.5008734719613552
129	 0.9689773881971306
130	 0.5888365121972249
131	 0.2468482686312023
132	 0.8737306099921951
133	 0.8737306099921951
134	 0.8737306099921951
135	 0.8737306099921951
136	 0.5235998317184651
137	 0.6317470845499276
138	 0.8639113715246944
139	 0.7548326892191913
140	 0.8938245987917511
141	 1.3857354649561846
142	 0.9308093616451342
143	 0.8412908033934344
144	 0.6443292951323324
145	 0.6317470845499276
146	 0.5382922640660767
147	 1.0699884128011345
148	 0.5446322973632397
149	 0.895207003344664
150	 0.6033723691671423
151	 1.0731879098966985
152	 0.6485594370960819
153	 0.6047495174345601
154	 1.2595178946666385
155	 0.6574073608475893
156	 2.0684992934457287
157	 1.2833348315807702
158	 1.382347598305519
159	 1.4330383653674839
160	 1.4735980356280611
161	 0.7712987349322671
162	 0.603372369167143
163	 0.603372369167143
164	 0.36869920635018905
165	 0.1976772367988901
166	 0.8472247467053388
167	 1.2932135658836408
168	 0.6418220541612011
169	 0.6054841903495576
170	 0.4893268175696985
171	 1.0875601614454524
172	 0.9994591839183905
173	 1.0932909854367836
174	 0.6164568961113657
175	 0.21478428701477317
176	 1.554181978817724
177	 0.49113518651174415
178	 0.41673385363233834
179	 0.6425275272560528
180	 0.9169430749537542
181	 0.5012107910117597
182	 0.6849089406823609
183	 0.789847519944995
184	 1.0494279662694117
185	 1.7033618005976574
186	 1.2344641636880047
187	 0.8475086764246789
188	 1.3972560093955815
189	 0.9251350751281648
190	 1.083282259873897
191	 0.7354980464747664
192	 1.7431571594497823
193	 1.736934419843574
194	 1.736934419843574
195	 1.736934419843574
196	 0.13797173350181763
197	 0.6282270121837593
198	 0.9577375312878436
199	 0.9859860232764925
200	 0.9790233195990863
201	 1.7385641141002919
202	 2.4911838910119286
203	 1.705434318839154
204	 1.717553253566635
205	 2.0602226041953164
206	 0.1326040930891652
207	 1.305794547798219
208	 0.8797665479190109
209	 1.6335204862006882
210	 2.4911838910119286
211	 1.1423822384987141
212	 1.1166513536032632
213	 0.871828640753063
214	 0.7975957350783107
215	 0.8412908033934344
216	 2.343454966249049
217	 0.8141752434123019
218	 1.5380517236956825
219	 1.3259795516635713
220	 0.7600266035452921
221	 0.18252993956426256
222	 1.4545945066709598
223	 1.606199330702277
224	 1.2876975120504959
225	 1.654539567020787
226	 1.654539567020787
227	 1.2281624308759456
228	 1.166049675401524
229	 0.5684363161375249
230	 1.496288690562085
231	 1.343640657272014
232	 0.7358644155662051
233	 1.7997169718701136
234	 2.1619854714676814
235	 2.377107640472532
236	 0.436700788684121
237	 0.7882367530363789
238	 1.0731879098966985
239	 0.8745210716519409
240	 1.5008734719613552
241	 1.4389050856481116
242	 1.0731879098966985
243	 0.8745210716519409
244	 1.146156640910831
245	 1.2191467340251734
246	 1.416968633696062
247	 0.9167309303118446
248	 1.2459780009443717
249	 1.3127631563855149
250	 0.43255703711761184
251	 0.5736002911990812
252	 0.7045065494067895
253	 0.8173919441491746
254	 0.6723746826113823
255	 0.8340393711717055
256	 0.8904940816476986
257	 0.8045519941853487
258	 1.141212009058451
259	 0.3493972379200212
260	 0.37477279547092057
261	 0.5947378661684635
262	 0.8442797560106186
263	 0.8442797560106184
264	 0.9325095536916618
265	 1.1325804951588594
266	 1.3436406572720136
267	 1.3436406572720136
268	 0.9807617415316255
269	 1.0050895782559954
270	 1.0894016677296516
271	 1.2362814109196498
272	 1.333735903512691
273	 1.3528370495152169
274	 1.3400793035185925
275	 0.6033723691671423
276	 2.174594731324437
277	 1.0892856164229718
278	 1.0378585789336325
279	 0.5612617269709704
280	 1.3507617032020613
281	 0.9210491121016169
282	 1.0170013585042417
283	 0.8718933054215863
284	 1.1974908679557155
285	 1.4600563978867982
286	 0.902882303823426
287	 1.5258902582007332
288	 0.5576984658732111
289	 0.1723413501666127
290	 0.7579934591981168
291	 0.7134526335495684
292	 1.403983040794059
293	 0.76166013844211
294	 0.9393169798922386
295	 0.8066430423473409
296	 0.693654557762003
297	 0.4098240637145084
298	 0.7783698129222439
299	 1.6412901911589353
300	 1.4802242551397407
301	 0.7361638260858335
302	 1.5666294537969083
303	 2.5999861240983586
304	 1.927764658924392
305	 1.3906454540382795
306	 0.9482497684058653
307	 1.2184104372715083
308	 2.2803529313671014
309	 1.5830523613694312
310	 0.4397286970229275
311	 1.1212702424550074
312	 0.6249272499469217
313	 0.20971831448379974
314	 1.251612586915864
315	 0.620239016909282
316	 1.2885780251833732
317	 1.0122000210141455
318	 1.4020085569111722
319	 0.9246475971078567
320	 1.4947521512451982
321	 1.7909252298287979
322	 1.5636247042926796
323	 0.9325095536916617
324	 0.6365091087360809
325	 0.253101668421008
326	 1.0396733312091144
327	 1.0751365622082636
328	 0.45995942949321095
329	 0.6304080671285129
330	 0.985295147979311
331	 0.8946281441391686
332	 0.6100796495846533
333	 0.7892435156436074
334	 0.9083556944976027
335	 1.147270703768828
336	 0.23866199782894573
337	 0.5441820170919123
338	 0.5210355724192185
339	 0.29163065356130274
340	 1.7344921844796555
341	 1.3350878864082476
342	 0.8059163597032468
343	 1.457421007688632
344	 1.3750130481348304
345	 0.797659628250695
346	 0.4815433455589935
347	 1.7237719603909114
348	 0.991041663522444
349	 0.1326040930891652
350	 0.879561924390394
351	 1.5431539112000943
352	 0.8797665479190109
353	 1.6335204862006882
354	 2.4911838910119286
355	 1.1423822384987141
356	 1.1166513536032632
357	 0.871828640753063
358	 0.7975957350783107
359	 0.8412908033934344
360	 2.343454966249049
361	 0.5982751698318537
362	 1.5380517236956825
363	 1.3259795516635713
364	 0.9073749649320735
365	 0.18252993956426256
366	 1.4545945066709598
367	 1.606199330702277
368	 1.2682521630999504
369	 1.1502972857066125
370	 1.654539567020787
371	 1.0023433992142836
372	 0.9246475971078567
373	 0.9936987364575509
374	 1.496288690562085
375	 1.343640657272014
376	 0.7358644155662051
377	 0.9663166383251404
378	 2.1619854714676814
379	 1.7274843605296024
380	 1.06454364815978
381	 0.6548111355816865
382	 0.7975957350783107
383	 0.7975957350783107
384	 1.4357594432346017
385	 1.4629549476444357
386	 1.7909252298287979
387	 0.48058929214686236
388	 1.5835428145471786
389	 1.0441135852182621
390	 1.9522984348806236
391	 1.4930730406658808
392	 1.672120045183359
393	 0.759309409158963
394	 1.1371080249117997
395	 0.5300640013281415
396	 1.512184241035904
397	 1.2275992202278394
398	 2.0860624243048416
399	 1.98196284889321
400	 1.552521683854153
401	 1.6568404808059622
402	 1.2475830830881378
403	 1.3840762640704662
404	 1.3241729414382903
405	 0.8811921350292077
406	 1.4871136825284266
407	 1.2617606133906698
408	 0.6232100599615937
409	 0.989130449184535
410	 1.2475830830881376
411	 1.2271386143534613
412	 0.9886785012517129
413	 1.1570852369225009
414	 1.192947433392324
415	 0.5864308815515545
416	 0.920820709387736
417	 0.9412493004002712
418	 0.5422662127626984
419	 1.451520426727679
420	 0.38941874199261534
421	 0.4019542511152191
422	 0.6033723691671423
423	 0.6033723691671423
424	 1.4802242551397407
425	 0.8390096416831773
426	 0.4088975163012529
427	 0.7660855834853992
428	 2.253226393161001
429	 1.4754019945438597
430	 0.6033723691671423
431	 0.8412908033934344
432	 1.1826801161035194
433	 1.2459780009443722
434	 0.8690208161127859
435	 0.7660855834853992
436	 1.4802242551397407
437	 0.8097053654492684
438	 0.8412908033934344
439	 1.0079107071820141
440	 0.8889283566642351
441	 1.036868144562125
442	 0.6187145657059944
443	 0.8412908033934344
444	 0.608591690301469
445	 0.5035013637337813
446	 0.39340642706222057
447	 0.5187744756781225
448	 0.2683359593900827
449	 0.6790571848664997
450	 0.37401580643795335
451	 0.14908856783655663
452	 0.3846447178925283
453	 0.3219861872243269
454	 0.46752489339581843
455	 0.3892646357108632
456	 1.0731879098966985
457	 1.2184104372715083
458	 0.7975957350783107
459	 0.9308093616451342
460	 2.0024566008022724
461	 0.5615271448406468
462	 0.7975957350783107
463	 0.9783185088524387
464	 1.0863695406432072
465	 0.8296777560217782
466	 0.8361173900526434
467	 0.5300640013281415
468	 1.6525317482085886
469	 0.5864308815515545
470	 0.6847971267194828
471	 0.47479663594427457
472	 1.2459780009443717
473	 0.3926828816029545
474	 1.7950298855307238
475	 1.207088996513513
476	 1.5008734719613552
477	 0.9689773881971306
478	 0.5888365121972249
479	 0.2246290628444378
480	 2.4911838910119286
481	 2.4911838910119286
482	 2.4911838910119286
483	 2.4911838910119286
484	 0.5304116363167517
485	 0.6317470845499276
486	 0.8639113715246944
487	 0.7548326892191913
488	 0.8938245987917511
489	 1.3857354649561846
490	 0.9308093616451342
491	 0.8412908033934344
492	 0.6443292951323324
493	 0.6317470845499276
494	 0.45995942949321106
495	 1.0699884128011345
496	 0.5446322973632397
497	 0.895207003344664
498	 0.6033723691671423
499	 1.0731879098966985
500	 0.5612772121496521
501	 0.6424539248101766
502	 0.7110602367723952
503	 0.6574073608475893
504	 1.3687572604726492
505	 1.2833348315807702
506	 1.382347598305519
507	 1.4330383653674839
508	 1.4735980356280611
509	 0.7712987349322671
510	 0.603372369167143
511	 0.603372369167143
512	 1.234464163688005
513	 0.6425275272560528
514	 0.8472247467053388
515	 1.2932135658836408
516	 0.3312166029905394
517	 0.6054841903495576
518	 0.4893268175696985
519	 1.0875601614454524
520	 1.9278076189999789
521	 1.6662140255193307
522	 0.6164568961113657
523	 0.6574073608475893
524	 1.2897177961291173
525	 0.44665355820765107
526	 0.30397489105662806
527	 0.8475086764246789
528	 1.5398754298095545
529	 0.5974553531452725
530	 0.8571380517411901
531	 1.2545091976488179
532	 1.7033618005976574
533	 1.5044964834233585
534	 1.2344641636880047
535	 1.237172939625272
536	 1.3704783017418234
537	 1.2848724175787327
538	 0.7146445617362704
539	 0.8566030010868968
540	 1.5957597961427277
541	 1.1831909590188725
542	 1.0292025936798512
543	 1.0292025936798512
