0	 0.2608202654786539
1	 0.10432810619147262
2	 0.7518865162598456
3	 0.7768066499641788
4	 0.1195228609334399
5	 0.26614532371118893
6	 1.1295279249904946
7	 1.034638193029904
8	 0.3236694374850745
9	 0.0
10	 0.7302967433402383
11	 0.6259686371488119
12	 0.4914999332953423
13	 0.9381476095283642
14	 0.8758207906467408
15	 0.8365912687592647
16	 0.2608202654786539
17	 0.10432810619147262
18	 0.5322906474223941
19	 0.8002975637075176
20	 0.1195228609334399
21	 0.26614532371118893
22	 1.1295279249904946
23	 1.0452272480183422
24	 0.2661453237111885
25	 0.0
26	 0.7302967433402383
27	 0.6259686371488119
28	 0.4914999332953423
29	 1.013976404137758
30	 0.46188021535169393
31	 1.1195237082497778
32	 0.3577708763999669
33	 0.5842373946721842
34	 1.5582516318451758
35	 0.8174032958999721
36	 0.29211869733608814
37	 1.002663120561097
38	 0.1460593486680442
39	 1.6915476148584594
40	 0.3651483716701142
41	 1.0004628558451873
42	 0.4171774646802409
43	 1.416097925050851
44	 1.1313708498984762
45	 1.4160979250508525
46	 1.2521980673998763
47	 1.3643069058438726
48	 0.5808743116943931
49	 0.1520830421206771
50	 1.2670174952751891
51	 0.9176055797563443
52	 0.1770122406313542
53	 1.4170391667134519
54	 0.24343224778007377
55	 0.24343224778007383
56	 0.5305482838361477
57	 0.6631853547951825
58	 0.2527625148017164
59	 0.9737289911202952
60	 1.0608172949821912
61	 1.4160979250508534
62	 1.2521980673998705
63	 1.3386560424545124
64	 0.5967814911239672
65	 0.7417696557707226
66	 0.39515585298479705
67	 1.055146119422961
68	 1.154700538379251
69	 1.4160979250508534
70	 1.4160979250508534
71	 1.415175285410035
72	 0.0521640530957298
73	 0.4066120181860475
74	 1.5249043685862183
75	 1.378888441221165
76	 0.2608202654786539
77	 0.10432810619147262
78	 0.7518865162598456
79	 0.7768066499641788
80	 0.1195228609334399
81	 0.26614532371118893
82	 1.1295279249904946
83	 1.034638193029904
84	 0.3236694374850745
85	 0.0
86	 0.7302967433402383
87	 0.6259686371488119
88	 0.6568529381169884
89	 0.9121403400793076
90	 0.9201860298581124
91	 0.8111807135249955
92	 0.2608202654786539
93	 0.10432810619147262
94	 0.5322906474223941
95	 0.8002975637075176
96	 0.1195228609334399
97	 0.26614532371118893
98	 1.1295279249904946
99	 1.034638193029904
100	 0.3236694374850745
101	 0.0
102	 0.7841012784167686
103	 1.1511025310705412
104	 0.21221931353445866
105	 1.0610965676722925
106	 0.0
107	 0.4868644955601467
108	 0.7097208632298411
109	 0.9888264649460761
110	 1.3877773329773972
111	 0.48686449556013633
112	 0.76980035891949
113	 1.1155467020454313
114	 1.06109656767229
115	 0.0
116	 0.9888264649460761
117	 0.9888264649460761
118	 0.9888264649460761
119	 0.0
120	 0.0
121	 0.0
122	 0.0
123	 0.0
124	 0.9888264649460761
125	 0.9888264649460761
126	 0.9888264649460761
127	 0.9888264649460761
128	 0.9888264649460761
129	 1.3877773329773972
130	 1.3553733939535126
131	 1.3553733939535126
132	 1.3877773329773972
133	 1.3553733939534907
134	 1.3553733939534907
135	 0.9453710273964414
136	 0.05216405309573679
137	 0.0
138	 0.0
139	 0.5322906474223756
140	 0.5322906474223756
141	 0.8516650358757952
142	 1.2649110640673797
