0	 0.6085806194501846
1	 0.0
2	 0.5962847939999438
3	 0.6938886664887112
4	 0.7302967433402214
5	 0.8944271909999157
6	 0.0
7	 0.0
8	 2.1291625896895083
9	 0.0
10	 2.1291625896895083
11	 0.0
12	 0.8944271909999159
13	 0.7302967433402214
14	 0.7302967433402214
15	 0.7302967433402214
16	 0.7302967433402214
17	 0.8692269873603531
18	 1.1925695879998877
19	 0.7097208632298362
20	 1.4194417264596721
21	 0.7097208632298362
22	 1.4194417264596721
23	 0.5962847939999438
24	 0.14907119849998599
25	 0.8366600265340756
26	 0.7302967433402214
27	 0.7302967433402214
28	 0.8944271909999159
29	 1.0645812948447542
30	 0.3651483716701107
31	 0.7302967433402214
32	 1.0645812948447542
33	 1.0645812948447542
34	 1.0645812948447542
35	 1.4832396974191324
36	 0.7302967433402214
37	 0.8944271909999159
38	 0.7302967433402214
39	 0.7958224257542215
40	 0.36514837167011077
41	 0.7302967433402214
42	 0.8944271909999159
43	 1.0645812948447542
44	 1.0
45	 0.532290647422377
46	 0.18257418583505536
47	 1.118033988749895
48	 0.3651483716701107
49	 1.0645812948447542
50	 0.3651483716701107
51	 0.5773502691896257
52	 0.3651483716701107
53	 0.8366600265340756
54	 0.4472135954999581
55	 0.8944271909999159
56	 0.7302967433402214
57	 0.5
58	 0.6191391873668903
59	 0.5900408021045223
60	 1.018350154434631
61	 1.0645812948447542
62	 0.8944271909999159
63	 0.7302967433402214
64	 1.1547005383792515
65	 1.2382783747337807
66	 0.7302967433402214
67	 0.7302967433402214
68	 1.4605934866804429
69	 1.591644851508443
70	 0.7302967433402214
71	 1.6733200530681511
72	 0.0
73	 1.4605934866804429
74	 1.4605934866804429
75	 0.8944271909999159
76	 0.7302967433402214
77	 0.41275945824459354
78	 0.5305482838361476
79	 0.5305482838361476
80	 0.41275945824459354
81	 0.8902766944004502
82	 0.8255189164891873
83	 1.2472191289246473
84	 0.7453559924999299
85	 0.41275945824459354
86	 1.0610965676722952
87	 0.7097208632298361
88	 0.79115480528524
89	 0.47531665858238753
90	 0.6776866969767512
91	 1.3052600138300812
92	 0.7097208632298362
93	 1.1800816042090447
94	 0.5805489101161392
95	 0.5805489101161392
96	 0.4260064336151292
97	 0.4260064336151292
98	 0.6776866969767512
99	 0.6776866969767512
100	 0.5660126945311124
101	 0.5660126945311124
102	 0.3920506392083855
103	 1.2671051872498806
104	 0.6624868971450596
105	 1.2449899597988732
106	 0.0
107	 0.48686449556014766
108	 0.0
109	 0.7097208632298361
110	 0.0
111	 0.0
112	 0.0
113	 0.0
114	 0.38490017945975047
115	 0.38490017945975047
116	 0.2434322477800738
117	 1.2171612389003692
118	 0.2434322477800738
119	 0.2434322477800738
120	 0.2434322477800738
121	 0.4868644955601477
122	 0.7302967433402214
123	 0.7302967433402214
124	 0.7302967433402214
125	 0.8520128672302584
126	 0.2981423969999719
127	 1.4194417264596721
128	 0.2434322477800738
129	 1.2171612389003692
130	 0.2434322477800738
131	 1.4194417264596721
132	 0.2981423969999721
133	 0.5962847939999438
134	 0.7302967433402214
135	 0.7302967433402214
136	 0.0
137	 0.5900408021045224
138	 0.24343224778007383
139	 0.2981423969999719
140	 0.24343224778007383
141	 0.8902766944004502
142	 0.7302967433402214
143	 0.36514837167011077
144	 0.18257418583505536
145	 0.22360679774997894
146	 0.18257418583505539
147	 0.7057827227275262
148	 0.2637381715437712
149	 0.49846703778194007
150	 0.2732395724370433
151	 0.0
152	 0.22360679774997902
153	 0.5684445898244439
154	 0.2747912008810192
155	 0.7802842670559018
156	 0.1520830421206792
157	 0.3651483716701107
158	 0.18257418583505533
159	 0.7090282705473556
160	 0.43271803516745594
161	 0.67700320038633
162	 0.8944271909999159
163	 1.0645812948447542
164	 0.7302967433402214
165	 1.1547005383792515
166	 0.7302967433402214
167	 0.8944271909999159
168	 0.8944271909999159
169	 0.0
170	 0.7302967433402214
171	 0.7302967433402214
172	 1.1547005383792515
173	 0.8255189164891871
174	 0.34694433324435536
175	 0.5322906474223771
176	 0.7302967433402214
177	 0.2981423969999719
178	 0.7453559924999299
179	 0.3548604316149181
180	 0.3042903097250923
181	 0.5773502691896257
182	 0.7302967433402214
183	 0.9428090415820634
184	 0.9428090415820634
185	 0.24343224778007383
186	 0.12171612389003689
187	 0.3651483716701107
188	 0.7302967433402214
189	 1.4350119369744834
190	 0.7841012784167711
191	 0.7453559924999299
192	 0.43461349368017654
193	 0.8366600265340756
194	 0.7302967433402214
195	 1.2382783747337807
196	 0.8944271909999159
197	 0.7302967433402214
198	 0.0
199	 0.0
200	 0.0
201	 0.0
202	 0.0
203	 0.0
204	 0.35486043161491804
205	 0.8692269873603532
206	 0.5577733510227171
207	 1.2995725793078616
208	 0.5962847939999438
209	 1.0610965676722952
210	 0.41275945824459354
211	 0.7601169500660919
212	 0.7302967433402215
213	 1.1547005383792517
214	 1.2382783747337807
215	 0.8520128672302584
216	 0.35486043161491804
217	 0.8692269873603532
218	 0.35486043161491804
219	 1.061096567672295
220	 0.557773351022717
221	 1.4907119849998598
222	 0.29814239699997197
223	 0.5577733510227171
224	 0.7302967433402214
225	 0.8944271909999159
226	 0.7302967433402214
227	 0.784101278416771
228	 0.41275945824459354
229	 0.4714045207910317
230	 0.36514837167011077
231	 0.8366600265340756
232	 0.3651483716701107
233	 0.5773502691896256
234	 0.3651483716701107
235	 0.8944271909999157
236	 0.44721359549995787
237	 0.9128709291752768
238	 0.5773502691896257
239	 0.8421753138505421
240	 0.2981423969999719
241	 0.5962847939999438
242	 0.0
243	 0.769800358919501
244	 0.0
245	 0.7552286874651746
246	 0.5322906474223771
247	 1.3038404810405297
248	 0.5322906474223771
249	 1.1547005383792515
250	 0.5773502691896256
251	 1.1401754250991378
252	 0.3651483716701107
253	 1.1547005383792515
254	 0.36514837167011077
255	 0.7958224257542215
256	 0.7071067811865476
257	 1.0954451150103324
258	 0.0
259	 0.36514837167011066
260	 0.8850612031567835
261	 1.016530045465127
262	 1.1761519176251567
263	 0.9128709291752768
264	 0.3651483716701107
265	 0.7302967433402214
266	 0.18257418583505536
267	 0.7302967433402214
268	 0.0
269	 0.7478363853539484
270	 0.0
271	 0.7097208632298361
272	 0.0
273	 0.7097208632298361
274	 0.0
275	 0.9737289911202952
276	 0.8255189164891871
277	 0.6085806194501845
278	 0.36514837167011094
279	 0.7302967433402214
280	 0.0
281	 0.8520128672302584
282	 0.3849001794597505
283	 1.2531441937663719
284	 0.48686449556014744
285	 0.5962847939999438
286	 0.7097208632298361
287	 0.5333333333333333
288	 0.2
289	 0.0
290	 0.0
291	 0.0
292	 0.0
293	 0.3651483716701107
294	 0.6938886664887108
295	 0.7097208632298362
296	 1.7888543819998317
297	 1.2382783747337804
298	 0.7302967433402214
299	 0.8944271909999157
300	 0.0
301	 0.0
302	 2.1291625896895083
303	 0.0
304	 2.1291625896895083
305	 0.0
306	 0.8944271909999159
307	 1.591644851508443
308	 1.4605934866804429
309	 1.0
310	 0.7302967433402214
311	 0.8692269873603531
312	 1.1925695879998877
313	 0.7097208632298362
314	 1.4194417264596721
315	 0.7097208632298362
316	 1.4194417264596721
317	 0.5962847939999438
318	 0.14907119849998599
319	 0.8366600265340756
320	 0.7302967433402214
321	 0.7302967433402214
322	 0.8944271909999159
323	 1.0645812948447542
324	 0.3651483716701107
325	 0.7302967433402214
326	 1.0645812948447542
327	 1.0645812948447542
328	 1.0645812948447542
329	 1.4832396974191324
330	 0.7302967433402214
331	 0.8944271909999159
332	 0.7302967433402214
333	 0.7958224257542215
334	 0.36514837167011077
335	 0.7302967433402214
336	 0.44721359549995804
337	 0.7958224257542215
338	 1.0
339	 0.532290647422377
340	 0.44721359549995804
341	 0.44721359549995804
342	 0.36514837167011094
343	 0.8944271909999159
344	 0.3651483716701107
345	 0.5773502691896257
346	 0.3651483716701107
347	 0.8366600265340756
348	 0.7302967433402215
349	 0.7302967433402214
350	 0.7302967433402214
351	 0.5
352	 0.18257418583505536
353	 1.1490737010176368
354	 0.8520128672302582
355	 0.7958224257542215
356	 0.8944271909999159
357	 0.7302967433402214
358	 0.3651483716701107
359	 0.3333333333333333
360	 0.6666666666666666
361	 1.1401754250991378
362	 0.8944271909999159
363	 0.7302967433402214
364	 0.3651483716701107
365	 1.2382783747337807
366	 0.48686449556014766
367	 0.48686449556014766
368	 0.9737289911202952
369	 0.9888264649460883
370	 1.0610965676722952
371	 1.1925695879998879
372	 0.8944271909999159
373	 0.0
374	 0.8255189164891871
375	 0.7097208632298362
376	 0.48686449556014766
377	 1.0183501544346312
378	 0.557773351022717
379	 0.9888264649460883
380	 0.9888264649460883
381	 0.9737289911202954
382	 0.9737289911202953
383	 0.9428090415820634
384	 0.6666666666666667
385	 0.24343224778007377
386	 0.9888264649460883
387	 0.8255189164891871
388	 0.9737289911202952
389	 1.2531441937663719
390	 0.5577733510227171
391	 0.5962847939999438
392	 0.5962847939999438
393	 0.7097208632298361
394	 0.9888264649460882
395	 0.4868644955601476
396	 0.0
397	 0.48686449556014766
398	 0.0
399	 0.0
400	 0.0
401	 0.0
402	 0.29211869733608864
403	 0.2
404	 0.14605934866804432
405	 0.14605934866804432
406	 0.14605934866804432
407	 0.46188021535170076
408	 0.29211869733608864
409	 0.2
410	 0.14605934866804435
411	 0.5842373946721773
412	 0.8944271909999159
413	 0.7302967433402214
414	 0.5962847939999438
415	 0.769800358919501
416	 0.9737289911202954
417	 0.9888264649460885
418	 1.0610965676722952
419	 1.192569587999888
420	 1.539600717839002
421	 0.5962847939999438
422	 0.9737289911202953
423	 0.7698003589195008
424	 1.1155467020454342
425	 1.4194417264596721
426	 1.3333333333333333
427	 0.6666666666666666
428	 0.9737289911202958
429	 1.1925695879998883
430	 1.0610965676722952
431	 1.3553733939535029
432	 1.2171612389003692
433	 0.6666666666666667
434	 0.769800358919501
435	 1.6653345369377348E-16
436	 0.4868644955601476
437	 1.0610965676722952
438	 1.1155467020454342
439	 0.596284793999944
440	 4.440892098500626E-16
441	 1.115546702045434
442	 0.48686449556014766
443	 0.9737289911202953
444	 0.48686449556014766
445	 0.48686449556014755
446	 1.1800816042090447
447	 0.769800358919501
448	 0.9737289911202954
449	 0.5962847939999438
450	 0.0
451	 1.4605934866804429
452	 0.0
453	 1.4605934866804429
454	 0.0
455	 0.8944271909999159
456	 0.24343224778007388
457	 0.4868644955601476
458	 0.7302967433402214
459	 0.0
460	 0.8944271909999159
461	 1.1102230246251565E-16
462	 0.5305482838361476
463	 0.9737289911202952
464	 1.4605934866804429
465	 0.8944271909999159
466	 0.6191391873668903
467	 1.2382783747337807
468	 0.7302967433402214
469	 1.1401754250991378
470	 0.3651483716701107
471	 1.35400640077266
472	 0.6191391873668903
473	 0.8944271909999159
474	 0.5322906474223771
475	 0.5322906474223771
476	 0.0
477	 0.7302967433402215
478	 0.0
479	 1.4142135623730951
480	 0.5773502691896255
481	 0.8366600265340756
482	 1.4605934866804429
483	 2.1291625896895083
484	 1.7888543819998317
485	 1.4605934866804429
486	 0.709720863229836
487	 0.8520128672302583
488	 0.8255189164891871
489	 1.2171612389003692
490	 1.1155467020454342
491	 0.5962847939999438
492	 0.6776866969767513
493	 0.3849001794597504
494	 0.48686449556014766
495	 0.7097208632298362
496	 0.48686449556014744
497	 1.6375229712836032
498	 0.4564354645876384
499	 0.45643546458763845
500	 0.3651483716701107
501	 0.3651483716701107
502	 0.0
503	 0.8366600265340756
504	 0.3651483716701107
505	 0.3651483716701107
506	 0.3651483716701107
507	 0.3651483716701107
508	 0.0
509	 0.3651483716701107
510	 0.6085806194501846
511	 0.7097208632298362
512	 0.5962847939999438
513	 0.8520128672302584
514	 1.0645812948447542
515	 0.8944271909999157
516	 0.0
517	 0.0
518	 1.7888543819998317
519	 1.4605934866804429
520	 2.1291625896895083
521	 0.4868644955601476
522	 0.41275945824459354
523	 0.7958224257542215
524	 0.0
525	 0.8366600265340756
526	 0.3651483716701107
527	 1.1279282877125754
528	 1.1925695879998877
529	 0.7097208632298362
530	 1.4194417264596721
531	 0.7097208632298362
532	 1.4194417264596721
533	 0.5962847939999438
534	 0.14907119849998599
535	 0.8366600265340756
536	 0.7302967433402214
537	 0.7302967433402214
538	 0.8944271909999159
539	 1.0645812948447542
540	 0.7302967433402214
541	 0.3651483716701107
542	 1.0645812948447542
543	 1.0645812948447542
544	 1.0645812948447542
545	 1.4832396974191324
546	 0.7302967433402214
547	 0.8944271909999159
548	 0.7302967433402214
549	 0.7958224257542215
550	 0.36514837167011077
551	 1.0954451150103321
552	 0.7302967433402215
553	 0.9128709291752768
554	 0.8944271909999159
555	 0.532290647422377
556	 0.18257418583505536
557	 0.6191391873668902
558	 0.3651483716701107
559	 0.7302967433402214
560	 0.3651483716701107
561	 0.5773502691896257
562	 0.3651483716701107
563	 0.8366600265340756
564	 0.7302967433402215
565	 0.8944271909999159
566	 1.0
567	 0.5
568	 0.6191391873668903
569	 0.5900408021045223
570	 1.018350154434631
571	 1.0645812948447542
572	 0.8944271909999159
573	 0.7302967433402214
574	 1.1547005383792515
575	 1.0
576	 0.7302967433402214
577	 0.7302967433402214
578	 1.4605934866804429
579	 1.6733200530681511
580	 0.7302967433402217
581	 0.8944271909999161
582	 1.0645812948447542
583	 1.0
584	 1.4605934866804429
585	 0.8944271909999159
586	 1.1547005383792512
587	 1.4272480642961252
588	 0.12171612389003693
589	 0.3651483716701107
590	 1.4605934866804429
591	 0.9737289911202953
592	 0.24343224778007383
593	 0.8692269873603531
594	 0.6497862896539309
595	 1.1800816042090447
596	 0.41275945824459354
597	 1.0645812948447542
598	 0.577350269189626
599	 0.626572096883186
600	 0.45133546692422
601	 0.45133546692422
602	 1.4350119369744834
603	 0.8944271909999159
604	 0.7416198487095662
605	 0.9359091440550871
606	 0.41275945824459354
607	 0.8902766944004502
608	 1.0610965676722952
609	 1.0610965676722952
610	 0.24343224778007383
611	 1.2995725793078616
612	 0.5217491947499509
613	 0.5217491947499509
614	 0.2981423969999719
615	 0.2981423969999719
616	 0.2981423969999721
617	 0.2981423969999721
618	 0.5217491947499509
619	 0.5217491947499509
620	 0.5055250296034367
621	 0.5055250296034367
622	 0.2981423969999721
623	 0.8520128672302584
624	 0.7552286874651746
625	 0.7453559924999299
626	 0.6497862896539309
627	 0.12171612389003691
628	 0.6131279849476176
629	 0.6131279849476176
630	 0.0
631	 0.5962847939999439
632	 0.0
633	 0.0
634	 0.0
635	 0.0
636	 0.38490017945975047
637	 0.38490017945975047
638	 0.2434322477800738
639	 1.2171612389003692
640	 0.2434322477800738
641	 0.2434322477800738
642	 0.2434322477800738
643	 0.4868644955601477
644	 0.7302967433402214
645	 0.7302967433402214
646	 0.7302967433402214
647	 0.8520128672302584
648	 0.2981423969999719
649	 1.4194417264596721
650	 0.2434322477800738
651	 1.2171612389003692
652	 0.2434322477800738
653	 1.4194417264596721
654	 0.2981423969999721
655	 0.7453559924999299
656	 1.0645812948447542
657	 0.7302967433402214
658	 0.7302967433402214
659	 0.6224949798994366
660	 0.26614532371118854
661	 0.39791121287711073
662	 0.0
663	 0.6390096504226938
664	 0.7302967433402214
665	 0.36514837167011077
666	 0.22360679774997902
667	 0.3651483716701107
668	 0.22360679774997894
669	 0.5282817739171598
670	 0.2637381715437712
671	 0.49846703778194007
672	 0.2732395724370433
673	 0.0
674	 0.22360679774997902
675	 0.5684445898244439
676	 0.2747912008810192
677	 0.7802842670559018
678	 0.1520830421206792
679	 0.3651483716701107
680	 0.18257418583505533
681	 0.7090282705473556
682	 0.43271803516745594
683	 1.6355427233796125
684	 1.591644851508443
685	 1.0645812948447542
686	 0.7302967433402214
687	 1.1547005383792515
688	 0.7302967433402214
689	 0.8944271909999159
690	 0.8944271909999159
691	 0.0
692	 0.7302967433402214
693	 0.7302967433402214
694	 1.1547005383792515
695	 0.8255189164891871
696	 0.34694433324435536
697	 0.5322906474223771
698	 0.7302967433402214
699	 0.2981423969999719
700	 0.7453559924999299
701	 0.3548604316149181
702	 0.3042903097250923
703	 0.5773502691896257
704	 0.7302967433402214
705	 0.9428090415820634
706	 0.9428090415820634
707	 0.24343224778007383
708	 0.12171612389003689
709	 0.3651483716701107
710	 0.7302967433402214
711	 1.4350119369744834
712	 0.7841012784167711
713	 0.7453559924999299
714	 0.43461349368017654
715	 0.8366600265340756
716	 0.7302967433402214
717	 1.2382783747337807
718	 1.016530045465127
719	 1.0954451150103321
720	 0.0
721	 0.0
722	 0.0
723	 0.0
724	 0.0
725	 0.0
726	 0.2434322477800738
727	 0.8692269873603532
728	 0.5577733510227171
729	 1.2995725793078616
730	 0.5962847939999438
731	 1.0610965676722952
732	 0.41275945824459354
733	 0.7601169500660919
734	 0.7302967433402215
735	 1.1547005383792517
736	 1.2382783747337807
737	 0.8520128672302584
738	 0.35486043161491804
739	 0.8692269873603532
740	 0.35486043161491804
741	 1.061096567672295
742	 0.557773351022717
743	 1.4907119849998598
744	 0.29814239699997197
745	 0.5577733510227171
746	 0.7302967433402214
747	 0.8944271909999159
748	 0.7302967433402214
749	 0.5305482838361476
750	 0.3849001794597507
751	 1.1610978202322786
752	 0.7302967433402215
753	 0.8366600265340756
754	 1.1401754250991378
755	 1.4433756729740643
756	 0.3651483716701106
757	 0.8944271909999157
758	 0.44721359549995787
759	 0.9128709291752768
760	 0.5773502691896257
761	 0.8421753138505421
762	 0.2981423969999719
763	 0.5962847939999438
764	 0.0
765	 0.769800358919501
766	 0.0
767	 0.6776866969767514
768	 0.532290647422377
769	 0.7302967433402212
770	 0.5322906474223771
771	 1.1547005383792515
772	 0.5773502691896256
773	 1.1401754250991378
774	 0.0
775	 1.2449899597988732
776	 0.36514837167011077
777	 0.7958224257542215
778	 0.7071067811865476
779	 1.016530045465127
780	 0.0
781	 1.3038404810405297
782	 0.5
783	 1.1401754250991378
784	 1.1401754250991378
785	 1.4259499757471625
786	 0.7958224257542215
787	 0.6191391873668902
788	 0.44721359549995787
789	 0.3651483716701107
790	 0.8944271909999156
791	 0.7290277645477442
792	 0.48686449556014766
793	 0.5305482838361476
794	 0.0
795	 0.0
796	 0.0
797	 0.5305482838361476
798	 0.8692269873603531
799	 0.4714045207910317
800	 0.36514837167011094
801	 0.7302967433402214
802	 0.7302967433402214
803	 0.7601169500660919
804	 0.3849001794597508
805	 1.2531441937663723
806	 0.48686449556014755
807	 0.48686449556014766
808	 0.0
809	 0.24343224778007383
810	 0.0
811	 0.5982691082831589
812	 0.0
813	 0.0
814	 0.0
