0	 1.0645812948447542
1	 1.1761519176251567
2	 0.8850612031567835
3	 0.8850612031567835
4	 0.7302967433402214
5	 0.7302967433402214
6	 0.8850612031567835
7	 0.8850612031567835
8	 0.7302967433402214
9	 0.7302967433402214
10	 0.8850612031567835
11	 0.7302967433402214
12	 1.4605934866804429
13	 0.7302967433402214
14	 0.0
15	 0.8850612031567833
16	 1.2449899597988732
17	 1.4605934866804429
18	 0.7302967433402214
19	 1.0408329997330663
20	 1.2449899597988732
21	 1.4605934866804429
22	 0.8944271909999159
23	 0.6191391873668903
24	 1.2449899597988732
25	 1.4605934866804429
26	 0.7302967433402214
27	 0.7302967433402214
28	 1.4605934866804429
29	 0.7302967433402214
30	 0.7302967433402214
31	 1.0645812948447542
32	 1.2382783747337807
33	 1.4433756729740643
34	 1.37234592334926
35	 1.0408329997330663
36	 1.0954451150103321
37	 1.0645812948447542
38	 1.37234592334926
39	 1.0408329997330663
40	 1.0954451150103321
41	 1.0645812948447542
42	 1.37234592334926
43	 1.4605934866804429
44	 1.4605934866804429
45	 0.7302967433402214
46	 0.0
47	 1.0
48	 1.0
49	 0.18257418583505533
50	 0.9196919774214263
51	 2.2885584982691616
52	 1.7818529681205462
53	 0.18257418583505533
54	 0.9196919774214263
55	 2.2885584982691616
56	 1.7053836323048646
57	 0.22360679774997894
58	 1.5916448515084427
59	 0.22360679774997896
60	 1.6393596310754999
61	 0.0
62	 1.0408329997330663
63	 1.0645812948447542
64	 1.7888543819998317
65	 2.309401076758503
66	 2.309401076758503
67	 2.1291625896895083
68	 2.0
69	 1.1761519176251567
70	 0.8850612031567835
71	 0.8850612031567835
72	 0.7302967433402214
73	 0.7302967433402214
74	 0.8850612031567835
75	 0.8850612031567835
76	 0.7302967433402214
77	 0.7302967433402214
78	 0.8850612031567835
79	 0.7302967433402214
80	 1.4605934866804429
81	 0.7302967433402214
82	 0.0
83	 0.8850612031567833
84	 1.2449899597988732
85	 1.4605934866804429
86	 0.7302967433402214
87	 1.0408329997330663
88	 1.2449899597988732
89	 1.4605934866804429
90	 0.8944271909999159
91	 0.7302967433402214
92	 1.770122406313567
93	 1.7888543819998317
94	 0.7302967433402214
95	 1.0408329997330665
96	 1.0165300454651272
97	 0.0
98	 0.0
99	 0.0
100	 0.0
101	 0.0
102	 0.0
103	 0.0
104	 0.0
105	 0.0
106	 0.0
107	 0.0
108	 0.0
109	 0.0
110	 0.0
111	 0.0
112	 0.0
113	 0.0
114	 0.0
115	 0.0
116	 0.0
117	 0.0
118	 0.0
119	 0.0
120	 0.0
121	 0.0
122	 0.0
123	 0.0
124	 0.0
125	 0.0
126	 0.0
127	 0.0
128	 0.0
129	 0.0
130	 0.0
131	 0.0
132	 0.0
133	 0.0
134	 0.0
135	 0.0
136	 0.0
137	 0.0
138	 0.0
139	 0.0
140	 0.0
141	 0.0
142	 0.0
143	 0.0
144	 0.0
145	 0.0
146	 0.0
147	 0.0
148	 0.0
149	 0.0
150	 0.0
151	 0.0
152	 0.0
153	 0.0
154	 0.0
155	 0.0
156	 0.0
157	 0.0
158	 0.0
159	 0.0
160	 0.0
161	 0.0
162	 0.0
163	 0.0
164	 0.0
165	 0.0
166	 0.0
167	 0.0
168	 0.0
169	 0.0
170	 0.0
171	 0.0
172	 0.0
173	 0.0
174	 0.0
175	 0.0
176	 0.0
177	 0.0
178	 0.0
179	 0.0
180	 0.0
181	 0.0
182	 0.0
183	 0.0
184	 0.0
185	 0.0
186	 0.0
187	 0.0
188	 0.0
189	 0.0
190	 0.0
191	 0.0
192	 0.0
193	 0.0
