A B 
C C A A 
A B E E 
C C E E 
A B E E 
C B A A 
A B E E 
C C E E 
A B E E 
C B A A 
A B E E 
C C E E 
E E E E 
C C A A 
C C E E 
C C E E 
E D E E 
C C A A 
E E E E 
G G E E 
E D E E 
C C A A 
E E E E 
G G E E 
E D E E 
C C A A 
E E E E 
G G E E 
E E E E 
A A A A 
A A E E 
E E 
C B 
A A F F 
C B C C 
A A C C 
C B C C 
A B F F 
C B C C 
A A C C 
C B C C 
A B F F 
C B C C 
A A C C 
F F C C 
A A F F 
A A C C 
A A C C 
A B 
C A E E A A C C 
C D E E A A C C 
E E 
A B D D A A C C 
C A E E A A C C 
C D E E A A C C 
E E 
A B D D A A C C 
C B E E A A C C 
A B E E A A C C 
C B D D A A C C 
C D D D A A C C 
E E D D G G B B 
E E D D G G B B 
F F E E 
G G E E 
A A 
G G 
A A 
B B 
C C A A 
A B E E 
C C E E 
A B E E 
C B A A 
A B E E 
C C E E 
A B E E 
C B A A 
A B E E 
C C E E 
E E E E 
C C A A 
C C E E 
C C E E 
E D E E 
C C A A 
E E E E 
G G E E 
E D E E 
C C A A 
E E E E 
G G E E 
E D 
C C 
E E 
E E G G C C E E 
D D G G B B E E 
C C A A A A E E 

































































































