0	 2.1291625896895083
1	 1.4605934866804429
2	 2.1291625896895083
3	 1.4605934866804429
4	 2.1291625896895083
5	 2.1291625896895083
6	 2.1291625896895083
7	 1.4605934866804429
8	 2.1291625896895083
9	 2.1291625896895083
10	 2.1291625896895083
11	 1.4605934866804429
12	 0.0
13	 1.4605934866804429
14	 1.7888543819998317
15	 1.7888543819998317
16	 2.1291625896895083
17	 1.4605934866804429
18	 0.0
19	 1.4605934866804429
20	 2.1291625896895083
21	 1.4605934866804429
22	 0.0
23	 1.7888543819998317
24	 2.1291625896895083
25	 1.4605934866804429
26	 0.0
27	 1.4605934866804429
28	 0.0
29	 0.0
30	 1.4605934866804429
31	 0.0
32	 2.1291625896895083
33	 1.4605934866804429
34	 2.1291625896895083
35	 1.4605934866804429
36	 2.1291625896895083
37	 2.309401076758503
38	 2.1291625896895083
39	 1.4605934866804429
40	 2.1291625896895083
41	 2.309401076758503
42	 2.1291625896895083
43	 1.4605934866804429
44	 1.4605934866804429
45	 1.4605934866804429
46	 1.7888543819998317
47	 1.7888543819998317
48	 2.1291625896895083
49	 1.7888543819998317
50	 2.1291625896895083
51	 0.0
52	 3.5777087639996634
53	 1.7888543819998317
54	 2.1291625896895083
55	 0.0
56	 3.5777087639996634
57	 2.309401076758503
58	 2.309401076758503
59	 3.5777087639996634
60	 3.5777087639996634
61	 2.966479394838265
62	 2.966479394838265
63	 2.1291625896895083
64	 1.4605934866804429
65	 0.0
66	 0.0
67	 0.0
68	 0.0
69	 1.4605934866804429
70	 2.1291625896895083
71	 1.4605934866804429
72	 2.1291625896895083
73	 2.1291625896895083
74	 2.1291625896895083
75	 1.4605934866804429
76	 2.1291625896895083
77	 2.1291625896895083
78	 2.1291625896895083
79	 1.4605934866804429
80	 0.0
81	 1.4605934866804429
82	 1.7888543819998317
83	 1.7888543819998317
84	 2.1291625896895083
85	 1.4605934866804429
86	 0.0
87	 1.4605934866804429
88	 2.1291625896895083
89	 1.4605934866804429
90	 0.0
91	 1.7888543819998317
92	 2.1291625896895083
93	 0.0
94	 0.0
95	 1.7888543819998317
96	 2.966479394838265
97	 1.7888543819998317
98	 0.0
99	 0.0
100	 0.0
