MFile 1 2 480
MTrk
0 TimeSig 4/4 24 8
0 KeySig 0 major
0 Tempo 750002
0 Par ch=1 c=121 v=0
0 PrCh ch=1 p=46
0 Par ch=1 c=7 v=100
0 Par ch=1 c=10 v=63
0 Par ch=1 c=91 v=0
0 Par ch=1 c=93 v=0
0 Meta 0x21 00
60 On ch=1 n=72 v=80
119 On ch=1 n=72 v=0
120 On ch=1 n=74 v=80
179 On ch=1 n=74 v=0
180 On ch=1 n=76 v=80
239 On ch=1 n=76 v=0
240 On ch=1 n=77 v=80
359 On ch=1 n=77 v=0
360 On ch=1 n=72 v=80
479 On ch=1 n=72 v=0
480 On ch=1 n=71 v=80
599 On ch=1 n=71 v=0
600 On ch=1 n=75 v=80
719 On ch=1 n=75 v=0
720 On ch=1 n=76 v=80
839 On ch=1 n=76 v=0
840 On ch=1 n=70 v=80
959 On ch=1 n=70 v=0
960 On ch=1 n=69 v=80
1079 On ch=1 n=69 v=0
1080 On ch=1 n=73 v=80
1199 On ch=1 n=73 v=0
1200 On ch=1 n=74 v=80
1319 On ch=1 n=74 v=0
1320 On ch=1 n=68 v=80
1559 On ch=1 n=68 v=0
1560 On ch=1 n=69 v=80
1799 On ch=1 n=69 v=0
1800 On ch=1 n=71 v=80
1919 On ch=1 n=71 v=0
1920 On ch=1 n=64 v=80
2159 On ch=1 n=64 v=0
2160 On ch=1 n=69 v=80
2399 On ch=1 n=69 v=0
2400 On ch=1 n=68 v=80
2639 On ch=1 n=68 v=0
2640 On ch=1 n=67 v=80
2879 On ch=1 n=67 v=0
2880 On ch=1 n=66 v=80
3119 On ch=1 n=66 v=0
3120 On ch=1 n=65 v=80
3359 On ch=1 n=65 v=0
3360 On ch=1 n=64 v=80
3599 On ch=1 n=64 v=0
3600 On ch=1 n=62 v=80
3959 On ch=1 n=62 v=0
3960 On ch=1 n=60 v=80
4019 On ch=1 n=60 v=0
4020 On ch=1 n=59 v=80
4079 On ch=1 n=59 v=0
4080 On ch=1 n=60 v=80
4199 On ch=1 n=60 v=0
4200 On ch=1 n=69 v=80
4439 On ch=1 n=69 v=0
4440 On ch=1 n=68 v=80
4559 On ch=1 n=68 v=0
4560 On ch=1 n=76 v=80
4679 On ch=1 n=76 v=0
4680 On ch=1 n=67 v=80
4919 On ch=1 n=67 v=0
4920 On ch=1 n=65 v=80
4979 On ch=1 n=65 v=0
4980 On ch=1 n=64 v=80
5039 On ch=1 n=64 v=0
5040 On ch=1 n=63 v=80
5159 On ch=1 n=63 v=0
5160 On ch=1 n=71 v=80
5399 On ch=1 n=71 v=0
5400 On ch=1 n=70 v=80
5519 On ch=1 n=70 v=0
5520 On ch=1 n=78 v=80
5639 On ch=1 n=78 v=0
5640 On ch=1 n=69 v=80
5819 On ch=1 n=69 v=0
5820 On ch=1 n=67 v=80
5879 On ch=1 n=67 v=0
5880 On ch=1 n=69 v=80
5939 On ch=1 n=69 v=0
5940 On ch=1 n=71 v=80
5999 On ch=1 n=71 v=0
6000 On ch=1 n=72 v=80
6119 On ch=1 n=72 v=0
6120 On ch=1 n=67 v=80
6239 On ch=1 n=67 v=0
6240 On ch=1 n=66 v=80
6359 On ch=1 n=66 v=0
6360 On ch=1 n=70 v=80
6479 On ch=1 n=70 v=0
6480 On ch=1 n=71 v=80
6599 On ch=1 n=71 v=0
6600 On ch=1 n=65 v=80
6719 On ch=1 n=65 v=0
6720 On ch=1 n=64 v=80
6839 On ch=1 n=64 v=0
6840 On ch=1 n=68 v=80
6959 On ch=1 n=68 v=0
6960 On ch=1 n=69 v=80
7079 On ch=1 n=69 v=0
7080 On ch=1 n=63 v=80
7319 On ch=1 n=63 v=0
7320 On ch=1 n=64 v=80
7559 On ch=1 n=64 v=0
7560 On ch=1 n=66 v=80
7679 On ch=1 n=66 v=0
7680 Meta TrkEnd
TrkEnd
MTrk
0 KeySig 0 major
0 Meta 0x21 00
0 On ch=1 n=45 v=80
239 On ch=1 n=45 v=0
240 On ch=1 n=57 v=80
479 On ch=1 n=57 v=0
480 On ch=1 n=56 v=80
719 On ch=1 n=56 v=0
720 On ch=1 n=55 v=80
959 On ch=1 n=55 v=0
960 On ch=1 n=54 v=80
1199 On ch=1 n=54 v=0
1200 On ch=1 n=53 v=80
1439 On ch=1 n=53 v=0
1440 On ch=1 n=52 v=80
1679 On ch=1 n=52 v=0
1680 On ch=1 n=50 v=80
1979 On ch=1 n=50 v=0
1980 On ch=1 n=48 v=80
2039 On ch=1 n=48 v=0
2040 On ch=1 n=50 v=80
2099 On ch=1 n=50 v=0
2100 On ch=1 n=52 v=80
2159 On ch=1 n=52 v=0
2160 On ch=1 n=53 v=80
2279 On ch=1 n=53 v=0
2280 On ch=1 n=48 v=80
2399 On ch=1 n=48 v=0
2400 On ch=1 n=47 v=80
2519 On ch=1 n=47 v=0
2520 On ch=1 n=51 v=80
2639 On ch=1 n=51 v=0
2640 On ch=1 n=52 v=80
2759 On ch=1 n=52 v=0
2760 On ch=1 n=46 v=80
2879 On ch=1 n=46 v=0
2880 On ch=1 n=45 v=80
2999 On ch=1 n=45 v=0
3000 On ch=1 n=49 v=80
3119 On ch=1 n=49 v=0
3120 On ch=1 n=50 v=80
3239 On ch=1 n=50 v=0
3240 On ch=1 n=44 v=80
3479 On ch=1 n=44 v=0
3480 On ch=1 n=45 v=80
3719 On ch=1 n=45 v=0
3720 On ch=1 n=47 v=80
3839 On ch=1 n=47 v=0
3840 On ch=1 n=40 v=80
4079 On ch=1 n=40 v=0
4080 On ch=1 n=45 v=80
4319 On ch=1 n=45 v=0
4320 On ch=1 n=47 v=80
4559 On ch=1 n=47 v=0
4560 On ch=1 n=49 v=80
4799 On ch=1 n=49 v=0
4800 On ch=1 n=50 v=80
5039 On ch=1 n=50 v=0
5040 On ch=1 n=47 v=80
5279 On ch=1 n=47 v=0
5280 On ch=1 n=49 v=80
5519 On ch=1 n=49 v=0
5520 On ch=1 n=51 v=80
5759 On ch=1 n=51 v=0
5760 On ch=1 n=52 v=80
5999 On ch=1 n=52 v=0
6000 On ch=1 n=64 v=80
6239 On ch=1 n=64 v=0
6240 On ch=1 n=63 v=80
6479 On ch=1 n=63 v=0
6480 On ch=1 n=62 v=80
6719 On ch=1 n=62 v=0
6720 On ch=1 n=61 v=80
6959 On ch=1 n=61 v=0
6960 On ch=1 n=60 v=80
7199 On ch=1 n=60 v=0
7200 On ch=1 n=59 v=80
7439 On ch=1 n=59 v=0
7440 On ch=1 n=57 v=80
7679 On ch=1 n=57 v=0
7680 Meta TrkEnd
TrkEnd
