C C C C C E E E G 
C C C C C E E E E E E G 
C C C C C E E E G 
C C C C C E E E E E E G 
A C C C C D D D D 
A C C C C D D D D D F F 
A C C C C D D D D 
A C C C C D D D D D F F 
B B B B D D D D G 
B B B B D D D D D F F G 
B B B B D D D D G 
B B B B D D D D D F F G 
C C C C C E E E G 
C C C C C E E E E E E G 
C C C C C E E E G 
C C C C C E E E E E E G 
A C C C C E E E E 
A A A C C C C E E E E E 
A C C C C E E E E 
A A A C C C C E E E E E 
A C C C C D D D F# 
A C C C C D D D D D D F# 
A C C C C D D D F# 
A C C C C D D D D D D F# 
B B B B D D D D G 
B B B B D D D D D G G G 
B B B B D D D D G 
B B B B D D D D D G G G 
B B B B C C C E G 
B B B B C C C C C C E G 
B B B B C C C E G 
B B B B C C C C C C E G 
A A A A C C C E G 
A A A A C C C C C C E G 
A A A A C C C E G 
A A A A C C C C C C E G 
A A A D D D D D F# 
A A A A C C D D D D D F# 
A A A D D D D D F# 
A A A A C C D D D D D F# 
B B B D G G G G G 
B B B B B B D G G G G G 
B B B D G G G G G 
B B B B B B D G G G G G 
Bb Bb Bb E G G G G G 
Bb Bb Bb Bb C# C# E G G G G G 
Bb Bb Bb E G G G G G 
Bb Bb Bb Bb C# C# E G G G G G 
A A A A D F F F F 
A A A A A D D D F F F F 
A A A A D F F F F 
A A A A A D D D F F F F 
Ab Ab Ab D F F F F F 
Ab Ab Ab Ab B B D F F F F F 
Ab Ab Ab D F F F F F 
Ab Ab Ab Ab B B D F F F F F 
C E E E E G G G G 
C C C E E E E G G G G G 
C E E E E G G G G 
C C C E E E E G G G G G 
A C E E E E F F F 
A C E E E E F F F F F F 
A C E E E E F F F 
A C E E E E F F F F F F 
A C D D D D F F F 
A C D D D D F F F F F F 
A C D D D D F F F 
A C D D D D F F F F F F 
B D D D G G G G G 
B D D D D F F G G G G G 
B D D D G G G G G 
B D D D D F F G G G G G 
C C C C C E E E G 
C C C C C E E E E E E G 
C C C C C E E E G 
C C C C C E E E E E E G 
Bb C C C C C G G G 
Bb C C C C C E E G G G G 
Bb C C C C C G G G 
Bb C C C C C E E G G G G 
A C F F F F F F F 
A C E E F F F F F F F F 
A C F F F F F F F 
A C E E F F F F F F F F 
A C C C C F# F# F# F# 
A C C C C C Eb Eb F# F# F# F# 
A C C C C F# F# F# F# 
A C C C C C Eb Eb F# F# F# F# 
B C Eb Eb Eb G G G G 
B C Eb Eb Eb Eb Eb Eb G G G G 
B C Eb Eb Eb G G G G 
B C Eb Eb Eb Eb Eb Eb G G G G 
Ab Ab Ab Ab B C F F F 
Ab Ab Ab Ab B C D D F F F F 
Ab Ab Ab Ab B C F F F 
Ab Ab Ab Ab B C D D F F F F 
B F F F G G G G G 
B D D F F F F G G G G G 
B F F F G G G G G 
B D D F F F F G G G G G 
C E E E G G G G G 
C E E E E E E G G G G G 
C E E E G G G G G 
C E E E E E E G G G G G 
C D D D G G G G G 
C D D D D F F G G G G G 
C D D D G G G G G 
C D D D D F F G G G G G 
B D D D G G G G G 
B D D D D F F G G G G G 
B D D D G G G G G 
B D D D D F F G G G G G 
A C Eb Eb Eb G G G G 
A C Eb Eb Eb Eb F# F# G G G G 
A C Eb Eb Eb G G G G 
A C Eb Eb Eb Eb F# F# G G G G 
C E E E G G G G G 
C E E E E G G G G G G G 
C E E E G G G G G 
C E E E E G G G G G G G 
C D D D G G G G G 
C D D D D F F G G G G G 
C D D D G G G G G 
C D D D D F F G G G G G 
B D D D G G G G G 
B D D D D F F G G G G G 
B D D D G G G G G 
B D D D D F F G G G G G 
Bb C C C C C C C G 
Bb C C C C C C C C E E G 
Bb C C C C C C C G 
Bb C C C C C C C C E E G 
A C C C C C C C F 
A C C C C C C C C C C F 
A A C C C C C C C C C F 
C C C C C C C C D D F F 
B B B B C C C C G 
B B B B B C C C C D D F 
B B B B B B C C C C D G 
B B B B C C C C D D E F 
C C C C C C C C C C C C E E E E G G G G 
C C C C C C C C C C C C E E E E G G G G 
C C C C C C C C C C C C E E E E G G G G 
C C C C C C C C C C C C E E E E G G G G 
