0	 0.4731472421532243
1	 0.40113009086110557
2	 1.51657508881031
3	 1.9776529298921766
4	 1.9474579822405906
5	 1.704025734460517
6	 0.0
7	 1.6515985522449994
8	 0.7661834225804134
9	 0.4868644955601473
10	 1.7040257344605165
11	 3.103761159195941
12	 2.140872096444188
13	 1.4981470036162818
14	 0.641179468722378
15	 0.9514900595031632
16	 1.1248703629011358
17	 0.3042903097250922
18	 0.9737289911202953
19	 1.3052600138300812
20	 1.029203215725281
21	 0.693888666488711
22	 1.4194417264596724
23	 1.9474579822405913
24	 2.2762867748773403
25	 1.5811388300841893
26	 0.8745369144952168
27	 0.24343224778007388
28	 1.1196891102907554
29	 0.532290647422377
30	 0.8692269873603532
31	 1.0610965676722952
32	 0.2652741419180738
33	 1.064581294844754
34	 0.7136240321480629
35	 1.9813949444585566
36	 0.6776866969767517
37	 0.8366600265340756
38	 1.1785113019775793
39	 1.5293426329272615
40	 1.4826153068642411
41	 0.7097208632298362
42	 1.217161238900369
43	 0.6039990188856392
44	 2.0816659994661326
45	 1.4605934866804429
46	 1.5122952876462437
47	 2.0825554103161417
48	 2.1291625896895083
49	 0.3651483716701107
50	 0.8692269873603533
51	 1.2169177823044943
52	 1.4160979250508534
53	 1.6467251451604494
54	 0.5305482838361476
55	 1.0916518234783945
56	 1.1684747893443543
57	 0.7319178257862722
58	 0.5305482838361476
59	 1.166444423276391
60	 0.35777087639996635
61	 0.8132240363721015
62	 0.6343267063354423
63	 1.2588060186512429
64	 0.7155417527999326
65	 0.593295878967653
66	 0.6422183775355892
67	 1.4739214512464502
68	 1.3933173842787334
69	 1.4160979250508539
70	 0.4905023879580939
71	 1.5396007178390023
72	 0.32457633037343175
73	 0.16228816518671588
74	 0.0
75	 0.0
76	 0.5322906474223771
77	 0.18257418583505536
78	 0.6378010061584962
79	 0.4756412176223109
80	 0.4757450297515817
81	 1.8881305667344714
82	 0.9428090415820634
83	 2.8050512931498495
84	 0.88633893506882
85	 0.3651483716701107
86	 0.7708687846369003
87	 1.0531160894898468
88	 0.3847076812334269
89	 1.1197883397883395
90	 0.5962847939999438
91	 0.6017806225656266
92	 0.2751729721630624
93	 0.4444444444444444
94	 1.3076899135700746
95	 1.0479256405624144
96	 0.37267799624996495
97	 0.6556481545781819
98	 0.16537608677351992
99	 0.6186446079155375
100	 0.20282667309916977
101	 0.41637730999557965
102	 0.5670257599327424
103	 0.8121739768777861
104	 0.1881067369209659
105	 0.5279456984812393
106	 0.7778105725737268
107	 2.218608172305832
108	 2.3221956404645563
109	 1.7384539747207064
110	 1.180081604209045
111	 1.90126663432955
112	 1.3877773329774215
113	 1.7040257344605165
114	 1.9474579822405904
115	 1.3208302663826994
116	 1.2132600710482482
117	 0.2981423969999719
118	 1.3312483698477238
119	 2.1548395145191988
120	 0.9451631252505219
121	 1.749073828990434
122	 0.8713548411865621
123	 1.5401298646542763
124	 0.6044281043543005
125	 1.4580555290954884
126	 1.9331417529599413
127	 1.6103829772241554
128	 0.7023769168568494
129	 0.7841012784167711
130	 1.3553733939535029
131	 1.3877773329774217
132	 0.0
133	 0.0
134	 0.0
135	 0.0
136	 0.38745768387028207
137	 0.9898247756142261
138	 1.0264004785593348
139	 2.018841292575781
140	 0.6113332929439785
141	 0.9627122180666529
142	 1.1155467020454342
143	 0.5067446333773943
144	 1.183424618283942
145	 0.7875575620741929
146	 0.7950463919999256
147	 0.7950463919999251
148	 0.6360371135999396
149	 1.5116338964964484
150	 1.0610965676722952
151	 0.946294484306448
152	 0.9843549829763081
153	 0.6639946452260658
154	 0.5962847939999439
155	 1.2707536404885154
156	 0.4868644955601475
157	 0.6938886664887107
158	 0.7097208632298361
159	 1.5734421389453928
160	 1.3972341874165537
161	 0.7867210694726963
162	 0.7950463919999253
163	 1.3553733939535029
164	 1.3249737942901192
165	 0.3548604316149181
166	 0.12171612389003705
167	 1.0073801739238344
168	 0.2981423969999721
169	 0.5305482838361476
170	 0.41275945824459354
171	 1.161097820232278
172	 0.709720863229836
173	 1.2156388352540313
174	 0.8902766944004504
175	 0.9737289911202953
176	 0.48686449556014766
177	 0.33333333333333337
178	 1.651037832978374
179	 1.610919528839061
180	 0.8925849085269376
181	 0.7867210694726964
182	 0.5132002392796674
183	 1.275384725498455
184	 0.6388765649999398
185	 0.298142396999972
186	 1.387777332977422
187	 1.7001573396082699
188	 0.9198317971126154
189	 0.7027283689263064
190	 0.7950463919999249
191	 0.8984440138876405
192	 0.16666666666666666
193	 0.0
194	 0.0
195	 1.9013063894055993
196	 1.2495005805041757
197	 0.6207522318391883
198	 1.667777407654115
199	 3.0282619388636722
200	 1.9474579822405906
201	 2.022100118413747
202	 1.4194417264596724
203	 2.2900752049756887
204	 1.7888543819998315
205	 0.8366600265340756
206	 1.9061304607327727
207	 3.103761159195941
208	 1.35400640077266
209	 0.7478363853539484
210	 0.33884334848837566
211	 0.9514900595031632
212	 0.7384668803225595
213	 1.3457752825457567
214	 0.9737289911202953
215	 1.3052600138300812
216	 1.029203215725281
217	 0.693888666488711
218	 1.4194417264596724
219	 1.9474579822405913
220	 1.0869597423462758
221	 1.591644851508443
222	 0.9148972822328401
223	 1.338877362790406
224	 1.1196891102907554
225	 1.4142135623730951
226	 1.1785113019775793
227	 1.0610965676722952
228	 0.2652741419180738
229	 0.18257418583505525
230	 1.5682025568335418
231	 1.7040257344605165
232	 0.6265720968831859
233	 1.3540064007726598
234	 0.7673909622147559
235	 0.9385568117534968
236	 0.4147288270665543
237	 1.1401754250991376
238	 0.9737289911202953
239	 2.091818276931269
240	 1.1159450404627163
241	 0.626572096883186
242	 0.5962847939999438
243	 1.2798148014169575
244	 0.9579126827738164
245	 0.3536988558907651
246	 0.32457633037343175
247	 0.5752079602464347
248	 0.6497862896539309
249	 0.6337555447765166
250	 1.298305321493727
251	 1.4262885934338358
252	 1.4662863979419065
253	 0.7073977117815303
254	 0.9035822626356691
255	 1.9646664694305787
256	 0.8175450718892633
257	 1.305890421987497
258	 1.6826395098667473
259	 1.1653575781889487
260	 1.5032117570820531
261	 0.9771041450572531
262	 0.3245763303734317
263	 0.25660011963983387
264	 0.39752319599996294
265	 0.1987615979999814
266	 0.0
267	 0.0
268	 0.5551109331909692
269	 0.23851391759997767
270	 0.23851391759997767
271	 0.8488772541378363
272	 0.3476907949441414
273	 0.36736139210447505
274	 1.4953862315918678
275	 1.4557167001553262
276	 1.0636995770063356
277	 1.5838693049960408
278	 0.7073977117815303
279	 1.0518727175812526
280	 0.7877247540009414
281	 0.7027283689263062
282	 0.6592176432973922
283	 1.5035978798741831
284	 0.7265001508160907
285	 0.8471690936590102
286	 0.7867210694726966
287	 0.870400314693722
288	 0.7118514664507377
289	 1.2957670877434
290	 0.7073977117815301
291	 0.537024265493092
292	 0.7293945851905879
293	 0.7740652134881856
294	 0.7950463919999256
295	 1.0692561161739071
296	 0.9581875895617324
297	 0.9462944843064481
298	 1.5093671854163
299	 0.5067446333773946
300	 0.6191391873668908
301	 0.7905694150420947
302	 0.9712428929992981
303	 1.2271117752584366
304	 0.7320830405297561
305	 0.885772314193999
306	 0.9888264649460883
307	 1.457208560956
308	 0.5547549787246195
309	 1.9045364945989505
310	 0.6776866969767513
311	 0.5962847939999437
312	 0.3548604316149179
313	 0.41275945824459337
314	 0.24343224778007375
315	 0.950633317164775
316	 1.2171612389003692
317	 0.5962847939999443
318	 1.4194417264596717
319	 1.3249737942901192
320	 1.1642832797715317
321	 0.7911548052852398
322	 0.9737289911202953
323	 2.657316942581997
324	 0.254539041124913
325	 0.3245763303734315
326	 0.9035822626356697
327	 1.0931887889998966
328	 0.5067446333773947
329	 0.5794846582402355
330	 0.7073977117815301
331	 1.2329495565729758
332	 0.2652741419180739
333	 0.6938886664887105
334	 0.6938886664887107
335	 1.1964453524843845
336	 2.7755575615628914E-16
337	 0.38490017945975064
338	 0.6938886664887111
339	 0.9596547628154648
340	 0.41212821823113116
341	 0.4734732882988336
342	 1.8050854088749748
343	 2.9059326290271157
344	 1.9474579822405906
345	 2.6499475885802384
346	 2.3851391759997753
347	 0.6970838729492498
348	 0.8124038404635961
349	 0.5322906474223771
350	 0.7876359377087679
351	 2.678791878053598
352	 0.8944271909999157
353	 0.7366088463985431
354	 0.4260064336151293
355	 1.3667479650615908
356	 1.0914821727052317
357	 1.376388188137505
358	 0.9737289911202953
359	 1.1706281947614154
360	 0.8187614856418018
361	 0.6085806194501848
362	 1.5202339001321843
363	 1.9474579822405913
364	 1.0869597423462758
365	 1.2382783747337807
366	 0.7328281087929399
367	 1.9813949444585566
368	 1.1122216672215293
369	 0.7958224257542215
370	 1.3249737942901196
371	 2.5210227201585376
372	 0.7490735018081406
373	 1.5811388300841898
374	 0.7328281087929399
375	 1.9813949444585566
376	 1.1122216672215293
377	 0.8850612031567836
378	 1.1785113019775793
379	 1.5293426329272615
380	 1.4826153068642411
381	 0.7097208632298362
382	 1.6510378329783741
383	 2.5848561819725058
384	 0.7302967433402215
385	 2.5884358211089564
386	 1.23753039618487
387	 1.7960862802009057
388	 1.7888543819998315
389	 0.36514837167011094
390	 1.0697871023920806
391	 1.5634719199411429
392	 1.4160979250508539
393	 0.6816102937842067
394	 0.354860431614918
395	 0.9576205078406776
396	 0.7155417527999325
397	 1.548045362527999
398	 1.539600717839002
399	 2.6077945840484813
400	 1.6066528353484872
401	 0.769800358919501
402	 0.3548604316149181
403	 1.4511298280229024
404	 1.460593486680443
405	 0.9446927778089788
406	 0.5900408021045221
407	 0.9877771528556952
408	 0.7155417527999328
409	 1.2881223774390613
410	 0.9737289911202958
411	 0.8411632157646666
412	 1.3584304668746696
413	 0.8
414	 0.5529717694220722
415	 1.6121758933537962
416	 1.0733126291998991
417	 0.292118697336089
418	 1.021545669833491
419	 0.9888264649460883
420	 0.3245763303734319
421	 0.16228816518671585
422	 0.0
423	 0.0
424	 0.7071067811865475
425	 0.39791121287711073
426	 0.9712428929992981
427	 1.1380529904417884
428	 0.3291402943021914
429	 2.2443344307471285
430	 0.4868644955601476
431	 2.704667509593103
432	 0.6243103190606389
433	 0.18257418583505536
434	 0.9223449271335824
435	 1.2374472595487087
436	 0.8278486174013537
437	 1.1531599098901149
438	 0.0
439	 0.24720661623652207
440	 0.27888667551135854
441	 0.45812284729085145
442	 0.6956655929999342
443	 1.1055415967851334
444	 0.4944132324730445
445	 0.7042005237974196
446	 0.14886572466214595
447	 0.9833944199792902
448	 0.3823469162566667
449	 0.2037301371390501
450	 0.38763407684684414
451	 1.4200561730936403
452	 0.14116139028911656
453	 0.5535593152669592
454	 0.9865408923880665
455	 2.0426018266471377
456	 2.0584064314505617
457	 1.6510378329783737
458	 1.1925695879998877
459	 1.6055459438389728
460	 1.1925695879998874
461	 0.5962847939999436
462	 0.9888264649460883
463	 0.734342739638147
464	 0.46188021535170043
465	 0.7097208632298362
466	 1.8939474747302354
467	 2.1548395145191988
468	 0.9451631252505219
469	 1.5323668451608279
470	 0.9622504486493765
471	 2.342078848658459
472	 1.1204165891905267
473	 2.0106199523014268
474	 1.9331417529599413
475	 1.6103829772241554
476	 0.7023769168568494
477	 0.7841012784167711
478	 1.8012341448141727
479	 1.3388773627904063
480	 0.0
481	 0.0
482	 0.0
483	 0.0
484	 1.174656941426369
485	 0.8578276707807928
486	 0.9888264649460884
487	 0.8833158628600793
488	 0.7112962721899191
489	 0.5740047747897934
490	 0.825518916489187
491	 1.4054567378526126
492	 1.183424618283942
493	 0.7875575620741929
494	 0.7950463919999256
495	 0.9635325950523911
496	 0.6669628971485893
497	 0.8654692582853749
498	 1.6599866130651644
499	 1.2675110895530335
500	 0.7057203073905232
501	 0.6637714912472457
502	 0.3548604316149181
503	 2.0147603478476683
504	 1.2531441937663717
505	 0.709720863229836
506	 0.5305482838361475
507	 1.100691888652249
508	 1.638025510184887
509	 0.60993152148856
510	 0.47314724215322407
511	 2.231093404090868
512	 0.7453559924999299
513	 0.49441323247304403
514	 0.354860431614918
515	 1.1610978202322781
516	 0.6776866969767511
517	 0.6085806194501843
518	 0.48686449556014744
519	 0.962250448649376
520	 0.7453559924999298
521	 0.6411794687223782
522	 0.4127594582445939
523	 1.2531441937663719
524	 0.2981423969999719
525	 0.5577733510227172
526	 1.6055459438389728
527	 1.454381771560878
528	 0.8175039799301563
529	 0.8471690936590102
530	 0.6491526607468634
531	 0.769800358919501
532	 0.6083321684827163
533	 1.4655530713654359
534	 0.5962847939999438
535	 1.1994511776525196
536	 1.093188788999897
537	 0.9971151804719313
538	 0.8114408259335796
539	 0.5132002392796677
540	 0.28625940062196104
541	 0.17175564037317662
542	 0.0
