0	 0.0
1	 0.0
2	 1.0
3	 0.1843320947338441
4	 0.3258527093141481
5	 0.5923186182344994
6	 0.022843242289735888
7	 0.361396899264261
8	 0.018574652199291608
9	 0.2298256551005204
10	 0.0
11	 0.0
12	 0.39062499999995937
13	 0.3584901724645596
14	 0.415742487149074
15	 0.029670525006988302
16	 0.02356277905513171
17	 0.2587705000266691
18	 1.0
19	 0.1355655065721303
20	 0.40498344052422164
21	 0.4439944904462769
22	 0.022843242289735888
23	 0.361396899264261
24	 0.006877088251164565
25	 0.18545811119733202
26	 0.0
27	 0.0
28	 0.39062499999995937
29	 0.3584901724645596
30	 0.3959569776655875
31	 0.06346596964935436
32	 0.667605952517058
33	 0.5499334663710599
34	 0.19381378215209988
35	 0.2241715948163382
36	 0.3005259632084846
37	 0.4348536952701369
38	 0.4681343794680993
39	 0.7139548807142062
40	 0.1633832609431291
41	 0.008903835604404386
42	 0.5722355139298702
43	 0.08692005407837083
44	 0.7771363570527501
45	 0.1005322690315204
46	 0.20039920177363968
47	 0.3150273459085974
48	 0.2213738678982723
49	 0.5204298592210915
50	 0.04566968607020244
51	 0.8237342121875375
52	 0.21744908607655183
53	 0.9124919310328716
54	 0.0953487478832935
55	 0.2777475189370347
56	 0.8437500000000004
57	 0.05550701562578647
58	 0.3749999999999999
59	 0.0028686410005034357
60	 0.9683762096618227
61	 0.0783376106218226
62	 0.20088736450912764
63	 0.3150273459086005
64	 0.30432659074269397
65	 0.23963716783368105
66	 0.724393669601805
67	 0.13002717483668408
68	 0.5386406539474422
69	 0.10740146741941159
70	 0.1616048121035269
71	 0.0
72	 0.0019551407994121695
73	 0.4815697554806375
74	 0.1407893959464529
75	 0.6118199415101149
76	 0.025048990995398923
77	 0.14912201886730997
78	 1.0
79	 0.1843320947338441
80	 0.3258527093141481
81	 0.5923186182344994
82	 0.022843242289735888
83	 0.361396899264261
84	 0.018574652199291608
85	 0.2298256551005204
86	 0.0
87	 0.0
88	 0.39062499999995937
89	 0.2458716248040857
90	 0.4160704656789264
91	 0.004181622624239101
92	 0.022814325383372525
93	 0.18989435929226994
94	 1.0
95	 0.1355655065721303
96	 0.40498344052422164
97	 0.4439944904462769
98	 0.022843242289735888
99	 0.361396899264261
100	 0.018574652199291608
101	 0.2298256551005204
102	 0.0
103	 0.0
104	 0.09047482334428947
105	 0.0985279622438397
106	 1.0
107	 0.0
108	 0.0
109	 0.13556550657216937
110	 0.05668965253320646
111	 0.014187293276528401
112	 0.061470990346487675
113	 0.895284707521044
114	 0.11183812286992517
115	 0.049436443110417116
116	 0.0
117	 0.0
118	 5.551115123125783E-17
119	 5.551115123125783E-17
120	 0.0
121	 0.0
122	 0.0
123	 0.0
124	 0.0
125	 0.0
126	 5.551115123125783E-17
127	 5.551115123125783E-17
128	 5.551115123125783E-17
129	 5.551115123125783E-17
130	 0.014187293276528401
131	 0.047117722448645205
132	 0.0
133	 0.047117722448645205
134	 0.047117722448649146
135	 5.551115123125783E-17
136	 0.027607519772364142
137	 0.19881794389396523
138	 0.0
139	 0.0
140	 0.0
141	 1.1102230246251565E-16
142	 0.03492647058823467
143	 0.03586833922968852
144	 0.08418803508804767
145	 0.854277144453254
146	 0.06524478522484978
147	 0.08064516129032723
148	 0.7469572902868008
149	 0.07295080142267757
150	 0.03665413533834566
151	 3.081355046807288E-4
152	 0.8538908888397037
153	 1.0
154	 0.0
155	 0.0
156	 0.0
157	 0.4837355724751768
158	 0.051524449775796066
159	 0.4763144772199358
160	 0.4329866004111481
161	 0.9011100245337142
162	 0.051524449775796066
163	 0.6505348227973564
164	 0.3388074651337856
165	 0.7351554276682624
166	 0.3113622539574681
167	 0.6679248822968991
168	 0.33724230824577917
169	 0.8699298528457332
170	 0.3023576462394208
171	 0.0
172	 0.0
173	 0.13556550657216937
174	 0.05668965253320646
175	 0.014187293276528401
176	 0.061470990346487675
177	 0.895284707521044
178	 0.11183812286992517
179	 0.049436443110417116
180	 0.0
181	 0.0
182	 5.551115123125783E-17
183	 5.551115123125783E-17
184	 0.0
185	 0.0
186	 0.0
187	 0.0
188	 0.0
189	 0.0
190	 5.551115123125783E-17
191	 5.551115123125783E-17
192	 5.551115123125783E-17
193	 5.551115123125783E-17
194	 0.014187293276528401
195	 0.047117722448645205
196	 0.0
197	 0.047117722448645205
198	 0.047117722448649146
199	 5.551115123125783E-17
200	 0.027607519772364142
201	 0.19881794389396523
202	 0.0
203	 0.0
204	 0.0
205	 1.1102230246251565E-16
206	 0.027405471640548795
207	 0.04038059222874435
208	 0.10868810393753325
209	 0.8061862178478714
210	 0.06524478522484978
211	 0.08064516129032723
212	 0.7469572902868008
213	 0.07295080142267757
214	 0.03665413533834566
215	 3.081355046807288E-4
216	 0.8538908888397037
217	 1.0
218	 0.0
219	 0.0
220	 0.0
221	 0.4837355724751768
222	 0.051524449775796066
223	 0.4763144772199358
224	 0.4329866004111481
225	 0.9011100245337142
226	 0.051524449775796066
227	 0.6505348227973564
228	 0.3388074651337856
229	 0.7351554276682624
230	 0.3113622539574681
231	 0.6679248822968991
232	 0.33724230824577917
233	 0.8699298528457332
234	 0.3023576462394208
235	 0.0
236	 0.0
237	 0.0
238	 0.0
239	 0.23208705938312635
240	 0.2827405812115986
241	 0.5550598593951419
242	 0.0
243	 0.0
244	 0.07715562596913317
245	 0.830829569507302
246	 0.08962838555185126
247	 0.8952847075210428
248	 0.38967590662327517
249	 0.7084384056682966
250	 0.21133043382306332
251	 0.08962838555184266
252	 0.0778194926821077
253	 0.0
254	 0.0
255	 0.2541446069847952
256	 0.427015723984869
257	 0.09059798149605192
258	 0.2757976414304999
259	 0.0
260	 0.0
261	 0.0
262	 0.14391390109549618
263	 0.5923186182345095
264	 0.08928571428571302
265	 0.0
266	 0.0
267	 0.0
268	 0.0
269	 0.0
270	 0.0
271	 0.27439758928335034
272	 0.2827405812115986
273	 0.5550598593951419
274	 0.0
275	 0.0
276	 0.07715562596913317
277	 0.830829569507302
278	 0.08962838555185126
279	 0.8952847075210428
280	 0.10312806506722438
281	 0.0
282	 0.0
283	 0.9696682183137778
284	 0.07341214719027533
285	 0.0
286	 0.0
287	 0.15007289388808315
288	 0.6250000000000288
289	 0.0
290	 0.0
291	 0.005065986802930966
292	 0.04072067322813755
293	 0.0
294	 0.0
295	 0.005065986802930966
296	 0.04072067322813755
297	 0.926562592313618
298	 0.15870286096007669
299	 0.2948788295983672
300	 0.1588078867098724
301	 0.13556550657216465
302	 1.0
303	 0.1355655065721303
304	 0.40498344052422164
305	 0.4439944904462769
306	 0.022843242289735888
307	 0.361396899264261
308	 0.018574652199291608
309	 0.2298256551005204
310	 0.0
311	 0.0
312	 0.39062499999995937
313	 0.3584901724645596
314	 0.41524301104139505
315	 0.03476399771327837
316	 0.008878410845945761
317	 0.19171323464586443
318	 1.0
319	 0.1355655065721303
320	 0.3012833981085761
321	 0.6203471535475716
322	 0.13511542057449955
323	 0.9455061623156596
324	 0.0
325	 0.0
326	 0.11764705882352622
327	 0.056689652533214396
328	 0.17688483617925077
329	 0.2213147991434219
330	 0.11764705882352733
331	 0.13242647794264734
332	 0.15704831008027248
333	 0.8884132882723819
334	 0.9471213112643568
335	 0.0
336	 0.0
337	 0.0
338	 0.0
339	 0.0
340	 0.7103405214101212
341	 0.35421768724236513
342	 0.16104615965834912
343	 0.0
344	 0.0
345	 0.0
346	 0.0
347	 0.0
348	 0.0
349	 0.0
350	 0.0
351	 0.0
352	 0.0
353	 0.0
354	 0.0
355	 0.0
356	 0.0
357	 0.0
358	 1.0
359	 0.1843320947338441
360	 0.3258527093141481
361	 0.5923186182344994
362	 0.022843242289735888
363	 0.361396899264261
364	 0.018574652199291608
365	 0.2298256551005204
366	 0.0
367	 0.0
368	 0.39062499999995937
369	 0.3584901724645596
370	 0.415742487149074
371	 0.029670525006988302
372	 0.02356277905513171
373	 0.2587705000266691
374	 1.0
375	 0.1355655065721303
376	 0.40498344052422164
377	 0.4439944904462769
378	 0.022843242289735888
379	 0.361396899264261
380	 0.006877088251164565
381	 0.18545811119733202
382	 0.0
383	 0.0
384	 0.39062499999995937
385	 0.3584901724645596
386	 0.3959569776655875
387	 0.06346596964935436
388	 0.667605952517058
389	 0.5499334663710599
390	 0.19381378215209988
391	 0.2241715948163382
392	 0.3005259632084846
393	 0.4348536952701369
394	 0.4681343794680993
395	 0.7139548807142062
396	 0.1633832609431291
397	 0.008903835604404386
398	 0.5722355139298702
399	 0.08692005407837083
400	 0.7771363570527501
401	 0.1005322690315204
402	 0.20039920177363968
403	 0.3150273459085974
404	 0.2213738678982723
405	 0.5204298592210915
406	 0.04566968607020244
407	 0.8237342121875375
408	 0.21744908607655183
409	 0.9124919310328716
410	 0.0953487478832935
411	 0.2777475189370347
412	 0.8437500000000004
413	 0.05550701562578647
414	 0.3749999999999999
415	 0.0028686410005034357
416	 0.9683762096618227
417	 0.0783376106218226
418	 0.20088736450912764
419	 0.3150273459086005
420	 0.30432659074269397
421	 0.23963716783368105
422	 0.724393669601805
423	 0.13002717483668408
424	 0.5386406539474422
425	 0.10740146741941159
426	 0.1616048121035269
427	 0.0
428	 0.0019551407994121695
429	 0.4815697554806375
430	 0.1407893959464529
431	 0.6118199415101149
432	 0.025048990995398923
433	 0.14912201886730997
434	 1.0
435	 0.1843320947338441
436	 0.3258527093141481
437	 0.5923186182344994
438	 0.022843242289735888
439	 0.361396899264261
440	 0.018574652199291608
441	 0.2298256551005204
442	 0.0
443	 0.0
444	 0.39062499999995937
445	 0.2458716248040857
446	 0.4160704656789264
447	 0.004181622624239101
448	 0.022814325383372525
449	 0.18989435929226994
450	 1.0
451	 0.1355655065721303
452	 0.40498344052422164
453	 0.4439944904462769
454	 0.022843242289735888
455	 0.361396899264261
456	 0.018574652199291608
457	 0.2298256551005204
458	 0.0
459	 0.0
460	 0.09047482334428947
461	 0.0985279622438397
462	 1.0
463	 0.0
464	 0.0
465	 0.13556550657216937
466	 0.05668965253320646
467	 0.014187293276528401
468	 0.061470990346487675
469	 0.895284707521044
470	 0.11183812286992517
471	 0.049436443110417116
472	 0.0
473	 0.0
474	 5.551115123125783E-17
475	 5.551115123125783E-17
476	 0.0
477	 0.0
478	 0.0
479	 0.0
480	 0.0
481	 0.0
482	 5.551115123125783E-17
483	 5.551115123125783E-17
484	 5.551115123125783E-17
485	 5.551115123125783E-17
486	 0.014187293276528401
487	 0.047117722448645205
488	 0.0
489	 0.047117722448645205
490	 0.047117722448649146
491	 5.551115123125783E-17
492	 0.027607519772364142
493	 0.19881794389396523
494	 0.0
495	 0.0
496	 0.0
497	 1.1102230246251565E-16
498	 0.03492647058823467
499	 0.03586833922968852
500	 0.08418803508804767
501	 0.854277144453254
502	 0.06524478522484978
503	 0.08064516129032723
504	 0.7469572902868008
505	 0.07295080142267757
506	 0.03665413533834566
507	 3.081355046807288E-4
508	 0.8538908888397037
509	 1.0
510	 0.0
511	 0.0
512	 0.0
513	 0.4837355724751768
514	 0.051524449775796066
515	 0.4763144772199358
516	 0.4329866004111481
517	 0.9011100245337142
518	 0.051524449775796066
519	 0.6505348227973564
520	 0.3388074651337856
521	 0.7351554276682624
522	 0.3113622539574681
523	 0.6679248822968991
524	 0.33724230824577917
525	 0.8699298528457332
526	 0.3023576462394208
527	 0.0
528	 0.0
529	 0.13556550657216937
530	 0.05668965253320646
531	 0.014187293276528401
532	 0.061470990346487675
533	 0.895284707521044
534	 0.11183812286992517
535	 0.049436443110417116
536	 0.0
537	 0.0
538	 5.551115123125783E-17
539	 5.551115123125783E-17
540	 0.0
541	 0.0
542	 0.0
543	 0.0
