0	 1.7888543819998317
1	 1.7888543819998317
2	 2.1291625896895083
3	 1.4605934866804429
4	 2.309401076758503
5	 2.309401076758503
6	 1.4605934866804429
7	 1.4605934866804429
8	 2.966479394838265
9	 2.966479394838265
10	 2.309401076758503
11	 1.7888543819998317
12	 2.1291625896895083
13	 1.4605934866804429
14	 2.1291625896895083
15	 2.1291625896895083
16	 2.1291625896895083
17	 2.1291625896895083
18	 2.1291625896895083
19	 2.1291625896895083
20	 1.7888543819998317
21	 2.1291625896895083
22	 2.309401076758503
23	 1.7888543819998317
24	 2.1291625896895083
25	 2.1291625896895083
26	 2.309401076758503
27	 2.1291625896895083
28	 1.7888543819998317
29	 2.1291625896895083
30	 2.1291625896895083
31	 2.1291625896895083
32	 2.1291625896895083
33	 2.1291625896895083
34	 2.309401076758503
35	 2.9211869733608857
36	 2.309401076758503
37	 2.1291625896895083
38	 2.1291625896895083
39	 2.1291625896895083
40	 2.1291625896895083
41	 1.4605934866804429
42	 2.1291625896895083
43	 2.1291625896895083
44	 2.1291625896895083
45	 2.309401076758503
46	 2.1291625896895083
47	 2.1291625896895083
48	 1.4605934866804429
49	 1.7888543819998317
50	 1.7888543819998317
51	 2.1291625896895083
52	 2.1291625896895083
53	 2.1291625896895083
54	 2.309401076758503
55	 1.7888543819998317
56	 1.4605934866804429
57	 1.4605934866804429
58	 2.309401076758503
59	 1.7888543819998317
60	 1.7888543819998317
61	 1.7888543819998317
62	 2.1291625896895083
63	 2.309401076758503
64	 1.4605934866804429
65	 1.7888543819998317
66	 2.1291625896895083
67	 2.309401076758503
68	 2.1291625896895083
69	 1.7888543819998317
70	 1.4605934866804429
71	 2.1291625896895083
72	 1.7888543819998317
73	 2.1291625896895083
74	 2.1291625896895083
75	 0.0
76	 2.1291625896895083
77	 1.7888543819998317
78	 2.966479394838265
79	 2.1291625896895083
80	 2.1291625896895083
81	 1.4605934866804429
82	 2.1291625896895083
83	 2.1291625896895083
84	 2.1291625896895083
85	 1.7888543819998317
86	 2.966479394838265
87	 2.1291625896895083
88	 2.309401076758503
89	 1.7888543819998317
90	 2.309401076758503
91	 2.1291625896895083
92	 1.7888543819998317
93	 2.309401076758503
94	 1.4605934866804429
95	 2.1291625896895083
96	 2.966479394838265
97	 2.966479394838265
98	 2.966479394838265
99	 2.309401076758503
100	 2.9211869733608857
101	 2.966479394838265
102	 2.1291625896895083
103	 2.309401076758503
104	 2.309401076758503
105	 2.1291625896895083
106	 2.1291625896895083
107	 2.1291625896895083
108	 2.1291625896895083
109	 1.7888543819998317
110	 2.309401076758503
111	 2.1291625896895083
112	 2.1291625896895083
113	 1.7888543819998317
114	 2.1291625896895083
115	 2.1291625896895083
116	 2.309401076758503
117	 2.1291625896895083
118	 2.309401076758503
119	 2.9211869733608857
120	 2.1291625896895083
121	 2.1291625896895083
122	 2.1291625896895083
123	 2.1291625896895083
124	 2.1291625896895083
125	 2.966479394838265
126	 1.7888543819998317
127	 2.309401076758503
128	 2.1291625896895083
129	 2.1291625896895083
130	 1.7888543819998317
131	 2.1291625896895083
132	 0.0
133	 0.0
134	 0.0
135	 0.0
136	 2.966479394838265
137	 2.1291625896895083
138	 2.1291625896895083
139	 1.4605934866804429
140	 2.9211869733608857
141	 2.1291625896895083
142	 2.1291625896895083
143	 2.9211869733608857
144	 1.7888543819998317
145	 2.1291625896895083
146	 1.7888543819998317
147	 2.309401076758503
148	 2.1291625896895083
149	 2.1291625896895083
150	 1.4605934866804429
151	 1.7888543819998317
152	 2.309401076758503
153	 2.309401076758503
154	 2.966479394838265
155	 2.966479394838265
156	 1.7888543819998317
157	 2.1291625896895083
158	 2.309401076758503
159	 2.309401076758503
160	 2.1291625896895083
161	 2.1291625896895083
162	 2.1291625896895083
163	 1.7888543819998317
164	 2.966479394838265
165	 2.1291625896895083
166	 2.1291625896895083
167	 2.309401076758503
168	 2.309401076758503
169	 2.309401076758503
170	 2.309401076758503
171	 2.309401076758503
172	 2.1291625896895083
173	 2.1291625896895083
174	 2.966479394838265
175	 2.9211869733608857
176	 2.1291625896895083
177	 2.1291625896895083
178	 2.1291625896895083
179	 2.966479394838265
180	 2.966479394838265
181	 2.1291625896895083
182	 1.7888543819998317
183	 1.7888543819998317
184	 2.1291625896895083
185	 2.966479394838265
186	 2.1291625896895083
187	 2.1291625896895083
188	 2.966479394838265
189	 2.309401076758503
190	 1.7888543819998317
191	 2.1291625896895083
192	 1.7888543819998317
193	 1.4605934866804429
194	 1.4605934866804429
195	 1.4605934866804429
196	 1.4605934866804429
197	 1.4605934866804429
198	 2.309401076758503
199	 1.7888543819998317
200	 2.309401076758503
201	 2.309401076758503
202	 1.4605934866804429
203	 1.4605934866804429
204	 1.4605934866804429
205	 1.4605934866804429
206	 2.309401076758503
207	 1.7888543819998317
208	 2.1291625896895083
209	 1.7888543819998317
210	 2.1291625896895083
211	 2.1291625896895083
212	 2.1291625896895083
213	 2.1291625896895083
214	 2.1291625896895083
215	 2.1291625896895083
216	 1.7888543819998317
217	 2.1291625896895083
218	 2.309401076758503
219	 1.7888543819998317
220	 2.1291625896895083
221	 2.1291625896895083
222	 2.309401076758503
223	 1.7888543819998317
224	 2.309401076758503
225	 2.1291625896895083
226	 2.1291625896895083
227	 2.1291625896895083
228	 2.1291625896895083
229	 2.1291625896895083
230	 2.309401076758503
231	 2.966479394838265
232	 2.309401076758503
233	 2.1291625896895083
234	 2.1291625896895083
235	 1.7888543819998317
236	 1.4605934866804429
237	 2.966479394838265
238	 1.7888543819998317
239	 2.309401076758503
240	 2.1291625896895083
241	 1.7888543819998317
242	 2.1291625896895083
243	 2.1291625896895083
244	 2.966479394838265
245	 2.966479394838265
246	 2.966479394838265
247	 2.309401076758503
248	 2.1291625896895083
249	 2.1291625896895083
250	 1.7888543819998317
251	 2.966479394838265
252	 1.4605934866804429
253	 2.1291625896895083
254	 2.966479394838265
255	 2.966479394838265
256	 2.309401076758503
257	 2.309401076758503
258	 2.966479394838265
259	 2.966479394838265
260	 0.0
261	 1.4605934866804429
262	 2.1291625896895083
263	 2.1291625896895083
264	 2.1291625896895083
265	 2.1291625896895083
266	 2.1291625896895083
267	 0.0
268	 2.966479394838265
269	 2.1291625896895083
270	 2.1291625896895083
271	 2.1291625896895083
272	 2.1291625896895083
273	 2.1291625896895083
274	 2.309401076758503
275	 2.1291625896895083
276	 2.309401076758503
277	 2.309401076758503
278	 2.309401076758503
279	 3.5777087639996634
280	 3.5777087639996634
281	 3.5777087639996634
282	 2.966479394838265
283	 3.5777087639996634
284	 2.1291625896895083
285	 2.966479394838265
286	 2.966479394838265
287	 2.309401076758503
288	 2.1291625896895083
289	 2.966479394838265
290	 2.9211869733608857
291	 2.9211869733608857
292	 2.1291625896895083
293	 2.966479394838265
294	 2.309401076758503
295	 2.309401076758503
296	 2.1291625896895083
297	 2.1291625896895083
298	 2.966479394838265
299	 2.309401076758503
300	 1.7888543819998317
301	 1.4605934866804429
302	 2.309401076758503
303	 2.1291625896895083
304	 2.1291625896895083
305	 2.309401076758503
306	 2.966479394838265
307	 2.309401076758503
308	 2.9211869733608857
309	 1.7888543819998317
310	 2.9211869733608857
311	 2.309401076758503
312	 1.4605934866804429
313	 2.966479394838265
314	 2.966479394838265
315	 2.1291625896895083
316	 1.7888543819998317
317	 2.1291625896895083
318	 2.1291625896895083
319	 2.1291625896895083
320	 2.1291625896895083
321	 1.7888543819998317
322	 1.4605934866804429
323	 1.4605934866804429
324	 1.7888543819998317
325	 2.1291625896895083
326	 2.309401076758503
327	 2.966479394838265
328	 2.1291625896895083
329	 2.1291625896895083
330	 1.7888543819998317
331	 1.7888543819998317
332	 2.1291625896895083
333	 2.966479394838265
334	 2.1291625896895083
335	 2.309401076758503
336	 2.1291625896895083
337	 2.1291625896895083
338	 2.1291625896895083
339	 2.309401076758503
340	 2.309401076758503
341	 2.309401076758503
342	 2.309401076758503
343	 2.1291625896895083
344	 2.309401076758503
345	 2.309401076758503
346	 2.1291625896895083
347	 1.4605934866804429
348	 1.4605934866804429
349	 1.7888543819998317
350	 2.1291625896895083
351	 2.309401076758503
352	 2.966479394838265
353	 2.966479394838265
354	 2.1291625896895083
355	 2.309401076758503
356	 2.1291625896895083
357	 1.7888543819998317
358	 2.1291625896895083
359	 2.1291625896895083
360	 1.4605934866804429
361	 2.1291625896895083
362	 2.309401076758503
363	 1.7888543819998317
364	 2.1291625896895083
365	 2.1291625896895083
366	 2.1291625896895083
367	 2.9211869733608857
368	 2.309401076758503
369	 2.1291625896895083
370	 2.1291625896895083
371	 1.7888543819998317
372	 1.7888543819998317
373	 2.1291625896895083
374	 2.1291625896895083
375	 2.9211869733608857
376	 2.309401076758503
377	 2.1291625896895083
378	 2.1291625896895083
379	 2.1291625896895083
380	 2.1291625896895083
381	 1.4605934866804429
382	 2.1291625896895083
383	 1.7888543819998317
384	 2.1291625896895083
385	 2.1291625896895083
386	 2.1291625896895083
387	 2.1291625896895083
388	 1.7888543819998317
389	 1.7888543819998317
390	 2.1291625896895083
391	 1.7888543819998317
392	 1.7888543819998317
393	 2.1291625896895083
394	 1.7888543819998317
395	 2.1291625896895083
396	 1.4605934866804429
397	 2.309401076758503
398	 2.1291625896895083
399	 2.966479394838265
400	 1.4605934866804429
401	 2.309401076758503
402	 1.4605934866804429
403	 2.1291625896895083
404	 2.309401076758503
405	 2.309401076758503
406	 1.4605934866804429
407	 2.309401076758503
408	 2.1291625896895083
409	 2.309401076758503
410	 2.1291625896895083
411	 2.1291625896895083
412	 2.1291625896895083
413	 2.966479394838265
414	 2.966479394838265
415	 2.966479394838265
416	 2.1291625896895083
417	 2.1291625896895083
418	 1.7888543819998317
419	 2.1291625896895083
420	 1.4605934866804429
421	 2.966479394838265
422	 2.966479394838265
423	 0.0
424	 2.1291625896895083
425	 1.7888543819998317
426	 2.309401076758503
427	 2.1291625896895083
428	 0.0
429	 2.309401076758503
430	 1.4605934866804429
431	 1.7888543819998317
432	 2.1291625896895083
433	 2.966479394838265
434	 2.309401076758503
435	 2.1291625896895083
436	 1.4605934866804429
437	 2.309401076758503
438	 2.309401076758503
439	 2.1291625896895083
440	 2.309401076758503
441	 2.966479394838265
442	 2.966479394838265
443	 2.309401076758503
444	 2.9211869733608857
445	 2.9211869733608857
446	 2.309401076758503
447	 2.309401076758503
448	 2.9211869733608857
449	 2.1291625896895083
450	 2.1291625896895083
451	 2.309401076758503
452	 2.309401076758503
453	 2.1291625896895083
454	 2.1291625896895083
455	 2.1291625896895083
456	 2.1291625896895083
457	 2.1291625896895083
458	 2.309401076758503
459	 2.1291625896895083
460	 2.1291625896895083
461	 1.7888543819998317
462	 1.7888543819998317
463	 2.1291625896895083
464	 1.4605934866804429
465	 2.1291625896895083
466	 1.7888543819998317
467	 2.9211869733608857
468	 2.1291625896895083
469	 2.1291625896895083
470	 1.4605934866804429
471	 2.1291625896895083
472	 2.309401076758503
473	 2.309401076758503
474	 1.7888543819998317
475	 2.309401076758503
476	 2.1291625896895083
477	 2.1291625896895083
478	 1.7888543819998317
479	 2.9211869733608857
480	 0.0
481	 0.0
482	 0.0
483	 0.0
484	 2.966479394838265
485	 2.1291625896895083
486	 2.966479394838265
487	 2.966479394838265
488	 2.1291625896895083
489	 2.1291625896895083
490	 2.1291625896895083
491	 2.9211869733608857
492	 1.7888543819998317
493	 2.1291625896895083
494	 1.7888543819998317
495	 2.309401076758503
496	 2.1291625896895083
497	 2.309401076758503
498	 1.4605934866804429
499	 2.309401076758503
500	 2.1291625896895083
501	 2.1291625896895083
502	 2.309401076758503
503	 2.1291625896895083
504	 1.4605934866804429
505	 2.1291625896895083
506	 2.309401076758503
507	 2.309401076758503
508	 2.966479394838265
509	 2.309401076758503
510	 2.1291625896895083
511	 2.1291625896895083
512	 2.9211869733608857
513	 2.1291625896895083
514	 2.1291625896895083
515	 2.1291625896895083
516	 2.309401076758503
517	 2.309401076758503
518	 2.309401076758503
519	 2.309401076758503
520	 2.309401076758503
521	 2.966479394838265
522	 2.966479394838265
523	 2.9211869733608857
524	 2.1291625896895083
525	 2.1291625896895083
526	 2.1291625896895083
527	 2.1291625896895083
528	 2.309401076758503
529	 2.309401076758503
530	 2.309401076758503
531	 2.1291625896895083
532	 2.1291625896895083
533	 2.1291625896895083
534	 2.309401076758503
535	 2.1291625896895083
536	 2.966479394838265
537	 2.309401076758503
538	 1.7888543819998317
539	 1.7888543819998317
540	 2.309401076758503
541	 2.309401076758503
542	 2.309401076758503
543	 2.309401076758503
