0	 1.1563031769553507
1	 1.0954451150103321
2	 1.2382783747337804
3	 1.7490738289904344
4	 2.45251193979047
5	 1.7888543819998317
6	 1.879716290649558
7	 1.4919537278099229
8	 1.0818365728567185
9	 1.1401754250991378
10	 1.2382783747337804
11	 1.6777409856157222
12	 2.4615562677418645
13	 1.7888543819998317
14	 1.879716290649558
15	 1.7680288249703187
16	 1.1610978202322781
17	 1.1547005383792515
18	 2.073644135332772
19	 1.486357715780175
20	 1.6843506277010845
21	 1.0954451150103321
22	 0.7302967433402214
23	 0.6898738478344615
24	 1.1610978202322781
25	 1.4605934866804429
26	 1.7416467303484173
27	 1.3797476956689232
28	 1.2171612389003692
29	 1.1401754250991378
30	 0.7302967433402214
31	 0.7416198487095661
32	 1.5811388300841893
33	 2.2533925041540757
34	 2.2533925041540757
35	 1.5811388300841893
36	 1.5811388300841893
37	 2.2533925041540757
38	 2.2533925041540757
39	 1.7490738289904342
40	 1.3553733939535026
41	 0.48686449556014766
42	 1.1610978202322781
43	 0.48686449556014766
44	 1.0610965676722952
45	 0.9428090415820634
46	 0.9428090415820634
47	 1.1320253890622247
48	 0.8520128672302584
49	 1.2041594578792296
50	 1.3354150416006751
51	 1.2531441937663717
52	 1.132025389062225
53	 1.132025389062225
54	 0.7698003589195008
55	 0.709720863229836
56	 0.9622504486493763
57	 0.7302967433402212
58	 1.3038404810405297
59	 0.6353768202442575
60	 0.6265720968831859
61	 1.0869597423462753
62	 0.9148972822328401
63	 0.9447711853102806
64	 0.8050764858994133
65	 0.7302967433402214
66	 1.35400640077266
67	 0.6353768202442575
68	 0.6265720968831859
69	 1.0869597423462753
70	 0.9148972822328401
71	 0.9447711853102806
72	 1.292428090986253
73	 1.2382783747337807
74	 0.8944271909999159
75	 1.0110500592068734
76	 1.0903618155864083
77	 0.7302967433402215
78	 0.7302967433402215
79	 0.3651483716701107
80	 1.2382783747337807
81	 1.2382783747337807
82	 0.6191391873668903
83	 2.352303835250313
84	 0.0
85	 0.7302967433402214
86	 0.0
87	 0.7841012784167712
88	 1.0869597423462753
89	 1.016530045465127
90	 1.2382783747337804
91	 1.6777409856157222
92	 2.4615562677418645
93	 1.7888543819998317
94	 1.879716290649558
95	 1.4919537278099229
96	 1.0869597423462753
97	 1.016530045465127
98	 1.2382783747337804
99	 1.6777409856157222
100	 2.4615562677418645
101	 1.7888543819998317
102	 1.879716290649558
103	 1.5811388300841893
104	 1.5811388300841893
105	 2.2533925041540757
106	 2.2533925041540757
107	 1.5811388300841893
108	 1.5811388300841893
109	 2.2533925041540757
110	 2.2533925041540757
111	 1.7680288249703187
112	 0.3849001794597506
113	 0.2434322477800738
114	 0.8552669065744806
115	 0.7490735018081408
116	 0.3849001794597503
117	 0.24343224778007375
118	 0.8255189164891868
119	 0.9888264649460882
120	 1.333333333333333
121	 1.1800816042090445
122	 0.5900408021045225
123	 0.7552286874651746
124	 1.1610978202322781
125	 1.1800816042090445
126	 0.6735753140545633
127	 0.7136240321480625
128	 0.0
129	 0.0
130	 0.0
131	 1.9706175005143267
132	 0.0
133	 1.9235384061671343
134	 0.0
135	 0.8366600265340757
136	 0.0
137	 0.0
138	 0.0
139	 0.0
140	 0.0
141	 0.0
142	 0.0
143	 0.0
144	 0.0
145	 0.0
146	 0.0
147	 0.0
148	 0.0
149	 0.0
150	 0.0
151	 0.0
152	 0.0
153	 0.0
154	 0.0
155	 0.0
156	 0.0
157	 0.0
158	 0.0
159	 0.0
160	 0.0
161	 0.0
162	 0.0
163	 0.0
164	 0.0
165	 0.0
166	 0.0
167	 0.0
168	 0.0
169	 0.0
170	 0.0
171	 0.0
172	 0.0
173	 0.0
174	 0.0
175	 0.0
176	 0.0
177	 0.0
178	 0.0
179	 0.0
180	 0.0
181	 0.0
182	 0.0
183	 0.0
184	 0.0
185	 0.0
186	 0.0
187	 0.0
188	 0.0
189	 0.0
190	 0.0
191	 0.0
192	 0.0
193	 0.0
194	 0.0
195	 0.0
196	 0.0
197	 0.0
198	 0.0
199	 0.0
200	 0.0
201	 0.0
202	 0.0
203	 0.0
204	 0.0
205	 0.0
206	 0.0
207	 0.0
208	 0.0
209	 0.0
210	 0.0
211	 0.0
212	 0.0
213	 0.0
214	 0.0
215	 0.0
216	 0.0
217	 0.0
218	 0.0
219	 0.0
220	 0.0
221	 0.0
222	 0.0
223	 0.0
224	 0.0
225	 0.0
226	 0.0
227	 0.0
228	 0.0
229	 0.0
230	 0.0
231	 0.0
232	 0.0
233	 0.0
234	 0.0
235	 0.0
236	 0.0
237	 0.0
238	 0.0
239	 0.0
240	 0.0
241	 0.0
242	 0.0
243	 0.0
244	 0.0
245	 0.0
246	 0.0
247	 0.0
248	 0.0
249	 0.0
250	 0.0
251	 0.0
252	 0.0
253	 0.0
254	 0.0
255	 0.0
256	 0.0
257	 0.0
258	 0.0
259	 0.0
260	 0.0
261	 0.0
262	 0.0
263	 0.0
264	 0.0
265	 0.0
266	 0.0
267	 0.0
268	 0.0
269	 0.0
270	 0.0
271	 0.0
272	 0.0
273	 0.0
274	 0.0
275	 0.0
276	 0.0
277	 0.0
