0	 1.085000560310625
1	 0.915833961755077
2	 0.9717776728779067
3	 1.2650174618705203
4	 1.4515204267276791
5	 1.322638718183213
6	 1.110767833004419
7	 1.4125003287919382
8	 0.9894696639485063
9	 0.9415093443529915
10	 0.9717776728779067
11	 1.2650174618705203
12	 1.5681308031775827
13	 1.322638718183213
14	 1.110767833004419
15	 1.4125003287919382
16	 1.085000560310625
17	 1.3264980885162758
18	 1.0510210173147505
19	 1.3200565059259142
20	 1.200291628585382
21	 1.0085302072012188
22	 1.0268812876069626
23	 0.7980909589998707
24	 1.085000560310625
25	 1.3264980885162758
26	 0.8438671966038257
27	 1.2650174618705203
28	 1.1595322784481936
29	 0.9246475971078567
30	 1.0268812876069626
31	 0.7980909589998707
32	 1.2271386143534613
33	 1.4125003287919382
34	 1.4164308278022066
35	 1.4125003287919382
36	 1.2271386143534613
37	 1.4125003287919382
38	 1.4164308278022066
39	 1.4125003287919382
40	 1.254509197648818
41	 1.440882083599256
42	 1.2807711194115887
43	 1.6064992516350574
44	 1.2251343664571532
45	 1.440882083599256
46	 1.191917531148676
47	 1.440882083599256
48	 0.9894696639485063
49	 0.8795619243903942
50	 0.9920429319527121
51	 0.9246475971078567
52	 1.254509197648818
53	 1.4787047864614489
54	 1.254509197648818
55	 1.2628527938114298
56	 1.3267388566150264
57	 0.779285043381004
58	 1.023729055383959
59	 0.6405038476366347
60	 0.5280685922269875
61	 0.3891835627361464
62	 0.9061427372764262
63	 0.5688278991376331
64	 1.2779196611363388
65	 0.7691240767938551
66	 1.0268812876069626
67	 0.6405038476366347
68	 0.5280685922269877
69	 0.3891835627361464
70	 0.9061427372764262
71	 0.5688278991376331
72	 1.2779196611363388
73	 0.4314130026289579
74	 1.1411116709174436
75	 0.8805497405053276
76	 0.8520661561128271
77	 0.6085916903014695
78	 1.0932909854367836
79	 0.7691240767938551
80	 0.8304728646002428
81	 1.330509618719083
82	 0.8304728646002428
83	 1.3858590039529033
84	 1.8979630780139005
85	 1.8979630780139005
86	 1.437079391974338
87	 1.437079391974338
88	 0.9894696639485063
89	 0.9189065125666122
90	 0.9717776728779067
91	 1.2650174618705203
92	 1.5681308031775827
93	 1.322638718183213
94	 1.110767833004419
95	 1.4125003287919382
96	 0.9894696639485063
97	 0.9189065125666122
98	 0.9717776728779067
99	 1.2650174618705203
100	 1.5681308031775827
101	 1.322638718183213
102	 1.110767833004419
103	 1.4125003287919382
104	 1.2271386143534613
105	 1.4125003287919382
106	 1.4164308278022066
107	 1.4125003287919382
108	 1.2271386143534613
109	 1.4125003287919382
110	 1.4164308278022066
111	 1.4125003287919382
112	 1.085000560310625
113	 1.165218463519276
114	 0.9651618138869157
115	 0.9188513729129428
116	 1.0700848673267824
117	 1.1830737716675588
118	 0.9791077538515095
119	 0.9415093443529915
120	 1.0700848673267824
121	 1.3264980885162758
122	 0.9791077538515095
123	 0.8581980223141975
124	 1.085000560310625
125	 1.3264980885162758
126	 0.9791077538515095
127	 0.7980909589998707
128	 1.254509197648818
129	 1.254509197648818
130	 1.285379261348183
131	 1.285379261348183
132	 1.0671406556013754
133	 1.0671406556013754
134	 1.0496728913510787
135	 1.0496728913510787
136	 1.1272396279573094
137	 1.1272396279573094
138	 1.1272396279573094
139	 1.1272396279573094
140	 1.1272396279573094
141	 1.1272396279573094
142	 1.1272396279573094
143	 1.1272396279573094
144	 1.1272396279573094
145	 1.1272396279573094
146	 1.1272396279573094
147	 1.1272396279573094
148	 1.1272396279573094
149	 1.1272396279573094
150	 1.1272396279573094
151	 1.1272396279573094
152	 1.1272396279573094
153	 1.1272396279573094
154	 1.1272396279573094
155	 1.1272396279573094
156	 1.1272396279573094
157	 1.1272396279573094
158	 1.1272396279573094
159	 1.1272396279573094
160	 1.1272396279573094
161	 1.1272396279573094
162	 1.1272396279573094
163	 1.1272396279573094
164	 1.1272396279573094
165	 1.1272396279573094
166	 1.1272396279573094
167	 1.1272396279573094
168	 1.1272396279573094
169	 1.1272396279573094
170	 1.1272396279573094
171	 1.1272396279573094
172	 1.1272396279573094
173	 1.1272396279573094
174	 1.1272396279573094
175	 1.1272396279573094
176	 1.1272396279573094
177	 1.1272396279573094
178	 1.1272396279573094
179	 1.1272396279573094
180	 1.1272396279573094
181	 1.1272396279573094
182	 1.1272396279573094
183	 1.1272396279573094
184	 1.1272396279573094
185	 1.1272396279573094
186	 1.1272396279573094
187	 1.1272396279573094
188	 1.1272396279573094
189	 1.1272396279573094
190	 1.1272396279573094
191	 1.1272396279573094
192	 1.1272396279573094
193	 1.1272396279573094
194	 1.1272396279573094
195	 1.1272396279573094
196	 1.1272396279573094
197	 1.1272396279573094
198	 1.1272396279573094
199	 1.1272396279573094
200	 1.1272396279573094
201	 1.1272396279573094
202	 1.1272396279573094
203	 1.1272396279573094
204	 1.1272396279573094
205	 1.1272396279573094
206	 1.1272396279573094
207	 1.1272396279573094
208	 1.1272396279573094
209	 1.1272396279573094
210	 1.1272396279573094
211	 1.1272396279573094
212	 1.1272396279573094
213	 1.1272396279573094
214	 1.1272396279573094
215	 1.1272396279573094
216	 1.1272396279573094
217	 1.1272396279573094
218	 1.1272396279573094
219	 1.1272396279573094
220	 1.1272396279573094
221	 1.1272396279573094
222	 1.1272396279573094
223	 1.1272396279573094
224	 1.1272396279573094
225	 1.1272396279573094
226	 1.1272396279573094
227	 1.1272396279573094
228	 1.1272396279573094
229	 1.1272396279573094
230	 1.1272396279573094
231	 1.1272396279573094
232	 1.1272396279573094
233	 1.1272396279573094
234	 1.1272396279573094
235	 1.1272396279573094
236	 1.1272396279573094
237	 1.1272396279573094
238	 1.1272396279573094
239	 1.1272396279573094
240	 1.1272396279573094
241	 1.1272396279573094
242	 1.1272396279573094
243	 1.1272396279573094
244	 1.1272396279573094
245	 1.1272396279573094
246	 1.1272396279573094
247	 1.1272396279573094
248	 1.1272396279573094
249	 1.1272396279573094
250	 1.1272396279573094
251	 1.1272396279573094
252	 1.1272396279573094
253	 1.1272396279573094
254	 1.1272396279573094
255	 1.1272396279573094
256	 1.1272396279573094
257	 1.1272396279573094
258	 1.1272396279573094
259	 1.1272396279573094
260	 1.1272396279573094
261	 1.1272396279573094
262	 1.1272396279573094
263	 1.1272396279573094
264	 1.1272396279573094
265	 1.1272396279573094
266	 1.1272396279573094
267	 1.1272396279573094
268	 1.1272396279573094
269	 1.1272396279573094
270	 1.1272396279573094
271	 1.1272396279573094
272	 1.1272396279573094
273	 1.1272396279573094
274	 1.1272396279573094
275	 1.1272396279573094
276	 1.1272396279573094
277	 1.1272396279573094
278	 1.1272396279573094
