0	 1.0497117034304297
1	 0.915833961755077
2	 1.0523065992558125
3	 1.3858590039529033
4	 1.4515204267276791
5	 1.4125003287919382
6	 1.0496728913510787
7	 1.3858590039529033
8	 1.0497117034304297
9	 0.915833961755077
10	 1.0523065992558125
11	 1.3858590039529033
12	 1.5681308031775827
13	 1.4125003287919382
14	 1.0496728913510787
15	 1.3858590039529033
16	 1.0497117034304297
17	 1.3858590039529033
18	 1.0496728913510787
19	 1.2235292581315742
20	 1.170929669087108
21	 0.915833961755077
22	 1.16203837236011
23	 0.8917517473138661
24	 1.0497117034304297
25	 1.3858590039529033
26	 1.0496728913510787
27	 1.2235292581315742
28	 1.170929669087108
29	 0.915833961755077
30	 1.16203837236011
31	 0.8917517473138661
32	 1.2475830830881378
33	 1.3066067422286374
34	 1.4515204267276791
35	 1.3858590039529033
36	 1.2475830830881378
37	 1.3066067422286374
38	 1.4515204267276791
39	 1.3858590039529033
40	 1.2475830830881378
41	 1.440882083599256
42	 1.2475830830881378
43	 1.440882083599256
44	 1.2475830830881378
45	 1.440882083599256
46	 1.2475830830881378
47	 1.440882083599256
48	 1.0497117034304297
49	 0.915833961755077
50	 1.0523065992558125
51	 0.915833961755077
52	 1.2475830830881378
53	 1.440882083599256
54	 1.2475830830881378
55	 1.440882083599256
56	 1.2595178946666383
57	 0.7539583402531822
58	 1.0268812876069626
59	 0.5684363161375248
60	 0.4282839067292387
61	 0.39268288160295445
62	 0.8722840989079783
63	 0.5199229226568107
64	 1.2595178946666383
65	 0.7539583402531822
66	 1.0268812876069626
67	 0.5684363161375248
68	 0.4282839067292387
69	 0.39268288160295445
70	 0.8722840989079783
71	 0.5199229226568107
72	 1.2595178946666383
73	 0.5684363161375248
74	 1.1298254835512331
75	 0.8954044777849468
76	 0.8475086764246788
77	 0.6874822510465269
78	 1.0625616117841512
79	 0.9188513729129428
80	 0.9798067048338327
81	 1.344041608546402
82	 0.8282607352180833
83	 1.3858590039529033
84	 1.8979630780139005
85	 1.8979630780139005
86	 1.437079391974338
87	 1.437079391974338
88	 1.0497117034304297
89	 0.915833961755077
90	 1.0523065992558125
91	 1.3858590039529033
92	 1.5681308031775827
93	 1.4125003287919382
94	 1.0496728913510787
95	 1.3858590039529033
96	 1.0497117034304297
97	 0.915833961755077
98	 1.0523065992558125
99	 1.3858590039529033
100	 1.5681308031775827
101	 1.4125003287919382
102	 1.0496728913510787
103	 1.3858590039529033
104	 1.2475830830881378
105	 1.3066067422286374
106	 1.4515204267276791
107	 1.3858590039529033
108	 1.2475830830881378
109	 1.3066067422286374
110	 1.4515204267276791
111	 1.3858590039529033
112	 1.0497117034304297
113	 1.148668598512079
114	 0.9651618138869157
115	 0.8917517473138661
116	 1.0497117034304297
117	 1.148668598512079
118	 0.9651618138869157
119	 0.8917517473138661
120	 1.0497117034304297
121	 1.3858590039529033
122	 0.9651618138869157
123	 0.8917517473138661
124	 1.0497117034304297
125	 1.3858590039529033
126	 0.9651618138869157
127	 0.8917517473138661
128	 1.2475830830881378
129	 1.2475830830881378
130	 1.285379261348183
131	 1.285379261348183
132	 1.0271656043877895
133	 1.0271656043877895
134	 1.1411116709174436
135	 1.1411116709174436
136	 1.1272396279573094
137	 1.1272396279573094
138	 1.1272396279573094
139	 1.1272396279573094
140	 1.1272396279573094
141	 1.1272396279573094
142	 1.1272396279573094
143	 1.1272396279573094
144	 1.1272396279573094
145	 1.1272396279573094
146	 1.1272396279573094
147	 1.1272396279573094
148	 1.1272396279573094
149	 1.1272396279573094
150	 1.1272396279573094
151	 1.1272396279573094
152	 1.1272396279573094
153	 1.1272396279573094
154	 1.1272396279573094
155	 1.1272396279573094
156	 1.1272396279573094
157	 1.1272396279573094
158	 1.1272396279573094
159	 1.1272396279573094
160	 1.1272396279573094
161	 1.1272396279573094
162	 1.1272396279573094
163	 1.1272396279573094
164	 1.1272396279573094
165	 1.1272396279573094
166	 1.1272396279573094
167	 1.1272396279573094
168	 1.1272396279573094
169	 1.1272396279573094
170	 1.1272396279573094
171	 1.1272396279573094
172	 1.1272396279573094
173	 1.1272396279573094
174	 1.1272396279573094
175	 1.1272396279573094
176	 1.1272396279573094
177	 1.1272396279573094
178	 1.1272396279573094
179	 1.1272396279573094
180	 1.1272396279573094
181	 1.1272396279573094
182	 1.1272396279573094
183	 1.1272396279573094
184	 1.1272396279573094
185	 1.1272396279573094
186	 1.1272396279573094
187	 1.1272396279573094
188	 1.1272396279573094
189	 1.1272396279573094
190	 1.1272396279573094
191	 1.1272396279573094
192	 1.1272396279573094
193	 1.1272396279573094
194	 1.1272396279573094
195	 1.1272396279573094
196	 1.1272396279573094
197	 1.1272396279573094
198	 1.1272396279573094
199	 1.1272396279573094
200	 1.1272396279573094
201	 1.1272396279573094
202	 1.1272396279573094
203	 1.1272396279573094
204	 1.1272396279573094
205	 1.1272396279573094
206	 1.1272396279573094
207	 1.1272396279573094
208	 1.1272396279573094
209	 1.1272396279573094
210	 1.1272396279573094
211	 1.1272396279573094
212	 1.1272396279573094
213	 1.1272396279573094
214	 1.1272396279573094
215	 1.1272396279573094
216	 1.1272396279573094
217	 1.1272396279573094
218	 1.1272396279573094
219	 1.1272396279573094
220	 1.1272396279573094
221	 1.1272396279573094
222	 1.1272396279573094
223	 1.1272396279573094
224	 1.1272396279573094
225	 1.1272396279573094
226	 1.1272396279573094
227	 1.1272396279573094
228	 1.1272396279573094
229	 1.1272396279573094
230	 1.1272396279573094
231	 1.1272396279573094
232	 1.1272396279573094
233	 1.1272396279573094
234	 1.1272396279573094
235	 1.1272396279573094
236	 1.1272396279573094
237	 1.1272396279573094
238	 1.1272396279573094
239	 1.1272396279573094
240	 1.1272396279573094
241	 1.1272396279573094
242	 1.1272396279573094
243	 1.1272396279573094
244	 1.1272396279573094
245	 1.1272396279573094
246	 1.1272396279573094
247	 1.1272396279573094
248	 1.1272396279573094
249	 1.1272396279573094
250	 1.1272396279573094
251	 1.1272396279573094
252	 1.1272396279573094
253	 1.1272396279573094
254	 1.1272396279573094
255	 1.1272396279573094
256	 1.1272396279573094
257	 1.1272396279573094
258	 1.1272396279573094
259	 1.1272396279573094
260	 1.1272396279573094
261	 1.1272396279573094
262	 1.1272396279573094
263	 1.1272396279573094
264	 1.1272396279573094
265	 1.1272396279573094
266	 1.1272396279573094
267	 1.1272396279573094
268	 1.1272396279573094
269	 1.1272396279573094
270	 1.1272396279573094
271	 1.1272396279573094
272	 1.1272396279573094
273	 1.1272396279573094
274	 1.1272396279573094
275	 1.1272396279573094
276	 1.1272396279573094
277	 1.1272396279573094
278	 1.1272396279573094
