0	 0.0
1	 0.0
2	 0.8061862178478973
3	 0.9375
4	 0.08542190120557502
5	 0.013513021325770314
6	 0.9621414524111078
7	 0.8438316992714117
8	 0.07803923247763517
9	 0.0034083560212019304
10	 1.0
11	 0.0
12	 0.0
13	 0.0
14	 0.0
15	 0.0
16	 0.6714985851425088
17	 0.3285014148574911
18	 0.8893924020986697
19	 0.9281792245142917
20	 0.0
21	 0.0566896525332134
22	 1.0
23	 1.0
24	 0.04641208671979408
25	 0.25686773045806766
26	 0.8611575592573075
27	 0.0733695652173913
28	 0.1616336452759367
29	 0.6732746444048205
30	 0.043775116952791626
31	 0.16516697395617247
32	 0.09262233712120127
33	 0.08656244617018416
34	 0.7799288447075461
35	 0.6674406530373223
36	 0.055882605902155935
37	 1.0
38	 0.04072067322815409
39	 0.04072067322815409
40	 0.3285014148574912
41	 0.22131479914342317
42	 0.2803963717534502
43	 0.07291236765270237
44	 0.06678834900383451
45	 0.211192232669223
46	 0.6714985851425088
47	 0.8692744729379982
48	 0.12987485910006158
49	 0.0747802825384491
50	 0.853902579212306
51	 0.09766945310059622
52	 0.20553792090550388
53	 0.5393828773632877
54	 0.6827457611596024
55	 0.05700534308521732
56	 1.0
57	 0.0
58	 0.0
59	 0.4390948241958369
60	 0.06698294431791368
61	 0.028378890858100747
62	 0.6131739773362678
63	 0.005065986802932743
64	 0.43995194232309226
65	 0.7401922307076307
66	 0.15915061999499902
67	 0.0356638107057875
68	 0.09096571999244629
69	 0.7202808331136923
70	 0.4145530034221635
71	 0.08743150149648266
72	 1.0
73	 0.0
74	 0.0
75	 0.4313034128189154
76	 0.23021371932998097
77	 0.028378890858100747
78	 0.6131739773362678
79	 0.005065986802932743
80	 0.7719967765768814
81	 0.13866121651830376
82	 0.6147827822803313
83	 0.48956520161087896
84	 0.20511608769020573
85	 0.09369774583552887
86	 0.02264048157956494
87	 0.030870818104055175
88	 0.10132670348894274
89	 0.0
90	 0.0
91	 1.0
92	 0.06250000000000006
93	 0.3363365823230057
94	 1.0
95	 0.0
96	 0.0
97	 0.0
98	 0.6093749999999999
99	 0.984139452246263
100	 0.06876559187131376
101	 0.1162700932891107
102	 1.0
103	 0.0
104	 0.0
105	 0.6714985851425088
106	 1.0
107	 0.0
108	 0.8675735220573526
109	 0.06693905962917146
110	 0.07803923247763522
111	 0.6197965893758538
112	 0.38104226214227843
113	 0.06134334164965155
114	 0.9603228518009652
115	 0.4149974498852442
116	 0.21076657618572608
117	 0.11302311930208242
118	 0.040720673228154036
119	 0.028378890858100747
120	 0.6011443474848347
121	 0.09603881195650615
122	 0.4359639833339522
123	 0.0
124	 0.0
125	 0.4515193805858331
126	 0.3791629475418937
127	 0.23536818974123086
128	 0.33774521713703265
129	 0.027418125192131826
130	 0.22160311192421517
131	 0.5445671270507684
132	 0.6171799414888705
133	 0.9183424616508684
134	 0.03770243322327771
135	 0.8019353931185397
136	 0.8578390427102733
137	 0.004665391621966497
138	 0.01581933547230252
139	 0.0
140	 0.0
141	 0.5404280450568921
142	 0.3829471926921615
143	 0.5278351107134452
144	 0.401941932430908
145	 0.0
146	 0.0
147	 1.0
148	 0.0
149	 0.0
150	 0.0
151	 0.0
152	 0.0
153	 0.48450633122708053
154	 0.2093779102694957
155	 0.09473933629282705
156	 0.31612520547954365
157	 0.6035526330902407
158	 0.04015196830123802
159	 0.0582537018405459
160	 0.012945282394330848
161	 0.24120149635899907
162	 0.8172620793131151
163	 0.8626033254819397
164	 0.8499271061118826
165	 0.030049613911622197
166	 0.4451838737933106
167	 0.3820947227145252
168	 0.1112271203240151
169	 0.0
170	 0.0
171	 0.09473933629282705
172	 0.08388455350448776
173	 0.19220818006905438
174	 0.6940706857353953
175	 0.009847114232398368
176	 0.029630999455493467
177	 0.5674514006980924
178	 0.45117590440554844
179	 0.036676751366083116
180	 0.5716924168345505
181	 0.19381378215210265
182	 0.08542190120557502
183	 0.06148656338612718
184	 0.10275978016317222
185	 0.2172337800066721
186	 0.59344312519955
187	 0.012491565525056203
188	 0.6552301051412663
189	 0.08940935843731329
190	 0.1837654618409416
191	 0.44393315485725665
192	 0.0249332950775501
193	 0.48189482939055267
194	 0.46047152924789536
195	 0.17500000000000004
196	 0.03374759587984316
197	 0.5700900951835876
198	 0.7765828682950064
199	 0.02615822005778151
200	 0.14571385547954308
201	 0.7105427363594307
202	 0.08133068018367728
203	 0.0
204	 0.0
205	 0.018943664174469632
206	 0.9221074261135827
207	 0.6805787796286538
208	 0.4177358126479337
209	 0.7623679918108441
210	 0.026579008635088996
211	 0.0
212	 0.0
213	 0.9699503860883778
214	 0.9907006686631015
215	 0.016934961626742018
216	 0.9725945283594533
217	 0.0
218	 0.0
219	 0.13072552706200175
220	 0.0
221	 0.0
222	 0.0
223	 0.6714985851425088
224	 0.20511608769020578
225	 0.0
226	 0.0
227	 0.0566896525332134
228	 0.0
229	 0.0
230	 0.0
231	 0.6714985851425088
232	 0.04542583944617479
233	 0.3798252219225519
234	 0.049094650276974794
235	 0.4009211676964813
236	 0.3012751606243019
237	 0.5573539334676404
238	 0.061470990346485455
239	 0.769230769230769
240	 0.17241098852440057
241	 0.6157275124715689
242	 0.16104615965834979
243	 0.21282172959739587
244	 0.29827576416594204
245	 0.5988211768802618
246	 0.12197946442493929
247	 0.16046454418482486
248	 0.15223397452404602
249	 0.9312958341782085
250	 0.19747567448235404
251	 0.05303572088320424
252	 0.02976972322694632
253	 0.9716211091418994
254	 0.6699750259125211
255	 0.4782473727867549
256	 0.061176510844029475
257	 0.12424788266571885
258	 0.06612644995723094
259	 0.042112130499680656
260	 0.020475213656817592
261	 0.02837889085810069
262	 0.8952847075210473
263	 0.025464623521689655
264	 0.029955595627979004
265	 0.0
266	 0.0
267	 0.0
268	 0.0
269	 0.0
270	 0.0
271	 0.0
272	 0.0
273	 0.49480667197970785
274	 0.47335647856151275
275	 0.06686639361912144
276	 0.14367973012500668
277	 0.44446729271008506
278	 0.804810527526838
279	 0.2537838140556261
280	 0.5947420911199834
281	 0.6736938337199694
282	 0.6011443474848347
283	 0.8587797062967175
284	 0.2632475564192513
285	 0.0
286	 0.0
287	 0.3280324542195462
288	 0.7077941178180482
289	 0.10115943639002462
290	 0.92592756544198
291	 0.8612778456873936
292	 0.1450238535955845
293	 0.007167117093042075
294	 0.8254730973837072
295	 0.3241246274177585
296	 0.5474263079401948
297	 0.6568716339560281
298	 0.03124243347511274
299	 0.5046338692180908
300	 0.024242707868756153
301	 0.16680375626051058
302	 0.06209434390914337
303	 0.4623110819277796
304	 0.04072067322815409
305	 0.39062500000000006
306	 0.45218174652024956
307	 0.3972260421535096
308	 0.4861831579567048
309	 0.06752142030674962
310	 0.41482685701634414
311	 0.48006897487052247
312	 0.008972017264690324
313	 0.07102272727272735
314	 0.23208705938309004
315	 0.5
316	 0.6936491673103709
317	 0.1998774760006095
318	 0.240817609570111
319	 0.20655948310343764
320	 0.19381378215210276
321	 0.3750000000000001
322	 0.1840999878449543
323	 0.9641870455534799
324	 0.0
325	 0.0
326	 1.0
327	 0.0
328	 0.0
329	 0.03776327417904746
330	 0.32850141485749124
331	 0.34398470975229695
332	 0.054465036873554196
333	 0.0
334	 0.0
335	 0.0
336	 0.0
337	 0.5988211768802618
338	 0.9494968451425476
339	 0.030926835535553476
340	 0.9697905118241533
341	 0.021370700189417835
342	 0.2916266064156796
343	 0.314633175221382
344	 0.6535199262130124
345	 0.24265749367251066
346	 0.49319686962212334
347	 0.49284351120245035
348	 0.24655799924960964
349	 0.3505964238332008
350	 0.3127922838877558
351	 0.18384150875109312
352	 0.2719386347901737
353	 0.2085882555652217
354	 0.08733152950083811
355	 0.08733152950083811
356	 0.08071193718451125
357	 0.24081760957011106
358	 0.82419717183895
359	 0.13242647794264745
360	 0.9200840252084028
361	 0.1324264779426474
362	 0.7294157338705618
363	 0.9738492449724393
364	 0.0
365	 0.0
366	 1.0
367	 0.0
368	 0.0
369	 0.04631987193698711
370	 0.6833241298162629
371	 0.39587585902061956
372	 0.27058426612943826
373	 0.06631751781281597
374	 0.9716211091418994
375	 0.06249999999999989
376	 0.11627009328911064
377	 0.38020341062414614
378	 0.7883037746122936
379	 0.0
380	 0.0
381	 0.062499999999999944
382	 0.6249999999999999
383	 0.6250000000000001
384	 0.49999999999999994
385	 0.43995194232309215
386	 1.0
387	 0.0
388	 0.0
389	 0.0
390	 0.0
391	 0.0
392	 0.0
393	 0.9592793267718459
394	 0.8196810065455029
395	 0.921397690446345
396	 0.375
397	 0.04072067322815409
398	 0.5946723693650183
399	 0.9072543735890335
400	 0.07803923247763517
401	 0.0034083560212019304
402	 1.0
403	 0.0
404	 0.0
405	 0.0
406	 0.0
407	 0.0
408	 0.6714985851425088
409	 0.32850141485749107
410	 0.9385290096535146
411	 0.9975389514232087
412	 0.0931592458355957
413	 0.1176470588235295
414	 0.8295410218286539
415	 0.9730499167912661
416	 0.04641208671979408
417	 0.25686773045806766
418	 0.8611575592573075
419	 0.0733695652173913
420	 0.1616336452759367
421	 0.6732746444048205
422	 0.043775116952791626
423	 0.16516697395617247
424	 0.09262233712120127
425	 0.08656244617018416
426	 0.7799288447075461
427	 0.6674406530373223
428	 0.055882605902155935
429	 1.0
430	 0.1938137821521027
431	 0.3424684905468489
432	 0.6714985851425088
433	 0.37499999999999994
434	 0.4110006963202041
435	 0.042846909215188245
436	 0.06678834900383451
437	 0.9018694109253651
438	 0.9385134366138728
439	 0.6384779273517497
440	 0.1593074280653763
441	 0.7096569673443835
442	 0.853902579212306
443	 0.09766945310059622
444	 0.20553792090550388
445	 0.5393828773632877
446	 0.6827457611596024
447	 0.05700534308521732
448	 1.0
449	 0.0
450	 0.0
451	 0.4390948241958369
452	 0.06698294431791368
453	 0.028378890858100747
454	 0.6131739773362678
455	 0.005065986802932743
456	 0.43995194232309226
457	 0.7401922307076307
458	 0.15915061999499902
459	 0.0356638107057875
460	 0.09096571999244629
461	 0.7202808331136923
462	 0.4145530034221635
463	 0.08743150149648266
464	 1.0
465	 0.0
466	 0.0
467	 0.7384067872998586
468	 0.5951297059248153
469	 0.06674881343060535
470	 0.6131739773362678
471	 0.005065986802932743
472	 0.7719967765768814
473	 0.13866121651830376
474	 0.47132303326617964
475	 0.7007387671367415
476	 0.02081364249658435
477	 0.09369774583552887
478	 0.02264048157956494
479	 0.030870818104055175
480	 0.06624514680175497
481	 0.7188289821370017
482	 0.23088863240237684
483	 0.9439936501572044
484	 0.03390373331932328
485	 0.03123258114861638
486	 0.026009325235913983
487	 0.04648143749294942
488	 0.10132670348894274
489	 0.03207163620658332
490	 0.8324196189808775
491	 0.994022956897187
492	 0.04336531536657923
493	 0.4411953079824519
494	 0.19381378215210238
495	 0.9375000000000001
496	 0.8644344934278314
497	 0.1176470588235291
498	 0.7462800748822758
499	 0.8242687382284554
500	 0.9874666782214325
501	 0.019021370811050153
502	 0.33806243109217626
503	 0.8692744729379981
504	 0.04514117385265787
505	 0.923594626606571
506	 0.8432745689871981
507	 0.8556149732620322
508	 0.11764705882352938
509	 0.05668965253321345
510	 0.6459685520302857
511	 0.7267113281593783
512	 0.46487803206568656
513	 0.19381378215210265
514	 0.5110270272847809
515	 0.9956563138482626
516	 0.061470990346485455
517	 0.19381378215210288
518	 0.6312226647919559
519	 0.9686547892066373
520	 0.20511608769020578
521	 0.0
522	 0.0
523	 1.0
524	 0.13072552706200186
525	 0.9716211091418994
526	 0.1771807059347661
527	 0.9441489361702128
528	 0.0378819694545624
529	 0.0
530	 0.0
531	 1.0
532	 0.0
533	 0.0
534	 0.0
535	 0.0
536	 0.0
537	 0.7836408427211682
538	 0.5573539334676408
539	 0.05550701562578669
540	 0.3749999999999992
541	 0.06250000000000006
542	 0.07106023777195342
543	 0.13828927041248262
544	 0.5728464396767946
545	 0.08364791749797429
546	 0.6249999999999997
547	 0.38209472271452544
548	 0.018015540976433986
549	 0.20453758880538836
550	 0.036546403202590616
551	 0.19826943763807708
552	 0.8061862178478971
553	 0.0
554	 0.976356829641109
555	 0.9903673246305535
556	 0.15412588091908352
557	 0.2579385408620365
558	 0.8061862178478971
559	 0.6250000000000001
560	 0.5284286766342088
561	 0.02077373673762173
562	 0.9826375819254094
563	 0.9600139452726557
564	 0.062499999999999944
565	 0.06250000000000006
566	 0.8692744729379983
567	 0.4545454545454545
568	 0.5923186182344995
569	 1.1102230246251565E-16
570	 0.8835764079577594
571	 0.9695504304310503
572	 0.10621923467589156
573	 0.19060082724534355
574	 0.796533608299403
575	 0.9576931780273397
576	 0.3314500343841895
577	 0.07862508596047368
578	 0.8703644617024429
579	 0.9087840116715757
580	 0.5284286766342091
581	 0.0696581402784538
582	 0.8802085827983982
583	 0.20655948310343764
584	 0.058983178112456736
585	 0.08503655535360866
586	 0.9056408845151358
587	 0.9218809110475199
588	 0.12622749920179882
589	 0.5
590	 0.8478041718201262
591	 0.8592106040535499
592	 0.11365835272255126
593	 0.2711120232900973
594	 0.8906702080358073
595	 0.9964928255427974
596	 0.050503154857452215
597	 0.08562903491762747
598	 0.8173968762922261
599	 0.40201944257468497
600	 0.04146263649500992
601	 0.6990816960086528
602	 0.2093779102694957
603	 0.09473933629282705
604	 0.05451639994433638
605	 0.36915859818453045
606	 0.3694369220751068
607	 0.007045513144594562
608	 0.21495578657446873
609	 0.11543931494939497
610	 0.2627103215249926
611	 0.2843940190673052
612	 0.5418609179139461
613	 0.375
614	 0.20511608769020578
615	 0.9063022541644711
616	 0.07826112823432052
617	 0.2195192964086335
618	 0.3495207041933034
619	 0.8978976755734032
620	 0.007033801754802338
621	 0.01831233091711748
622	 0.8659625273557
623	 0.0
624	 0.0
625	 0.08364791749797429
626	 0.8061862178478975
627	 0.45712535371437246
628	 0.02837889085810069
629	 0.9592793267718456
630	 0.8952847075210474
631	 0.16104615965834967
632	 0.5221253260123075
633	 0.0
634	 0.0
635	 0.84375
636	 0.0
637	 0.0
638	 1.0
639	 0.0
640	 0.0
641	 0.0
642	 0.0
643	 0.4639462530999231
644	 0.18569072145314397
645	 0.1938137821521027
646	 0.6575315094531512
647	 0.8389538403416502
648	 0.0
649	 0.8125
650	 0.28067242124157454
651	 0.8779375151405248
652	 0.2279411764705882
653	 0.02995559562797906
654	 0.8588557823520093
655	 0.29349170309227424
656	 0.5000000000000001
657	 0.5000000000000001
658	 0.24197657672892997
659	 0.7580234232710701
660	 0.7294157338705617
661	 0.126227499201799
662	 0.8389538403416503
663	 0.7420614591379635
664	 0.032562320869436334
665	 0.23544664193650305
666	 0.24037058771647407
667	 0.0
668	 0.0
669	 0.4576413128956322
670	 0.28360539427472553
671	 0.9455663943395034
672	 0.23349910455548695
673	 0.2822137974078116
674	 0.8729697813503281
675	 0.5842041337135759
676	 0.2661464133266287
677	 0.3770731122299027
678	 1.0
679	 0.0
680	 0.0
681	 0.13134058629459971
682	 0.556301927285492
683	 0.7489676487214559
684	 0.0
685	 0.0
686	 0.1317573102267628
687	 0.9331298431636419
688	 0.07803923247763517
689	 0.0034083560212019304
690	 1.0
691	 0.0
692	 0.0
693	 0.0
694	 0.0
695	 0.0
696	 0.5765465544619743
697	 0.25942511454808065
698	 0.7964277331950506
699	 0.6418708342257
700	 0.14717184789471133
701	 0.07611608256000191
702	 0.8867322667722934
703	 0.14818599418411188
704	 0.7074812506896828
705	 0.920084025208403
706	 0.3833980941857652
707	 0.04531368708732503
708	 0.1616336452759367
709	 0.6732746444048205
710	 0.043775116952791626
711	 0.16516697395617247
712	 0.04555281039062481
713	 0.8416192228468633
714	 0.0698689802849159
715	 0.9342627577006617
716	 0.23373696046190268
717	 0.625
718	 0.625
719	 0.4234534455380257
720	 0.6875
721	 0.0
722	 0.0
723	 0.06542868589620882
724	 0.06678834900383451
725	 0.3595121282627458
726	 0.9143624310386897
727	 0.4548553050928365
728	 0.3680270565677754
729	 0.04503251451995299
730	 0.853902579212306
731	 0.09766945310059622
732	 0.20553792090550388
733	 0.5393828773632877
734	 0.6827457611596024
735	 0.05700534308521732
736	 1.0
737	 0.0
738	 0.0
739	 0.4390948241958369
740	 0.06698294431791368
741	 0.028378890858100747
742	 0.6131739773362678
743	 0.005065986802932743
744	 0.7088374485021955
745	 0.48900855534198967
746	 0.2049587739607603
747	 0.10002326717223814
748	 0.27349120157685275
749	 0.7202808331136923
750	 0.4145530034221635
751	 0.08743150149648266
752	 1.0
753	 0.0
754	 0.0
755	 0.4313034128189154
756	 0.23021371932998097
757	 0.028378890858100747
758	 0.6131739773362678
759	 0.005065986802932743
760	 0.7719967765768814
761	 0.13866121651830376
762	 0.7107318076058813
763	 0.44981530821581484
764	 0.11627009328911064
765	 0.09369774583552887
766	 0.02264048157956494
767	 0.030870818104055175
768	 0.10132670348894274
769	 0.0
770	 0.0
771	 1.0
772	 0.06250000000000006
773	 0.3363365823230057
774	 1.0
775	 0.0
776	 0.0
777	 0.04072067322815415
778	 0.3285014148574911
779	 0.980435650552965
780	 0.1162700932891107
781	 0.1162700932891107
782	 1.0
783	 0.0
784	 0.0
785	 0.16290006876837893
786	 0.7182594674279932
787	 0.9961143798524101
788	 0.0853682473339667
789	 0.9146317526660332
790	 0.09813058907463479
791	 1.0
792	 0.625
793	 0.11365835272255126
794	 0.031083587631094756
795	 0.38094109821226546
796	 0.13182590122829901
797	 0.6372162634722125
798	 0.25886858685131947
799	 0.27892604703628604
800	 0.8664258229923059
801	 0.0658447995635581
802	 0.08191202842568507
803	 0.19699537039091625
804	 0.4534649837983723
805	 0.22241398326521455
806	 0.1307255270620018
807	 0.0
808	 0.17498645748692038
809	 0.8730164867795516
810	 0.048361110896259385
811	 0.05358777408151855
812	 0.07761679232004337
813	 0.1410606582215862
814	 0.22131479914342317
815	 0.0
816	 0.0
817	 0.5114079161899069
818	 0.012422966275779046
819	 0.15937844411945218
820	 0.025471184074046138
821	 0.07983059412810467
822	 0.625
823	 0.0
824	 0.1355655065721687
825	 0.4885920838100931
826	 0.0011701992701957376
827	 0.02300059390939868
828	 0.20655948310343764
829	 0.19014869294963693
830	 0.9200840252084028
831	 0.0
832	 0.0
833	 0.019660807208511266
834	 0.42411923829034015
835	 0.745772878011795
836	 0.26872972374031645
837	 0.7379394709863044
838	 0.22493293896039712
839	 0.13749612845346387
840	 0.3067252410418495
841	 0.0
842	 0.0
843	 1.0
844	 0.0
845	 0.0
846	 0.0
847	 0.0
848	 0.0
849	 0.9420830401004427
850	 0.2093779102694957
851	 0.09473933629282705
852	 0.31612520547954365
853	 0.6035526330902407
854	 0.04015196830123802
855	 0.0582537018405459
856	 0.026572518667585532
857	 0.4481175362923385
858	 0.5651552868566952
859	 0.5598805853484337
860	 0.1665565138817514
861	 0.09292782536828353
862	 0.4451838737933106
863	 0.3820947227145252
864	 0.1112271203240151
865	 0.0
866	 0.0
867	 0.09473933629282705
868	 0.08388455350448776
869	 0.19220818006905438
870	 0.6940706857353953
871	 0.009847114232398368
872	 0.031634729443324294
873	 0.19384813636523412
874	 0.8006017660048586
875	 0.2576727597189919
876	 0.2992612328632584
877	 0.25
878	 0.06250000000000006
879	 5.551115123125783E-17
880	 0.6908306334034482
881	 0.18569072145314397
882	 0.02165539689253959
883	 0.02165539689253959
884	 0.7500000000000001
885	 0.3999999999999999
886	 0.628927655782349
887	 0.04451524262028639
888	 0.0249332950775501
889	 0.48189482939055267
890	 0.46047152924789536
891	 0.17500000000000004
892	 0.03374759587984316
893	 0.04663310513417801
894	 0.9482849905081951
895	 0.01583624986651494
896	 0.14011871354888267
897	 0.7646317481956193
898	 0.08133068018367728
899	 0.0
900	 0.0
901	 0.018943664174469632
902	 0.9221074261135827
903	 0.6805787796286538
904	 0.4177358126479337
905	 0.7623679918108441
906	 0.026579008635088996
907	 0.0
908	 0.0
909	 0.9699503860883778
910	 0.9907006686631015
911	 0.016934961626742018
912	 0.9725945283594533
913	 0.0
914	 0.0
915	 0.13072552706200175
916	 0.0
917	 0.0
918	 0.0
919	 0.6714985851425088
920	 0.20511608769020578
921	 0.0
922	 0.0
923	 0.0566896525332134
924	 0.0
925	 0.0
926	 0.0
927	 0.6714985851425088
928	 0.13427697763534152
929	 0.2899557881066278
930	 0.0591796681144135
931	 0.5377825781179114
932	 0.3336718165564631
933	 0.5573539334676404
934	 0.061470990346485455
935	 0.769230769230769
936	 0.17241098852440057
937	 0.6157275124715689
938	 0.16104615965834979
939	 0.21282172959739587
940	 0.29827576416594204
941	 0.5988211768802618
942	 0.12197946442493929
943	 0.16046454418482486
944	 0.15223397452404602
945	 0.9312958341782085
946	 0.12389689996182474
947	 0.003027796808342309
948	 0.06254020206479216
949	 0.9161198597819118
950	 0.6699750259125211
951	 0.4782473727867549
952	 0.061176510844029475
953	 0.12424788266571885
954	 0.06612644995723094
955	 0.042112130499680656
956	 0.020475213656817592
957	 0.02837889085810069
958	 0.8952847075210473
959	 0.05050315485745244
960	 0.6560152902477031
961	 0.0
962	 0.0
963	 0.0
964	 0.0
965	 0.0
966	 0.0
967	 0.0
968	 0.0
969	 0.15923732110254518
970	 0.7149983237180633
971	 0.6391052849840644
972	 0.3170653419001046
973	 0.15936305043467747
974	 0.804810527526838
975	 0.2537838140556261
976	 0.5947420911199834
977	 0.6736938337199694
978	 0.6011443474848347
979	 0.8587797062967175
980	 0.2632475564192513
981	 0.0
982	 0.0
983	 0.3280324542195462
984	 0.7077941178180482
985	 0.10115943639002462
986	 0.92592756544198
987	 0.8612778456873936
988	 0.1450238535955845
989	 0.007167117093042075
990	 0.8254730973837072
991	 0.3241246274177585
992	 0.535714285714286
993	 0.0892857142857143
994	 0.34371594032907077
995	 0.4238565479718982
996	 0.04334876644370933
997	 0.5517488076527799
998	 0.5357142857142858
999	 0.35912616220436766
1000	 0.3854436616014971
1001	 0.21261648322444504
1002	 0.6667425613596442
1003	 0.5097788891734586
1004	 0.06734983116375032
1005	 0.4457034696546163
1006	 0.5
1007	 0.6714985851425088
1008	 0.09940362759892363
1009	 0.2519033830016061
1010	 0.011598520236903165
1011	 0.6427600601800402
1012	 0.6936491673103709
1013	 0.1998774760006095
1014	 0.240817609570111
1015	 0.20655948310343764
1016	 0.19381378215210276
1017	 0.3750000000000001
1018	 0.1840999878449543
1019	 0.9641870455534799
1020	 0.0
1021	 0.0
1022	 1.0
1023	 0.0
1024	 0.0
1025	 0.03776327417904746
1026	 0.6714985851425089
1027	 0.6622547828629675
1028	 0.04315460306368124
1029	 0.9622367258209524
1030	 0.9127964915018374
1031	 0.0
1032	 0.0
1033	 0.5988211768802618
1034	 0.9338991157204066
1035	 0.13897411305190555
1036	 0.5156617503447682
1037	 0.420375656898121
1038	 0.6853668247786178
1039	 0.06747740884989184
1040	 0.24979198443218487
1041	 0.2693196076901498
1042	 0.511335566407969
1043	 0.6599823139467287
1044	 0.28075872357574716
1045	 0.21516705300771877
1046	 0.6351055316147239
1047	 0.27574392702594297
1048	 0.001955140799412336
1049	 0.022967673605308048
1050	 0.1938137821521027
1051	 0.015877081724072872
1052	 0.24694489681908877
1053	 0.11024294835668536
1054	 0.2612840723419422
1055	 0.41019734898661264
1056	 0.12647755950382722
1057	 0.8298639734251914
1058	 0.22656562919013473
1059	 0.5627913768709191
1060	 0.0
1061	 0.0
1062	 1.0
1063	 0.0
1064	 0.0
1065	 0.0038570902600281176
1066	 0.6043011828341263
1067	 0.9771567577102638
1068	 0.428228843529598
1069	 0.0
1070	 0.8717810563304078
1071	 0.7775048262128581
1072	 0.022843242289736165
1073	 0.5588235294117647
1074	 0.5096475491584884
1075	 0.8557840334824101
1076	 0.05300289046884932
1077	 0.4916851236845283
1078	 0.1938137821521027
1079	 0.9592793267718458
1080	 0.014438377457902607
1081	 0.0
1082	 0.0
1083	 1.0
1084	 0.0
1085	 0.0
1086	 0.0
1087	 0.0
