0	 1.1660496754015242
1	 1.1921363927157551
2	 1.225134366457153
3	 1.225134366457153
4	 1.339949416245476
5	 1.4488359702303264
6	 1.4547545017351946
7	 1.440882083599256
8	 2.5999861240983573
9	 0.8745210716519409
10	 0.43378386103749017
11	 0.8737306099921951
12	 1.79045837115453
13	 0.9308093616451342
14	 0.9308093616451342
15	 1.79045837115453
16	 1.4802242551397407
17	 0.7293835608493883
18	 0.8793062043790864
19	 1.471417404694308
20	 1.2138785684067963
21	 1.4467924654547357
22	 1.4547545017351946
23	 1.440882083599256
24	 1.9033815116358919
25	 1.2760615889671363
26	 0.43378386103749017
27	 0.436700788684121
28	 0.9305642220878286
29	 1.0911105424632146
30	 0.45084850985373504
31	 0.3823779315559894
32	 1.4345052034891101
33	 0.4666604693480562
34	 1.2859513127787277
35	 0.7339061356020743
36	 1.3183388513525198
37	 0.4815433455589935
38	 1.2251343664571532
39	 0.2672751272605593
40	 1.79045837115453
41	 1.6187917651252532
42	 1.2595178946666385
43	 1.0883809897445533
44	 1.6064992516350574
45	 0.446653558207651
46	 0.9738133486950116
47	 0.8059163597032466
48	 1.3399494162454761
49	 1.2251343664571532
50	 0.7449931401277017
51	 0.2672751272605593
52	 0.9305642220878286
53	 1.400568400865877
54	 1.1792786845671255
55	 1.4641601287226191
56	 1.79045837115453
57	 1.79045837115453
58	 1.0692264394586084
59	 0.9305642220878286
60	 0.7339061356020743
61	 0.5985906604995882
62	 1.1548335109861474
63	 0.7339061356020743
64	 1.3399494162454761
65	 1.2251343664571532
66	 0.7449931401277017
67	 0.2672751272605593
68	 0.9305642220878286
69	 1.400568400865877
70	 1.1792786845671255
71	 1.4641601287226191
72	 1.79045837115453
73	 1.79045837115453
74	 1.0692264394586084
75	 0.9305642220878286
76	 0.7339061356020743
77	 0.5985906604995882
78	 1.1548335109861474
79	 0.7339061356020743
80	 0.9634340552613516
81	 1.4345052034891101
82	 0.9305642220878286
83	 2.5999861240983573
84	 1.1548335109861474
85	 1.2279438373664417
86	 0.8412908033934344
87	 0.8412908033934344
88	 1.738564114100292
89	 1.2676455257039851
90	 1.074748891061225
91	 0.8737306099921951
92	 0.8737306099921951
93	 1.074748891061225
94	 1.1660496754015242
95	 1.1660496754015242
96	 1.4188755567363898
97	 1.1473230780839372
98	 1.162721568349018
99	 1.4802242551397407
100	 1.4802242551397407
101	 1.162721568349018
102	 1.1411116709174436
103	 1.1411116709174436
104	 1.4345052034891101
105	 1.1660496754015242
106	 1.074748891061225
107	 0.8737306099921951
108	 1.3399494162454761
109	 1.3399494162454761
110	 1.1660496754015242
111	 1.5328977621510518
112	 1.2073408158030607
113	 1.1411116709174436
114	 1.162721568349018
115	 1.4802242551397407
116	 1.1667827851516417
117	 1.1667827851516417
118	 1.1411116709174436
119	 1.3036950880252012
120	 1.5975205305422524
121	 1.388526581569911
122	 1.5125707406610773
123	 1.5125707406610773
124	 1.655394815037231
125	 1.5975205305422524
126	 1.547075087701137
127	 1.79045837115453
128	 1.302560495909499
129	 1.165218463519276
130	 1.2663111171840828
131	 1.2663111171840828
132	 0.8786542704531068
133	 1.2650174618705203
134	 1.547075087701137
135	 1.79045837115453
136	 1.5975205305422524
137	 1.388526581569911
138	 1.5125707406610773
139	 1.5125707406610773
140	 1.655394815037231
141	 1.5975205305422524
142	 1.547075087701137
143	 1.79045837115453
144	 0.9783185088524387
145	 0.9783185088524387
146	 0.9591000635615415
147	 1.2942311292324762
148	 1.2942311292324762
149	 1.2942311292324762
150	 1.2942311292324762
151	 1.2942311292324762
152	 1.79045837115453
153	 1.79045837115453
154	 1.79045837115453
155	 1.79045837115453
156	 1.79045837115453
157	 1.79045837115453
158	 1.79045837115453
159	 1.79045837115453
160	 1.5099855234001915
161	 1.0436403572583033
162	 1.240727768901949
163	 1.79045837115453
164	 0.4815433455589935
165	 1.547075087701137
166	 1.692569248308268
167	 0.8737306099921951
168	 1.6160238386701138
169	 1.79045837115453
170	 1.79045837115453
171	 1.79045837115453
172	 1.79045837115453
173	 1.79045837115453
174	 1.79045837115453
175	 1.79045837115453
176	 1.5099855234001915
177	 1.0436403572583033
178	 1.240727768901949
179	 1.79045837115453
180	 1.692569248308268
181	 0.8737306099921951
182	 0.7339061356020743
183	 0.9305642220878286
184	 1.351064330418011
185	 0.7635824663731873
186	 0.9745376670165402
187	 1.3548619513560765
188	 0.6478494035030258
189	 1.3011553246393504
190	 1.692569248308268
191	 0.8737306099921951
192	 1.0910877316222525
193	 1.2157729415906573
194	 0.8772084474734696
195	 0.8772084474734696
196	 1.0424788803013565
197	 1.0995768180701762
198	 1.0268812876069626
199	 1.2924789249461384
200	 1.0635384237710142
201	 1.1562375097000326
202	 1.0284691937734631
203	 1.0284691937734631
204	 0.9173742688825013
205	 1.0635384237710142
206	 1.1562375097000326
207	 1.1562375097000326
208	 0.9571693574479561
209	 1.0445578867814522
210	 0.8750516562235371
211	 0.8750516562235371
212	 0.957406601742204
213	 0.8722185384623129
214	 0.8119407894077006
215	 0.9403122379099718
216	 1.5277944867200393
217	 1.254509197648818
218	 0.2672751272605593
219	 1.4188755567363898
220	 1.4188755567363898
221	 1.5277944867200393
222	 1.2475830830881378
223	 0.6205336958830053
224	 1.5277944867200393
225	 1.254509197648818
226	 0.2672751272605593
227	 1.4188755567363898
228	 1.4188755567363898
229	 1.5277944867200393
230	 1.2475830830881378
231	 0.6205336958830053
232	 1.738564114100292
233	 1.3399494162454761
234	 0.6258778199489099
235	 0.7339061356020743
236	 1.3183388513525198
237	 0.4815433455589935
238	 1.2676455257039851
239	 1.738564114100292
240	 1.1249698568572108
241	 1.0055329124879964
242	 0.8740040305994018
243	 1.634203711729332
244	 1.0791146547501764
245	 1.738564114100292
246	 1.0662864431461807
247	 1.4188755567363898
248	 1.1249698568572108
249	 1.0055329124879964
250	 0.5985906604995882
251	 0.7820877053357465
252	 1.3183388513525198
253	 0.4815433455589935
254	 1.000643182576753
255	 1.4188755567363898
256	 1.1249698568572108
257	 1.0055329124879964
258	 0.8811921350292077
259	 1.2086508522071362
260	 1.0209788300596276
261	 1.738564114100292
262	 0.8412908033934344
263	 1.296347973241067
264	 0.7820877053357465
265	 0.7820877053357465
266	 0.7820877053357465
267	 0.7820877053357465
268	 0.7820877053357465
269	 0.7820877053357465
270	 0.7820877053357465
271	 0.7820877053357465
272	 0.8575147611957529
273	 1.296347973241067
274	 0.5681610464962383
275	 1.0594965231377762
276	 0.7942308090311581
277	 0.44572040202319674
278	 0.7674741063646472
279	 0.7802257414645569
280	 1.2280610473583873
281	 1.0703126624020847
282	 1.2465534561234781
283	 0.2672751272605593
284	 1.2251343664571532
285	 1.5277944867200393
286	 1.692569248308268
287	 1.0594965231377762
288	 1.1533148119141379
289	 1.1533148119141379
290	 0.5681610464962383
291	 0.8412908033934344
292	 0.4229920586937676
293	 0.4229920586937676
294	 0.568828477903091
295	 0.6187145657059944
296	 1.2280610473583873
297	 0.6663232771722228
298	 1.1575820486019541
299	 1.3127631563855144
300	 0.8737306099921951
301	 1.296347973241067
302	 0.2672751272605593
303	 1.5277944867200393
304	 1.3404481322670558
305	 1.128279163237254
306	 1.071837386415946
307	 1.2086508522071362
308	 0.9516206026720554
309	 0.19767723679889002
310	 0.30397489105662806
311	 1.234464163688005
312	 1.296347973241067
313	 1.1548335109861474
314	 0.729480480499599
315	 1.258299202312803
316	 0.9783185088524387
317	 1.1675804013652114
318	 0.9493312232460944
319	 1.2211909764895725
320	 1.184474550478117
321	 1.4363318197870596
322	 0.9436530070780119
323	 1.0911105424632146
324	 1.0911105424632146
325	 1.1136507909516014
326	 1.2807711194115887
327	 1.2807711194115887
328	 1.388526581569911
329	 1.0583397870075844
330	 0.38941874199261534
331	 0.8148954904273399
332	 0.46435187123432037
333	 0.664449307728616
334	 0.6150074925351482
335	 0.6249272499469217
336	 1.1792786845671255
337	 1.342102107786968
338	 0.9364336568343472
339	 0.7427549276450727
340	 1.3103345887188085
341	 0.7410607969412896
342	 1.4128007884079843
343	 1.5328977621510518
344	 1.2129557994543436
345	 1.0239746059605912
346	 0.8710382189303367
347	 0.9305642220878286
348	 0.9516206026720554
349	 0.4397286970229273
350	 0.6164568961113658
351	 1.234464163688005
352	 1.296347973241067
353	 1.1548335109861474
354	 0.729480480499599
355	 1.258299202312803
356	 1.1411116709174436
357	 0.6594903708225797
358	 1.0723745170243737
359	 0.9081651797179563
360	 0.9033341862723685
361	 1.2864875754230942
362	 1.0911105424632146
363	 1.0911105424632146
364	 1.0911105424632146
365	 1.1099631448622787
366	 1.1919175311486763
367	 1.1919175311486763
368	 1.4802242551397407
369	 1.0268812876069626
370	 0.6979922484077695
371	 1.0883809897445533
372	 1.2138785684067963
373	 0.9444974330613904
374	 0.7273921920529225
375	 1.0883809897445533
376	 0.7134526335495684
377	 0.7134526335495684
378	 0.9171093666297204
379	 0.7134526335495684
380	 1.6154183477033408
381	 1.100549452106904
382	 1.031556230666382
383	 0.7134526335495684
384	 1.325817626537426
385	 1.5082789615157117
386	 1.79045837115453
387	 1.79045837115453
388	 1.79045837115453
389	 1.79045837115453
390	 1.79045837115453
391	 1.79045837115453
392	 1.4802242551397407
393	 1.4299416697324872
394	 1.450336712697392
395	 1.79045837115453
396	 1.79045837115453
397	 1.6187917651252532
398	 1.4547545017351946
399	 1.440882083599256
400	 2.5999861240983573
401	 0.8745210716519409
402	 0.43378386103749017
403	 0.8737306099921951
404	 1.79045837115453
405	 0.9308093616451342
406	 0.9308093616451342
407	 1.79045837115453
408	 1.4802242551397407
409	 1.162721568349018
410	 1.2122390766005415
411	 1.79045837115453
412	 1.738564114100292
413	 1.6074388258460517
414	 1.4547545017351946
415	 1.440882083599256
416	 1.9033815116358919
417	 1.2760615889671363
418	 0.43378386103749017
419	 0.436700788684121
420	 0.9305642220878286
421	 1.0911105424632146
422	 0.45084850985373504
423	 0.3823779315559894
424	 1.4345052034891101
425	 0.4666604693480562
426	 1.2859513127787277
427	 0.7339061356020743
428	 1.3183388513525198
429	 0.4815433455589935
430	 1.5277944867200393
431	 0.2672751272605593
432	 1.4802242551397407
433	 1.198198806057381
434	 1.1504308344108565
435	 0.5864308815515545
436	 1.2138785684067963
437	 1.2138785684067963
438	 1.2138785684067963
439	 1.2138785684067963
440	 1.3399494162454761
441	 1.2251343664571532
442	 0.7449931401277017
443	 0.2672751272605593
444	 0.9305642220878286
445	 1.400568400865877
446	 1.1792786845671255
447	 1.4641601287226191
448	 1.79045837115453
449	 1.79045837115453
450	 1.0692264394586084
451	 0.9305642220878286
452	 0.7339061356020743
453	 0.5985906604995882
454	 1.1548335109861474
455	 0.7339061356020743
456	 1.2375285380713599
457	 1.3957355664415543
458	 0.8191067363317188
459	 0.2672751272605593
460	 0.9305642220878286
461	 1.400568400865877
462	 1.1792786845671255
463	 1.4641601287226191
464	 1.79045837115453
465	 1.79045837115453
466	 1.374254844938643
467	 1.0791146547501764
468	 0.7339061356020743
469	 0.5985906604995882
470	 1.1548335109861474
471	 0.7339061356020743
472	 0.9634340552613516
473	 1.1660496754015242
474	 0.8571060487695399
475	 2.5999861240983573
476	 1.1548335109861474
477	 1.2279438373664417
478	 0.8412908033934344
479	 0.8412908033934344
480	 1.6335204862006882
481	 1.1342472757476814
482	 1.1570852369225009
483	 1.2086508522071362
484	 0.4358077994903172
485	 0.8648199947282543
486	 0.8412908033934344
487	 0.8412908033934344
488	 1.738564114100292
489	 0.18005625139734893
490	 0.36966238883336755
491	 0.6834172259778496
492	 0.6834172259778496
493	 1.1751783516816507
494	 1.2904167229058328
495	 1.122583327412928
496	 1.79045837115453
497	 1.1549214600297864
498	 1.254509197648818
499	 1.4370793919743379
500	 0.6834172259778497
501	 0.8536571975542049
502	 0.8078536376256454
503	 0.4886202732489984
504	 0.3926828816029545
505	 0.6865137863417845
506	 0.6004166538839522
507	 0.7480614905555212
508	 1.122583327412928
509	 0.9448426926302373
510	 1.1017779317703267
511	 1.3522914959240275
512	 1.4802242551397407
513	 1.4299416697324872
514	 1.0382226710295834
515	 0.2672751272605593
516	 1.1667827851516417
517	 1.0640432601618082
518	 1.0131413123326027
519	 0.9308093616451342
520	 0.8737306099921951
521	 0.8797665479190109
522	 0.8688238359124817
523	 1.1667827851516417
524	 1.122583327412928
525	 0.6147677351144454
526	 0.8340393711717055
527	 1.4336022981314251
528	 1.4336022981314251
529	 1.4336022981314251
530	 1.0382226710295834
531	 0.2672751272605593
532	 0.2672751272605593
533	 0.2672751272605593
534	 0.2672751272605593
535	 0.2672751272605593
536	 0.9092855768782515
537	 1.065425232940107
538	 0.8872084023540938
539	 1.063412324279687
540	 1.0302717194383093
541	 0.8410532512450837
542	 0.9037626169112231
543	 0.8410532512450837
544	 0.6383472359555951
545	 0.43770623619923865
546	 1.0248419684609011
547	 0.5721375847419661
548	 0.6601009302346064
549	 0.8469957524614117
550	 1.1548335109861474
551	 0.9305642220878286
552	 0.7820877053357465
553	 0.5534533839675104
554	 0.9001652213626747
555	 1.5636247042926796
556	 0.6548111355816865
557	 0.6548111355816865
558	 0.6548111355816865
559	 0.6548111355816865
560	 1.738564114100292
561	 1.0135259974686472
562	 0.9169750288468554
563	 1.2475830830881376
564	 0.9482497684058655
565	 0.7472775346661754
566	 0.6267533511673259
567	 0.7616715494277725
568	 2.4911838910119286
569	 1.3790394796090233
570	 1.2545091976488179
571	 1.2545091976488179
572	 0.7480614905555212
573	 0.6472189650449657
574	 0.8082334403275274
575	 1.1919175311486763
576	 2.5999861240983573
577	 1.0918836787648118
578	 0.9482497684058652
579	 0.9482497684058652
580	 0.7134526335495684
581	 0.8536571975542049
582	 0.7635824663731873
583	 0.6834172259778496
584	 1.738564114100292
585	 0.6282760414654613
586	 0.4815433455589935
587	 0.4815433455589935
588	 0.2246290628444378
589	 0.5264505356552069
590	 0.6612165445260946
591	 0.8648199947282543
592	 2.5999861240983573
593	 1.3109647932120123
594	 1.1917261030804263
595	 1.1917261030804263
596	 1.2942311292324762
597	 0.8475123278840979
598	 0.8557080442689747
599	 1.4188755567363898
600	 1.79045837115453
601	 1.79045837115453
602	 1.79045837115453
603	 1.79045837115453
604	 1.0791146547501764
605	 1.4486956302748586
606	 1.5715512852630098
607	 1.4649057926387175
608	 1.440882083599256
609	 0.947147214272417
610	 1.2613616260321419
611	 0.4886202732489984
612	 1.122583327412928
613	 0.6847971267194828
614	 0.9325095536916618
615	 0.7820877053357465
616	 1.0594965231377762
617	 0.9873465843374176
618	 0.5522254376062136
619	 1.3127631563855144
620	 0.8412908033934344
621	 0.4815433455589935
622	 0.48058929214686236
623	 0.8600276444438884
624	 1.1548335109861474
625	 1.1548335109861474
626	 1.091761265258488
627	 0.9081651797179563
628	 0.5947978127873307
629	 0.49578803074492017
630	 0.7427549276450727
631	 1.061590208804662
632	 1.1293785218003747
633	 0.42468654360459174
634	 1.3033675447145028
635	 1.6064992516350574
636	 1.6064992516350574
637	 0.9461197917382421
638	 0.8737306099921951
639	 0.8737306099921951
640	 1.471417404694308
641	 1.4799992471045131
642	 0.6836781739268849
643	 1.79045837115453
644	 1.79045837115453
645	 1.79045837115453
646	 1.634203711729332
647	 1.738564114100292
648	 1.4188755567363898
649	 0.44358797829020546
650	 0.7399205898262704
651	 0.3847063251561002
652	 0.38941874199261534
653	 0.7410402721918511
654	 0.8437235189137479
655	 0.8361173900526434
656	 1.1919175311486763
657	 1.0382226710295834
658	 0.25542607394088795
659	 0.4592736547511129
660	 0.9195001022819913
661	 0.8988682103043636
662	 0.7635824663731873
663	 0.6834172259778496
664	 1.4188755567363898
665	 0.7891628341713346
666	 1.121531423720659
667	 0.8917517473138661
668	 1.3825126324331845
669	 1.1775762274391945
670	 0.9423174708527751
671	 0.6941449263931369
672	 1.1411116709174436
673	 0.985854392159936
674	 1.117609681892366
675	 1.3825126324331845
676	 0.8059163597032472
677	 1.0700848673267827
678	 1.2752275008159655
679	 1.2752275008159655
680	 1.1660496754015242
681	 1.1921363927157551
682	 1.1120985879733472
683	 0.9308093616451342
684	 0.9308093616451342
685	 1.2760859835217746
686	 1.4547545017351946
687	 1.440882083599256
688	 2.5999861240983573
689	 0.8745210716519409
690	 0.43378386103749017
691	 0.8737306099921951
692	 1.79045837115453
693	 0.9308093616451342
694	 0.9308093616451342
695	 1.79045837115453
696	 1.4299416697324872
697	 1.2129557994543436
698	 1.1563502837969701
699	 0.2672751272605593
700	 0.9308093616451342
701	 0.6836781739268849
702	 1.1675804013652114
703	 0.9783185088524387
704	 1.3066067422286376
705	 0.5684363161375248
706	 0.43378386103749017
707	 0.436700788684121
708	 0.9305642220878286
709	 1.0911105424632146
710	 0.45084850985373504
711	 0.3823779315559894
712	 1.6335204862006882
713	 0.36869920635018905
714	 1.424224834370379
715	 0.7339061356020743
716	 1.3127631563855144
717	 0.6847971267194828
718	 1.2251343664571532
719	 0.2672751272605593
720	 1.79045837115453
721	 1.6187917651252532
722	 1.2595178946666385
723	 1.0883809897445533
724	 1.6064992516350574
725	 0.446653558207651
726	 0.9738133486950116
727	 0.8059163597032466
728	 1.3399494162454761
729	 1.2251343664571532
730	 0.7449931401277017
731	 0.2672751272605593
732	 0.9305642220878286
733	 1.400568400865877
734	 1.1792786845671255
735	 1.4641601287226191
736	 1.79045837115453
737	 1.79045837115453
738	 1.0692264394586084
739	 0.9305642220878286
740	 0.7339061356020743
741	 0.5985906604995882
742	 1.1548335109861474
743	 0.7339061356020743
744	 1.3399494162454761
745	 1.2251343664571532
746	 0.7449931401277017
747	 0.2672751272605593
748	 0.9305642220878286
749	 1.400568400865877
750	 1.1792786845671255
751	 1.4641601287226191
752	 1.79045837115453
753	 1.79045837115453
754	 1.0692264394586084
755	 0.9305642220878286
756	 0.7339061356020743
757	 0.5985906604995882
758	 1.1548335109861474
759	 0.7339061356020743
760	 0.9634340552613516
761	 1.4345052034891101
762	 0.9305642220878286
763	 2.5999861240983573
764	 1.1548335109861474
765	 1.2279438373664417
766	 0.8412908033934344
767	 0.8412908033934344
768	 1.738564114100292
769	 1.2676455257039851
770	 1.074748891061225
771	 0.8737306099921951
772	 0.8737306099921951
773	 1.074748891061225
774	 1.1660496754015242
775	 1.1660496754015242
776	 0.8737306099921951
777	 0.49645608617882814
778	 0.7293835608493883
779	 1.4802242551397407
780	 1.4802242551397407
781	 1.162721568349018
782	 1.1411116709174436
783	 1.1411116709174436
784	 0.8737306099921951
785	 0.9308093616451342
786	 0.8191067363317188
787	 1.79045837115453
788	 1.0791146547501764
789	 1.0209788300596276
790	 0.9184999814231736
791	 1.1660496754015242
792	 1.2445678683130676
793	 1.3476008287516552
794	 0.8191067363317188
795	 1.79045837115453
796	 1.3399494162454761
797	 0.8412908033934344
798	 0.738101765256235
799	 1.1411116709174436
800	 1.330509618719083
801	 1.4131168050671745
802	 1.1779441323073576
803	 1.79045837115453
804	 1.3399494162454761
805	 1.3399494162454761
806	 1.0967497406665516
807	 1.0967497406665516
808	 1.4188755567363898
809	 1.3916338895489133
810	 1.2122390766005415
811	 1.6187917651252532
812	 1.3916338895489133
813	 1.3916338895489133
814	 1.440882083599256
815	 1.440882083599256
816	 1.5835428145471786
817	 1.4547545017351946
818	 1.1859121294755919
819	 0.8552322757613864
820	 1.6154183477033408
821	 1.79045837115453
822	 1.296347973241067
823	 1.79045837115453
824	 1.5975205305422524
825	 1.4799992471045131
826	 1.5125707406610773
827	 1.5125707406610773
828	 1.634203711729332
829	 1.6064992516350576
830	 1.6064992516350574
831	 1.6064992516350574
832	 1.5975205305422524
833	 1.4799992471045131
834	 1.4439303234011442
835	 1.162721568349018
836	 1.2591685061918763
837	 1.5975205305422524
838	 1.296347973241067
839	 1.79045837115453
840	 1.2251343664571532
841	 1.2251343664571532
842	 1.252193496757961
843	 1.5277944867200393
844	 1.5277944867200393
845	 1.5277944867200393
846	 1.5277944867200393
847	 1.5277944867200393
848	 1.79045837115453
849	 1.79045837115453
850	 1.79045837115453
851	 1.79045837115453
852	 1.79045837115453
853	 1.79045837115453
854	 1.79045837115453
855	 1.79045837115453
856	 1.3752691889599793
857	 0.9167799850439858
858	 1.1552921157503344
859	 1.6154183477033408
860	 0.4815433455589935
861	 1.547075087701137
862	 1.692569248308268
863	 0.8737306099921951
864	 1.6160238386701138
865	 1.79045837115453
866	 1.79045837115453
867	 1.79045837115453
868	 1.79045837115453
869	 1.79045837115453
870	 1.79045837115453
871	 1.79045837115453
872	 1.5099855234001915
873	 1.0436403572583033
874	 1.240727768901949
875	 1.79045837115453
876	 1.692569248308268
877	 1.3399494162454761
878	 0.7339061356020743
879	 0.9305642220878286
880	 0.7523347321556434
881	 0.29131501522680325
882	 0.6952088902333999
883	 0.8611550346204498
884	 0.15317816165401554
885	 0.8906464532929209
886	 1.692569248308268
887	 0.8737306099921951
888	 1.0910877316222525
889	 1.2157729415906573
890	 0.8772084474734696
891	 0.8772084474734696
892	 1.0424788803013565
893	 1.253796094069526
894	 1.250232509169987
895	 1.5733385572960354
896	 1.0635384237710142
897	 1.1562375097000326
898	 1.0284691937734631
899	 1.0284691937734631
900	 0.9173742688825013
901	 1.0635384237710142
902	 1.1562375097000326
903	 1.1562375097000326
904	 0.9571693574479561
905	 1.0445578867814522
906	 0.8750516562235371
907	 0.8750516562235371
908	 0.957406601742204
909	 0.8722185384623129
910	 0.8119407894077006
911	 0.9403122379099718
912	 1.5277944867200393
913	 1.254509197648818
914	 0.2672751272605593
915	 1.4188755567363898
916	 1.4188755567363898
917	 1.5277944867200393
918	 1.2475830830881378
919	 0.6205336958830053
920	 1.5277944867200393
921	 1.254509197648818
922	 0.2672751272605593
923	 1.4188755567363898
924	 1.4188755567363898
925	 1.5277944867200393
926	 1.2475830830881378
927	 0.6205336958830053
928	 1.5574328810055775
929	 1.0422801896093716
930	 1.52095982157233
931	 0.7339061356020743
932	 1.3183388513525198
933	 0.4815433455589935
934	 0.6258778199489099
935	 0.4886202732489984
936	 1.1249698568572108
937	 1.0055329124879964
938	 1.1669421488819973
939	 1.634203711729332
940	 1.0791146547501764
941	 1.738564114100292
942	 1.0662864431461807
943	 1.4188755567363898
944	 1.1249698568572108
945	 1.0055329124879964
946	 0.7673708222478448
947	 0.8148954904273399
948	 1.3183388513525198
949	 0.4815433455589935
950	 1.000643182576753
951	 1.4188755567363898
952	 0.9634340552613516
953	 0.6562313229400923
954	 0.9348325227033984
955	 1.2086508522071362
956	 1.0209788300596276
957	 1.738564114100292
958	 0.8412908033934344
959	 0.6562313229400923
960	 0.8737306099921951
961	 0.8737306099921951
962	 0.8737306099921951
963	 0.8737306099921951
964	 0.8737306099921951
965	 0.8737306099921951
966	 0.8737306099921951
967	 0.8737306099921951
968	 1.0703126624020844
969	 1.296347973241067
970	 0.5681610464962383
971	 0.8737306099921951
972	 0.7942308090311581
973	 0.44572040202319674
974	 0.7674741063646472
975	 0.7802257414645569
976	 1.2280610473583873
977	 1.0703126624020847
978	 1.2465534561234781
979	 0.2672751272605593
980	 1.2251343664571532
981	 1.5277944867200393
982	 1.692569248308268
983	 1.0594965231377762
984	 1.1533148119141379
985	 1.1533148119141379
986	 0.5681610464962383
987	 0.8412908033934344
988	 0.4229920586937676
989	 0.4229920586937676
990	 0.568828477903091
991	 0.6187145657059944
992	 1.2251343664571532
993	 1.0700263803091483
994	 1.3619360001972383
995	 1.3127631563855144
996	 0.8737306099921951
997	 0.8412908033934344
998	 1.4188755567363898
999	 1.5277944867200393
1000	 1.3404481322670558
1001	 1.128279163237254
1002	 1.0163593065751024
1003	 0.7339061356020743
1004	 0.9516206026720554
1005	 0.4397286970229273
1006	 0.8672805481548077
1007	 1.234464163688005
1008	 1.296347973241067
1009	 1.1548335109861474
1010	 0.729480480499599
1011	 1.258299202312803
1012	 0.9783185088524387
1013	 1.1675804013652114
1014	 0.9493312232460944
1015	 1.2211909764895725
1016	 1.184474550478117
1017	 1.4363318197870596
1018	 0.9436530070780119
1019	 1.0911105424632146
1020	 1.0911105424632146
1021	 1.1136507909516014
1022	 1.2807711194115887
1023	 1.2807711194115887
1024	 1.388526581569911
1025	 1.0583397870075844
1026	 0.5443916015832448
1027	 1.2773150634944872
1028	 0.8722840989079783
1029	 0.7410607969412896
1030	 0.6150074925351482
1031	 0.6249272499469217
1032	 1.1792786845671255
1033	 1.342102107786968
1034	 0.9641850872840945
1035	 0.729480480499599
1036	 1.326237616671451
1037	 0.6594903708225797
1038	 1.1675804013652114
1039	 1.5328977621510518
1040	 1.3840762640704662
1041	 0.7480614905555212
1042	 1.0037754623606483
1043	 0.9305642220878286
1044	 1.1792786845671255
1045	 0.7801953181049529
1046	 1.041273931806398
1047	 1.0894016677296523
1048	 0.8672805481548077
1049	 0.6594903708225797
1050	 0.7898550225295214
1051	 0.8832157537805937
1052	 0.36869920635018905
1053	 0.756543891865379
1054	 1.2169102926341016
1055	 1.083865028986338
1056	 1.1873263294403056
1057	 0.9355318076898687
1058	 0.9960276709128941
1059	 0.8412908033934344
1060	 0.8412908033934344
1061	 1.109387705030077
1062	 1.2807711194115887
1063	 1.2807711194115887
1064	 1.2138785684067963
1065	 1.0104097413940545
1066	 0.3809722371827113
1067	 1.0883809897445533
1068	 1.129378521800375
1069	 1.083865028986338
1070	 1.3033675447145028
1071	 1.6064992516350574
1072	 0.7134526335495684
1073	 0.7635824663731873
1074	 0.8946281441391686
1075	 0.7134526335495684
1076	 1.296347973241067
1077	 1.303951125181471
1078	 1.2783710353180777
1079	 1.2807711194115887
1080	 1.0124447095760067
1081	 1.0124447095760067
1082	 1.0736511593880604
1083	 1.2883901500854986
1084	 1.2883901500854986
1085	 1.2883901500854986
1086	 1.2883901500854986
1087	 1.2883901500854986
