E E E G G G 
B B E E E G G G 
B B B E E E G G G 
B B B E E E G G G 
E E E E E E G G G 
E E E E G G G 
E E D G G G 
D D D G G G 
A A A 
C C A 
C C G 
G G G 
B B B 
B F F 
A F F 
A A A 
E E E 
G G E E E 
G G B E E E 
B B B E E E 
E E E E E E 
E E E E G G 
E E D G G G 
D D D G G G 
C A A A 
C B B A 
C C G 
B B G G G 
A A B 
B F F 
A A G F F 
G A A 
G E E E 
G A A E E E 
B B C E E 
C D D 
E E F 
F G G 
E E D 
D C C 
B B B 
B B B E E 
B B B F F G 
B B B G G G 
B B B E E E 
B A A E F F 
A A A F F B 
A A A B B B 
G G E E E E 
E D D E E E 
E E F E E 
F E E 
D D E 
E G G G G 
F F E G G G 
E D D G G G 
C C A A A A 
A C C A A A 
B B A A A 
A G G 
F F E 
E D D B B 
C C B B B B 
B A A B B B 
G G E E E E 
E D D E E E 
E E F E E 
F E E 
D D E 
E G G G G 
F F E G G G 
E D D G G G 
C C A A A A 
A C C A A A 
B B A A A 
A G G 
F F E 
E D D B B 
C C B B B B 
B A A B B B 
G G G E 
G E F F 
G G A 
A B B 
C C D 
D E E 
F F G 
G F F 
E E E 
G G E E E 
G G G E E 
G G G 
G G G 
G B B E E 
B B C E E E 
C C C E E E 
D D D 
F F D D D 
F F F D D 
F F F 
F F F 
F A A D D 
A A B D D D 
B B B D D D 
G E E E 
G D D E E E 
B B E E C 
G G C C C 
E E C 
C E E 
G G G E E E 
G E E E E E 
F D D D 
F C C D D D 
A A D D B 
F F B B B 
D D B 
B D D 
F F F D D D 
F D D D D D 
F A A A 
F C C A A A 
E E A A A 
F F A A A 
C C E A A A 
E A B B 
F F B B B B 
B D D B B B 
F A A A 
F C C A A A 
E E A A A 
F F A A A 
C C E A A A 
E A B B 
F F B B B B 
B D D B B B 
F A A A 
F C C A A A 
E E A A A 
F F A A A 
C C E A A A 
E A B B 
F F B B B B 
B D D B B B 
D D D B B B F F F 
D D D B B B F F F 
D D C B B A F F F 
C C C A A A F F F 
C C C A A A F F F 
C A F 


B B B B B B B 
B B B B B B B B B 
B B B B B B D D 
D D D D D D D D 
D D D D D D D D D 
D D D F F F F 
F F F F F F F F F 
F F F F F F F F F 
B B B B B B B 
B A A B B B B B B 
B B D B B B B 
D B B 
A A G 
G F F 
E E D 
D C C 
B B B B B B B B B 
B B B B B B B B B 
B B B B B B D D 
D D D D D D D D 
D D D D D D D D D 
D D D F F F F 
F F F F F F F F F 
F F F F F F F F F 
B B B B B B B 
B A A B B B B B B 
B B D B B B B 
D C C 
B B A 
A G G 
F F E 
E D D 
C C E E E E G G G 
E D D E E E G G G 
E E G E E E G G G 
G F F E E E G G G 
E E D E E E G G G 
D C C E G 
B B A 
A G G 
F F A F F F C C C E E E 
A A A F F F C C C E E E 
A A C F F F C C C E E E 
C A A F F F C C C E E E 
C C A F F F C C C E E E 
A F C E F F C C E E 
A A A F F F C C C E E E 
A A A F F F C C C E E E 
B F F F B B B D D D 
B B B F F F B B B D D D 
B B D F F F B B B D D D 
D B B F F F B B B D D D 
D D B F F F B B B D D D 
B F B D F F B B D D 
B B B F F F B B B D D D 
B B B F F F B B B D D D 
C F F F A A A C C C 
C C C F F F A A A C C C 
C C E F F F A A A C C C 
E C C F F F A A A C C C 
E E C F F F A A A C C C 
C F A C F F A A C C 
C C C F F F A A A C C C 
C C C F F F A A A C C C 
B B D 
D A A 
C C G 
G B B 
F F A 
A E E 
G G D 
D F F 
B B D 
D A A 
C C G 
G B B 
F F A 
A E E 
G G D 
D F F 
G E E E 
G A A E E E 
B B C E E 
C D D 
E E F 
F G G 
G G E E E 
E E E 
F D D D 
F G G D D D 
A A B D D 
B C C 
D D E 
E F F 
F F D D D 
D D D 
G E E E 
G A A E E E 
B B C E E 
C D D 
E E F 
F G G 
G G E E E 
E E E 
F D D D 
F G G D D D 
A A B D D 
B C C 
D D E 
E F F 
G G A 
A B C 
D D D 
D 






C C E E E E B B B 
E G G E E E B B B 
F F E E E B B 
E D D 
C C D E E E B B B 
D C C E B E E B B 
D D C E E B B E B 
C D D E E E B B B 
C C E F F F A A A 
E F F F F F A A A 
E E D F F A A 
D C C 
B B A 
A G G 
F F E 
E D D 
C C E E E E B B B 
E G G E E E B B B 
F F E E E B B 
E D D 
C C D E E E B B B 
D C C E B E E B B 
D D C E E B B E B 
C D D E E E B B B 
C C F F F F A A A 
F E E F F F A A A 
D D C F F A A 
C B B 
A A G 
G F F 
G G A 
A B B 
C C A F F F F F F 
A C C F F F F F F 
D D E F F F F 
E C C 
C C B F F F 
B A A F G G 
G G F G G A 
F E E A A A 
D D F B B B 
F E E B B B 
D D E B B C 
E F F C C C 
G G A C C C 
A B B C D D 
C C D D D D 
D B B D D D 
A A G E E E E E E 
G E E E E E E E E 
C C B E E D E E F 
B B B D D D F F F 
B B B D D D F F F 
B A A D C C F F F 
A A A C C C F F F 
A A A C C C F F F 
D D F B B B 
F E E B B B 
D D E B B C 
E F F C C C 
G G A C C C 
A B B C D D 
C C D D D D 
D B B D D D 
A A G E E E 
G E E E C C 
C C B C C F 
B A A F F F 
F F D D D D 
D C C D G G 
B B G G G E 
G E E E E E 
D D C A A A 
C D D A A A 
C C B A A 
B A A 
C C B F F F 
B A A F G G 
G G F G G A 
F E E A A A 
D D F B B B 
F E E B B B 
D D E B B C 
E F F C C C 
G G A C C C 
A B B C D D 
F F E D D D 
E D D D D D 
C C G E E E E E E 
G E E E E E E E E 
C C B E E D E E F 
B B B D D D F F F 
B B B D D D F F F 
B A A D C C F F F 
A A A C C C F F F 
A A A C C C F F F 
B B B B B B 
B D D F F B B B 
E E G G D F B B 
D D D F F F 
C C C E E E 
C E B B D D 
B B D D A C 
A A A C C C 
B B B D D D B B B 
B D F F D D B B B 
G G E E F D B B B 
F F F D D D B B B 
E E E C C C B B B 
E C D D B B B F F 
D D B B C A F F F 
C C C A A A F F F 
D D D A A A B B B B B B B B B 
D A B B B B B B B 
B B B B B B 
B B B B B B 
B B B B B B 
B B B B B B 
B B B B B B 
B B B B B B 
B B B B B B 
F F B B B B B B 
F F F B B B B 
F F F 
B B B 
B B B D D 
B B A D D D 
A A A D D D 
E E E 
G G E 
G G D 
D D D 
F F F 
F C C 
E C C 
E E E 
B B B 
D D B B B 
D D F B B 
F F F 
B B B 
B B B D D 
B B A D D D 
A A A D D D 
G E E E 
G F F E 
G G D 
F F D D D 
E E F 
F C C 
E E D C C 
D E E 
D B B B 
D E E B B B 
F F G B B 
G A A 
B B C 
C D D 
B B A 
A G G 
F F F 
F F F B B 
F F F C C D 
F F F D D D 
F F F B B B 
F E E B C C 
E E E C C F 
E E E F F F 
D D B B B B 
B A A B B B 
B B C B B 
C B B 
A A B 
B D D D D 
C C B D D D 
B A A D D D 
G G E E E E 
E G G E E E 
F F E E E 
E D D 
C C B 
B A A F F 
G G F F F F 
F E E F F F 
D D B B B B 
B A A B B B 
B B C B B 
C B B 
A A B 
B D D D D 
C C B D D D 
B A A D D D 
G G E E E E 
E G G E E E 
F F E E E 
E D D 
C C B 
B A A F F 
G G F F F F 
F E E F F F 
D D D B 
D D D B C C 
D D D D E 
E F F 
G G A 
A B B 
C C D 
D C C 
B B B B 
B C C B B B 
D D E B B 
E F F 
G G A 
A B B 
C C D 
D C C 
B B B 
B B B B B D D 
B B B B B D D B D 
B B B B B B D D D 
A A A B B B D D D 
A G G B D B B D D 
G G F B B D D B D 
F F F B B B D D D 
F F F 
F F F C C 
F F E C C C 
E E E C C C 
B B B D D D C C C 
B D A A C C C C C 
A A C C G B C C C 
G G G B B B C C C 
G G G B B B 
G G G B B B C C 
G G B B F A C C C 
F F F A A A C C C 
A A A C C C C C C 
A C G G B B C C C 
G G B B F A C C C 
F F F A A A C C C 
F F F A A A 
F F F A A A C C 
F F A A E G C C C 
E E E G G G C C C 
B B B D D D C C C 
B D A A C C C C C 
A A C C G B C C C 
G G G B B B C C C 
G G G B B B 
G G G B B B C C 
G G B B F A C C C 
F F F A A A C C C 
A A A C C C C C C 
A C G G B B C C C 
G G B B F A C C C 
F F F A A A C C C 
F F F A A A C C C 
F F F A A A C C C 
F F A A E G C C C 
E E E G G G C C C 
E E E G G G C C C 
E G C 


A A C A A A C C C E E E A A A 
C B B A A A C C C E E E A A A 
A A G A A A C C C E E E A A A 
G F F A A A C C C E E E A A A 
E E D A A A C C C E E E A A A 
D C C A A A C C C E E E A A A 
B B A A A A C C C E E E A A A 
A G G A A A C C C E E E A A A 
A A C A A A C C C E E E A A A 
C B B A A A C C C E E E A A A 
A A G A A A C C C E E E A A A 
G F F A A A C C C E E E A A A 
E E D A A A C C C E E E A A A 
D C C A C E A 
B B A 
A G G 
A A A 
A A A A A C C 
A A A A A C C A C 
A A A A A A C C C 
G G G A A A C C C 
G E E A C A A C C 
E E G A A C C A C 
G G G A A A C C C 
G G G 
G G G A A C C 
G G G A A C C A C 
G G G A A A C C C 
F F F A A A C C C 
F E E A C A A C C 
E E C A A C C A C 
C C C A A A C C C 
D D D 
D D D B B F F 
D D D B B F F B F 
D D D B B B F F F 
B B B B B B F F F 
B F F B F B B D D 
F F A B B D D B F 
A A A B B B F F F 
A A A 
A A A B B F F 
A A A B B F F B F 
A A A B B B F F F 
G G G B B B F F F 
G F F B F B B D D 
F F D B B D D B G 
D D D B B B G G G 
E E E 
E E E C C G G 
E E E C C G G C G 
E E E C C C G G G 
C C C C C C G G G 
C G G C G C C E E 
G G E C C E E C G 
E E E C C C G G G 
A A A 
A A A F F F F 
A A A F F F F F F 
A A A F F F F F F 
F F F F F F F F F 
F D D F F F F F F 
D D C F F F F F F 
C C C F F F F F F 
G G G G G G G 
G G G G G G G G G 
G G G G G G B B 
B B B B B B B B 
B B B B B B B B B 
B B B D D D D 
D D D D D D D D D 
D D D D D D D D D 
G G G G G G 
G G G G G G G G 
A A B G G G G 
B G G 
B B C 
C D D 
B B D 
D E E 
F F D G G G G G G 
D B B G G G G G G 
C C D G G G G 
D C C 
B B A G G G 
A G G G A A 
F F E A A B 
E D D B B B 
E E F C C C 
F G G C C C 
F F E C C D 
E D D D D D 
C C B D D D 
B C C D E E 
B B C E E E 
C G G E E E 
A A A F F F 
A G G F F F 
F F E F F G 
E E E G G G 
E E E G G G 
E D D G G G 
D D D G G G 
D D D G G G 
C C C C C C 
C G G C C C 
A A G C C 
G G G 
G G G 
G G G 
G G G 
G G G 
A A A 
A A A E E C C 
A A A F F E D D C 
A A A E E E C C C 
A A A E E E C C C 
A A A E E E C C C 
A A A E E E C C C 
A A A E E E C C C 
D D D A A A B B B 
D A F F A A B B B 
G G B B F A B B B 
F F F A A A B B B 
A A A C C C B B B 
A C G G B B B B B 
G G B B F A B B B 
F F F A A A B B B 
B B B B B B 
E E G G B B B B B B 
F F A A E G B B B B B B 
E E E G G G B B B B B B 
G G G B B B B B B B B B 
G B F F A A B B B B B B 
F F A A E G B B B B B B 
E E E G G G B B B B B B 
D D D F F F B B B B B B 
D F C C E E B B B B B B 
C C E E B D B B B B B B 
B B B D D D B B B B B B 
A A A C C C B B B B B B 
A C G G B B B B B B B B 
G G B B F A B B B B B B 
F F F A A A B B B B B B 
E E E G G G 
B B E E E G G G 
B B B E E E G G G 
B B B E E E G G G 
E E E E E E G G G 
E E E E G G G 
E E D G G G 
D D D G G G 
A A A 
C C A 
C C G 
G G G 
B B B 
B F F 
A F F 
A A A 
G E E E 
G B B E E E 
G G E E E 
E B B 
G G F 
F E E G G 
D D C G G G 
C B B G G G 
C A A A 
C B B A 
C C G 
B B G G G 
A A B 
B F F 
A A G F F 
G A A 
G E E E 
G A A E E E 
B B C E E 
C D D 
E E F 
F G G 
E E D 
D C C 
B B B 
B B B E E 
B B B F F G 
B B B G G G 
B B B E E E 
B A A E F F 
A A A F F B 
A A A B B B 
G G E E E E 
E D D E E E 
E E F E E 
F E E 
D D E 
E G G G G 
F F E G G G 
E D D G G G 
C C A A A A 
A C C A A A 
B B A A A 
A G G 
F F E 
E D D B B 
C C B B B B 
B A A B B B 
G G E E E E 
E D D E E E 
E E F E E 
F E E 
D D E 
E G G G G 
F F E G G G 
E D D G G G 
C C A A A A 
A C C A A A 
B B A A A 
A G G 
F F E 
E D D B B 
C C B B B B 
B A A B B B 
G G G E 
G E F F 
G G A 
A B B 
C C D 
D E E 
F F G 
G F F 
E E E 
G G E E E 
G G G E E 
G G G 
G G G 
G B B E E 
B B C E E E 
C C C E E E 
D D D 
F F D D D 
F F F D D 
F F F 
F F F 
F A A D D 
A A B D D D 
B B B D D D 
G C C C 
G B B C C C 
E E C C A 
A A A A A 
C C E 
E C C 
C C E C C C 
E A A C C C 
F B B B 
F A A B B B 
D D B B G 
G G G G G 
B B D 
D B B 
B B D B B B 
D G G B B B 
E A A A 
E G G A A A 
C C A A F 
F F F F F 
A A C 
C A A 
A A C A A A 
C F F A A A 
D G G G 
D F F G G G 
B B G G E 
E E E E E 
G G B 
B G G 
G G B G G G 
B E E G G G 
D B B B 
D A A B B B 
B B B B F 
D D F F F 
A A B 
B E E 
G G B E E E 
B E E E E E 
D B B B 
D A A B B B 
B B B B F 
D D F F F 
A A B F F F 
B F E E 
G G B E E E 
B E E E E E 
D B B B 
D A A B B B 
B B B B F 
D D F F F 
A A B F F F 
B F E E 
G G B E E E 
B E E E E E 
G G G E E E B B B 
G G G E E E B B B 
G G F E E D B B B 
F F F D D D B B B 
F F F D D D B B B 
F D B 


E E E E E E E 
E E E E E E E E E 
E E E E E E G G 
G G G G G G G G 
G G G G G G G G G 
G G G B B B B 
B B B B B B B B B 
B B B B B B B B B 
E E E E E E E 
E D D E E E E E E 
E E G E E E E 
G E E 
D D C 
C B B 
A A G 
G F F 
E E E E E E E E E 
E E E E E E E E E 
E E E E E E G G 
G G G G G G G G 
G G G G G G G G G 
G G G B B B B 
B B B B B B B B B 
B B B B B B B B B 
E E E E E E E 
E D D E E E E E E 
E E G E E E E 
G F F 
E E D 
D C C 
B B A 
A G G 
F F A A A A C C C F F F 
A G G A A A C C C F F F 
A A C A A A C C C F F F 
C B B A A A C C C F F F 
A A G A A A C C C F F F 
G F F A C F 
E E D 
D C C 
B B D B B B F F F A A A 
D D D B B B F F F A A A 
D D F B B B F F F A A A 
F D D B B B F F F A A A 
F F D B B B F F F A A A 
D B F A B B F F A A 
D D D B B B F F F A A A 
D D D B B B F F F A A A 
E B B B E E E G G G 
E E E B B B E E E G G G 
E E G B B B E E E G G G 
G E E B B B E E E G G G 
G G E B B B E E E G G G 
E B E G B B E E G G 
E E E B B B E E E G G G 
E E E B B B E E E G G G 
F B B B D D D F F F 
F F F B B B D D D F F F 
F F A B B B D D D F F F 
A F F B B B D D D F F F 
A A F B B B D D D F F F 
F B D F B B D D F F 
F F F B B B D D D F F F 
F F F B B B D D D F F F 
E E G 
G D D 
F F C 
C E E 
B B D 
D A A 
C C G 
G B B 
E E G 
G D D 
F F C 
C E E 
B B D 
D A A 
C C G 
G B B 
C A A A 
C D D A A A 
E E F A A 
F G G 
A A B 
B C C 
C C A A A 
A A A 
B G G G 
B C C G G G 
D D E G G 
E F F 
G G A 
A B B 
B B G G G 
G G G 
C A A A 
C D D A A A 
E E F A A 
F G G 
A A B 
B C C 
C C A A A 
A A A 
B G G G 
B C C G G G 
D D E G G 
E F F 
G G A 
A B B 
C C D 
D E F 
G G G 
G 






F F A A A A E E E 
A C C A A A E E E 
B B A A A E E 
A G G 
F F G A A A E E E 
G F F A E A A E E 
G G F A A E E A E 
F G G A A A E E E 
F F A B B B D D D 
A B B B B B D D D 
A A G B B D D 
G F F 
E E D 
D C C 
B B A 
A G G 
F F A A A A E E E 
A C C A A A E E E 
B B A A A E E 
A G G 
F F G A A A E E E 
G F F A E A A E E 
G G F A A E E A E 
F G G A A A E E E 
F F B B B B D D D 
B A A B B B D D D 
G G F B B D D 
F E E 
D D C 
C B B 
C C D 
D E E 
F F D B B B B B B 
D F F B B B B B B 
G G A B B B B 
A G G 
F F E B B B 
E D D B C C 
C C B C C D 
B A A D D D 
G G B E E E 
B A A E E E 
G G A E E F 
A B B F F F 
C C D F F F 
D E E F G G 
F F G G G G 
G E E G G G 
D D C A A A A A A 
C A A A A A A A A 
F F E A A G A A B 
E E E G G G B B B 
E E E G G G B B B 
E D D G F F B B B 
D D D F F F B B B 
D D D F F F B B B 
G G B E E E 
B A A E E E 
G G A E E F 
A B B F F F 
C C D F F F 
D E E F G G 
F F G G G G 
G E E G G G 
D D C A A A 
C A A A F F 
F F E F F B 
E D D B B B 
B B G G G G 
G F F G C C 
E E C C C A 
C A A A A A 
G G F D D D 
F G G D D D 
F F E D D 
E D D 
F F E B B B 
E D D B C C 
C C B C C D 
B A A D D D 
G G B E E E 
B A A E E E 
G G A E E F 
A B B F F F 
C C D F F F 
D E E F G G 
F F G G G G 
G E E G G G 
D D C A A A E E E 
C C C A A A E E E 
B B G A A E E B E 
G G G B B B E E E 
G G G B B B E E E 
G F F B E B B D D 
F F F B B B D D D 
F F F B B B D D D 
E E E E E E 
E G G B B E E E 
A A C C G B E E 
G G G B B B 
F F F A A A 
F A E E G G 
E E G G D F 
D D D F F F 
E E E G G G E E E 
E G B B G G E E E 
C C A A B G E E E 
B B B G G G E E E 
A A A F F F E E E 
A F G G E E E B B 
G G E E F D B B B 
F F F D D D B B B 
F F F A A A D D D E E E B B B E E E 
F F F A A A D D D E E E B B B E E E 
F F A A D D G E E E E B B B E E E 
G G G E E E E E E B B B E E E 
G G G E E E E E E B B B E E E 
G G G E E E E E E B B B E E E 
G G G E E E E E E B B B E E E 
G G G E E E E E E B B B E E E 
