0	 2.1291625896895083
1	 2.9211869733608857
2	 2.309401076758503
3	 2.9211869733608857
4	 2.966479394838265
5	 2.1291625896895083
6	 1.7888543819998317
7	 2.9211869733608857
8	 2.1291625896895083
9	 2.9211869733608857
10	 2.1291625896895083
11	 2.9211869733608857
12	 2.9211869733608857
13	 2.1291625896895083
14	 1.7888543819998317
15	 1.7888543819998317
16	 2.1291625896895083
17	 2.966479394838265
18	 2.309401076758503
19	 2.309401076758503
20	 2.966479394838265
21	 1.7888543819998317
22	 2.966479394838265
23	 1.7888543819998317
24	 2.1291625896895083
25	 2.966479394838265
26	 2.309401076758503
27	 2.309401076758503
28	 3.5777087639996634
29	 1.7888543819998317
30	 2.966479394838265
31	 2.1291625896895083
32	 2.1291625896895083
33	 2.1291625896895083
34	 2.966479394838265
35	 2.966479394838265
36	 1.7888543819998317
37	 2.1291625896895083
38	 2.966479394838265
39	 2.966479394838265
40	 1.7888543819998317
41	 1.4605934866804429
42	 1.4605934866804429
43	 2.309401076758503
44	 1.4605934866804429
45	 1.7888543819998317
46	 2.1291625896895083
47	 1.4605934866804429
48	 2.1291625896895083
49	 2.9211869733608857
50	 2.1291625896895083
51	 2.1291625896895083
52	 2.1291625896895083
53	 2.1291625896895083
54	 2.1291625896895083
55	 1.7888543819998317
56	 2.309401076758503
57	 2.309401076758503
58	 2.966479394838265
59	 2.1291625896895083
60	 2.966479394838265
61	 2.1291625896895083
62	 2.309401076758503
63	 2.309401076758503
64	 2.966479394838265
65	 2.309401076758503
66	 2.966479394838265
67	 2.1291625896895083
68	 2.966479394838265
69	 2.1291625896895083
70	 2.309401076758503
71	 2.309401076758503
72	 2.9211869733608857
73	 2.1291625896895083
74	 2.309401076758503
75	 2.309401076758503
76	 2.1291625896895083
77	 1.7888543819998317
78	 2.9211869733608857
79	 2.966479394838265
80	 2.1291625896895083
81	 1.4605934866804429
82	 1.7888543819998317
83	 2.966479394838265
84	 1.7888543819998317
85	 1.7888543819998317
86	 1.7888543819998317
87	 1.7888543819998317
88	 2.1291625896895083
89	 2.9211869733608857
90	 2.309401076758503
91	 2.309401076758503
92	 2.9211869733608857
93	 2.1291625896895083
94	 1.7888543819998317
95	 2.9211869733608857
96	 2.1291625896895083
97	 2.9211869733608857
98	 2.309401076758503
99	 2.9211869733608857
100	 2.9211869733608857
101	 2.1291625896895083
102	 1.7888543819998317
103	 2.966479394838265
104	 1.7888543819998317
105	 2.1291625896895083
106	 2.966479394838265
107	 2.966479394838265
108	 1.7888543819998317
109	 2.1291625896895083
110	 2.966479394838265
111	 2.966479394838265
112	 2.1291625896895083
113	 2.309401076758503
114	 2.1291625896895083
115	 2.9211869733608857
116	 2.1291625896895083
117	 2.309401076758503
118	 2.1291625896895083
119	 2.9211869733608857
120	 2.1291625896895083
121	 2.966479394838265
122	 2.1291625896895083
123	 2.309401076758503
124	 2.1291625896895083
125	 2.966479394838265
126	 2.1291625896895083
127	 2.9211869733608857
128	 1.4605934866804429
129	 0.0
130	 2.309401076758503
131	 2.309401076758503
132	 2.9211869733608857
133	 2.9211869733608857
134	 2.9211869733608857
135	 2.9211869733608857
136	 2.309401076758503
137	 2.309401076758503
138	 2.309401076758503
139	 2.309401076758503
140	 0.0
141	 0.0
142	 0.0
143	 0.0
144	 0.0
145	 0.0
146	 0.0
147	 0.0
148	 0.0
149	 0.0
150	 0.0
151	 0.0
152	 0.0
153	 0.0
154	 0.0
155	 0.0
156	 0.0
157	 0.0
158	 0.0
159	 0.0
160	 0.0
161	 0.0
162	 0.0
163	 0.0
164	 0.0
165	 0.0
166	 0.0
167	 0.0
168	 0.0
169	 0.0
170	 0.0
171	 0.0
172	 0.0
173	 0.0
174	 0.0
175	 0.0
176	 0.0
177	 0.0
178	 0.0
179	 0.0
180	 0.0
181	 0.0
182	 0.0
183	 0.0
184	 0.0
185	 0.0
186	 0.0
187	 0.0
188	 0.0
189	 0.0
190	 0.0
191	 0.0
192	 0.0
193	 0.0
194	 0.0
195	 0.0
196	 0.0
197	 0.0
198	 0.0
199	 0.0
200	 0.0
201	 0.0
202	 0.0
203	 0.0
204	 0.0
205	 0.0
206	 0.0
207	 0.0
208	 0.0
209	 0.0
210	 0.0
211	 0.0
212	 0.0
213	 0.0
214	 0.0
215	 0.0
216	 0.0
217	 0.0
218	 0.0
219	 0.0
220	 0.0
221	 0.0
222	 0.0
223	 0.0
224	 0.0
225	 0.0
226	 0.0
227	 0.0
228	 0.0
229	 0.0
230	 0.0
231	 0.0
232	 0.0
233	 0.0
234	 0.0
235	 0.0
236	 0.0
237	 0.0
238	 0.0
239	 0.0
240	 0.0
241	 0.0
242	 0.0
243	 0.0
244	 0.0
245	 0.0
246	 0.0
247	 0.0
248	 0.0
249	 0.0
250	 0.0
251	 0.0
252	 0.0
253	 0.0
254	 0.0
255	 0.0
256	 0.0
257	 0.0
258	 0.0
259	 0.0
260	 0.0
261	 0.0
262	 0.0
263	 0.0
264	 0.0
265	 0.0
266	 0.0
267	 0.0
268	 0.0
269	 0.0
270	 0.0
271	 0.0
272	 0.0
273	 0.0
274	 0.0
275	 0.0
276	 0.0
277	 0.0
278	 0.0
