C C C C 
A A A A B B C C 
A A A A D D D D 
A A A A C C C C D D D D E E E E 
A A A A C C C C C C C C E E E E 
D D D D D D E E 
D D D D E E E E 
A A A A C C C C D D D D E E E E 
A A A A C C C C D D D D F# F# F# F# 
F# F# G G G G G G 
G G G G G G G G 
C C C C G G G G 
B B B B E E F F 
B B B B C C C C D D E E 
B B B B C C C C C C C C 
A A A A C C C C 

B B C C E E E E 
D D D D E E E E 
B B B B D D D D E E E E G G G G 
B B B B B D D D E E E E G G G G 
A A A A C C C C C C C C E E E E 
A A A A A C C C C C C C E E E E 
B B B B B B B B D D D D E E E E 
B B B B D D D D E E E E G G G G 
A A A A A A A A C# C# C# C# E E E E 
A A A A A A A A C# C# C# C# E E E E 
A A A A A A A A 
A A A A A A A A 
A A A A C# C# C# C# E E E E 
A A A A C# C# C# C# E E E E 
A A A A A A A A 
A A A A A A C C 
A A A A B B C C D D D D F# F# F# F# 
A A A A D D D D D D D D F# F# F# F# 
A A A A D D D D 
A A A A C C C C 
A A A A C C C C D D E E E E E E 
A A A A C C C C E E E E E E E E 
D D D D E E E E 
D D D D F# F# F# F# 
C C C C D D D D F# F# G G 
C C C C D D D D G G G G 
B B B B G G G G 
B B B B E E F F 
A A B B D D E E E E E E G G G G 
C C C C C C C C E E E E G G G G 
C C C C C C C C 
D D D D 
B B C C E E E E 
D D D D E E E E 
B B B B D D D D E E E E G G G G 
B B B B B B B B E E E E G G G G 
A A A A C C C C C C C C E E E E 
A A A A A A A A C C C C E E E E 
B B B B B B B B D D D D E E E E 
B B B B D D D D E E E E G G G G 
A A A A A A A A C# C# C# C# E E E E 
A A A A A A A A C# C# C# C# E E E E 
A A A A A A A A 
A A A A A A A A 
A A A A C# C# C# C# E E E E 
A A A A C# C# C# C# E E E E 
A A A A A A A A 
A A A A A A G G 
A A A A 
A A A A 
A A A A A A A A D D D D F# F# F# F# 
A A A A B B C C D D D D F# F# F# F# 
C C C C D D E E G G 
C C C C D D D D E E E E G G G G 
A A B B C C D D D D E E F# F# G G 
B B B B B B D D D D D D F# F# F# F# 
B B B B B B C C C C D D E E F# F# 
B B B B C C C C C C C C E E E E 
A A B B C C C C C C E E 
A A A A B B C C 
A A A A B B C C C C E E 
A A A A C C C C C C E E E E 
A A A A A A C C E E E E G G 
A A A A A A B B G G G G 
A A A A B B C C E E F F G G 
A A A A C C E E E E F F F F 
A A A A B B D D E E F F 
A A D D D D G G 
B B D D D D F F G G G G 
B B B B D D D D F F G G G G 
B B D D D D E E E E G G 
B B D D E E E E 
B B B B C C D D E E E E 
B B B B C C C C C C C C E E E E 
A A B B C C C C C C E E 
A A A A B B C C 
A A A A B B C C C C E E 
A A A A C C C C C C C C E E E E 
A A B B C C C C E E G G 
C C G G G G G G 
A A F F G G G G 
A A A A F F F F 
A A A A A A D# D# F F 
A A A A A A C C D# D# D# D# 
A A A A B B C C D# D# D# D# 
A A A A D D D D D# D# D# D# 
A A A A A A D D D# D# D# D# 
D D D D E E E E 
B B B B E E E E 
C C D D D D D D 
C C C C D D D D 
A A A A C C C C C C C C F# F# F# F# 
A A A A C C C C C C D D F# F# F# F# 
A A A A C C C C D D E E F# F# F# F# 
A A A A C C C C E E E E F# F# F# F# 
A A A A C C C C C C F# F# F# F# G G 
A A A A C C C C F# F# F# F# G G 
A A A A C C F# F# 
A A E E 
A A C C D D E E F# F# 
A A C C C C D D D D E E F# F# F# F# 
A A A A C C C C D D E E F# F# F# F# 
A A A A A A C C C C E E F# F# F# F# 
A A A A C C D D E E E E F# F# G# G# 
A A D D D D E E E E E E G# G# G# G# 
A A A A C# C# D D E E E E E E G# G# 
A A A A A A A A C# C# C# C# E E E E 
A A A A A A A A C# C# E E 
A A A A A A A A 
A A A A A A C# C# E E 
A A A A C# C# C# C# E E E E 
A A A A A A C# C# E E 
A A A A A A A A 
A A A A C C E E G G 
A A A A C C C C E E E E 
A A A A C C E E F F 
A A C C F F F F 
B B C C F F 
D D D D 
A A D D 
B B B B D D D D E E E E 
B B B B B B B B E E E E 
A A A A C C D D D D D D 
A A A A C C C C D D D D 
C C C C D D D D 
B B B B D D D D 
C C C C 
E E 
A A A A C C C C D D D D F F F F 
B B B B C C C C D D D D F F F F 
B B B B C C C C E E E E G G G G 
B B B B B B E E E E G G G G 
A A A A B B B B C C C C E E E E 
B B B B C C C C E E E E G G G G 
A A A A C C C C D D D D F F F F F F F F 
A A A A C C C C D D D D E E F F F F 
Ab Ab Ab Ab C C C C D D D D D D D D F F F F 
Ab Ab Ab Ab B B B B C C C C D D D D F F F F 
C C C C C C D D F F F F G G G G 
C C C C C C C C F F F F G G G G 
C C C C G G G G 
B B B B G G G G 
C C C C C C C C E E E E G G G G 
B B C C C C C C E E E E G G G G 
C C C C F# F# F# F# 
F# F# F# F# G G G G 
A A A A F F F F 
A A A A F F F F 
A A A A A A A A D# D# D# D# 
A A A A B B C C D# D# D# D# 
A A A A C C D D D# D# D# D# 
A A A A D D D D D# D# D# D# 
A A A A C C D D D# D# D# D# 
A A A A B B D D D# D# D# D# 
A A B B D D D# D# E E 
C C C C E E E E 
A A C C C C E E E E 
A A A A C C D D E E E E 
A A A A C C D D E E E E 
A A A A E E E E E E E E 
A A A A C C E E E E E E 
A A A A E E E E G G G G 
A A A A E E E E 
A A A A C C C C Eb Eb Eb Eb G G G G 
C C C C E E E E Eb Eb Eb Eb G G G G 
A A A A C C C C D D D D F# F# F# F# 
C C C C D D D D E E E E F# F# F# F# 
A A A A A A A A C C C C F# F# F# F# 
A A A A C C C C E E E E F# F# F# F# 
A A A A D D D D E E E E G# G# G# G# 
D D D D E E E E E E E E G# G# G# G# 
A A A A A A A A D D D D E E E E 
A A A A A A A A D D D D E E E E 
A A A A A A A A 
A A A A A A A A 
A A A A C# C# C# C# E E E E 
A A A A C# C# C# C# E E E E 
A A A A A A A A 
A A A A A A A A 
