
Parameter values
================
Basic algorithm: (-a): COSIATEC
Input file (-i): /Users/dorien/Workspace/PMusicOR/sia/ShortTempered.mid
Output directory (-o): /Users/dorien/Workspace/PMusicOR/sia/ShortTempered-mid-2017-01-13-14-41-38-496
Morphetic (diatonic) pitch (-d): false
MIREX (-m): false
Compactness trawler (-ct): false
Minimum compactness of trawled patterns (-cta): 0.5
Minimum size of trawled patterns (-ctb): 3
For r superdiagonals (-rsd): false
r (-r): 1
Remove redundant translators (-rrt): false
Minimum TEC compactness (-minc): 0.0
Minimum pattern size (-min): 0
Maximum pattern size (-max): Unlimited
Merge TECS (-merge): false
Minimum match size if TECs are merged (-minm): 5
Number of iterations if TECs are merged (-spins): 10
Remove channel 10 (drum channel) in MIDI (-no10): false
Help requested (-h): false
Draw analysis (-draw): true
Minimum compression ratio in Forth's algorithm (-crlow): 0.2
Maximum compression ratio in Forth's algorithm (-crhi): 1.0
Minimum compactness threshold in Forth's algorithm (-comlow): 0.2
Maximum compactness threshold in Forth's algorithm (-comhi): 1.0
c_min threshold in Forth's algorithm (-cmin): 15
sigma_min threshold in Forth's algorithm (-sigmin): 0.5
Using bounding-box compactness in Forth's algorithm (-bbcomp): false

