total length (in divisions): 3312
divisions_per_quarter_note: 12
start_time pitch midi_pitch duration bar_number staff_number voice
0 G# 56 4 1 1 1
48 G# 56 4 2 1 1
96 A 57 4 3 1 1
144 G# 56 4 4 1 1
192 E 52 4 5 2 5
240 G# 56 4 6 1 1
288 G# 56 4 7 1 1
336 G# 56 4 8 1 2
384 G# 56 4 9 1 1
432 G 55 4 10 1 2
480 G 55 4 11 1 2
528 G 55 4 12 1 2
576 F# 54 4 13 1 2
624 F# 54 4 14 1 1
672 B 59 12 15 1 1
720 B 59 4 16 1 1
768 B 59 4 17 1 1
816 B 59 4 18 1 1
864 B 59 4 19 1 1
912 B 59 4 20 1 1
960 G 55 4 21 1 1
1008 C# 49 4 22 1 2
1056 F# 54 4 23 1 2
1104 C# 61 4 24 1 1
1152 C# 61 4 25 1 2
1200 D# 63 4 26 1 1
1248 E 64 4 27 1 2
1296 B# 72 4 28 1 2
1344 G# 32 48 29 2 5
1392 E 52 4 30 1 2
1440 G# 32 48 31 2 5
1488 D# 51 4 32 1 1
1536 E 52 4 33 1 1
1584 C# 61 4 34 1 1
1632 F# 66 4 35 1 1
1680 B# 84 4 36 1 1
1728 F# 66 4 37 1 1
1776 B# 48 4 38 1 1
1824 B# 48 4 39 1 1
1872 B# 48 4 40 1 1
1920 D# 51 4 41 1 1
1968 E 52 4 42 1 2
2016 G# 56 4 43 1 1
2064 G# 56 4 44 1 1
2112 G# 56 4 45 1 2
2160 G# 56 4 46 1 2
2208 B 59 4 47 1 1
2256 B 59 4 48 1 2
2304 D# 63 4 49 1 1
2352 D 62 4 50 1 1
2400 C# 61 4 51 1 1
2448 C# 61 4 52 1 1
2496 C# 61 4 53 1 1
2544 C# 61 4 54 1 1
2592 C# 61 4 55 1 1
2640 B 59 4 56 1 2
2688 A 69 12 57 1 1
2736 F# 54 4 58 1 2
2784 G# 56 4 59 1 1
2832 E 52 4 60 1 1
2880 G# 56 4 61 1 1
2928 G# 56 4 62 1 1
2976 B# 72 4 63 1 1
3024 E 52 4 64 1 1
3072 B# 72 4 65 1 1
3120 E 52 4 66 1 1
3168 C# 37 24 67 2 6
3216 C# 37 24 68 2 5
3264 E 52 48 69 1 1
