1	 1.7888543819998317
5	 2.1291625896895083
6	 2.966479394838265
7	 2.1291625896895083
8	 2.966479394838265
9	 1.7888543819998317
12	 2.966479394838265
13	 1.7888543819998317
19	 2.966479394838265
21	 1.7888543819998317
31	 0.0
33	 1.7888543819998317
40	 2.309401076758503
43	 2.966479394838265
49	 1.7888543819998317
51	 2.1291625896895083
53	 1.7888543819998317
55	 2.966479394838265
57	 1.4605934866804429
60	 2.309401076758503
61	 2.966479394838265
63	 1.7888543819998317
64	 2.966479394838265
65	 1.7888543819998317
69	 2.1291625896895083
70	 2.966479394838265
71	 2.1291625896895083
72	 2.966479394838265
73	 1.7888543819998317
76	 2.966479394838265
77	 1.7888543819998317
83	 2.966479394838265
85	 1.7888543819998317
87	 2.966479394838265
89	 1.7888543819998317
97	 2.966479394838265
105	 1.7888543819998317
108	 0.0
112	 1.7888543819998317
115	 2.966479394838265
117	 1.7888543819998317
119	 2.966479394838265
121	 1.7888543819998317
129	 2.966479394838265
137	 1.7888543819998317
140	 3.5777087639996634
141	 0.0
143	 1.4605934866804429
145	 1.7888543819998317
146	 1.4605934866804429
147	 1.7888543819998317
148	 1.4605934866804429
149	 1.7888543819998317
150	 1.4605934866804429
151	 1.7888543819998317
152	 1.4605934866804429
154	 0.0
155	 1.4605934866804429
156	 2.309401076758503
157	 1.4605934866804429
158	 0.0
159	 1.7888543819998317
160	 1.4605934866804429
161	 1.7888543819998317
162	 1.4605934866804429
163	 1.7888543819998317
164	 1.4605934866804429
166	 0.0
167	 1.7888543819998317
168	 1.4605934866804429
169	 1.7888543819998317
170	 1.4605934866804429
171	 1.7888543819998317
172	 1.4605934866804429
173	 1.7888543819998317
174	 1.4605934866804429
175	 1.7888543819998317
176	 1.4605934866804429
178	 0.0
179	 1.4605934866804429
180	 0.0
181	 1.7888543819998317
183	 1.4605934866804429
184	 2.309401076758503
185	 1.4605934866804429
186	 2.1291625896895083
188	 1.4605934866804429
189	 2.966479394838265
190	 1.4605934866804429
191	 1.7888543819998317
192	 3.5777087639996634
