-1.016012072563171387e+00
-6.998708248138427734e-01
-4.680673778057098389e-01
-9.179733395576477051e-01
-1.033762574195861816e+00
-5.123460888862609863e-01
-1.229202747344970703e+00
-6.595914959907531738e-01
-1.102425456047058105e+00
-8.957081437110900879e-01
-5.423555970191955566e-01
-5.756734609603881836e-01
-5.598576068878173828e-01
-1.076501727104187012e+00
-1.171325325965881348e+00
-5.086027979850769043e-01
-1.555517502129077911e-02
-1.099173069000244141e+00
-1.287671208381652832e+00
-2.282200381159782410e-02
-6.055140495300292969e-01
-1.008375525474548340e+00
3.824624121189117432e-01
-1.094083070755004883e+00
-5.779293179512023926e-01
-8.761186003684997559e-01
-2.090756148099899292e-01
-1.097417354583740234e+00
-5.252885222434997559e-01
-2.711643874645233154e-01
-1.454124212265014648e+00
-2.604844868183135986e-01
4.101576507091522217e-01
5.133737996220588684e-02
-7.319215536117553711e-01
-8.916851282119750977e-01
-3.669416904449462891e-01
-8.569588661193847656e-01
-1.027659893035888672e+00
-6.024174094200134277e-01
-1.160184219479560852e-01
-5.440388917922973633e-01
-6.278467774391174316e-01
-3.818108439445495605e-01
-3.390194475650787354e-01
-6.616331934928894043e-01
-7.716180682182312012e-01
-7.016513943672180176e-01
-2.026663571596145630e-01
