E 
A 
A A C E 
A A C E 
C C E G 
B 
B B D F 
E 
B D E G 
A 
A A C E 
A A C E 
C C E G 
B 
B B D F 
E 
B D E G 
A 
A A C E 
B 
B B D F 
C 
C C E G 
D 
A D D F 
E 
B E E G 
B E E G 
A C F F 
E 
B E E G 
B E E G 
A C F F 
D 
A D D F 
A D D F 
B E E G 
D 
A D D F 
A D D F 
B E E G 
C 
C C E G 
D 
A D D F 
B 
B B D F 
C 
C C E G 
A 
A A C E 
A A C E 
C C E G 
B 
B B D F 
E 
B D E G 
A 
A A C E 
A A C E 
C C E G 
B 
B B D F 
E 
B D E G 
A 
A A C E 
B 
B B D F 
C 
C C E G 
D 
A D D F 
Eb 
Bb Eb Eb Gb 
Bb Eb Eb Gb 
A C F F 
Eb 
Bb Eb Eb Gb 
Bb Eb Eb Gb 
A C F F 
Gb 
Bb Db Gb Gb 
Bb Db Gb Gb 
A C F F 
Gb 
Bb Db Gb Gb 
Bb Db Gb Gb 
A C F F 
Eb 
Bb Eb Eb Gb 
F 
Ab C F F 
Db 
Ab Db Db F 
Eb 
Bb Eb Eb Gb 
C 
C C E G 
C C E G 
Ab Db Db F 
C 
C C E G 
C C E G 
Ab Db Db F 
B 
B B D# F# 
B B D# F# 
C C E G 
B 
B B D# F# 
B B D# F# 
C C E G 
Bb 
Bb Bb D F 
Bb Bb D F 
A B D# F# 
Bb 
Bb Bb D F 
Bb Bb D F 
A B D# F# 
Bb 
Bb Bb D F 
E 
B D E G# 
Bb 
Bb Bb D F 
E 
B D E G# 
Bb 
Bb Bb D F 
E 
B D E G# 
Bb 
Bb Bb D F 
E 
B D E G# 
A 
A A C E 
A A C E 
C C E G 
B 
B B D F 
E 
B D E G 
A 
A A C E 
A A C E 
C C E G 
B 
B B D F 
E 
B D E G 
A 
A A C E 
G 
B D G G 
F 
A C F F 
E 
B E E G 
D 
A D D F 
E 
B E E G 
C 
C C E G 
B 
B B D F 
A 
A A C E 
A A C E 
B D E G 
A 
A A C E 
A A C E 
B D E G 
A 
A A C E 
E 
B D E G 
A 
A A C E 
E 
B D E G 
A A C E 
A A C E 


B D E G 
B D E G 


A A C E 
A A C E 

