0	 0.0
1	 0.0
2	 0.07991597479159773
3	 0.19381378215210265
4	 0.37499999999999944
5	 0.1938137821521032
6	 1.0
7	 0.19381378215210315
8	 0.3749999999999999
9	 0.19381378215210232
10	 0.6575315094531519
11	 0.09926470588235259
12	 0.6833241298162621
13	 0.316242891562841
14	 0.869274472937998
15	 0.061470990346485344
16	 0.014187293276528345
17	 0.869274472937998
18	 0.915337260936917
19	 0.05048250719228642
20	 0.9745353764783102
21	 0.22316263505365658
22	 0.9488280419639545
23	 0.7720588235294121
24	 0.07866757969109323
25	 0.5000000000000002
26	 0.1938137821521032
27	 0.8328732110561686
28	 0.38668146006598497
29	 0.1875000000000004
30	 0.8108411855707973
31	 0.5918933805143383
32	 0.19381378215210254
33	 0.17653722848376868
34	 0.2244108726952242
35	 0.1938137821521022
36	 0.23895976689864568
37	 0.23895976689864568
38	 0.22883692772667974
39	 0.0018416268836964345
40	 0.0024473959971669235
41	 0.1081772395523215
42	 0.7894600479945133
43	 0.5270211063229465
44	 0.8952847075210473
45	 0.1271994324603371
46	 0.44264606653235844
47	 0.7454951265154919
