0	 0.23657362107661195
1	 0.23657362107661195
2	 0.23657362107661195
3	 0.9884102045761608
4	 0.1966802673681741
5	 0.1966802673681741
6	 0.1966802673681741
7	 1.2198630429771202
8	 0.42503933490206747
9	 0.42503933490206747
10	 0.42503933490206747
11	 1.3600714094058177
12	 0.23657362107661195
13	 0.23657362107661195
14	 0.23657362107661195
15	 0.1966802673681741
16	 0.22589556565891716
17	 0.22589556565891716
18	 0.22589556565891716
19	 0.8104258901693543
20	 0.25337231668869736
21	 0.25337231668869736
22	 0.25337231668869736
23	 0.8573094096464317
24	 0.17684942794538253
25	 0.17684942794538253
26	 0.17684942794538253
27	 0.8616187273241688
28	 0.3207501495497922
29	 0.3207501495497922
30	 0.3207501495497922
31	 0.7660491340117581
32	 0.23657362107661203
33	 0.23657362107661203
34	 0.23657362107661203
35	 1.3477614422997097
36	 0.37074055574050957
37	 0.37074055574050957
38	 0.37074055574050957
39	 1.242922349577072
40	 0.23657362107661217
41	 0.23657362107661217
42	 0.23657362107661217
43	 0.598351645237167
44	 0.45406259426005613
45	 0.45406259426005613
46	 0.45406259426005613
47	 1.8974750387379917
48	 0.22589556565891705
49	 0.22589556565891705
50	 0.22589556565891705
51	 0.6106058517348484
52	 0.4540625942600566
53	 0.4540625942600566
54	 0.4540625942600566
55	 0.846440136896753
56	 0.17684942794538253
57	 0.17684942794538253
58	 0.17684942794538253
59	 0.8616187273241688
60	 0.32075014954979214
61	 0.32075014954979214
62	 0.32075014954979214
63	 0.7660491340117581
64	 0.23657362107661203
65	 0.23657362107661203
66	 0.23657362107661203
67	 1.34776144229971
68	 0.37074055574050957
69	 0.37074055574050957
70	 0.37074055574050957
71	 1.2429223495770718
72	 0.23657362107661195
73	 0.23657362107661195
74	 0.23657362107661195
75	 0.5830246096634781
76	 0.15248288037213997
77	 0.15248288037213997
78	 0.15248288037213997
79	 1.5286697732735361
80	 0.32075014954979203
81	 0.32075014954979203
82	 0.32075014954979203
83	 1.2161465148899668
84	 0.346053588942165
85	 0.346053588942165
86	 0.346053588942165
87	 0.5625485804353205
88	 0.39804046778156815
89	 0.39804046778156815
90	 0.39804046778156815
91	 1.0542877376432185
92	 0.236573621076612
93	 0.236573621076612
94	 0.236573621076612
95	 0.8205187559139551
96	 0.27517297216306236
97	 0.27517297216306236
98	 0.27517297216306236
99	 0.926518329010155
100	 0.3264726054968743
101	 0.3264726054968743
102	 0.3264726054968743
103	 0.5286055886128687
104	 0.37074055574050957
105	 0.37074055574050957
106	 0.37074055574050957
107	 1.0513561690686384
108	 0.3623199141154245
109	 0.3623199141154245
110	 0.3623199141154245
111	 1.1168370977365754
112	 0.040572041296678955
113	 0.040572041296678955
114	 0.040572041296678955
115	 0.6879324304076561
116	 0.3264726054968743
117	 0.3264726054968743
118	 0.3264726054968743
119	 0.5286055886128687
120	 0.37074055574050957
121	 0.37074055574050957
122	 0.37074055574050957
123	 1.0251969598981272
124	 0.15843888619412919
125	 0.15843888619412919
126	 0.15843888619412919
127	 0.5840824114579085
128	 0.08114408259335797
129	 0.14907119849998599
130	 0.27888667551135854
131	 1.0726683009908595
132	 0.35572912430182496
133	 0.30429030972509236
134	 0.3800584750330461
135	 0.7164728420068225
136	 0.0
137	 0.0
138	 0.0
