0	 0.21189138534559027
1	 0.21189138534559043
2	 0.0
3	 0.0
4	 0.0
5	 0.0
6	 0.21189138534559027
7	 0.21189138534559043
8	 0.0
9	 0.0
10	 0.0
11	 0.0
12	 0.0
13	 0.0
14	 0.0
15	 1.016530045465127
16	 0.0
17	 1.016530045465127
18	 0.0
19	 0.0
20	 0.0
21	 1.064581294844754
22	 0.0
