0	 2.1291625896895083
1	 2.1291625896895083
2	 2.1291625896895083
3	 2.1291625896895083
4	 1.4605934866804429
5	 1.7888543819998317
6	 0.0
7	 0.0
8	 0.0
9	 0.0
10	 0.0
11	 0.0
12	 0.0
13	 2.309401076758503
14	 1.7888543819998317
15	 2.1291625896895083
16	 2.309401076758503
17	 1.4605934866804429
18	 2.1291625896895083
19	 0.0
20	 2.966479394838265
21	 0.0
22	 2.1291625896895083
23	 0.0
24	 2.1291625896895083
25	 2.1291625896895083
26	 2.1291625896895083
27	 1.7888543819998317
28	 1.4605934866804429
29	 2.1291625896895083
30	 0.0
31	 1.4605934866804429
32	 2.1291625896895083
33	 1.4605934866804429
34	 1.7888543819998317
35	 1.4605934866804429
36	 2.1291625896895083
37	 1.7888543819998317
38	 1.4605934866804429
39	 1.4605934866804429
40	 2.1291625896895083
41	 1.7888543819998317
42	 2.1291625896895083
43	 2.309401076758503
44	 1.7888543819998317
45	 2.1291625896895083
46	 2.1291625896895083
47	 1.4605934866804429
48	 1.7888543819998317
49	 2.1291625896895083
50	 2.1291625896895083
51	 2.309401076758503
52	 2.1291625896895083
53	 2.1291625896895083
54	 2.1291625896895083
55	 2.1291625896895083
56	 1.4605934866804429
57	 2.1291625896895083
58	 2.1291625896895083
59	 2.309401076758503
60	 1.7888543819998317
61	 1.4605934866804429
62	 2.1291625896895083
63	 2.1291625896895083
64	 1.7888543819998317
65	 1.4605934866804429
66	 0.0
67	 1.4605934866804429
68	 0.0
69	 0.0
70	 1.4605934866804429
71	 1.7888543819998317
72	 0.0
73	 2.1291625896895083
74	 0.0
75	 0.0
76	 1.4605934866804429
77	 2.1291625896895083
78	 1.4605934866804429
79	 1.4605934866804429
80	 2.1291625896895083
81	 2.1291625896895083
82	 2.1291625896895083
83	 1.7888543819998317
84	 1.4605934866804429
85	 1.4605934866804429
86	 1.4605934866804429
87	 2.1291625896895083
88	 1.4605934866804429
89	 2.1291625896895083
90	 1.7888543819998317
91	 2.1291625896895083
92	 1.7888543819998317
93	 1.4605934866804429
94	 2.966479394838265
95	 1.7888543819998317
96	 2.9211869733608857
97	 1.4605934866804429
98	 1.4605934866804429
99	 1.7888543819998317
100	 1.7888543819998317
101	 1.4605934866804429
102	 2.9211869733608857
103	 2.309401076758503
104	 1.7888543819998317
105	 2.1291625896895083
106	 1.4605934866804429
107	 2.1291625896895083
108	 1.4605934866804429
109	 1.4605934866804429
110	 1.7888543819998317
111	 1.7888543819998317
112	 0.0
113	 0.0
114	 0.0
115	 1.4605934866804429
116	 0.0
117	 1.4605934866804429
118	 0.0
119	 2.1291625896895083
120	 0.0
121	 1.4605934866804429
122	 2.1291625896895083
123	 2.1291625896895083
124	 2.1291625896895083
125	 2.1291625896895083
126	 1.4605934866804429
127	 1.4605934866804429
128	 0.0
129	 1.4605934866804429
130	 0.0
131	 1.4605934866804429
132	 0.0
133	 1.4605934866804429
134	 1.7888543819998317
135	 1.7888543819998317
136	 1.4605934866804429
137	 0.0
138	 2.309401076758503
139	 2.309401076758503
140	 2.309401076758503
141	 2.309401076758503
142	 1.4605934866804429
143	 2.1291625896895083
144	 1.7888543819998317
145	 1.7888543819998317
146	 2.1291625896895083
147	 2.309401076758503
148	 2.966479394838265
149	 2.966479394838265
150	 2.309401076758503
151	 2.309401076758503
152	 2.309401076758503
153	 2.309401076758503
154	 2.309401076758503
155	 2.309401076758503
156	 1.7888543819998317
157	 1.4605934866804429
158	 1.7888543819998317
159	 2.309401076758503
160	 1.4605934866804429
161	 1.7888543819998317
162	 2.1291625896895083
163	 1.4605934866804429
164	 1.4605934866804429
165	 1.4605934866804429
166	 2.1291625896895083
167	 2.1291625896895083
168	 2.1291625896895083
169	 1.4605934866804429
170	 1.4605934866804429
171	 1.4605934866804429
172	 1.7888543819998317
173	 2.1291625896895083
174	 1.7888543819998317
175	 2.1291625896895083
176	 1.7888543819998317
177	 1.4605934866804429
178	 1.4605934866804429
179	 2.1291625896895083
180	 1.4605934866804429
181	 2.1291625896895083
182	 1.4605934866804429
183	 1.7888543819998317
184	 1.4605934866804429
185	 1.7888543819998317
186	 2.1291625896895083
187	 2.1291625896895083
188	 2.1291625896895083
189	 2.1291625896895083
190	 1.4605934866804429
191	 1.7888543819998317
192	 2.309401076758503
193	 2.966479394838265
194	 2.1291625896895083
195	 2.1291625896895083
196	 2.309401076758503
197	 2.1291625896895083
198	 0.0
199	 0.0
200	 0.0
201	 0.0
202	 0.0
203	 0.0
204	 1.4605934866804429
205	 2.1291625896895083
206	 2.1291625896895083
207	 2.1291625896895083
208	 2.1291625896895083
209	 2.1291625896895083
210	 2.1291625896895083
211	 2.1291625896895083
212	 2.1291625896895083
213	 1.4605934866804429
214	 2.1291625896895083
215	 2.1291625896895083
216	 1.7888543819998317
217	 2.1291625896895083
218	 2.1291625896895083
219	 1.4605934866804429
220	 1.7888543819998317
221	 2.1291625896895083
222	 2.309401076758503
223	 2.1291625896895083
224	 2.1291625896895083
225	 2.1291625896895083
226	 1.4605934866804429
227	 1.4605934866804429
228	 2.1291625896895083
229	 2.1291625896895083
230	 2.1291625896895083
231	 2.1291625896895083
232	 2.1291625896895083
233	 2.1291625896895083
234	 1.4605934866804429
235	 1.4605934866804429
236	 2.1291625896895083
237	 2.1291625896895083
238	 1.7888543819998317
239	 1.4605934866804429
240	 2.1291625896895083
241	 2.1291625896895083
242	 2.1291625896895083
243	 2.1291625896895083
244	 1.4605934866804429
245	 1.4605934866804429
246	 2.1291625896895083
247	 2.309401076758503
248	 2.1291625896895083
249	 2.966479394838265
250	 2.1291625896895083
251	 2.309401076758503
252	 2.1291625896895083
253	 1.4605934866804429
254	 2.1291625896895083
255	 2.1291625896895083
256	 2.1291625896895083
257	 2.1291625896895083
258	 2.1291625896895083
259	 2.1291625896895083
260	 1.7888543819998317
261	 2.1291625896895083
262	 2.1291625896895083
263	 1.7888543819998317
264	 1.4605934866804429
265	 2.309401076758503
266	 2.1291625896895083
267	 2.1291625896895083
268	 2.1291625896895083
269	 2.1291625896895083
270	 2.1291625896895083
271	 2.1291625896895083
272	 2.1291625896895083
273	 2.1291625896895083
274	 1.4605934866804429
275	 1.4605934866804429
276	 2.1291625896895083
277	 2.1291625896895083
278	 2.1291625896895083
279	 2.1291625896895083
280	 1.4605934866804429
281	 2.1291625896895083
282	 1.7888543819998317
283	 2.9211869733608857
284	 2.1291625896895083
285	 2.1291625896895083
286	 1.4605934866804429
287	 2.1291625896895083
288	 2.966479394838265
289	 2.966479394838265
290	 2.966479394838265
291	 2.966479394838265
292	 2.966479394838265
293	 2.966479394838265
294	 1.4605934866804429
295	 2.9211869733608857
296	 0.0
297	 0.0
298	 1.4605934866804429
299	 1.7888543819998317
300	 0.0
301	 0.0
302	 0.0
303	 0.0
304	 0.0
305	 0.0
306	 0.0
307	 2.309401076758503
308	 0.0
309	 0.0
310	 2.309401076758503
311	 1.4605934866804429
312	 2.1291625896895083
313	 0.0
314	 2.966479394838265
315	 0.0
316	 2.1291625896895083
317	 0.0
318	 2.1291625896895083
319	 2.1291625896895083
320	 2.1291625896895083
321	 1.7888543819998317
322	 1.4605934866804429
323	 2.1291625896895083
324	 0.0
325	 1.4605934866804429
326	 2.1291625896895083
327	 1.4605934866804429
328	 1.7888543819998317
329	 1.4605934866804429
330	 2.1291625896895083
331	 1.7888543819998317
332	 1.4605934866804429
333	 1.4605934866804429
334	 2.1291625896895083
335	 1.7888543819998317
336	 2.1291625896895083
337	 2.1291625896895083
338	 1.7888543819998317
339	 2.1291625896895083
340	 2.1291625896895083
341	 1.4605934866804429
342	 1.7888543819998317
343	 2.1291625896895083
344	 2.1291625896895083
345	 2.309401076758503
346	 2.1291625896895083
347	 2.1291625896895083
348	 2.1291625896895083
349	 1.7888543819998317
350	 1.4605934866804429
351	 2.1291625896895083
352	 2.1291625896895083
353	 2.309401076758503
354	 1.7888543819998317
355	 2.309401076758503
356	 2.1291625896895083
357	 2.309401076758503
358	 2.1291625896895083
359	 2.1291625896895083
360	 1.7888543819998317
361	 2.309401076758503
362	 2.1291625896895083
363	 2.309401076758503
364	 2.1291625896895083
365	 2.1291625896895083
366	 0.0
367	 2.309401076758503
368	 2.1291625896895083
369	 2.309401076758503
370	 2.1291625896895083
371	 2.309401076758503
372	 0.0
373	 1.4605934866804429
374	 1.4605934866804429
375	 2.1291625896895083
376	 2.1291625896895083
377	 2.1291625896895083
378	 1.4605934866804429
379	 1.4605934866804429
380	 2.1291625896895083
381	 2.966479394838265
382	 2.1291625896895083
383	 0.0
384	 1.4605934866804429
385	 2.309401076758503
386	 1.7888543819998317
387	 1.7888543819998317
388	 2.1291625896895083
389	 2.1291625896895083
390	 1.4605934866804429
391	 2.1291625896895083
392	 2.1291625896895083
393	 1.7888543819998317
394	 2.1291625896895083
395	 1.7888543819998317
396	 2.1291625896895083
397	 2.1291625896895083
398	 2.966479394838265
399	 2.966479394838265
400	 0.0
401	 0.0
402	 2.1291625896895083
403	 2.1291625896895083
404	 2.309401076758503
405	 2.1291625896895083
406	 2.309401076758503
407	 2.309401076758503
408	 2.1291625896895083
409	 2.1291625896895083
410	 2.1291625896895083
411	 2.1291625896895083
412	 2.1291625896895083
413	 1.4605934866804429
414	 0.0
415	 2.1291625896895083
416	 1.4605934866804429
417	 1.7888543819998317
418	 2.1291625896895083
419	 2.1291625896895083
420	 0.0
421	 1.7888543819998317
422	 2.309401076758503
423	 2.309401076758503
424	 1.4605934866804429
425	 2.1291625896895083
426	 0.0
427	 1.7888543819998317
428	 1.7888543819998317
429	 2.309401076758503
430	 1.7888543819998317
431	 1.7888543819998317
432	 0.0
433	 1.4605934866804429
434	 1.7888543819998317
435	 1.7888543819998317
436	 2.1291625896895083
437	 2.1291625896895083
438	 0.0
439	 1.7888543819998317
440	 2.966479394838265
441	 2.966479394838265
442	 2.1291625896895083
443	 2.1291625896895083
444	 0.0
445	 2.1291625896895083
446	 2.309401076758503
447	 2.966479394838265
448	 2.1291625896895083
449	 2.1291625896895083
450	 0.0
451	 0.0
452	 0.0
453	 0.0
454	 0.0
455	 0.0
456	 2.1291625896895083
457	 2.1291625896895083
458	 1.7888543819998317
459	 2.1291625896895083
460	 1.7888543819998317
461	 1.4605934866804429
462	 2.1291625896895083
463	 2.1291625896895083
464	 1.7888543819998317
465	 2.1291625896895083
466	 2.1291625896895083
467	 2.1291625896895083
468	 1.4605934866804429
469	 2.1291625896895083
470	 2.309401076758503
471	 2.309401076758503
472	 2.1291625896895083
473	 2.1291625896895083
474	 1.4605934866804429
475	 2.1291625896895083
476	 2.1291625896895083
477	 2.1291625896895083
478	 1.4605934866804429
479	 1.4605934866804429
480	 1.4605934866804429
481	 1.4605934866804429
482	 0.0
483	 0.0
484	 0.0
485	 0.0
486	 0.0
487	 2.309401076758503
488	 2.309401076758503
489	 1.4605934866804429
490	 2.309401076758503
491	 1.7888543819998317
492	 2.1291625896895083
493	 2.966479394838265
494	 2.1291625896895083
495	 2.1291625896895083
496	 1.7888543819998317
497	 2.1291625896895083
498	 1.4605934866804429
499	 2.309401076758503
500	 2.966479394838265
501	 1.7888543819998317
502	 2.1291625896895083
503	 2.1291625896895083
504	 2.1291625896895083
505	 2.1291625896895083
506	 2.1291625896895083
507	 2.1291625896895083
508	 2.1291625896895083
509	 2.1291625896895083
510	 1.7888543819998317
511	 1.7888543819998317
512	 2.1291625896895083
513	 1.7888543819998317
514	 1.4605934866804429
515	 1.7888543819998317
516	 0.0
517	 0.0
518	 0.0
519	 0.0
520	 0.0
521	 0.0
522	 1.4605934866804429
523	 2.1291625896895083
524	 1.4605934866804429
525	 0.0
526	 2.1291625896895083
527	 1.4605934866804429
528	 2.1291625896895083
529	 0.0
530	 2.966479394838265
531	 0.0
532	 2.1291625896895083
533	 0.0
534	 2.1291625896895083
535	 2.1291625896895083
536	 2.1291625896895083
537	 1.7888543819998317
538	 1.4605934866804429
539	 2.1291625896895083
540	 0.0
541	 2.1291625896895083
542	 2.1291625896895083
543	 1.4605934866804429
544	 1.7888543819998317
545	 1.4605934866804429
546	 2.1291625896895083
547	 1.7888543819998317
548	 1.4605934866804429
549	 1.4605934866804429
550	 2.1291625896895083
551	 1.7888543819998317
552	 2.1291625896895083
553	 2.1291625896895083
554	 2.966479394838265
555	 2.1291625896895083
556	 2.1291625896895083
557	 1.4605934866804429
558	 2.9211869733608857
559	 2.966479394838265
560	 2.1291625896895083
561	 2.309401076758503
562	 2.1291625896895083
563	 2.1291625896895083
564	 2.1291625896895083
565	 1.7888543819998317
566	 2.1291625896895083
567	 2.1291625896895083
568	 2.1291625896895083
569	 2.309401076758503
570	 1.7888543819998317
571	 1.4605934866804429
572	 2.1291625896895083
573	 2.1291625896895083
574	 1.7888543819998317
575	 1.4605934866804429
576	 0.0
577	 1.4605934866804429
578	 0.0
579	 0.0
580	 1.7888543819998317
581	 1.4605934866804429
582	 0.0
583	 1.4605934866804429
584	 0.0
585	 0.0
586	 2.1291625896895083
587	 1.7888543819998317
588	 2.1291625896895083
589	 2.1291625896895083
590	 0.0
591	 0.0
592	 2.1291625896895083
593	 2.1291625896895083
594	 1.4605934866804429
595	 0.0
596	 2.1291625896895083
597	 2.1291625896895083
598	 0.0
599	 1.7888543819998317
600	 1.4605934866804429
601	 1.4605934866804429
602	 0.0
603	 2.1291625896895083
604	 0.0
605	 1.7888543819998317
606	 1.4605934866804429
607	 1.4605934866804429
608	 1.4605934866804429
609	 2.1291625896895083
610	 2.1291625896895083
611	 2.1291625896895083
612	 1.7888543819998317
613	 2.1291625896895083
614	 2.1291625896895083
615	 1.7888543819998317
616	 1.7888543819998317
617	 1.7888543819998317
618	 1.7888543819998317
619	 2.1291625896895083
620	 2.1291625896895083
621	 2.1291625896895083
622	 1.7888543819998317
623	 1.7888543819998317
624	 2.309401076758503
625	 2.1291625896895083
626	 2.1291625896895083
627	 1.4605934866804429
628	 1.4605934866804429
629	 2.1291625896895083
630	 2.1291625896895083
631	 2.1291625896895083
632	 2.1291625896895083
633	 2.1291625896895083
634	 0.0
635	 0.0
636	 0.0
637	 1.4605934866804429
638	 0.0
639	 1.4605934866804429
640	 0.0
641	 2.1291625896895083
642	 0.0
643	 1.4605934866804429
644	 2.1291625896895083
645	 2.1291625896895083
646	 2.1291625896895083
647	 2.1291625896895083
648	 1.4605934866804429
649	 1.4605934866804429
650	 0.0
651	 1.4605934866804429
652	 0.0
653	 1.4605934866804429
654	 0.0
655	 1.4605934866804429
656	 1.7888543819998317
657	 1.7888543819998317
658	 1.4605934866804429
659	 2.1291625896895083
660	 2.9211869733608857
661	 2.1291625896895083
662	 2.1291625896895083
663	 2.1291625896895083
664	 1.4605934866804429
665	 2.1291625896895083
666	 1.7888543819998317
667	 2.9211869733608857
668	 2.1291625896895083
669	 2.309401076758503
670	 2.966479394838265
671	 2.966479394838265
672	 2.309401076758503
673	 2.309401076758503
674	 2.309401076758503
675	 2.309401076758503
676	 2.309401076758503
677	 2.309401076758503
678	 1.7888543819998317
679	 1.4605934866804429
680	 1.7888543819998317
681	 2.309401076758503
682	 1.4605934866804429
683	 2.1291625896895083
684	 2.1291625896895083
685	 1.4605934866804429
686	 1.4605934866804429
687	 1.4605934866804429
688	 2.1291625896895083
689	 2.1291625896895083
690	 2.1291625896895083
691	 1.4605934866804429
692	 1.4605934866804429
693	 1.4605934866804429
694	 1.7888543819998317
695	 2.1291625896895083
696	 1.7888543819998317
697	 2.1291625896895083
698	 1.7888543819998317
699	 1.4605934866804429
700	 1.4605934866804429
701	 2.1291625896895083
702	 1.4605934866804429
703	 2.1291625896895083
704	 1.4605934866804429
705	 1.7888543819998317
706	 1.4605934866804429
707	 1.7888543819998317
708	 2.1291625896895083
709	 2.1291625896895083
710	 2.1291625896895083
711	 2.1291625896895083
712	 1.4605934866804429
713	 1.7888543819998317
714	 2.309401076758503
715	 2.966479394838265
716	 2.1291625896895083
717	 2.1291625896895083
718	 2.309401076758503
719	 2.1291625896895083
720	 0.0
721	 0.0
722	 0.0
723	 0.0
724	 0.0
725	 0.0
726	 1.4605934866804429
727	 2.1291625896895083
728	 2.1291625896895083
729	 2.1291625896895083
730	 2.1291625896895083
731	 2.1291625896895083
732	 2.1291625896895083
733	 2.1291625896895083
734	 2.1291625896895083
735	 1.4605934866804429
736	 2.1291625896895083
737	 2.1291625896895083
738	 1.7888543819998317
739	 2.1291625896895083
740	 2.1291625896895083
741	 2.1291625896895083
742	 1.7888543819998317
743	 2.1291625896895083
744	 2.309401076758503
745	 2.1291625896895083
746	 2.1291625896895083
747	 2.1291625896895083
748	 1.4605934866804429
749	 1.4605934866804429
750	 2.1291625896895083
751	 2.1291625896895083
752	 1.7888543819998317
753	 2.1291625896895083
754	 2.1291625896895083
755	 2.1291625896895083
756	 0.0
757	 1.7888543819998317
758	 2.1291625896895083
759	 2.1291625896895083
760	 1.7888543819998317
761	 1.4605934866804429
762	 2.1291625896895083
763	 2.1291625896895083
764	 2.1291625896895083
765	 2.1291625896895083
766	 1.4605934866804429
767	 1.4605934866804429
768	 2.1291625896895083
769	 2.309401076758503
770	 2.1291625896895083
771	 2.966479394838265
772	 2.1291625896895083
773	 2.309401076758503
774	 2.1291625896895083
775	 1.4605934866804429
776	 2.1291625896895083
777	 2.1291625896895083
778	 2.1291625896895083
779	 2.1291625896895083
780	 2.309401076758503
781	 2.309401076758503
782	 1.7888543819998317
783	 2.1291625896895083
784	 2.1291625896895083
785	 2.1291625896895083
786	 1.7888543819998317
787	 2.1291625896895083
788	 2.1291625896895083
789	 2.1291625896895083
790	 2.1291625896895083
791	 2.1291625896895083
792	 2.966479394838265
793	 2.309401076758503
794	 2.1291625896895083
795	 2.1291625896895083
796	 2.1291625896895083
797	 2.1291625896895083
798	 2.1291625896895083
799	 2.1291625896895083
800	 1.4605934866804429
801	 2.1291625896895083
802	 1.4605934866804429
803	 2.1291625896895083
804	 2.1291625896895083
805	 2.9211869733608857
806	 2.1291625896895083
807	 2.1291625896895083
808	 2.1291625896895083
809	 2.1291625896895083
810	 2.966479394838265
811	 2.966479394838265
812	 2.966479394838265
813	 2.966479394838265
814	 2.966479394838265
815	 2.966479394838265
