0	 0.4868644955601476
1	 0.0
2	 0.48686449556014766
3	 0.2434322477800736
4	 1.1547005383792515
5	 2.851899951494325
6	 2.966479394838265
7	 0.0
8	 2.1291625896895083
9	 0.0
10	 2.1291625896895083
11	 0.0
12	 0.8944271909999159
13	 0.8944271909999159
14	 0.7302967433402214
15	 0.8944271909999159
16	 0.7302967433402214
17	 2.652741419180738
18	 2.341256389522831
19	 0.48686449556014766
20	 2.0147603478476688
21	 0.9737289911202952
22	 2.627490000685769
23	 0.5962847939999438
24	 0.6624868971450596
25	 0.5322906474223771
26	 1.0954451150103321
27	 1.0645812948447542
28	 1.2382783747337807
29	 1.4832396974191324
30	 0.3651483716701107
31	 0.8944271909999157
32	 1.1547005383792512
33	 2.8518999514943246
34	 1.0645812948447544
35	 1.7888543819998313
36	 0.3651483716701107
37	 0.8366600265340756
38	 1.0645812948447542
39	 0.7416198487095662
40	 0.8944271909999162
41	 1.016530045465127
42	 0.3651483716701107
43	 1.8393839548428526
44	 0.7302967433402214
45	 0.7416198487095662
46	 0.5773502691896257
47	 1.1547005383792515
48	 0.5322906474223771
49	 0.7958224257542215
50	 1.0645812948447542
51	 0.7416198487095662
52	 0.8944271909999162
53	 1.5652475842498523
54	 0.8944271909999157
55	 1.8393839548428526
56	 0.7302967433402214
57	 0.7416198487095662
58	 0.5773502691896257
59	 1.0274023338281626
60	 0.8299933065325822
61	 1.0954451150103321
62	 0.7302967433402214
63	 1.0954451150103321
64	 0.7302967433402214
65	 1.4832396974191324
66	 0.7302967433402214
67	 0.7302967433402214
68	 0.0
69	 0.7302967433402214
70	 0.7302967433402214
71	 2.1291625896895083
72	 0.8944271909999159
73	 0.8944271909999159
74	 1.7888543819998317
75	 0.8944271909999159
76	 0.7302967433402214
77	 1.539600717839002
78	 0.24343224778007377
79	 1.0610965676722952
80	 1.0610965676722952
81	 1.0610965676722952
82	 0.4753166585823874
83	 1.178511301977579
84	 0.2981423969999719
85	 0.8255189164891871
86	 0.8255189164891871
87	 0.2981423969999719
88	 0.3726779962499649
89	 1.1442286743738157
90	 0.697880388775209
91	 1.2816366850994052
92	 0.3042903097250923
93	 1.8944362984510426
94	 0.6624868971450595
95	 1.3031301347709476
96	 0.8585086120925269
97	 0.8585086120925269
98	 0.5036900869619172
99	 1.3450870824074028
100	 0.6085806194501845
101	 1.80534186769688
102	 0.9737289911202952
103	 1.510457374930349
104	 0.3042903097250923
105	 1.5646559200502033
106	 0.4574486411164201
107	 2.136542724781046
108	 0.0
109	 1.1155467020454342
110	 0.0
111	 0.0
112	 0.0
113	 0.0
114	 0.0
115	 1.4605934866804429
116	 0.0
117	 1.7888543819998317
118	 0.0
119	 1.4605934866804429
120	 0.2434322477800738
121	 1.2171612389003692
122	 1.770122406313567
123	 1.4605934866804429
124	 1.4605934866804429
125	 1.4832396974191324
126	 0.0
127	 1.4605934866804429
128	 0.0
129	 1.7888543819998317
130	 0.0
131	 1.4605934866804429
132	 0.2434322477800738
133	 0.48686449556014766
134	 0.7302967433402214
135	 0.7302967433402214
136	 0.7302967433402214
137	 1.5347819244295118
138	 0.7097208632298359
139	 0.0
140	 0.4868644955601475
141	 0.7841012784167712
142	 1.1547005383792515
143	 0.7129749878735813
144	 0.28867513459481287
145	 0.26614532371118854
146	 0.28867513459481287
147	 0.30833103510818427
148	 0.20370713939245175
149	 0.7563787698880865
150	 0.08844845533812726
151	 0.1825741858350553
152	 0.0
153	 0.3580939716289661
154	 0.20619652471058061
155	 0.49246015757898737
156	 0.14725377234348785
157	 0.26614532371118854
158	 0.0
159	 0.14521857792358958
160	 0.3937219917692191
161	 0.7719024117939607
162	 1.1547005383792515
163	 1.591644851508443
164	 1.6733200530681511
165	 2.1291625896895083
166	 1.591644851508443
167	 0.7302967433402214
168	 0.8944271909999159
169	 1.0645812948447542
170	 1.6733200530681511
171	 2.1291625896895083
172	 2.1291625896895083
173	 0.6666666666666667
174	 0.557773351022717
175	 1.51657508881031
176	 0.8944271909999159
177	 0.7552286874651746
178	 0.24343224778007386
179	 0.6776866969767514
180	 0.3469443332443554
181	 0.7416198487095662
182	 0.8944271909999159
183	 1.217161238900369
184	 0.709720863229836
185	 0.8255189164891871
186	 0.24343224778007386
187	 1.4832396974191324
188	 0.8944271909999159
189	 0.7552286874651746
190	 0.24343224778007386
191	 0.6776866969767514
192	 0.3469443332443554
193	 0.7416198487095662
194	 0.8944271909999159
195	 0.7302967433402214
196	 0.6191391873668903
197	 1.5652475842498528
198	 0.0
199	 0.0
200	 0.0
201	 0.0
202	 0.0
203	 0.0
204	 0.557773351022717
205	 0.4127594582445934
206	 0.6085806194501846
207	 0.3548604316149181
208	 0.38490017945975047
209	 0.2434322477800738
210	 0.354860431614918
211	 0.8520128672302583
212	 0.8944271909999159
213	 0.0
214	 1.1547005383792515
215	 0.950633317164775
216	 0.557773351022717
217	 0.4127594582445934
218	 0.7552286874651746
219	 0.5900408021045221
220	 0.12171612389003683
221	 0.3849001794597504
222	 0.3849001794597504
223	 2.1739194846925507
224	 1.4605934866804429
225	 0.7302967433402214
226	 0.8944271909999159
227	 1.2171612389003692
228	 0.2981423969999719
229	 1.2531441937663719
230	 1.2449899597988732
231	 1.35400640077266
232	 0.3651483716701107
233	 1.5652475842498528
234	 0.7302967433402214
235	 1.0408329997330663
236	 0.3651483716701107
237	 0.7958224257542215
238	 0.5322906474223771
239	 1.2472191289246468
240	 0.48686449556014744
241	 0.9888264649460886
242	 0.0
243	 0.9737289911202955
244	 0.0
245	 1.3312483698477238
246	 0.4472135954999579
247	 1.2780193008453875
248	 0.7302967433402214
249	 0.7958224257542215
250	 0.3651483716701107
251	 1.7416467303484175
252	 2.0816659994661326
253	 1.770122406313567
254	 0.5773502691896255
255	 1.879716290649558
256	 0.8850612031567835
257	 0.7302967433402214
258	 0.0
259	 0.6191391873668903
260	 1.1401754250991378
261	 1.2382783747337807
262	 1.5438048235879211
263	 1.016530045465127
264	 0.0
265	 1.2780193008453875
266	 1.0408329997330663
267	 1.3038404810405297
268	 0.3651483716701106
269	 1.5468007604706535
270	 0.3548604316149181
271	 1.3137450003428846
272	 0.0
273	 0.4868644955601476
274	 0.0
275	 1.4194417264596721
276	 1.0610965676722952
277	 0.8255189164891871
278	 1.0645812948447542
279	 1.591644851508443
280	 1.8257418583505536
281	 1.3333333333333333
282	 0.41275945824459354
283	 0.8902766944004502
284	 1.3553733939535026
285	 0.5962847939999438
286	 1.1155467020454342
287	 1.2024666007527718
288	 0.5656854249492379
289	 0.0
290	 0.0
291	 0.0
292	 0.0
293	 0.7302967433402214
294	 0.3333333333333333
295	 1.1155467020454342
296	 1.4605934866804429
297	 0.7302967433402214
298	 1.1547005383792515
299	 2.851899951494325
300	 2.966479394838265
301	 0.0
302	 2.1291625896895083
303	 0.0
304	 2.1291625896895083
305	 0.0
306	 0.8944271909999159
307	 0.8944271909999159
308	 1.4605934866804429
309	 0.7302967433402214
310	 0.7302967433402214
311	 2.652741419180738
312	 2.341256389522831
313	 0.48686449556014766
314	 2.0147603478476688
315	 0.9737289911202952
316	 2.627490000685769
317	 0.5962847939999438
318	 0.6624868971450596
319	 0.5322906474223771
320	 1.0954451150103321
321	 1.0645812948447542
322	 1.2382783747337807
323	 1.4832396974191324
324	 0.3651483716701107
325	 0.8944271909999157
326	 1.1547005383792512
327	 2.8518999514943246
328	 1.0645812948447544
329	 1.7888543819998313
330	 0.3651483716701107
331	 0.8366600265340756
332	 1.0645812948447542
333	 0.7416198487095662
334	 0.8944271909999162
335	 1.016530045465127
336	 0.36514837167011077
337	 1.4605934866804429
338	 0.7302967433402214
339	 0.7416198487095662
340	 0.5773502691896257
341	 0.5322906474223771
342	 0.5322906474223771
343	 0.8366600265340756
344	 1.0645812948447542
345	 0.7416198487095662
346	 0.8944271909999162
347	 1.5652475842498523
348	 1.2780193008453875
349	 1.4605934866804429
350	 0.7302967433402214
351	 0.7416198487095662
352	 0.5773502691896257
353	 1.6843506277010842
354	 0.6131279849476176
355	 1.4433756729740643
356	 1.4605934866804429
357	 1.0954451150103321
358	 0.8944271909999159
359	 1.419441726459672
360	 0.6898738478344614
361	 1.1761519176251567
362	 1.4605934866804429
363	 1.0954451150103321
364	 0.8944271909999159
365	 2.033060090930254
366	 1.7040257344605165
367	 0.48686449556014766
368	 0.7097208632298361
369	 0.48686449556014766
370	 0.48686449556014766
371	 1.7040257344605165
372	 2.0816659994661326
373	 1.4605934866804429
374	 1.0110500592068734
375	 0.9888264649460882
376	 1.0610965676722952
377	 1.0292032157252808
378	 0.35486043161491804
379	 0.48686449556014766
380	 0.7698003589195008
381	 0.709720863229836
382	 1.3877773329774215
383	 0.41275945824459354
384	 0.49441323247304414
385	 1.1925695879998877
386	 0.9737289911202953
387	 0.48686449556014766
388	 1.1155467020454342
389	 1.0292032157252808
390	 0.4127594582445934
391	 0.4868644955601475
392	 0.8255189164891871
393	 0.5962847939999438
394	 0.4868644955601474
395	 0.0
396	 0.0
397	 0.4868644955601475
398	 0.0
399	 0.0
400	 0.0
401	 0.0
402	 0.33466401061363027
403	 0.35402448126271335
404	 0.2921186973360884
405	 0.2921186973360884
406	 0.14605934866804426
407	 1.3584304668746698
408	 0.33466401061363027
409	 0.3540244812627133
410	 0.2921186973360885
411	 0.7080489625254268
412	 0.8944271909999159
413	 0.8944271909999159
414	 0.4868644955601476
415	 1.4194417264596715
416	 1.605545943838972
417	 1.3553733939535026
418	 0.0
419	 0.769800358919501
420	 0.769800358919501
421	 0.9737289911202951
422	 0.48686449556014744
423	 0.48686449556014766
424	 0.0
425	 2.8388834529193443
426	 1.9474579822405904
427	 0.0
428	 1.192569587999888
429	 1.0610965676722952
430	 0.5962847939999439
431	 0.6666666666666667
432	 1.0610965676722952
433	 2.1221931353445904
434	 0.9737289911202955
435	 1.6510378329783741
436	 0.9737289911202953
437	 1.539600717839002
438	 1.6055459438389725
439	 0.596284793999944
440	 0.48686449556014766
441	 0.48686449556014777
442	 0.709720863229836
443	 2.1221931353445904
444	 1.3877773329774217
445	 0.48686449556014766
446	 1.387777332977422
447	 0.9888264649460882
448	 0.5962847939999438
449	 2.1221931353445904
450	 0.0
451	 1.4605934866804429
452	 0.0
453	 1.7888543819998317
454	 0.0
455	 2.9211869733608857
456	 0.7097208632298357
457	 1.2262559698952349
458	 1.0645812948447542
459	 1.0645812948447542
460	 2.0816659994661326
461	 2.076321533652991
462	 0.0
463	 1.2560962454277846
464	 1.4605934866804429
465	 1.1328430311977618
466	 1.2780193008453875
467	 1.0165300454651272
468	 0.4472135954999579
469	 1.0645812948447542
470	 0.44721359549995787
471	 1.2780193008453875
472	 0.8850612031567835
473	 2.966479394838265
474	 1.37234592334926
475	 1.5110702608857516
476	 0.0
477	 1.0645812948447542
478	 0.0
479	 0.0
480	 0.5773502691896257
481	 1.7416467303484175
482	 1.4605934866804429
483	 1.4605934866804429
484	 1.4605934866804429
485	 2.9211869733608857
486	 2.076321533652991
487	 0.3849001794597505
488	 0.5962847939999438
489	 0.9888264649460881
490	 0.9888264649460881
491	 1.6599866130651642
492	 0.5962847939999438
493	 0.2434322477800738
494	 0.4868644955601476
495	 0.48686449556014766
496	 0.48686449556014766
497	 0.9888264649460884
498	 0.67700320038633
499	 0.18257418583505536
500	 0.5322906474223771
501	 1.0165300454651272
502	 0.7416198487095664
503	 0.7416198487095662
504	 0.5773502691896257
505	 0.8366600265340756
506	 0.8366600265340756
507	 0.8366600265340756
508	 0.532290647422377
509	 0.5773502691896256
510	 0.3333333333333333
511	 0.7097208632298361
512	 0.7097208632298361
513	 0.5577733510227171
514	 1.0645812948447542
515	 2.851899951494325
516	 2.966479394838265
517	 0.0
518	 1.4605934866804429
519	 1.4605934866804429
520	 1.4605934866804429
521	 1.7888543819998317
522	 0.5322906474223771
523	 0.6191391873668903
524	 0.8944271909999159
525	 1.1401754250991378
526	 0.3651483716701107
527	 2.245571774090642
528	 2.341256389522831
529	 0.48686449556014766
530	 2.0147603478476688
531	 0.9737289911202952
532	 2.627490000685769
533	 0.5962847939999438
534	 0.6624868971450596
535	 0.5322906474223771
536	 1.0954451150103321
537	 1.0645812948447542
538	 1.2382783747337807
539	 1.4832396974191324
540	 0.5
541	 0.8850612031567835
542	 1.1547005383792512
543	 2.8518999514943246
544	 1.0645812948447544
545	 2.0736441353327715
546	 0.3651483716701107
547	 0.8366600265340756
548	 1.0645812948447542
549	 0.7416198487095662
550	 0.8944271909999162
551	 1.3038404810405297
552	 0.7302967433402214
553	 1.1547005383792515
554	 1.4832396974191324
555	 0.7416198487095662
556	 0.5773502691896257
557	 0.7302967433402214
558	 0.5322906474223771
559	 0.8366600265340756
560	 1.0645812948447542
561	 0.7416198487095662
562	 0.8944271909999162
563	 1.5652475842498523
564	 1.2780193008453875
565	 1.1547005383792515
566	 1.4832396974191324
567	 0.7416198487095662
568	 0.5773502691896257
569	 1.0274023338281626
570	 0.8299933065325822
571	 1.0954451150103321
572	 0.7302967433402214
573	 1.0954451150103321
574	 0.8944271909999159
575	 1.1547005383792515
576	 0.7302967433402214
577	 0.7302967433402214
578	 0.0
579	 0.7302967433402214
580	 0.7302967433402214
581	 2.033060090930254
582	 0.8944271909999159
583	 1.591644851508443
584	 0.0
585	 1.591644851508443
586	 0.7302967433402214
587	 0.7552286874651746
588	 0.12171612389003691
589	 1.0110500592068734
590	 1.1925695879998877
591	 0.9737289911202953
592	 0.24343224778007383
593	 1.4656562175858796
594	 0.5660126945311124
595	 0.7366088463985432
596	 1.2171612389003692
597	 0.7302967433402214
598	 0.0
599	 0.9737289911202952
600	 0.5036900869619172
601	 0.9593593541371087
602	 1.1320253890622247
603	 1.0645812948447542
604	 0.5322906474223771
605	 1.242011510652213
606	 0.3849001794597505
607	 1.1800816042090447
608	 1.539600717839002
609	 0.2434322477800738
610	 0.2434322477800738
611	 1.6055459438389728
612	 0.3333333333333333
613	 1.4272480642961256
614	 0.7097208632298361
615	 1.1925695879998877
616	 0.2981423969999719
617	 1.3553733939535026
618	 0.24343224778007383
619	 1.0610965676722952
620	 0.4753166585823875
621	 0.9603240193925288
622	 0.2981423969999719
623	 1.738453974720706
624	 0.4149966532662909
625	 2.062450897283061
626	 1.1122216672215286
627	 1.4452988925785866
628	 0.3726779962499649
629	 1.5770342536029571
630	 0.0
631	 1.419441726459672
632	 0.0
633	 0.0
634	 0.0
635	 0.0
636	 0.0
637	 1.4605934866804429
638	 0.0
639	 1.7888543819998317
640	 0.0
641	 1.4605934866804429
642	 0.0
643	 0.7302967433402214
644	 1.4605934866804429
645	 1.4605934866804429
646	 1.4605934866804429
647	 1.4832396974191324
648	 0.0
649	 1.4605934866804429
650	 0.0
651	 1.7888543819998317
652	 0.0
653	 1.4605934866804429
654	 0.38490017945975047
655	 0.8520128672302584
656	 0.7302967433402214
657	 0.7302967433402214
658	 1.0645812948447542
659	 1.3038404810405297
660	 0.18257418583505536
661	 0.22360679774997894
662	 0.22360679774997894
663	 1.016530045465127
664	 1.1547005383792515
665	 0.7129749878735813
666	 0.26614532371118854
667	 0.28867513459481287
668	 0.22360679774997896
669	 0.47290533490574294
670	 0.20370713939245175
671	 0.7563787698880865
672	 0.08844845533812726
673	 0.1825741858350553
674	 0.0
675	 0.3580939716289661
676	 0.20619652471058061
677	 0.49246015757898737
678	 0.14725377234348785
679	 0.26614532371118854
680	 0.0
681	 0.14521857792358958
682	 0.591320441000967
683	 1.6733200530681511
684	 2.033060090930254
685	 1.591644851508443
686	 1.6733200530681511
687	 2.1291625896895083
688	 1.591644851508443
689	 0.7302967433402214
690	 0.8944271909999159
691	 1.0645812948447542
692	 1.6733200530681511
693	 2.1291625896895083
694	 2.1291625896895083
695	 0.6666666666666667
696	 0.557773351022717
697	 1.51657508881031
698	 0.8944271909999159
699	 0.7552286874651746
700	 0.24343224778007386
701	 0.6776866969767514
702	 0.3469443332443554
703	 0.7416198487095662
704	 0.8944271909999159
705	 1.217161238900369
706	 0.709720863229836
707	 0.8255189164891871
708	 0.24343224778007386
709	 1.4832396974191324
710	 0.8944271909999159
711	 0.7552286874651746
712	 0.24343224778007386
713	 0.6776866969767514
714	 0.3469443332443554
715	 0.7416198487095662
716	 0.8944271909999159
717	 0.7302967433402214
718	 0.4472135954999579
719	 1.2780193008453875
720	 0.0
721	 0.0
722	 0.0
723	 0.0
724	 0.0
725	 0.0
726	 0.7097208632298362
727	 0.4127594582445934
728	 0.6085806194501846
729	 0.3548604316149181
730	 0.38490017945975047
731	 0.2434322477800738
732	 0.354860431614918
733	 0.8520128672302583
734	 0.8944271909999159
735	 0.0
736	 1.1547005383792515
737	 0.950633317164775
738	 0.557773351022717
739	 0.4127594582445934
740	 0.8299933065325821
741	 0.4127594582445934
742	 0.12171612389003683
743	 0.3849001794597504
744	 0.3849001794597504
745	 2.1739194846925507
746	 1.4605934866804429
747	 0.7302967433402214
748	 0.8944271909999159
749	 1.2531441937663717
750	 0.298142396999972
751	 1.0610965676722952
752	 0.7958224257542215
753	 1.2382783747337807
754	 1.1547005383792517
755	 1.7416467303484175
756	 0.7302967433402213
757	 0.3651483716701107
758	 0.3651483716701107
759	 0.7958224257542215
760	 0.5322906474223771
761	 1.2472191289246468
762	 0.48686449556014744
763	 0.9888264649460886
764	 0.0
765	 0.9737289911202955
766	 0.0
767	 0.41499665326629104
768	 0.4472135954999579
769	 0.4472135954999579
770	 0.7302967433402214
771	 0.7958224257542215
772	 0.3651483716701107
773	 1.7416467303484175
774	 2.0816659994661326
775	 1.770122406313567
776	 0.5773502691896255
777	 1.879716290649558
778	 0.8850612031567835
779	 0.3651483716701107
780	 0.0
781	 1.1328430311977618
782	 1.4832396974191326
783	 1.2382783747337807
784	 1.1547005383792517
785	 1.6980380835933373
786	 0.5773502691896257
787	 0.7302967433402214
788	 0.36514837167011066
789	 1.016530045465127
790	 0.7416198487095662
791	 1.1320253890622247
792	 0.36514837167011055
793	 0.802772971919486
794	 0.0
795	 0.7097208632298361
796	 0.0
797	 0.5900408021045224
798	 0.6776866969767514
799	 0.8255189164891871
800	 0.7302967433402214
801	 1.591644851508443
802	 1.591644851508443
803	 1.7805533888009004
804	 0.41275945824459354
805	 0.8902766944004502
806	 1.3553733939535029
807	 0.8255189164891872
808	 1.0610965676722952
809	 0.9026709338484401
810	 0.0
811	 0.23221956404645566
812	 0.0
813	 0.0
814	 0.0
