0	 0.0
1	 0.0
2	 0.0
3	 0.0
4	 0.3002503394140371
5	 0.8561646303594057
6	 -1.1102230246251565E-16
7	 -1.1102230246251565E-16
8	 0.13379881808049915
9	 0.014159577259899359
10	 0.0
11	 0.0
12	 0.6583918776491313
13	 0.43365261543666095
14	 0.0
15	 0.0
16	 0.575177095878205
17	 0.8600772081519094
18	 -1.1102230246251565E-16
19	 -1.1102230246251565E-16
20	 0.6483599401485876
21	 0.9456636557103466
22	 1.1102230246251565E-16
23	 1.1102230246251565E-16
24	 0.6903982863660162
25	 0.2350197390368034
26	 1.1102230246251565E-16
27	 1.1102230246251565E-16
28	 0.5702179724835713
29	 0.7187054515930983
30	 5.551115123125783E-17
31	 5.551115123125783E-17
32	 0.7093535096567767
33	 0.30812097986029974
34	 0.0
35	 0.0
36	 0.08246905694482987
37	 0.002346272599003829
38	 -1.1102230246251565E-16
39	 -1.1102230246251565E-16
40	 0.573230750473075
41	 0.5843219153605539
42	 0.0
43	 0.0
44	 0.012633340795452308
45	 0.2729198101589213
46	 -1.1102230246251565E-16
47	 -1.1102230246251565E-16
48	 0.8136925850541001
49	 0.14705652624385795
50	 -1.1102230246251565E-16
51	 -1.1102230246251565E-16
52	 0.20602452027834767
53	 0.22893816749635698
54	 5.551115123125783E-17
55	 5.551115123125783E-17
56	 0.9855989843902991
57	 0.0773775946530943
58	 1.1102230246251565E-16
59	 1.1102230246251565E-16
60	 0.5702179724835714
61	 0.7187054515930984
62	 0.0
63	 0.0
64	 0.7093535096567766
65	 0.3081209798602997
66	 0.0
67	 0.0
68	 0.08246905694482976
69	 0.0023462725990038846
70	 -1.1102230246251565E-16
71	 -1.1102230246251565E-16
72	 0.5732307504730751
73	 0.5843219153605538
74	 0.0
75	 0.0
76	 0.056744155624811055
77	 0.05280037483466682
78	 0.0
79	 0.0
80	 0.30337365043017817
81	 0.10929371634389018
82	 -1.1102230246251565E-16
83	 -1.1102230246251565E-16
84	 0.8956145237716023
85	 0.20993020113762145
86	 1.1102230246251565E-16
87	 1.1102230246251565E-16
88	 0.9354071207361836
89	 0.8454324951510639
90	 1.1102230246251565E-16
91	 1.1102230246251565E-16
92	 0.5510478999402821
93	 0.31447287628144516
94	 0.0
95	 0.0
96	 0.799343497026602
97	 0.39745514474519433
98	 -1.1102230246251565E-16
99	 -1.1102230246251565E-16
100	 0.09083714043261454
101	 0.7328414781374101
102	 1.1102230246251565E-16
103	 1.1102230246251565E-16
104	 0.077909449398889
105	 0.5472767675421517
106	 5.551115123125783E-17
107	 5.551115123125783E-17
108	 0.03619562978212709
109	 0.015455588323219194
110	 -1.1102230246251565E-16
111	 -1.1102230246251565E-16
112	 0.4678676918800267
113	 0.011459579472737458
114	 0.0
115	 0.0
116	 0.5773957958890028
117	 0.31652021794644347
118	 5.551115123125783E-17
119	 5.551115123125783E-17
120	 0.7580234232710694
121	 0.6213911652780142
122	 5.551115123125783E-17
123	 5.551115123125783E-17
124	 0.03619562978212709
125	 0.015455588323219194
126	 -1.1102230246251565E-16
127	 -1.1102230246251565E-16
128	 0.6868944113535966
129	 0.4284635700534735
130	 1.1102230246251565E-16
131	 1.1102230246251565E-16
132	 0.3737216135244026
133	 0.2646105135480701
134	 0.040720673228154036
135	 0.5668153104781062
136	 0.5030951594890112
137	 0.30991931776362097
138	 0.13645545782347185
139	 0.01961553858473858
140	 0.6836199436779233
141	 0.0
142	 0.0
143	 0.0
