0	 1.0923024714068053
1	 0.890511709503732
2	 1.282132538197202
3	 1.0419372951312769
4	 1.5277944867200393
5	 1.254509197648818
6	 0.43378386103749006
7	 1.296347973241067
8	 1.3264980885162758
9	 0.9656642279071723
10	 1.3688644094394176
11	 1.0419372951312769
12	 1.2073408158030607
13	 0.8595439753171445
14	 0.5615271448406469
15	 0.9798067048338326
16	 1.2819877711990857
17	 0.47479663594427457
18	 0.6548111355816865
19	 0.6834172259778497
20	 0.7820877053357463
21	 0.46435187123432026
22	 0.5666678375349995
23	 0.46624313433960063
24	 1.083865028986338
25	 0.992042931952712
26	 1.0496728913510787
27	 0.8291304643935606
28	 1.5277944867200393
29	 0.9158339617550769
30	 0.25096051250611784
31	 0.4592736547511128
32	 1.083865028986338
33	 0.992042931952712
34	 1.0496728913510787
35	 0.8291304643935606
36	 1.5277944867200393
37	 0.9158339617550769
38	 0.25096051250611784
39	 0.4592736547511128
40	 0.8090421366265995
41	 0.7134526335495683
42	 0.6834172259778497
43	 0.43580779949031734
44	 1.3264980885162758
45	 1.3025604959094992
46	 1.437079391974338
47	 1.122583327412928
48	 0.8690208161127864
49	 0.6005573901279821
50	 0.8139630492252089
51	 0.7824960023234292
52	 1.0280256054709922
53	 1.237902033887981
54	 1.191917531148676
55	 1.2942311292324762
56	 0.6880886417005685
57	 0.44197901025274944
58	 0.8745210716519409
59	 0.760481032675737
60	 1.2216842385974098
61	 0.8718277231410648
62	 0.5387039807142076
63	 0.48040491519242084
64	 1.2216842385974098
65	 0.8718277231410648
66	 0.5387039807142076
67	 0.48040491519242084
68	 1.2216842385974098
69	 0.8718277231410648
70	 0.5387039807142076
71	 0.48040491519242084
72	 0.22462906284443782
73	 1.0923578350259973
74	 1.5608472987286248
75	 0.0
76	 0.7820877053357465
77	 0.8364575176524708
78	 0.8690208161127864
79	 0.8737306099921951
80	 0.5461036337888013
81	 0.6771173055711986
82	 0.7886995350671326
83	 0.6834172259778497
84	 0.7820877053357466
85	 0.8364575176524708
86	 0.8690208161127864
87	 0.8737306099921951
88	 0.5461036337888013
89	 0.3143201852209516
90	 0.6033723691671424
91	 0.22462906284443782
92	 1.0521170710052699
93	 1.0523110574128653
94	 0.9940446933145014
95	 0.6033723691671424
96	 0.6271157914407597
97	 0.7144140263597542
98	 0.7394336301777762
99	 0.6592701865224404
100	 0.37773744258618075
101	 0.4219146757961237
102	 0.42911037423091397
103	 0.3891835627361464
104	 1.0291518344717467
105	 0.9095145597476101
106	 0.878174239125887
107	 1.0441135852182621
108	 0.7604810326757372
109	 0.6834172259778497
110	 0.43580779949031734
111	 0.6033723691671424
112	 0.7604810326757372
113	 0.6834172259778497
114	 0.43580779949031734
115	 0.6033723691671424
116	 0.8879857987813394
117	 1.0523065992558125
118	 0.6548111355816865
119	 1.3264980885162758
120	 0.8221093877970255
121	 0.6085916903014696
122	 0.22462906284443782
123	 0.8690208161127864
124	 0.8879857987813394
125	 1.0523065992558125
126	 0.6548111355816865
127	 1.3264980885162758
128	 0.8221093877970255
129	 0.6085916903014696
130	 0.22462906284443782
131	 0.805916359703247
132	 1.245978000944372
133	 0.0
134	 0.0
135	 0.0
136	 1.018944702331461
137	 0.9101878810648564
138	 1.0305830114291554
139	 0.7986838619551677
140	 1.0692160938652873
141	 1.0857213172989342
142	 0.6033723691671424
143	 1.0079107071820141
144	 0.9115095119415745
145	 0.9101878810648564
146	 0.8301144411595882
147	 0.7986838619551677
148	 1.0692160938652873
149	 0.5325925073049126
150	 0.7886995350671326
151	 0.6033723691671424
152	 0.8432701446523674
153	 0.3804058957271825
154	 0.5035013637337815
155	 0.7050014927383199
156	 0.4008607326559705
157	 0.4282839067292388
158	 0.7050014927383199
159	 0.7783223132364753
160	 1.1138575879179688
161	 0.2104330871966849
162	 0.4009688803820868
163	 1.0097187695849512
164	 0.4008607326559705
165	 0.4282839067292388
166	 0.7050014927383199
167	 0.7783223132364753
168	 0.8861299091410753
169	 0.6613934736489931
170	 0.71870180878334
171	 1.083865028986338
172	 1.168068298177681
173	 0.8316568876870638
174	 0.5035013637337815
175	 0.7050014927383199
176	 0.4008607326559705
177	 0.4282839067292388
178	 0.7050014927383199
179	 0.6732841519059422
180	 0.7497318106435334
181	 0.08639469332582997
182	 0.4009688803820868
183	 1.0097187695849512
184	 0.5167771483088277
185	 0.30742238984190606
186	 0.6548111355816865
187	 0.7886995350671326
188	 0.5448432192565523
189	 0.29200869862369044
190	 0.3713151937047775
191	 0.6722219971149669
192	 0.4893268175696985
193	 0.7820877053357463
194	 0.7820877053357463
195	 0.7820877053357463
196	 0.6100118058915984
197	 0.436700788684121
198	 0.6684767601325668
199	 0.9859860232764927
200	 1.2942311292324762
201	 1.1177204949195747
202	 0.8401975920294869
203	 1.191917531148676
204	 0.6684767601325668
205	 0.3503329542554245
206	 0.6684767601325668
207	 0.9859860232764927
208	 1.1816146490448283
209	 0.7303295001828514
210	 1.2468566080586634
211	 0.7980909589998707
212	 0.6247946693413231
213	 0.43141300262895804
214	 0.38470632515610026
215	 0.6033723691671424
216	 0.8737306099921951
217	 0.5922338073270024
218	 0.2386619978289458
219	 0.7050014927383199
220	 0.4893268175696985
221	 0.3347354858750413
222	 0.8690208161127864
223	 0.7610679589212732
224	 1.2942311292324762
225	 0.49108571434865966
226	 0.5684363161375248
227	 0.38941874199261534
228	 0.4893268175696985
229	 0.3347354858750413
230	 0.8690208161127864
231	 0.7610679589212732
232	 1.2942311292324762
233	 0.49108571434865966
234	 0.5684363161375248
235	 0.38941874199261534
236	 0.6892874428258021
237	 0.4060145877970397
238	 0.6033723691671424
239	 0.923156658359983
240	 0.40821217379854474
241	 0.25096051250611784
242	 0.6033723691671424
243	 0.923156658359983
244	 0.7627909142336012
245	 0.8391651015898017
246	 0.8530890913423844
247	 0.618506692471126
248	 0.8221045222500604
249	 1.0183574979603913
250	 0.8099988377207329
251	 0.8248501808283987
252	 0.6625011425434276
253	 0.8257155880418364
254	 1.081776199931653
255	 0.8257155880418364
256	 1.0675599531957283
257	 1.2016344466793496
258	 0.8099988377207329
259	 0.8248501808283987
260	 0.6625011425434276
261	 0.8257155880418364
262	 1.081776199931653
263	 0.8257155880418364
264	 1.0791146547501764
265	 1.2016344466793496
266	 1.4918508989718975
267	 0.0
268	 1.2753528230579088
269	 1.252122497684513
270	 1.2999921684750997
271	 1.2337499450802343
272	 0.49370978987165237
273	 0.5326241058162807
274	 0.5153586034326963
275	 0.7134526335495683
276	 1.6204632605638838
277	 1.5277944867200393
278	 1.1648488456268995
279	 1.1648488456268995
280	 0.7741657739166721
281	 0.38941874199261534
282	 0.8830667160118019
283	 1.0814226311819053
284	 1.1675799953339385
285	 0.7976596282506947
286	 0.508448857374789
287	 0.6682103684714918
288	 1.0224114528101362
289	 0.7975957350783109
290	 1.092357835025997
291	 1.3791028789955428
292	 1.1853210446277131
293	 1.122583327412928
294	 1.1741782074233669
295	 1.122583327412928
296	 1.2086383987104385
297	 0.9308093616451343
298	 0.6784630490148197
299	 0.713625284830975
300	 1.437079391974338
301	 2.0379394443499375
302	 2.10775073925674
303	 1.2459780009443722
304	 1.437079391974338
305	 1.432884775143254
306	 1.343640657272014
307	 1.1917261030804265
308	 1.218263383946384
309	 0.9709576606821398
310	 1.1595322784481936
311	 1.0784777308198676
312	 0.9538771531396366
313	 0.49113518651174437
314	 0.9482497684058656
315	 1.083865028986338
316	 0.7662082646143014
317	 0.6548111355816865
318	 0.8133275917057812
319	 1.0085302072012183
320	 1.1451918782879107
321	 0.8595439753171445
322	 1.437079391974338
323	 1.437079391974338
324	 1.45749752847269
325	 0.9454767744903667
326	 1.2807711194115887
327	 1.2807711194115887
328	 0.334900233639295
329	 0.32904502335851277
330	 0.5638016843990097
331	 0.40649882418485656
332	 0.6763469367398164
333	 0.5591388825224414
334	 0.44446671452293807
335	 0.5591388825224414
336	 0.2609410199151724
337	 0.5002069138017897
338	 0.4457880175768649
339	 0.4009948659784028
340	 1.0923024714068053
341	 0.890511709503732
342	 1.282132538197202
343	 1.0419372951312769
344	 1.5277944867200393
345	 1.254509197648818
346	 0.43378386103749006
347	 1.296347973241067
348	 1.1000045358257997
349	 1.015585141107004
350	 0.8090421366265995
351	 0.8919007549134104
352	 1.2073408158030607
353	 0.8595439753171445
354	 0.5615271448406469
355	 0.9798067048338326
356	 1.2819877711990857
357	 0.47479663594427457
358	 0.6548111355816865
359	 0.6834172259778497
360	 0.7820877053357463
361	 0.46435187123432026
362	 0.5666678375349995
363	 0.46624313433960063
364	 1.083865028986338
365	 0.992042931952712
366	 1.0496728913510787
367	 0.8291304643935606
368	 1.5277944867200393
369	 0.9158339617550769
370	 0.25096051250611784
371	 0.4592736547511128
372	 1.083865028986338
373	 0.992042931952712
374	 1.0496728913510787
375	 0.8291304643935606
376	 1.5277944867200393
377	 0.9158339617550769
378	 0.25096051250611784
379	 0.4592736547511128
380	 0.8090421366265995
381	 0.7134526335495683
382	 0.6834172259778497
383	 0.43580779949031734
384	 1.3264980885162758
385	 1.3025604959094992
386	 1.437079391974338
387	 1.122583327412928
388	 0.8690208161127864
389	 0.6005573901279821
390	 0.8139630492252089
391	 0.7824960023234292
392	 0.9029376383988728
393	 1.45749752847269
394	 1.1667827851516417
395	 1.2608545577799093
396	 0.4825204439579045
397	 0.972938562039762
398	 0.6717046261291187
399	 0.5990536929069727
400	 1.2497809323386773
401	 0.8811921350292077
402	 1.5277944867200393
403	 1.3957355664415543
404	 0.8799383949103105
405	 1.1000045358257997
406	 0.9325095536916618
407	 1.0918182562877665
408	 0.40821217379854474
409	 0.30416899716659707
410	 1.0124447095760063
411	 1.1592624064401817
412	 0.40821217379854474
413	 0.4068589995366945
414	 0.6047495174345601
415	 1.1592624064401817
416	 0.40821217379854474
417	 0.30416899716659707
418	 0.6047495174345601
419	 1.1592624064401817
420	 0.890511709503732
421	 0.29200869862369044
422	 0.38237793155598954
423	 0.0
424	 1.4802242551397404
425	 1.269802023481351
426	 1.0496728913510787
427	 0.7820877053357466
428	 1.2360846163743537
429	 1.3507617032020611
430	 0.38470632515610026
431	 0.7480614905555211
432	 1.4802242551397404
433	 1.269802023481351
434	 1.0496728913510787
435	 0.7820877053357466
436	 1.2360846163743537
437	 0.9481695236106251
438	 0.6834172259778497
439	 0.7134526335495683
440	 0.5592117411409795
441	 0.6219206757983541
442	 0.25542607394088795
443	 0.7604810326757372
444	 0.284329218975573
445	 0.3262689091218402
446	 0.46569222127177085
447	 0.18252993956426256
448	 0.9793100848036922
449	 0.9844147693409483
450	 0.9505412578997109
451	 1.015585141107004
452	 0.34261177990532565
453	 0.2201894662774665
454	 0.18783276013380115
455	 0.3503329542554245
456	 0.9325095536916618
457	 0.7480614905555211
458	 0.26727512726055924
459	 0.6834172259778497
460	 0.9325095536916618
461	 0.7480614905555211
462	 0.26727512726055924
463	 0.6834172259778497
464	 1.0692264394586084
465	 0.9471472142724171
466	 0.8361173900526434
467	 1.5835428145471786
468	 0.9709576606821398
469	 0.5257044595942985
470	 0.7134526335495683
471	 1.0496728913510787
472	 1.0692264394586084
473	 0.9471472142724171
474	 0.8361173900526434
475	 1.5835428145471786
476	 0.9709576606821398
477	 0.5257044595942985
478	 0.7134526335495683
479	 0.5300640013281416
480	 1.437079391974338
481	 0.0
482	 0.0
483	 0.0
484	 0.6249242998023232
485	 0.5384544352471557
486	 0.53037066957939
487	 0.6060374516720093
488	 0.5228689551593517
489	 0.5422662127626984
490	 0.6834172259778497
491	 0.6033723691671424
492	 0.6249242998023232
493	 0.5384544352471557
494	 0.4718451411994696
495	 0.6060374516720093
496	 0.5228689551593517
497	 0.42200834767099105
498	 0.38470632515610026
499	 0.6834172259778497
500	 0.44365412350892125
501	 0.6407481919631143
502	 0.21478428701477317
503	 0.46624313433960063
504	 1.0861256292625805
505	 0.5092526051719032
506	 0.46624313433960063
507	 1.001270671005154
508	 1.3743058801039754
509	 0.7497318106435334
510	 0.5485148015134218
511	 0.38237793155598954
512	 1.0861256292625805
513	 0.5092526051719032
514	 0.46624313433960063
515	 1.001270671005154
516	 0.9340937344631207
517	 0.17442602471131594
518	 0.7284533546826759
519	 1.3885265815699108
520	 0.8472247467053392
521	 0.4060145877970397
522	 0.21478428701477317
523	 0.46624313433960063
524	 1.0861256292625805
525	 0.5092526051719032
526	 0.46624313433960063
527	 1.001270671005154
528	 0.975366729505694
529	 0.7134526335495683
530	 0.3713151937047775
531	 0.38237793155598954
532	 1.2028190506610923
533	 0.7488690851734299
534	 0.8361173900526434
535	 0.38470632515610026
536	 1.1525413723816273
537	 0.8938245987917509
538	 0.8075906616471737
539	 0.29200869862369044
540	 0.5483741568257662
541	 0.8797074393440886
542	 1.1000045358258
543	 1.1000045358258
