0	 0.520416499866533
1	 0.11850405004278637
2	 0.3975231959999627
3	 0.4868644955601476
4	 0.3872495411295723
5	 0.39267672624930094
6	 0.5962847939999438
7	 2.9211869733608857
8	 1.1925695879998877
9	 0.9737289911202952
10	 1.5396007178390017
11	 1.7888543819998315
12	 1.1925695879998877
13	 0.0
14	 1.1925695879998877
15	 1.4605934866804429
16	 0.8516650358758034
17	 0.17040257344605167
18	 0.48686449556014766
19	 0.7302967433402214
20	 0.4868644955601476
21	 0.48686449556014766
22	 0.5962847939999438
23	 2.4083189157584592
24	 0.0
25	 1.6599866130651644
26	 0.4770278351999551
27	 1.0509960002743075
28	 2.838883452919344
29	 0.9440652833672355
30	 0.9440652833672358
31	 1.6101529717988263
32	 1.0110500592068732
33	 1.5708454906691347
34	 1.6044382886924078
35	 0.48686449556014755
36	 0.9737289911202952
37	 1.4194417264596721
38	 0.9737289911202954
39	 1.7040257344605165
40	 1.6653327995729061
41	 1.2602175003340288
42	 0.48686449556014766
43	 0.7302967433402214
44	 1.3877773329774217
45	 0.6776866969767513
46	 0.709720863229836
47	 1.8257418583505538
48	 0.769800358919501
49	 0.9192589608141097
50	 0.6953815898882826
51	 1.4194417264596721
52	 1.602960224547534
53	 0.21221931353445903
54	 0.48686449556014766
55	 0.2434322477800738
56	 0.0
57	 0.3577708763999663
58	 1.511633896496449
59	 1.4194417264596721
60	 0.8088400473654987
61	 0.8722894524691267
62	 0.9888264649460888
63	 2.081665999466133
64	 0.4868644955601476
65	 0.874663956635368
66	 0.8347987115999215
67	 1.4194417264596721
68	 1.602960224547534
69	 0.21221931353445903
70	 0.48686449556014766
71	 0.2434322477800738
72	 0.0
73	 0.3577708763999663
74	 1.511633896496449
75	 1.4194417264596721
76	 0.8088400473654987
77	 0.8722894524691267
78	 0.9888264649460888
79	 2.29613201323927
80	 1.0645812948447542
81	 2.1623889395587295
82	 1.9474579822405906
83	 3.6595891289313602
84	 2.7755546659548433
85	 1.6510378329783741
86	 0.0
87	 1.7040257344605165
88	 0.5842373946721773
89	 0.3577708763999663
90	 1.4605934866804429
91	 2.1291625896895083
92	 0.7155417527999327
93	 0.17888543819998315
94	 0.0
95	 2.033060090930254
96	 0.7155417527999326
97	 0.29211869733608853
98	 1.2733158812067544
99	 0.0
100	 1.338656042454521
101	 0.33466401061363016
102	 0.0
103	 1.5916448515084427
104	 0.6265720968831859
105	 0.42443862706891816
106	 0.8516650358758034
107	 1.1925695879998877
108	 0.0
109	 0.38490017945975025
110	 0.48686449556014766
111	 1.4337208778404376
112	 0.5305482838361476
113	 0.38025332686591
114	 0.5842373946721771
115	 0.3894915964481181
116	 0.9737289911202952
117	 0.3849001794597505
118	 0.4868644955601476
119	 0.7302967433402214
120	 0.5305482838361476
121	 0.7605066537318199
122	 1.1684747893443541
123	 0.5740047747897934
124	 0.12171612389003696
125	 0.5305482838361476
126	 0.48686449556014755
127	 1.1547005383792515
128	 0.24343224778007383
129	 0.4813561090333265
130	 1.9812453995740489
131	 1.0649986958781792
132	 1.0903618155864085
133	 0.818761485641802
134	 0.4868644955601479
135	 0.29814239699997197
136	 0.6776866969767514
137	 0.6604151331913497
138	 1.1684747893443541
139	 0.5740047747897934
140	 0.12171612389003696
141	 0.7175059684872418
142	 0.4868644955601479
143	 1.0610965676722952
144	 0.0
145	 0.19876159799998133
146	 0.3975231959999626
147	 0.0
148	 0.0
149	 0.0
150	 0.0
151	 0.0
152	 0.0
153	 0.0
154	 0.0
155	 0.0
156	 0.0
157	 0.0
158	 0.0
159	 0.30416608424135827
160	 0.5084653331790984
161	 0.5914766514493269
162	 0.6083321684827167
163	 1.4194417264596721
164	 1.4194417264596724
165	 2.45251193979047
166	 1.9474579822405906
167	 2.1291625896895083
168	 0.0
169	 0.0
170	 0.0
171	 0.0
172	 0.0
173	 0.0
174	 0.0
175	 0.30416608424135827
176	 0.5084653331790984
177	 0.5914766514493269
178	 0.9549172576772431
179	 2.45251193979047
180	 1.9474579822405906
181	 1.7384539747207062
182	 1.4194417264596721
183	 1.343173565231779
184	 0.6592176432973923
185	 0.5351819812796575
186	 0.47314724215322396
187	 0.8175039799301566
188	 1.1943350509768058
189	 1.9620095518323761
190	 1.9474579822405906
191	 1.8393839548428526
192	 0.0
193	 0.47531665858238753
194	 0.24343224778007386
195	 0.2788866755113585
196	 0.42626717408651554
197	 0.30647336903216554
198	 0.0
199	 0.6799782131586056
200	 0.1591644851508443
201	 0.4451383472002251
202	 0.0
203	 0.12171612389003694
204	 0.1986994752924161
205	 0.17701224063135673
206	 0.29814239699997197
207	 0.10434983894999011
208	 0.1591644851508443
209	 0.5055250296034367
210	 0.0
211	 0.1490711984999859
212	 0.272437556556034
213	 0.17888543819998315
214	 0.354860431614918
215	 0.5962847939999439
216	 1.1925695879998877
217	 0.9737289911202953
218	 1.1925695879998877
219	 0.0
220	 0.9737289911202953
221	 0.9737289911202953
222	 1.1925695879998877
223	 1.6599866130651644
224	 1.1925695879998877
225	 0.9737289911202953
226	 0.9737289911202953
227	 0.0
228	 0.9737289911202953
229	 0.8255189164891871
230	 0.9737289911202953
231	 1.539600717839002
232	 0.5962847939999438
233	 0.9428090415820634
234	 1.2881223774390613
235	 1.3553733939535029
236	 0.9737289911202953
237	 1.0442080110640648
238	 0.9237604307034012
239	 1.6733200530681511
240	 0.3548604316149181
241	 0.8233625725802248
242	 1.3736137793480432
243	 0.9737289911202953
244	 1.539600717839002
245	 1.1684747893443543
246	 0.7155417527999327
247	 0.8944271909999159
248	 0.5900408021045225
249	 0.2506288387532744
250	 1.2733158812067544
251	 1.539600717839002
252	 0.9737289911202952
253	 1.0007404665953514
254	 0.9237604307034012
255	 0.44721359549995787
256	 0.6776866969767514
257	 0.5100472018824809
258	 1.1166086220403346
259	 0.9737289911202953
260	 0.973728991120295
261	 1.9474579822405904
262	 1.4194417264596721
263	 1.7384539747207062
264	 0.0
265	 0.0
266	 0.0
267	 0.0
268	 0.0
269	 0.0
270	 0.0
271	 0.0
272	 0.5132002392796674
273	 0.98327322584697
274	 1.0864380767597428
275	 1.4740554623801778
276	 0.659217643297392
277	 0.5680085781535057
278	 0.6491526607468636
279	 2.046375899239349
280	 0.39752319599996266
281	 0.5962847939999438
282	 0.5819143739626463
283	 0.9737289911202953
284	 0.973728991120295
285	 2.5062883875327437
286	 1.9776529298921766
287	 0.9566746246496557
288	 0.3245763303734317
289	 0.8542770040393628
290	 1.0864380767597428
291	 2.17505498724305
292	 0.6491526607468632
293	 0.7027283689263066
294	 0.6491526607468636
295	 1.8071645252713373
296	 0.5132002392796674
297	 0.3747287028492226
298	 1.4405844115191646
299	 2.086996778999804
300	 1.539600717839002
301	 1.9012666343295497
302	 0.973728991120295
303	 1.1066577420434427
304	 0.47314724215322407
305	 0.37740856084924884
306	 0.7571278824514966
307	 0.802772971919486
308	 1.2171612389003692
309	 0.41275945824459354
310	 1.5202339001321838
311	 1.419441726459672
312	 0.0
313	 0.9428090415820634
314	 1.0610965676722952
315	 0.6776866969767514
316	 0.48686449556014766
317	 0.38490017945975047
318	 0.7097208632298361
319	 0.8758300002285897
320	 0.32457633037343175
321	 0.6491526607468635
322	 0.6592176432973922
323	 0.0
324	 0.5132002392796674
325	 0.2566001196398336
326	 0.0
327	 0.769800358919501
328	 0.769800358919501
329	 0.769800358919501
330	 1.0610965676722952
331	 0.5305482838361476
332	 0.48686449556014766
333	 0.769800358919501
334	 0.7097208632298362
335	 0.8902766944004502
336	 0.7097208632298361
337	 0.2981423969999719
338	 0.7097208632298361
339	 1.80534186769688
340	 1.4194417264596721
341	 0.7302967433402214
342	 1.5202339001321838
343	 1.2171612389003692
344	 0.4868644955601477
345	 1.3084341787036902
346	 0.8088400473654987
347	 1.6599866130651644
348	 1.3553733939535029
349	 0.7097208632298362
350	 1.387777332977422
351	 1.9474579822405904
352	 0.0
353	 0.950633317164775
354	 0.7097208632298362
355	 0.33333333333333337
356	 0.4868644955601475
357	 1.0540925533894596
358	 0.709720863229836
359	 1.6537773199159287
360	 0.39752319599996255
361	 0.5680085781535057
362	 0.5132002392796673
363	 0.0
364	 0.6491526607468635
365	 0.3245763303734319
366	 0.0
367	 1.6101529717988265
368	 1.0762589527308624
369	 1.381424385673473
370	 0.68617296167463
371	 0.7302967433402214
372	 0.4868644955601477
373	 0.298142396999972
374	 0.8255189164891871
375	 1.3553733939535026
376	 0.9251848886516145
377	 0.6789001029564208
378	 0.7867210694726963
379	 0.9737289911202951
380	 1.0134892667547892
381	 0.5503459443261248
382	 0.32457633037343186
383	 1.1166086220403346
384	 0.31801855679997043
385	 0.39752319599996255
386	 0.0
387	 0.0
388	 0.0
389	 0.0
390	 0.0
391	 1.4605934866804429
392	 0.18257418583505539
393	 0.2037071393924517
394	 1.319657758147716
395	 0.0
396	 0.5842373946721773
397	 0.23851391759997756
398	 0.5962847939999438
399	 2.9211869733608857
400	 1.1925695879998877
401	 0.9737289911202952
402	 1.5396007178390017
403	 1.7888543819998315
404	 1.1925695879998877
405	 0.0
406	 1.1925695879998877
407	 1.4605934866804429
408	 0.8516650358758034
409	 0.29211869733608864
410	 0.8
411	 1.4605934866804429
412	 0.5842373946721773
413	 0.4044200236827494
414	 0.5962847939999438
415	 2.4083189157584592
416	 0.0
417	 1.6599866130651644
418	 0.4770278351999551
419	 1.0509960002743075
420	 2.838883452919344
421	 0.9440652833672355
422	 0.9440652833672358
423	 1.6101529717988263
424	 1.0110500592068732
425	 1.5708454906691347
426	 1.6044382886924078
427	 0.48686449556014755
428	 0.9737289911202952
429	 1.7040257344605165
430	 1.4194417264596721
431	 1.0610965676722952
432	 1.186591757935306
433	 1.3761998132269622
434	 0.4868644955601476
435	 0.7302967433402214
436	 0.0
437	 0.0
438	 0.0
439	 0.7302967433402214
440	 0.769800358919501
441	 0.9192589608141097
442	 0.6953815898882826
443	 1.4194417264596721
444	 1.602960224547534
445	 0.21221931353445903
446	 0.48686449556014766
447	 0.2434322477800738
448	 0.0
449	 0.3577708763999663
450	 1.511633896496449
451	 1.4194417264596721
452	 0.8088400473654987
453	 0.8722894524691267
454	 0.9888264649460888
455	 1.4832396974191329
456	 0.4868644955601473
457	 0.8520128672302584
458	 0.5962847939999438
459	 1.4194417264596721
460	 1.602960224547534
461	 0.21221931353445903
462	 0.48686449556014766
463	 0.2434322477800738
464	 0.0
465	 0.7155417527999326
466	 0.9810047759161882
467	 0.8255189164891872
468	 0.8088400473654987
469	 0.8722894524691267
470	 0.9888264649460888
471	 2.29613201323927
472	 0.5322906474223771
473	 2.3409399821439245
474	 1.8475208614068024
475	 3.6595891289313602
476	 2.7755546659548433
477	 1.6510378329783741
478	 0.0
479	 1.4350119369744836
480	 0.6776866969767513
481	 0.8695677938770204
482	 1.1965382165663174
483	 0.48686449556014766
484	 1.9474579822405904
485	 1.9776529298921766
486	 0.0
487	 1.7040257344605165
488	 1.2166643369654333
489	 0.3000517857938164
490	 0.3245763303734319
491	 0.769800358919501
492	 0.3245763303734318
493	 0.3245763303734318
494	 0.3245763303734318
495	 1.2171612389003692
496	 1.186591757935306
497	 0.4327346291426875
498	 0.48686449556014766
499	 1.180081604209045
500	 0.7950463919999254
501	 0.3245763303734318
502	 0.7073977117815301
503	 1.1155467020454342
504	 0.4472135954999579
505	 0.3245763303734318
506	 0.5503459443261247
507	 0.8255189164891871
508	 0.6285393610547089
509	 0.4517911313178343
510	 0.6491526607468636
511	 0.6666666666666667
512	 0.532290647422377
513	 0.35048467323527777
514	 0.39752319599996294
515	 0.9428090415820634
516	 0.6491526607468635
517	 0.16228816518671596
518	 0.7950463919999252
519	 2.1291625896895083
520	 0.5322906474223771
521	 0.4483623608024676
522	 0.5503459443261247
523	 0.48686449556014766
524	 0.39752319599996255
525	 0.4057204129667898
526	 0.4731472421532241
527	 0.5962847939999438
528	 0.0
529	 0.3245763303734317
530	 0.6491526607468637
531	 0.0
532	 0.0
533	 0.0
534	 0.0
535	 0.0
536	 0.4770278351999549
537	 0.5083014561954058
538	 0.4770278351999549
539	 0.19474579822405905
540	 0.2838883452919344
541	 0.09737289911202952
542	 0.19474579822405902
543	 1.0413666234542207
544	 0.28388834529193446
545	 0.42443862706891816
546	 0.38949159644811826
547	 0.24343224778007388
548	 0.3794255115577518
549	 1.5996976282690565
550	 1.9776529298921766
551	 1.9474579822405906
552	 0.9095113437191102
553	 0.5519915917775652
554	 0.9462944843064481
555	 0.7698003589195012
556	 0.32457633037343186
557	 0.25660011963983376
558	 0.32457633037343175
559	 1.1925695879998877
560	 0.659828879073858
561	 0.5777428909753561
562	 0.9737289911202952
563	 0.4868644955601477
564	 0.3975231959999627
565	 0.08114408259335804
566	 0.3245763303734318
567	 1.1800816042090445
568	 1.216664336965433
569	 0.5202218002202255
570	 0.6491526607468634
571	 0.7097208632298361
572	 1.1006918886522494
573	 0.23657362107661206
574	 1.1360171563070112
575	 3.279566366999691
576	 1.990453406112477
577	 0.42607542809831134
578	 0.3245763303734317
579	 0.9428090415820634
580	 0.9737289911202953
581	 0.16228816518671588
582	 0.7073977117815301
583	 1.3553733939535029
584	 1.1617486233887167
585	 0.1936247705647861
586	 0.0
587	 0.7097208632298361
588	 0.32457633037343175
589	 0.35369885589076505
590	 0.47314724215322407
591	 3.069563848859023
592	 1.616244071283537
593	 0.11934706607298778
594	 0.3245763303734317
595	 1.0610965676722952
596	 0.6491526607468635
597	 0.3718489006818113
598	 0.8114408259335794
599	 1.4605934866804429
600	 0.0
601	 0.0
602	 0.0
603	 0.9888264649460888
604	 0.5650436942549082
605	 0.399209767833301
606	 0.5132002392796674
607	 0.9863262676076509
608	 0.639009650422694
609	 1.146497179374169
610	 1.1864694478017095
611	 0.7097208632298362
612	 0.9737289911202952
613	 0.8255189164891871
614	 1.9474579822405906
615	 0.825518916489187
616	 0.39752319599996266
617	 0.5794846582402354
618	 1.0570999562294559
619	 1.6101529717988265
620	 0.7698003589195012
621	 0.7601169500660919
622	 0.9737289911202952
623	 1.6101529717988263
624	 0.0
625	 0.7097208632298361
626	 1.0610965676722952
627	 0.0
628	 0.48686449556014755
629	 0.48686449556014766
630	 0.7097208632298361
631	 1.9206480387850573
632	 0.48686449556014766
633	 1.3388773627904056
634	 0.9737289911202953
635	 0.0
636	 0.48686449556014766
637	 0.24343224778007383
638	 0.0
639	 1.0645812948447542
640	 0.0
641	 1.5388307249337072
642	 1.186591757935306
643	 1.7888543819998315
644	 1.1925695879998877
645	 0.9737289911202953
646	 0.9737289911202952
647	 2.309401076758503
648	 0.956182887467515
649	 1.0134892667547895
650	 0.6592176432973924
651	 0.596284793999944
652	 0.0
653	 0.3536988558907651
654	 0.7073977117815302
655	 0.4868644955601476
656	 0.3975231959999626
657	 0.5935177962669668
658	 0.6491526607468633
659	 0.4868644955601476
660	 0.3245763303734317
661	 0.16228816518671563
662	 0.5132002392796675
663	 0.4868644955601477
664	 0.584237394672177
665	 0.838782186002752
666	 0.2981423969999721
667	 0.5322906474223772
668	 0.0
669	 0.24343224778007377
670	 0.4868644955601474
671	 1.140175425099138
672	 0.3548604316149181
673	 0.14907119849998612
674	 0.6085806194501845
675	 1.0954451150103321
676	 0.49441323247304425
677	 0.24720661623652218
678	 0.0
679	 1.0165300454651272
680	 0.3651483716701107
681	 0.2675909906398288
682	 0.6592176432973922
683	 0.0
684	 0.5158119621991085
685	 0.37856394122574843
686	 0.5962847939999438
687	 2.9211869733608857
688	 1.1925695879998877
689	 0.9737289911202952
690	 1.5396007178390017
691	 1.7888543819998315
692	 1.1925695879998877
693	 0.0
694	 1.1925695879998877
695	 1.0954451150103321
696	 0.3651483716701107
697	 0.7518865162598232
698	 1.0166029123908122
699	 1.1925695879998877
700	 0.7789831928962361
701	 1.029634958685916
702	 0.5962847939999438
703	 2.415996075542557
704	 2.129162589689508
705	 0.5962847939999438
706	 0.4770278351999551
707	 1.0509960002743075
708	 2.838883452919344
709	 0.9440652833672355
710	 0.9440652833672358
711	 1.4732176927970861
712	 0.9148972822328401
713	 0.40295206956953383
714	 0.8088400473654986
715	 1.1800816042090447
716	 1.9474579822405906
717	 1.0610965676722952
718	 1.1925695879998877
719	 1.7040257344605165
720	 1.6653327995729061
721	 1.2602175003340288
722	 0.48686449556014766
723	 0.7302967433402214
724	 1.3877773329774217
725	 0.6938886664887107
726	 0.0
727	 2.033060090930254
728	 0.769800358919501
729	 0.9192589608141097
730	 0.6953815898882826
731	 1.4194417264596721
732	 1.602960224547534
733	 0.21221931353445903
734	 0.48686449556014766
735	 0.2434322477800738
736	 0.0
737	 0.3577708763999663
738	 1.511633896496449
739	 1.4194417264596721
740	 0.8088400473654987
741	 0.8722894524691267
742	 0.9888264649460888
743	 2.081665999466133
744	 0.4868644955601476
745	 0.874663956635368
746	 0.8347987115999215
747	 1.4194417264596721
748	 1.602960224547534
749	 0.21221931353445903
750	 0.48686449556014766
751	 0.2434322477800738
752	 0.0
753	 0.3577708763999663
754	 1.511633896496449
755	 1.4194417264596721
756	 0.8088400473654987
757	 0.8722894524691267
758	 0.9888264649460888
759	 2.29613201323927
760	 1.0645812948447542
761	 2.1623889395587295
762	 1.9474579822405906
763	 3.6595891289313602
764	 2.7755546659548433
765	 1.6510378329783741
766	 0.0
767	 1.7040257344605165
768	 0.5842373946721773
769	 0.3577708763999663
770	 1.4605934866804429
771	 2.1291625896895083
772	 0.7155417527999327
773	 0.17888543819998315
774	 0.0
775	 0.8944271909999159
776	 0.8516650358758034
777	 0.2921186973360886
778	 1.186591757935306
779	 0.0
780	 1.338656042454521
781	 0.33466401061363016
782	 0.0
783	 1.8257418583505536
784	 0.5962847939999438
785	 0.9428090415820634
786	 1.4605934866804429
787	 1.5682025568335423
788	 0.9737289911202953
789	 0.38490017945975047
790	 0.5962847939999439
791	 1.3038404810405297
792	 0.12171612389003696
793	 0.7439633603084774
794	 0.8516650358758034
795	 1.5682025568335423
796	 0.9737289911202953
797	 0.4868644955601476
798	 0.5962847939999438
799	 0.7302967433402214
800	 0.48686449556014766
801	 0.7122213555203601
802	 1.2733158812067544
803	 1.5682025568335423
804	 0.0
805	 1.0110500592068734
806	 0.48686449556014755
807	 1.1547005383792515
808	 0.48686449556014766
809	 0.8897773337772229
810	 1.186591757935306
811	 0.8722894524691266
812	 0.9737289911202952
813	 0.24343224778007383
814	 0.0
815	 0.8366600265340756
816	 0.9622504486493764
817	 0.9383989517218104
818	 0.8516650358758033
819	 1.2234741063418093
820	 1.1925695879998877
821	 0.5962847939999438
822	 0.5962847939999438
823	 0.3651483716701107
824	 0.9026709338484402
825	 1.180081604209045
826	 0.5842373946721771
827	 1.0599790354320953
828	 0.5962847939999438
829	 0.0
830	 0.0
831	 1.0954451150103321
832	 0.9026709338484402
833	 0.9095379372292612
834	 1.4160979250508539
835	 1.2169177823044948
836	 0.5962847939999439
837	 0.7097208632298361
838	 0.7097208632298362
839	 0.9737289911202953
840	 0.0
841	 0.3245763303734318
842	 0.6491526607468635
843	 0.0
844	 0.0
845	 0.0
846	 0.0
847	 0.0
848	 0.0
849	 0.0
850	 0.0
851	 0.0
852	 0.0
853	 0.0
854	 0.0
855	 0.5947617141331807
856	 0.3981986819518895
857	 0.6548717239954103
858	 1.1554857819507125
859	 0.9737289911202953
860	 1.4194417264596724
861	 2.45251193979047
862	 1.9474579822405906
863	 2.1291625896895083
864	 0.0
865	 0.0
866	 0.0
867	 0.0
868	 0.0
869	 0.0
870	 0.0
871	 0.9095113437191102
872	 0.458434389555549
873	 0.6160148203081953
874	 1.4066035815667797
875	 2.45251193979047
876	 1.4194417264596721
877	 1.6510378329783741
878	 1.4194417264596721
879	 1.0073801739238344
880	 0.5962847939999437
881	 0.2950204010522612
882	 0.3548604316149181
883	 0.521749194749951
884	 0.9209495904489822
885	 1.80534186769688
886	 1.9474579822405906
887	 1.8393839548428526
888	 0.0
889	 0.47531665858238753
890	 0.24343224778007386
891	 0.2788866755113585
892	 0.6459560815250981
893	 0.38662835059198836
894	 0.0
895	 1.0111233210495987
896	 0.1591644851508443
897	 0.4451383472002251
898	 0.0
899	 0.12171612389003694
900	 0.1986994752924161
901	 0.17701224063135673
902	 0.29814239699997197
903	 0.10434983894999011
904	 0.1591644851508443
905	 0.5055250296034367
906	 0.0
907	 0.1490711984999859
908	 0.272437556556034
909	 0.17888543819998315
910	 0.354860431614918
911	 0.5962847939999439
912	 1.1925695879998877
913	 0.9737289911202953
914	 1.1925695879998877
915	 0.0
916	 0.9737289911202953
917	 0.9737289911202953
918	 1.1925695879998877
919	 1.6599866130651644
920	 1.1925695879998877
921	 0.9737289911202953
922	 0.9737289911202953
923	 0.0
924	 0.9737289911202953
925	 0.8255189164891871
926	 0.9737289911202953
927	 1.1490737010176373
928	 0.4149966532662911
929	 0.9747934254098262
930	 1.7513592604772041
931	 1.3553733939535029
932	 0.9737289911202953
933	 0.24343224778007386
934	 0.4868644955601477
935	 1.0292032157252808
936	 0.3548604316149181
937	 0.4286067004885758
938	 1.2316805742712016
939	 0.9737289911202953
940	 1.539600717839002
941	 1.1684747893443543
942	 0.7155417527999327
943	 0.8944271909999159
944	 0.5900408021045225
945	 0.2710746787907006
946	 1.2278255395436095
947	 1.3553733939535026
948	 0.9737289911202952
949	 1.0007404665953514
950	 0.9237604307034012
951	 1.4142135623730951
952	 0.5305482838361476
953	 0.5012576775065487
954	 0.9440652833672358
955	 0.9737289911202953
956	 0.973728991120295
957	 1.9474579822405904
958	 0.7097208632298361
959	 1.0610965676722952
960	 0.0
961	 0.0
962	 0.0
963	 0.0
964	 0.0
965	 0.0
966	 0.0
967	 0.0
968	 0.3245763303734317
969	 0.98327322584697
970	 1.1617486233887169
971	 1.3913311859998692
972	 0.659217643297392
973	 0.5680085781535057
974	 0.6491526607468636
975	 2.046375899239349
976	 0.39752319599996266
977	 0.5962847939999438
978	 0.5819143739626463
979	 0.9737289911202953
980	 0.973728991120295
981	 2.5062883875327437
982	 1.9776529298921766
983	 0.9566746246496557
984	 0.3245763303734317
985	 0.8542770040393628
986	 1.0864380767597428
987	 2.17505498724305
988	 0.6491526607468632
989	 0.7027283689263066
990	 0.6491526607468636
991	 1.8071645252713373
992	 0.3245763303734317
993	 0.4217963400923806
994	 1.2016617368066669
995	 2.086996778999804
996	 1.4194417264596721
997	 1.0610965676722952
998	 0.9737289911202953
999	 1.1066577420434427
1000	 0.47314724215322407
1001	 0.8015689662107514
1002	 2.239209449094948
1003	 0.9888264649460886
1004	 1.3553733939535029
1005	 0.7097208632298361
1006	 0.9888264649460883
1007	 1.6510378329783741
1008	 0.0
1009	 1.1800816042090445
1010	 1.0610965676722952
1011	 0.6776866969767514
1012	 0.48686449556014766
1013	 0.38490017945975047
1014	 0.7097208632298361
1015	 0.8758300002285897
1016	 0.32457633037343175
1017	 0.6491526607468635
1018	 0.6592176432973922
1019	 0.0
1020	 0.5132002392796674
1021	 0.2566001196398336
1022	 0.0
1023	 0.769800358919501
1024	 0.769800358919501
1025	 0.48686449556014766
1026	 1.3553733939535026
1027	 0.5305482838361476
1028	 0.7097208632298361
1029	 0.9506333171647748
1030	 0.7097208632298362
1031	 0.8902766944004502
1032	 0.7097208632298361
1033	 0.48686449556014755
1034	 0.5962847939999439
1035	 1.4350119369744834
1036	 0.5962847939999438
1037	 0.7302967433402213
1038	 1.7040257344605165
1039	 1.8358568490953673
1040	 0.4868644955601476
1041	 1.0795060598872677
1042	 1.6044382886924078
1043	 1.534781924429512
1044	 1.1925695879998877
1045	 1.0645812948447542
1046	 0.5962847939999438
1047	 1.58230961057048
1048	 0.0
1049	 0.9888264649460883
1050	 0.5962847939999438
1051	 0.7097208632298362
1052	 0.5962847939999438
1053	 1.5323668451608274
1054	 0.48686449556014766
1055	 1.2694576140008993
1056	 0.3245763303734317
1057	 0.7212243819044792
1058	 0.6491526607468634
1059	 0.0
1060	 0.8114408259335796
1061	 0.4057204129667902
1062	 0.0
1063	 0.5577733510227169
1064	 0.7129749878735813
1065	 1.5518805795979704
1066	 0.6020797289396147
1067	 1.0954451150103321
1068	 1.1925695879998877
1069	 0.38490017945975064
1070	 0.48686449556014766
1071	 0.6085806194501846
1072	 0.6491526607468636
1073	 0.5132002392796673
1074	 0.5132002392796673
1075	 0.9888264649460882
1076	 0.6491526607468633
1077	 0.3933605347363483
1078	 0.3245763303734318
1079	 1.0610965676722952
1080	 0.0
1081	 0.2692302763232507
1082	 0.6461526631758018
1083	 0.0
1084	 0.0
1085	 0.0
1086	 0.0
