0	 0.4472135954999576
1	 0.3651483716701109
2	 0.48686449556014755
3	 0.5962847939999438
4	 0.4868644955601477
5	 0.48686449556014755
6	 0.5962847939999438
7	 0.4868644955601477
8	 0.48686449556014755
9	 0.5962847939999438
10	 0.4868644955601477
11	 0.5962847939999438
12	 0.48686449556014755
13	 0.4868644955601477
14	 0.5962847939999438
15	 0.48686449556014755
16	 0.4868644955601477
17	 0.5962847939999438
18	 0.48686449556014755
19	 0.4868644955601477
20	 0.8944271909999157
21	 0.36514837167011027
22	 0.36514837167011077
23	 1.425949975747162
24	 0.36514837167011094
25	 0.7416198487095655
26	 1.0408329997330659
27	 0.36514837167011094
28	 0.7416198487095655
29	 1.0408329997330659
30	 0.36514837167011094
31	 0.7416198487095655
32	 1.0408329997330659
33	 0.36514837167011094
34	 0.7416198487095655
35	 1.443375672974064
36	 1.064581294844754
37	 0.7302967433402205
38	 1.8797162906495577
39	 0.3651483716701107
40	 0.3651483716701107
41	 1.016530045465127
42	 0.7416198487095661
43	 0.4472135954999576
44	 1.2780193008453875
45	 0.44721359549995815
46	 0.4472135954999576
47	 0.8850612031567839
48	 0.3651483716701107
49	 0.44721359549995787
50	 0.3651483716701105
51	 0.3651483716701107
52	 0.44721359549995787
53	 1.2472191289246468
54	 0.48686449556014744
55	 0.7097208632298359
56	 0.5962847939999433
57	 0.4868644955601476
58	 0.7097208632298359
59	 1.520233900132184
60	 0.4868644955601477
61	 0.5962847939999438
62	 0.48686449556014755
63	 0.4868644955601477
64	 0.5962847939999438
65	 0.48686449556014755
66	 0.3651483716701107
67	 0.44721359549995787
68	 0.36514837167011077
69	 0.3651483716701107
70	 0.44721359549995787
71	 1.5275252316519465
72	 0.44721359549995787
73	 0.36514837167011027
74	 0.36514837167011066
75	 0.5962847939999438
76	 0.4868644955601473
77	 0.4868644955601476
78	 0.4868644955601471
79	 0.5962847939999438
80	 0.4868644955601476
81	 0.3651483716701105
82	 0.44721359549995804
83	 0.7416198487095662
84	 0.36514837167011066
85	 0.44721359549995837
86	 0.7302967433402218
87	 0.36514837167011055
88	 0.44721359549995837
89	 0.7302967433402219
90	 0.36514837167011055
91	 0.44721359549995837
92	 0.885061203156785
93	 0.36514837167011066
94	 0.44721359549995837
