0	 0.0
1	 0.0
2	 0.25995627351640105
3	 0.1092129235231134
4	 0.0815782982783041
5	 0.02284324228973611
6	 0.26562434814441915
7	 0.0
8	 0.0
9	 0.16623732176783068
10	 0.6093750000000001
11	 0.617905277285475
12	 0.0682721751576435
13	 0.35769864991229605
14	 0.4575026680008283
15	 0.002415900958152195
16	 0.704300099186878
17	 0.43321366461097
18	 0.6206877995171232
19	 0.10982490642763904
20	 0.6673274955500303
21	 0.29417733867613494
22	 0.3036646424010305
23	 0.684335749855254
24	 0.06250000000000006
25	 0.7311183629104762
26	 0.3754282301041158
27	 0.45429547349205424
28	 0.8331261193056412
29	 0.05427172867265306
30	 0.963307463243178
31	 0.5705095093522208
32	 0.1117463696770285
33	 0.1918039545490388
34	 0.3505964238332008
35	 0.34090909090909105
36	 0.7670454545454546
37	 0.17688483617925155
38	 0.914578098794425
39	 0.43318468952189393
40	 0.25641930370240607
41	 0.4560001877321317
42	 0.0614709903464854
43	 1.0
44	 0.6714985851425088
45	 0.13556550657216876
46	 0.10471529247895256
47	 0.789233423814274
48	 0.6597108266586955
49	 0.0
50	 0.0
51	 0.0024610485767913026
52	 0.8021345676705987
53	 0.003671930428010728
54	 0.20554252885664687
55	 0.8031088913245535
56	 0.8621551006357473
57	 0.041584896715896436
58	 0.026876390278385287
59	 0.878716767129569
60	 0.7939649005088059
61	 0.6770224380162251
62	 0.18915881442920274
63	 0.9370007415924739
64	 0.22605385977046033
65	 0.30080769360412213
66	 0.358490172464555
67	 0.9394094758433744
68	 0.02782749613920843
69	 0.4922528756342407
70	 0.18915881442920274
71	 0.8985639915423159
72	 0.15435955994528017
73	 0.08928571428571425
74	 1.0
75	 0.0
76	 0.0
77	 0.15007289388811745
78	 0.3125000000000001
79	 0.6603872980190567
80	 0.8648060238150697
81	 0.03370868091245893
82	 0.7980197803396347
83	 0.017303072798871333
84	 0.07623418638505958
85	 0.20549708871551464
86	 0.09398585241610413
87	 0.24345948224640285
88	 0.8352765068901715
89	 0.1481923383360912
90	 0.12530179676711045
91	 0.08296407136382
92	 0.03128550118207124
93	 0.10815580963489824
94	 0.10921242071082027
95	 0.8332521959469816
96	 0.18662676074100903
97	 0.4316081197616749
98	 0.0014822165877085292
99	 0.9259199273458842
100	 0.05228534602098689
101	 0.9856608635851059
102	 0.30786712036471
103	 0.059541551005796056
104	 0.20750780617094294
105	 0.7046715467744536
106	 0.19106732137058302
107	 0.10529131314410384
108	 0.6594126535599495
109	 0.9565855831460757
110	 0.1875
111	 0.39062500000000006
112	 0.45908414558075145
113	 0.43862621837112714
114	 0.375
115	 0.1938137821521027
116	 0.8756651369408426
117	 0.02596959118908454
118	 0.04657734368124261
119	 0.45134985115837417
120	 0.4719372588681616
121	 0.5670768644317554
122	 0.33673288322641837
123	 0.14572285554672426
124	 0.21729648894854214
125	 0.20121437202079617
126	 0.18827981859422555
127	 0.10802059617948695
128	 0.009308952236571189
129	 0.054779024510266894
130	 0.4518130575347573
131	 0.18042867749001956
132	 0.1497636015421101
133	 0.0
134	 0.0
135	 0.0
136	 0.0
137	 0.11442056959424696
138	 0.8360881974874841
139	 0.05725185697355689
140	 0.0801953570205246
141	 0.44640653091110244
142	 0.0926266707941995
143	 0.6696428571428572
144	 0.06753530005933173
145	 0.008674074282368271
146	 0.8731022868922991
147	 2.7699509573531067E-4
148	 0.20785503220315255
149	 0.03136065084187101
150	 0.056257941880559936
151	 0.17993898470955416
152	 0.5431397981407288
153	 0.051507903247885345
154	 0.40898606419466904
155	 0.6395136779640848
156	 0.40810661948566174
157	 0.07657606292128566
158	 0.46523079688153274
159	 0.7064307059611926
160	 0.0870932032819498
161	 0.5622429137067608
162	 0.981075439098837
163	 0.3363365823230058
164	 0.2705842661294382
165	 0.5768284256297862
166	 0.012108486594965773
167	 0.9964717470533704
168	 0.05850360732141713
169	 0.9644690884126834
170	 6.56717238405824E-4
171	 0.542190796284726
172	 -1.1102230246251565E-16
173	 0.6875000000000001
174	 0.40257711250294187
175	 0.03409090909090906
176	 0.6038343152342291
177	 0.09119405028407224
178	 0.3709882883644652
179	 0.18377223398316217
180	 0.6131551912690689
181	 0.11492195818214135
182	 0.9624972900628803
183	 0.9128614119223852
184	 0.055024866677904904
185	 0.7057411906758073
186	 0.5496622308510288
187	 0.04668318961045903
188	 0.2022040422832566
189	 0.10205341252061678
190	 0.7786852008565768
191	 0.11412818342935527
192	 0.5123365942804958
193	 0.3272876800730605
194	 0.0
195	 0.0
196	 0.0
197	 0.21564149193784615
198	 0.8894151757678042
199	 0.6767146877762289
200	 0.06255883745289353
201	 0.02284324228973611
202	 0.26562434814441915
203	 0.0
204	 0.0
205	 0.046186060789418004
206	 0.8143092785468561
207	 0.6340219266868096
208	 0.16118426565285254
209	 0.35769864991229605
210	 0.4575026680008283
211	 0.002415900958152195
212	 0.704300099186878
213	 0.43321366461097
214	 0.6206877995171232
215	 0.10982490642763904
216	 0.5735669386725373
217	 0.3016750025841921
218	 0.1496175558866325
219	 0.5582815505150196
220	 0.04151376538745194
221	 0.5432292813278176
222	 0.3754282301041158
223	 0.45429547349205424
224	 0.8331261193056412
225	 0.05427172867265306
226	 0.963307463243178
227	 0.5705095093522208
228	 0.16995987317637928
229	 0.48992107537195256
230	 0.34782608695652156
231	 0.4765433251571754
232	 0.7670454545454546
233	 0.0407206732281542
234	 0.46464466094067264
235	 0.42913166131076985
236	 0.25641930370240607
237	 0.1386464451116085
238	 0.8007965496927761
239	 0.021655396892539425
240	 0.8203846925853093
241	 0.06483265458366694
242	 0.9457902018666682
243	 0.24265749367251072
244	 0.8352497616622728
245	 0.11602773066476157
246	 0.38163684649819085
247	 0.026575460393119477
248	 0.5305508063708881
249	 0.03436692633358257
250	 0.7558580897078799
251	 0.04123420350413787
252	 0.32078737931683654
253	 0.40396297944321624
254	 0.48904574359050185
255	 0.6270927014895378
256	 0.05288909506842976
257	 0.06716598090082393
258	 0.26813112212692913
259	 0.9117078432751624
260	 0.6819606972131513
261	 0.11666692927101047
262	 0.9409153523777354
263	 0.54062085522623
264	 0.2661464133266287
265	 0.3363365823230057
266	 1.0
267	 0.0
268	 0.0
269	 0.9924101124010707
270	 0.1610461596583495
271	 0.8952847075210479
272	 0.2625867933857794
273	 0.3859503846077574
274	 0.12048212077195408
275	 0.7160830142324484
276	 0.9190985721397914
277	 0.0016525911493712742
278	 0.278773920216304
279	 0.14330385079574687
280	 0.685532628397535
281	 0.02497407122854528
282	 0.4345203112899804
283	 0.14264792731952375
284	 0.11400701294108945
285	 0.8540052161969216
286	 0.5573539334676405
287	 0.4426460665323595
288	 0.12036792732769364
289	 0.04236133705256229
290	 0.9277719781681484
291	 0.7339960673949756
292	 0.22303908211155848
293	 0.7184878136369325
294	 0.261715518802928
295	 0.8216355349971165
296	 0.35663808200342184
297	 0.40562079731267203
298	 0.7511460431062091
299	 0.04897443275103813
300	 0.653406503538373
301	 0.3602457514062632
302	 0.6624834209049203
303	 0.07020271902161479
304	 0.8906352549950591
305	 0.0017874757623003723
306	 0.526333519069618
307	 0.2587664537762787
308	 0.05556362276265986
309	 0.207813427989042
310	 0.5712354845505945
311	 0.2108068155242691
312	 0.49999999999999994
313	 0.7294157338705618
314	 0.4311471709055945
315	 0.6864246121879077
316	 0.5729842760151428
317	 0.5275854634220234
318	 0.5
319	 0.9105490615199279
320	 0.05928731176396962
321	 0.8728005675396628
322	 0.9716211091418994
323	 0.07991597479159707
324	 0.6210307295689818
325	 0.3627890519590544
326	 0.3140432361198262
327	 0.6250000000000002
328	 0.5449013255066937
329	 0.04188519915051503
330	 0.2566438146444936
331	 0.42920848908496945
332	 0.548287142571009
333	 0.1931763924290481
334	 0.40997911699427103
335	 8.852175724146094E-4
336	 0.9182185031988785
337	 0.47840328936046617
338	 0.11365835272255131
339	 0.011889480036285205
340	 0.16090918856858938
341	 0.0762465589310723
342	 0.920353277817699
343	 0.9068642318748578
344	 0.1349674932770138
345	 0.02284324228973611
346	 0.26562434814441915
347	 0.0
348	 0.0
349	 0.3865434964786734
350	 0.6670458859661719
351	 0.25980776929236926
352	 0.1774182514559029
353	 0.10793843476993276
354	 0.023536802882628938
355	 0.002415900958152195
356	 0.6022970973832135
357	 0.2255226679053967
358	 0.8066507382781133
359	 0.11416812630875406
360	 0.055304704038821595
361	 0.04072067322815415
362	 0.816227766016838
363	 0.6921765286964517
364	 0.018639470862232943
365	 0.005333144518384736
366	 0.3754282301041158
367	 0.45429547349205424
368	 0.8331261193056412
369	 0.05427172867265306
370	 0.963307463243178
371	 0.5705095093522208
372	 0.5527961137492451
373	 0.152967013545243
374	 0.6777570626061593
375	 0.020813642496584295
376	 0.7670454545454546
377	 0.17688483617925155
378	 0.914578098794425
379	 0.43318468952189393
380	 0.25641930370240607
381	 0.5188128142462994
382	 0.39062500000000006
383	 0.625
384	 0.6714985851425088
385	 0.13556550657216876
386	 0.10471529247895256
387	 0.789233423814274
388	 0.6182689340213279
389	 0.05550701562578647
390	 0.2834936490538907
391	 0.006289558546712537
392	 0.3861379627515768
393	 0.5133901887646071
394	 0.02990264622484945
395	 0.9296251957145234
396	 0.5364178520364614
397	 0.410349806266463
398	 0.012711931801659582
399	 0.4386714559254636
400	 0.3799980407683451
401	 0.7228607814302161
402	 0.061888570834448264
403	 0.8620164529584267
404	 0.13729224280714836
405	 0.4735725421663016
406	 0.2792819937070909
407	 0.31489194106929014
408	 0.5510803273812995
409	 0.24496665529866934
410	 0.03168098083772841
411	 0.267853131132538
412	 0.6362071968303586
413	 0.9961429097399719
414	 0.20511608769020573
415	 0.6178579437802918
416	 0.4698889868300663
417	 0.49999999999999994
418	 0.2573186641514623
419	 0.6069916385578332
420	 0.0714791612214139
421	 0.4386262183711271
422	 1.0
423	 0.0
424	 0.0
425	 0.5376889180722204
426	 0.3125000000000001
427	 0.6603872980190567
428	 0.10251461040909643
429	 0.4524624984923827
430	 0.30382293625168877
431	 0.08904030897537057
432	 0.07623418638505958
433	 0.20549708871551464
434	 0.09398585241610413
435	 0.24345948224640285
436	 0.9933274593642595
437	 0.009196635751739346
438	 0.47551859327753926
439	 0.2274123273122755
440	 0.3236118863844757
441	 0.024106862263656825
442	 0.18377223398316228
443	 0.8827736660776297
444	 0.019433817412871035
445	 0.4316081197616749
446	 0.027312967700838575
447	 0.9253714872136355
448	 0.05278315063536909
449	 0.9286864891798599
450	 0.30786712036471
451	 0.059541551005796056
452	 0.20750780617094294
453	 0.7046715467744536
454	 0.19106732137058302
455	 0.10529131314410384
456	 0.6594126535599495
457	 0.9565855831460757
458	 0.1875
459	 0.39062500000000006
460	 0.45908414558075145
461	 0.43862621837112714
462	 0.375
463	 0.1938137821521027
464	 0.7080885876829546
465	 0.04641890090399725
466	 0.04368066466542858
467	 0.7510776702008611
468	 0.28463148282838957
469	 0.7359569664264022
470	 0.8491916862200859
471	 0.3804895730770016
472	 0.21729648894854214
473	 0.5208398858088633
474	 0.8679502879695746
475	 0.2629930716404744
476	 0.14428065858171324
477	 0.7124639297086475
478	 0.9093530358467563
479	 0.02683977659261616
480	 0.015069386980556099
481	 0.0
482	 0.0
483	 0.0
484	 0.0
485	 0.29044600492396977
486	 0.965735617681006
487	 0.013853869683652653
488	 0.0801953570205246
489	 0.44640653091110244
490	 0.0926266707941995
491	 0.6696428571428572
492	 0.06753530005933173
493	 0.008674074282368271
494	 0.8731022868922991
495	 2.7699509573531067E-4
496	 0.3313014032416528
497	 0.06761034497940266
498	 0.12336281603118998
499	 0.9985594899480514
500	 0.016185538536704014
501	 0.957484325503569
502	 0.11743078636134552
503	 0.2949888245535921
504	 0.8282995769794683
505	 0.16928108611692627
506	 0.49999999999999994
507	 0.7064307059611926
508	 0.0870932032819498
509	 0.5622429137067608
510	 0.981075439098837
511	 0.3363365823230058
512	 0.2705842661294382
513	 0.5161150640972577
514	 0.058048363957973415
515	 0.9576931780273397
516	 0.04072067322815398
517	 0.8995391468313791
518	 0.04184212659581238
519	 0.8736743883357845
520	 0.5257855311564701
521	 0.07033107557634027
522	 0.4663663603001846
523	 0.019358717148902638
524	 0.13436378793643472
525	 0.583026395519384
526	 0.26834227028152546
527	 0.5440679390304842
528	 0.3798647977827998
529	 0.09511221996109515
530	 0.8943010202283864
531	 0.7629825774943535
532	 0.041228725736285554
533	 0.0073938926511710745
534	 0.1803209656849683
535	 0.08731121478428966
536	 0.09432787353276106
537	 0.6475171368971768
538	 0.2459744194761322
539	 0.7676549101798734
540	 0.0365050793225713
541	 0.7976598993314385
542	 1.0
543	 0.0
