
 -- New score C1fast: 0.037712403676880966 All time best: 0.037712403676880966 at pointer: 1
 -- New score C1fast: 0.03771197757498779 All time best: 0.03771197757498779 at pointer: 0
 -- New score C1fast: 0.03751737964035098 All time best: 0.03751737964035098 at pointer: 2
 -- New score C1fast: 0.037504088650449977 All time best: 0.037504088650449977 at pointer: 0
 -- New score C1fast: 0.03677719087698691 All time best: 0.03677719087698691 at pointer: 3
 -- New score C1fast: 0.03677694123011613 All time best: 0.03677694123011613 at pointer: 1
 -- New score C1fast: 0.03677588569671342 All time best: 0.03677588569671342 at pointer: 0
 -- New score C1fast: 0.03659660597118033 All time best: 0.03659660597118033 at pointer: 4
 -- New score C1fast: 0.036534192205658816 All time best: 0.036534192205658816 at pointer: 5
 -- New score C1fast: 0.03652851926731649 All time best: 0.03652851926731649 at pointer: 6
 -- New score C1fast: 0.035324428166526006 All time best: 0.035324428166526006 at pointer: 7
 -- New score C1fast: 0.03507806349697134 All time best: 0.03507806349697134 at pointer: 9
 -- New score C1fast: 0.03506149552186796 All time best: 0.03506149552186796 at pointer: 10
 -- New score C1fast: 0.03484681598695134 All time best: 0.03484681598695134 at pointer: 11
 -- New score C1fast: 0.03452106748262714 All time best: 0.03452106748262714 at pointer: 12
 -- New score C1fast: 0.03437264165477101 All time best: 0.03437264165477101 at pointer: 13
 -- New score C1fast: 0.03436661853763769 All time best: 0.03436661853763769 at pointer: 11
 -- New score C1fast: 0.034361138660200144 All time best: 0.034361138660200144 at pointer: 15
 -- New score C1fast: 0.03428550182023371 All time best: 0.03428550182023371 at pointer: 16
 -- New score C1fast: 0.03426652745365673 All time best: 0.03426652745365673 at pointer: 17
 -- New score C1fast: 0.03409615943226528 All time best: 0.03409615943226528 at pointer: 18
 -- New score C1fast: 0.033930074420315946 All time best: 0.033930074420315946 at pointer: 20
 -- New score C1fast: 0.03382067874219773 All time best: 0.03382067874219773 at pointer: 21
 -- New score C1fast: 0.033812991975563096 All time best: 0.033812991975563096 at pointer: 23
 -- New score C1fast: 0.033791096418196026 All time best: 0.033791096418196026 at pointer: 24
 -- New score C1fast: 0.0337850539779686 All time best: 0.0337850539779686 at pointer: 25
 -- New score C1fast: 0.03378225186479416 All time best: 0.03378225186479416 at pointer: 22
 -- New score C1fast: 0.03299870688726655 All time best: 0.03299870688726655 at pointer: 26
 -- New score C1fast: 0.03288475723531439 All time best: 0.03288475723531439 at pointer: 27
 -- New score C1fast: 0.03287745454041987 All time best: 0.03287745454041987 at pointer: 23
 -- New score C1fast: 0.032869117872949806 All time best: 0.032869117872949806 at pointer: 21
 -- New score C1fast: 0.0328633883594721 All time best: 0.0328633883594721 at pointer: 24
 -- New score C1fast: 0.03285775659697428 All time best: 0.03285775659697428 at pointer: 23
 -- New score C1fast: 0.03284708678744472 All time best: 0.03284708678744472 at pointer: 26
 -- New score C1fast: 0.032107470906939786 All time best: 0.032107470906939786 at pointer: 29
 -- New score C1fast: 0.032087909156269474 All time best: 0.032087909156269474 at pointer: 26
 -- New score C1fast: 0.03206177737383792 All time best: 0.03206177737383792 at pointer: 31
 -- New score C1fast: 0.032055226609858455 All time best: 0.032055226609858455 at pointer: 32
 -- New score C1fast: 0.03181340675890967 All time best: 0.03181340675890967 at pointer: 34
 -- New score C1fast: 0.03168818505041515 All time best: 0.03168818505041515 at pointer: 35
 -- New score C1fast: 0.03168647012282573 All time best: 0.03168647012282573 at pointer: 34
 -- New score C1fast: 0.031647586011985425 All time best: 0.031647586011985425 at pointer: 36
 -- New score C1fast: 0.03159994534990618 All time best: 0.03159994534990618 at pointer: 37
 -- New score C1fast: 0.03151894490109895 All time best: 0.03151894490109895 at pointer: 38
 -- New score C1fast: 0.03151890054001134 All time best: 0.03151890054001134 at pointer: 34
 -- New score C1fast: 0.03151505870699074 All time best: 0.03151505870699074 at pointer: 32
 -- New score C1fast: 0.03149969799381919 All time best: 0.03149969799381919 at pointer: 31
 -- New score C1fast: 0.03145629756353984 All time best: 0.03145629756353984 at pointer: 39
 -- New score C1fast: 0.03139387919795064 All time best: 0.03139387919795064 at pointer: 40
 -- New score C1fast: 0.03139067761046525 All time best: 0.03139067761046525 at pointer: 41
 -- New score C1fast: 0.031345292076927295 All time best: 0.031345292076927295 at pointer: 42
 -- New score C1fast: 0.03131164210937347 All time best: 0.03131164210937347 at pointer: 43
 -- New score C1fast: 0.03130715571919852 All time best: 0.03130715571919852 at pointer: 40
 -- New score C1fast: 0.031289266060868896 All time best: 0.031289266060868896 at pointer: 45
 -- New score C1fast: 0.03125845546038738 All time best: 0.03125845546038738 at pointer: 46
 -- New score C1fast: 0.03123207681409683 All time best: 0.03123207681409683 at pointer: 47
 -- New score C1fast: 0.030943930206444578 All time best: 0.030943930206444578 at pointer: 48
 -- New score C1fast: 0.030804588943149396 All time best: 0.030804588943149396 at pointer: 49
 -- New score C1fast: 0.030804189194549032 All time best: 0.030804189194549032 at pointer: 46
 -- New score C1fast: 0.030789421929273676 All time best: 0.030789421929273676 at pointer: 48
 -- New score C1fast: 0.030748186174572978 All time best: 0.030748186174572978 at pointer: 50
 -- New score C1fast: 0.0307468903452564 All time best: 0.0307468903452564 at pointer: 46
 -- New score C1fast: 0.03072588840930461 All time best: 0.03072588840930461 at pointer: 48
 -- New score C1fast: 0.03072567466890823 All time best: 0.03072567466890823 at pointer: 46
 -- New score C1fast: 0.030709192885429813 All time best: 0.030709192885429813 at pointer: 51
 -- New score C1fast: 0.03064214188897476 All time best: 0.03064214188897476 at pointer: 52
 -- New score C1fast: 0.03063747127380219 All time best: 0.03063747127380219 at pointer: 51
 -- New score C1fast: 0.0306366950355102 All time best: 0.0306366950355102 at pointer: 53
 -- New score C1fast: 0.030618037988066983 All time best: 0.030618037988066983 at pointer: 54
 -- New score C1fast: 0.03061540605261752 All time best: 0.03061540605261752 at pointer: 53
 -- New score C1fast: 0.03054141915053246 All time best: 0.03054141915053246 at pointer: 55
 -- New score C1fast: 0.030536896691221355 All time best: 0.030536896691221355 at pointer: 51
 -- New score C1fast: 0.03046889657115625 All time best: 0.03046889657115625 at pointer: 56
 -- New score C1fast: 0.03044271134374471 All time best: 0.03044271134374471 at pointer: 57
 -- New score C1fast: 0.030408821051622122 All time best: 0.030408821051622122 at pointer: 58
 -- New score C1fast: 0.030364334231985722 All time best: 0.030364334231985722 at pointer: 59
 -- New score C1fast: 0.030361034022430115 All time best: 0.030361034022430115 at pointer: 58
 -- New score C1fast: 0.030285534228886683 All time best: 0.030285534228886683 at pointer: 60
 -- New score C1fast: 0.03007672316481378 All time best: 0.03007672316481378 at pointer: 62
 -- New score C1fast: 0.03005945136640832 All time best: 0.03005945136640832 at pointer: 61
 -- New score C1fast: 0.03004287713490588 All time best: 0.03004287713490588 at pointer: 57
 -- New score C1fast: 0.030039230484714817 All time best: 0.030039230484714817 at pointer: 58
 -- New score C1fast: 0.030026901291981205 All time best: 0.030026901291981205 at pointer: 60
 -- New score C1fast: 0.030026786672679696 All time best: 0.030026786672679696 at pointer: 59
 -- New score C1fast: 0.030023316573261974 All time best: 0.030023316573261974 at pointer: 58
 -- New score C1fast: 0.03001489366077542 All time best: 0.03001489366077542 at pointer: 61
 -- New score C1fast: 0.03001421598329437 All time best: 0.03001421598329437 at pointer: 63
 -- New score C1fast: 0.02995382406831258 All time best: 0.02995382406831258 at pointer: 64
 -- New score C1fast: 0.029951597404785115 All time best: 0.029951597404785115 at pointer: 63
 -- New score C1fast: 0.02992569298415429 All time best: 0.02992569298415429 at pointer: 65
 -- New score C1fast: 0.02980231507925775 All time best: 0.02980231507925775 at pointer: 66
 -- New score C1fast: 0.029797177034456543 All time best: 0.029797177034456543 at pointer: 65
 -- New score C1fast: 0.02975847128999934 All time best: 0.02975847128999934 at pointer: 68
 -- New score C1fast: 0.029746169554856504 All time best: 0.029746169554856504 at pointer: 69
 -- New score C1fast: 0.029477829635324047 All time best: 0.029477829635324047 at pointer: 70
 -- New score C1fast: 0.029256172898511897 All time best: 0.029256172898511897 at pointer: 71
 -- New score C1fast: 0.029197577069481787 All time best: 0.029197577069481787 at pointer: 72
 -- New score C1fast: 0.029130713746180825 All time best: 0.029130713746180825 at pointer: 73
 -- New score C1fast: 0.029126684552064158 All time best: 0.029126684552064158 at pointer: 71
 -- New score C1fast: 0.029073986674322004 All time best: 0.029073986674322004 at pointer: 70
 -- New score C1fast: 0.029065961705759383 All time best: 0.029065961705759383 at pointer: 74
 -- New score C1fast: 0.0290612952133353 All time best: 0.0290612952133353 at pointer: 72
 -- New score C1fast: 0.029059887381343394 All time best: 0.029059887381343394 at pointer: 75
 -- New score C1fast: 0.02893733225735333 All time best: 0.02893733225735333 at pointer: 76
 -- New score C1fast: 0.028935240035219308 All time best: 0.028935240035219308 at pointer: 75
 -- New score C1fast: 0.028920464939175952 All time best: 0.028920464939175952 at pointer: 77
 -- New score C1fast: 0.02892009857123882 All time best: 0.02892009857123882 at pointer: 75
 -- New score C1fast: 0.02887752647261798 All time best: 0.02887752647261798 at pointer: 78
 -- New score C1fast: 0.028728108161689442 All time best: 0.028728108161689442 at pointer: 79
 -- New score C1fast: 0.028639851930911217 All time best: 0.028639851930911217 at pointer: 80
 -- New score C1fast: 0.02860381258213744 All time best: 0.02860381258213744 at pointer: 81
 -- New score C1fast: 0.028588620224278643 All time best: 0.028588620224278643 at pointer: 79
 -- New score C1fast: 0.02856676502528953 All time best: 0.02856676502528953 at pointer: 82
 -- New score C1fast: 0.02853009473963926 All time best: 0.02853009473963926 at pointer: 84
 -- New score C1fast: 0.028522199424289636 All time best: 0.028522199424289636 at pointer: 83
 -- New score C1fast: 0.028515077322663902 All time best: 0.028515077322663902 at pointer: 82
 -- New score C1fast: 0.028483698507738492 All time best: 0.028483698507738492 at pointer: 85
 -- New score C1fast: 0.028483586604369778 All time best: 0.028483586604369778 at pointer: 82
 -- New score C1fast: 0.0284680601527125 All time best: 0.0284680601527125 at pointer: 84
 -- New score C1fast: 0.028463231121327544 All time best: 0.028463231121327544 at pointer: 85
 -- New score C1fast: 0.028415960380922214 All time best: 0.028415960380922214 at pointer: 86
 -- New score C1fast: 0.028381204797364543 All time best: 0.028381204797364543 at pointer: 87
 -- New score C1fast: 0.028354114469415978 All time best: 0.028354114469415978 at pointer: 88
 -- New score C1fast: 0.028315113456265813 All time best: 0.028315113456265813 at pointer: 89
 -- New score C1fast: 0.02830861987733401 All time best: 0.02830861987733401 at pointer: 88
 -- New score C1fast: 0.02824424216650495 All time best: 0.02824424216650495 at pointer: 90
 -- New score C1fast: 0.028184415333455955 All time best: 0.028184415333455955 at pointer: 91
 -- New score C1fast: 0.028114100769681696 All time best: 0.028114100769681696 at pointer: 92
 -- New score C1fast: 0.02772341006276926 All time best: 0.02772341006276926 at pointer: 93
 -- New score C1fast: 0.02744511407313412 All time best: 0.02744511407313412 at pointer: 94
 -- New score C1fast: 0.02721316234859769 All time best: 0.02721316234859769 at pointer: 95
 -- New score C1fast: 0.027052453974243232 All time best: 0.027052453974243232 at pointer: 97
 -- New score C1fast: 0.02698832456511405 All time best: 0.02698832456511405 at pointer: 98
 -- New score C1fast: 0.026987784247564123 All time best: 0.026987784247564123 at pointer: 95
 -- New score C1fast: 0.026985277963836984 All time best: 0.026985277963836984 at pointer: 93
 -- New score C1fast: 0.026982122641654838 All time best: 0.026982122641654838 at pointer: 97
 -- New score C1fast: 0.026708323664203167 All time best: 0.026708323664203167 at pointer: 99
 -- New score C1fast: 0.02666421436166372 All time best: 0.02666421436166372 at pointer: 101
 -- New score C1fast: 0.026352083878667523 All time best: 0.026352083878667523 at pointer: 102
 -- New score C1fast: 0.026238649449290934 All time best: 0.026238649449290934 at pointer: 103
 -- New score C1fast: 0.026229455444566042 All time best: 0.026229455444566042 at pointer: 104
 -- New score C1fast: 0.026207021746053723 All time best: 0.026207021746053723 at pointer: 105
 -- New score C1fast: 0.025858706644844156 All time best: 0.025858706644844156 at pointer: 106
 -- New score C1fast: 0.025853197359057042 All time best: 0.025853197359057042 at pointer: 104
 -- New score C1fast: 0.02585175917507601 All time best: 0.02585175917507601 at pointer: 105
 -- New score C1fast: 0.02584170881630886 All time best: 0.02584170881630886 at pointer: 107
 -- New score C1fast: 0.02570716062381379 All time best: 0.02570716062381379 at pointer: 108
 -- New score C1fast: 0.02569418953789636 All time best: 0.02569418953789636 at pointer: 107
 -- New score C1fast: 0.025674847531560456 All time best: 0.025674847531560456 at pointer: 103
 -- New score C1fast: 0.02564667794604996 All time best: 0.02564667794604996 at pointer: 109
 -- New score C1fast: 0.025604062920359917 All time best: 0.025604062920359917 at pointer: 112
 -- New score C1fast: 0.025569696598354747 All time best: 0.025569696598354747 at pointer: 113
 -- New score C1fast: 0.02556903259384793 All time best: 0.02556903259384793 at pointer: 109
 -- New score C1fast: 0.025530445879626922 All time best: 0.025530445879626922 at pointer: 114
 -- New score C1fast: 0.0254116814514517 All time best: 0.0254116814514517 at pointer: 116
 -- New score C1fast: 0.02540540094053715 All time best: 0.02540540094053715 at pointer: 114
 -- New score C1fast: 0.025404058837401437 All time best: 0.025404058837401437 at pointer: 115
 -- New score C1fast: 0.025397604711272122 All time best: 0.025397604711272122 at pointer: 117
 -- New score C1fast: 0.025394978824260412 All time best: 0.025394978824260412 at pointer: 115
 -- New score C1fast: 0.025387946170057518 All time best: 0.025387946170057518 at pointer: 118
 -- New score C1fast: 0.025385758043681674 All time best: 0.025385758043681674 at pointer: 114
 -- New score C1fast: 0.025379259781246714 All time best: 0.025379259781246714 at pointer: 115
 -- New score C1fast: 0.02535996765479503 All time best: 0.02535996765479503 at pointer: 119
 -- New score C1fast: 0.025232290490775973 All time best: 0.025232290490775973 at pointer: 121
 -- New score C1fast: 0.02438487337065145 All time best: 0.02438487337065145 at pointer: 122
 -- New score C1fast: 0.024377342360446783 All time best: 0.024377342360446783 at pointer: 120
 -- New score C1fast: 0.024376135189461294 All time best: 0.024376135189461294 at pointer: 123
 -- New score C1fast: 0.024273873457139883 All time best: 0.024273873457139883 at pointer: 124
 -- New score C1fast: 0.02361605050008482 All time best: 0.02361605050008482 at pointer: 125
 -- New score C1fast: 0.02359155633367767 All time best: 0.02359155633367767 at pointer: 122
 -- New score C1fast: 0.023529540056327555 All time best: 0.023529540056327555 at pointer: 126
 -- New score C1fast: 0.023526350865884504 All time best: 0.023526350865884504 at pointer: 124
 -- New score C1fast: 0.02348844196792628 All time best: 0.02348844196792628 at pointer: 127
 -- New score C1fast: 0.023486768848366035 All time best: 0.023486768848366035 at pointer: 124
 -- New score C1fast: 0.023482378901028434 All time best: 0.023482378901028434 at pointer: 128
 -- New score C1fast: 0.023462710672436417 All time best: 0.023462710672436417 at pointer: 126
 -- New score C1fast: 0.02338259270046668 All time best: 0.02338259270046668 at pointer: 129
 -- New score C1fast: 0.023366301360807498 All time best: 0.023366301360807498 at pointer: 130
 -- New score C1fast: 0.023354736821049344 All time best: 0.023354736821049344 at pointer: 131
 -- New score C1fast: 0.02331487432278291 All time best: 0.02331487432278291 at pointer: 132
 -- New score C1fast: 0.0231784108955273 All time best: 0.0231784108955273 at pointer: 134
 -- New score C1fast: 0.02310695063124357 All time best: 0.02310695063124357 at pointer: 136
 -- New score C1fast: 0.02301003272871303 All time best: 0.02301003272871303 at pointer: 137
 -- New score C1fast: 0.022967601719124202 All time best: 0.022967601719124202 at pointer: 138
 -- New score C1fast: 0.022887720436171582 All time best: 0.022887720436171582 at pointer: 140
 -- New score C1fast: 0.02284671173828174 All time best: 0.02284671173828174 at pointer: 141
 -- New score C1fast: 0.022843945375872768 All time best: 0.022843945375872768 at pointer: 140
 -- New score C1fast: 0.02283567382946067 All time best: 0.02283567382946067 at pointer: 142
 -- New score C1fast: 0.022831767860400667 All time best: 0.022831767860400667 at pointer: 140
 -- New score C1fast: 0.02282781604803179 All time best: 0.02282781604803179 at pointer: 141
 -- New score C1fast: 0.022826005560330542 All time best: 0.022826005560330542 at pointer: 142
 -- New score C1fast: 0.022818655175235396 All time best: 0.022818655175235396 at pointer: 143
 -- New score C1fast: 0.02278151167571965 All time best: 0.02278151167571965 at pointer: 144
 -- New score C1fast: 0.022779431528726128 All time best: 0.022779431528726128 at pointer: 143
 -- New score C1fast: 0.02276863765601576 All time best: 0.02276863765601576 at pointer: 142
 -- New score C1fast: 0.02275893100777406 All time best: 0.02275893100777406 at pointer: 145
 -- New score C1fast: 0.022744313580015656 All time best: 0.022744313580015656 at pointer: 146
 -- New score C1fast: 0.022744030598729897 All time best: 0.022744030598729897 at pointer: 144
 -- New score C1fast: 0.02267480731623702 All time best: 0.02267480731623702 at pointer: 147
 -- New score C1fast: 0.022671300248104796 All time best: 0.022671300248104796 at pointer: 144
 -- New score C1fast: 0.02266684681799777 All time best: 0.02266684681799777 at pointer: 145
 -- New score C1fast: 0.022665453813486374 All time best: 0.022665453813486374 at pointer: 146
 -- New score C1fast: 0.022663165082991363 All time best: 0.022663165082991363 at pointer: 144
 -- New score C1fast: 0.022600536166716187 All time best: 0.022600536166716187 at pointer: 148
 -- New score C1fast: 0.02254130016640838 All time best: 0.02254130016640838 at pointer: 149
 -- New score C1fast: 0.022540378585836206 All time best: 0.022540378585836206 at pointer: 145
 -- New score C1fast: 0.022538484378437952 All time best: 0.022538484378437952 at pointer: 144
 -- New score C1fast: 0.022537890769368935 All time best: 0.022537890769368935 at pointer: 145
 -- New score C1fast: 0.02250528062041853 All time best: 0.02250528062041853 at pointer: 150
 -- New score C1fast: 0.022482635949145395 All time best: 0.022482635949145395 at pointer: 152
 -- New score C1fast: 0.022441711594554267 All time best: 0.022441711594554267 at pointer: 153
 -- New score C1fast: 0.02240733063422998 All time best: 0.02240733063422998 at pointer: 152
 -- New score C1fast: 0.022370655375424604 All time best: 0.022370655375424604 at pointer: 154
 -- New score C1fast: 0.022170477023454205 All time best: 0.022170477023454205 at pointer: 155
 -- New score C1fast: 0.022170364284286134 All time best: 0.022170364284286134 at pointer: 153
 -- New score C1fast: 0.022000733753137814 All time best: 0.022000733753137814 at pointer: 156
 -- New score C1fast: 0.021998181612632107 All time best: 0.021998181612632107 at pointer: 153
 -- New score C1fast: 0.02199116438222679 All time best: 0.02199116438222679 at pointer: 154
 -- New score C1fast: 0.021989730572707575 All time best: 0.021989730572707575 at pointer: 152
 -- New score C1fast: 0.021973593817921754 All time best: 0.021973593817921754 at pointer: 156
 -- New score C1fast: 0.02192908553105535 All time best: 0.02192908553105535 at pointer: 157
 -- New score C1fast: 0.021926528887406142 All time best: 0.021926528887406142 at pointer: 155
 -- New score C1fast: 0.021925561971664155 All time best: 0.021925561971664155 at pointer: 152
 -- New score C1fast: 0.0217568400620543 All time best: 0.0217568400620543 at pointer: 158
 -- New score C1fast: 0.021753062827787134 All time best: 0.021753062827787134 at pointer: 155
 -- New score C1fast: 0.02175151262016155 All time best: 0.02175151262016155 at pointer: 152
 -- New score C1fast: 0.021748563398282534 All time best: 0.021748563398282534 at pointer: 157
 -- New score C1fast: 0.02172351718320873 All time best: 0.02172351718320873 at pointer: 159
 -- New score C1fast: 0.02164779163023394 All time best: 0.02164779163023394 at pointer: 160
 -- New score C1fast: 0.021647404490355147 All time best: 0.021647404490355147 at pointer: 161
 -- New score C1fast: 0.02164596770306028 All time best: 0.02164596770306028 at pointer: 159
 -- New score C1fast: 0.021642316383215465 All time best: 0.021642316383215465 at pointer: 158
 -- New score C1fast: 0.021636910189810857 All time best: 0.021636910189810857 at pointer: 157
 -- New score C1fast: 0.021636174056840377 All time best: 0.021636174056840377 at pointer: 160
 -- New score C1fast: 0.021608248962198606 All time best: 0.021608248962198606 at pointer: 162
 -- New score C1fast: 0.021518486988218267 All time best: 0.021518486988218267 at pointer: 166
 -- New score C1fast: 0.021429808891534306 All time best: 0.021429808891534306 at pointer: 167
 -- New score C1fast: 0.021420449507203884 All time best: 0.021420449507203884 at pointer: 165
 -- New score C1fast: 0.021419098081764665 All time best: 0.021419098081764665 at pointer: 162
 -- New score C1fast: 0.021417545774598156 All time best: 0.021417545774598156 at pointer: 166
 -- New score C1fast: 0.021410817367332753 All time best: 0.021410817367332753 at pointer: 168
 -- New score C1fast: 0.02138496323265203 All time best: 0.02138496323265203 at pointer: 169
 -- New score C1fast: 0.021378796841870763 All time best: 0.021378796841870763 at pointer: 172
 -- New score C1fast: 0.02137527647203286 All time best: 0.02137527647203286 at pointer: 171
 -- New score C1fast: 0.021374111163417104 All time best: 0.021374111163417104 at pointer: 168
 -- New score C1fast: 0.02129409400815224 All time best: 0.02129409400815224 at pointer: 173
 -- New score C1fast: 0.021281358395900004 All time best: 0.021281358395900004 at pointer: 174
 -- New score C1fast: 0.02122101401461271 All time best: 0.02122101401461271 at pointer: 175
 -- New score C1fast: 0.021150772601675624 All time best: 0.021150772601675624 at pointer: 177
 -- New score C1fast: 0.02114464163308987 All time best: 0.02114464163308987 at pointer: 178
 -- New score C1fast: 0.021128926778575603 All time best: 0.021128926778575603 at pointer: 180
 -- New score C1fast: 0.021128221977554387 All time best: 0.021128221977554387 at pointer: 177
 -- New score C1fast: 0.021128119705202477 All time best: 0.021128119705202477 at pointer: 178
 -- New score C1fast: 0.02112200349960006 All time best: 0.02112200349960006 at pointer: 182
 -- New score C1fast: 0.02111392287350955 All time best: 0.02111392287350955 at pointer: 183
 -- New score C1fast: 0.021041426471887274 All time best: 0.021041426471887274 at pointer: 184
 -- New score C1fast: 0.021032655307424365 All time best: 0.021032655307424365 at pointer: 185
 -- New score C1fast: 0.02102336096261137 All time best: 0.02102336096261137 at pointer: 184
 -- New score C1fast: 0.021020366985650248 All time best: 0.021020366985650248 at pointer: 186
 -- New score C1fast: 0.020976017910729616 All time best: 0.020976017910729616 at pointer: 187
 -- New score C1fast: 0.020974643312825433 All time best: 0.020974643312825433 at pointer: 186
 -- New score C1fast: 0.020952407125954097 All time best: 0.020952407125954097 at pointer: 188
 -- New score C1fast: 0.020793044496178296 All time best: 0.020793044496178296 at pointer: 189
 -- New score C1fast: 0.020786632366707553 All time best: 0.020786632366707553 at pointer: 192
 -- New score C1fast: 0.020769555541050873 All time best: 0.020769555541050873 at pointer: 193
 -- New score C1fast: 0.02072240690507068 All time best: 0.02072240690507068 at pointer: 194
 -- New score C1fast: 0.020720094003414055 All time best: 0.020720094003414055 at pointer: 196
 -- New score C1fast: 0.020717377193253384 All time best: 0.020717377193253384 at pointer: 197
 -- New score C1fast: 0.02071604205944733 All time best: 0.02071604205944733 at pointer: 196
 -- New score C1fast: 0.02070283347395481 All time best: 0.02070283347395481 at pointer: 198
 -- New score C1fast: 0.02069354959154167 All time best: 0.02069354959154167 at pointer: 199
 -- New score C1fast: 0.020689732208685113 All time best: 0.020689732208685113 at pointer: 200
 -- New score C1fast: 0.020680224155926956 All time best: 0.020680224155926956 at pointer: 201
 -- New score C1fast: 0.020623525944148506 All time best: 0.020623525944148506 at pointer: 203
 -- New score C1fast: 0.02054668505478782 All time best: 0.02054668505478782 at pointer: 204
 -- New score C1fast: 0.02052767044455751 All time best: 0.02052767044455751 at pointer: 205
 -- New score C1fast: 0.020462480683756022 All time best: 0.020462480683756022 at pointer: 206
 -- New score C1fast: 0.020459473600784397 All time best: 0.020459473600784397 at pointer: 205
 -- New score C1fast: 0.020459304576187158 All time best: 0.020459304576187158 at pointer: 0
 -- New score C1fast: 0.0204559624219204 All time best: 0.0204559624219204 at pointer: 1
 -- New score C1fast: 0.020450398595356495 All time best: 0.020450398595356495 at pointer: 0
 -- New score C1fast: 0.02043495628048481 All time best: 0.02043495628048481 at pointer: 4
 -- New score C1fast: 0.020425391139640432 All time best: 0.020425391139640432 at pointer: 6
 -- New score C1fast: 0.02040389212490653 All time best: 0.02040389212490653 at pointer: 11
 -- New score C1fast: 0.020401113651565776 All time best: 0.020401113651565776 at pointer: 24
 -- New score C1fast: 0.020342175919658097 All time best: 0.020342175919658097 at pointer: 27
 -- New score C1fast: 0.020336041713250163 All time best: 0.020336041713250163 at pointer: 30
 -- New score C1fast: 0.020319916852081024 All time best: 0.020319916852081024 at pointer: 28
 -- New score C1fast: 0.02027609787964331 All time best: 0.02027609787964331 at pointer: 32
 -- New score C1fast: 0.020255225670934927 All time best: 0.020255225670934927 at pointer: 31
 -- New score C1fast: 0.020240128259065817 All time best: 0.020240128259065817 at pointer: 33
 -- New score C1fast: 0.020238074074291193 All time best: 0.020238074074291193 at pointer: 41
 -- New score C1fast: 0.020208810594529825 All time best: 0.020208810594529825 at pointer: 45
 -- New score C1fast: 0.020180920335876075 All time best: 0.020180920335876075 at pointer: 51
 -- New score C1fast: 0.02015997522407309 All time best: 0.02015997522407309 at pointer: 52
 -- New score C1fast: 0.020159509650181994 All time best: 0.020159509650181994 at pointer: 51
 -- New score C1fast: 0.020157781281706935 All time best: 0.020157781281706935 at pointer: 53
 -- New score C1fast: 0.020155506707421715 All time best: 0.020155506707421715 at pointer: 54
 -- New score C1fast: 0.020138732131057414 All time best: 0.020138732131057414 at pointer: 55
 -- New score C1fast: 0.020108649549827246 All time best: 0.020108649549827246 at pointer: 59
 -- New score C1fast: 0.02010224767918221 All time best: 0.02010224767918221 at pointer: 66
 -- New score C1fast: 0.02009376094449887 All time best: 0.02009376094449887 at pointer: 67
 -- New score C1fast: 0.020074739995889587 All time best: 0.020074739995889587 at pointer: 69
 -- New score C1fast: 0.020074204614472405 All time best: 0.020074204614472405 at pointer: 66
 -- New score C1fast: 0.020074022902377257 All time best: 0.020074022902377257 at pointer: 63
 -- New score C1fast: 0.020060800322601498 All time best: 0.020060800322601498 at pointer: 72
 -- New score C1fast: 0.02000060127138257 All time best: 0.02000060127138257 at pointer: 79
 -- New score C1fast: 0.019998133329854784 All time best: 0.019998133329854784 at pointer: 85
 -- New score C1fast: 0.01997211921242107 All time best: 0.01997211921242107 at pointer: 88
 -- New score C1fast: 0.019955109253104876 All time best: 0.019955109253104876 at pointer: 108
 -- New score C1fast: 0.019898885358510338 All time best: 0.019898885358510338 at pointer: 112
 -- New score C1fast: 0.0198848649268675 All time best: 0.0198848649268675 at pointer: 113
 -- New score C1fast: 0.019881469247520194 All time best: 0.019881469247520194 at pointer: 115
 -- New score C1fast: 0.019868260985270093 All time best: 0.019868260985270093 at pointer: 114
 -- New score C1fast: 0.019849055533673512 All time best: 0.019849055533673512 at pointer: 117
 -- New score C1fast: 0.01983761546422147 All time best: 0.01983761546422147 at pointer: 122
 -- New score C1fast: 0.01982386394176656 All time best: 0.01982386394176656 at pointer: 124
 -- New score C1fast: 0.01981460990630949 All time best: 0.01981460990630949 at pointer: 139
 -- New score C1fast: 0.01981014468915078 All time best: 0.01981014468915078 at pointer: 151
 -- New score C1fast: 0.01980829921265564 All time best: 0.01980829921265564 at pointer: 157
 -- New score C1fast: 0.019807278584507353 All time best: 0.019807278584507353 at pointer: 158
 -- New score C1fast: 0.01980676911475019 All time best: 0.01980676911475019 at pointer: 160
 -- New score C1fast: 0.019797838000434515 All time best: 0.019797838000434515 at pointer: 158
 -- New score C1fast: 0.019795918879352024 All time best: 0.019795918879352024 at pointer: 161
 -- New score C1fast: 0.019789043618284125 All time best: 0.019789043618284125 at pointer: 162
 -- New score C1fast: 0.01978525548092043 All time best: 0.01978525548092043 at pointer: 166
 -- New score C1fast: 0.01976184646038654 All time best: 0.01976184646038654 at pointer: 172
 -- New score C1fast: 0.019761125486915568 All time best: 0.019761125486915568 at pointer: 174
 -- New score C1fast: 0.01975744237061099 All time best: 0.01975744237061099 at pointer: 175
 -- New score C1fast: 0.019754061784872556 All time best: 0.019754061784872556 at pointer: 176
 -- New score C1fast: 0.019745319366256252 All time best: 0.019745319366256252 at pointer: 177
 -- New score C1fast: 0.019743541079102294 All time best: 0.019743541079102294 at pointer: 178
 -- New score C1fast: 0.01973869677128701 All time best: 0.01973869677128701 at pointer: 181
 -- New score C1fast: 0.019736972015593254 All time best: 0.019736972015593254 at pointer: 178
 -- New score C1fast: 0.019733805839889616 All time best: 0.019733805839889616 at pointer: 182
 -- New score C1fast: 0.019731884179253742 All time best: 0.019731884179253742 at pointer: 187
 -- New score C1fast: 0.019731343726512824 All time best: 0.019731343726512824 at pointer: 186
 -- New score C1fast: 0.019722253795013585 All time best: 0.019722253795013585 at pointer: 188
 -- New score C1fast: 0.019704342522384156 All time best: 0.019704342522384156 at pointer: 193
 -- New score C1fast: 0.019700822421786557 All time best: 0.019700822421786557 at pointer: 198
 -- New score C1fast: 0.019697525492029636 All time best: 0.019697525492029636 at pointer: 200
 -- New score C1fast: 0.019693037518051765 All time best: 0.019693037518051765 at pointer: 205
 -- New score C1fast: 0.019647719041721117 All time best: 0.019647719041721117 at pointer: 206
 -- New score C1fast: 0.01964050942028087 All time best: 0.01964050942028087 at pointer: 207
 -- New score C1fast: 0.01963524304234046 All time best: 0.01963524304234046 at pointer: 74
 -- New score C1fast: 0.01963142983674765 All time best: 0.01963142983674765 at pointer: 104
 -- New score C1fast: 0.019629238662903177 All time best: 0.019629238662903177 at pointer: 118
 -- New score C1fast: 0.019626498511539803 All time best: 0.019626498511539803 at pointer: 121
 -- New score C1fast: 0.019625662743888144 All time best: 0.019625662743888144 at pointer: 139
 -- New score C1fast: 0.01962466092061073 All time best: 0.01962466092061073 at pointer: 175
 -- New score C1fast: 0.019618513178289016 All time best: 0.019618513178289016 at pointer: 190
 -- New score CSfast: 0.019617550948427164 All time best: 0.019617550948427164
 -- New score CSfast: 0.019612618102607275 All time best: 0.019612618102607275
 -- New score CSfast: 0.019604081502243544 All time best: 0.019604081502243544
 -- New score CSfast: 0.019601355987833254 All time best: 0.019601355987833254
 -- New score CSfast: 0.019589507575349753 All time best: 0.019589507575349753
 -- New score CSfast: 0.01958806652848529 All time best: 0.01958806652848529
 -- New score CSfast: 0.019587591513088552 All time best: 0.019587591513088552
 -- New score CSfast: 0.01957606091872478 All time best: 0.01957606091872478
 -- New score CSfast: 0.019559078830224026 All time best: 0.019559078830224026
 -- New score CSfast: 0.019551727093948115 All time best: 0.019551727093948115
 -- New score CSfast: 0.01954671329342855 All time best: 0.01954671329342855
 -- New score CSfast: 0.019542766709143143 All time best: 0.019542766709143143
 -- New score CSfast: 0.019539844112216105 All time best: 0.019539844112216105
 -- New score CSfast: 0.01953980752869036 All time best: 0.01953980752869036
 -- New score CSfast: 0.01953412409797945 All time best: 0.01953412409797945
 -- New score CSfast: 0.019533749520505916 All time best: 0.019533749520505916
 -- New score CSfast: 0.019533711492708602 All time best: 0.019533711492708602
 -- New score CSfast: 0.019533283229886678 All time best: 0.019533283229886678
 -- New score CSfast: 0.01953294955296423 All time best: 0.01953294955296423
 -- New score CSfast: 0.019531540902251385 All time best: 0.019531540902251385
 -- New score CSfast: 0.01953013827511794 All time best: 0.01953013827511794
 -- New score CSfast: 0.0195151343494403 All time best: 0.0195151343494403
 -- New score CSfast: 0.019509902204606848 All time best: 0.019509902204606848
 -- New score CSfast: 0.019500511505289968 All time best: 0.019500511505289968
 -- New score CSfast: 0.01949886784183474 All time best: 0.01949886784183474
 -- New score CSfast: 0.019492402058276133 All time best: 0.019492402058276133
 -- New score CSfast: 0.019487698786762896 All time best: 0.019487698786762896
 -- New score CSfast: 0.01948643348613856 All time best: 0.01948643348613856
 -- New score CSfast: 0.019477995804918637 All time best: 0.019477995804918637
 -- New score CSfast: 0.01947475619855451 All time best: 0.01947475619855451
 -- New score CSfast: 0.019473430854444602 All time best: 0.019473430854444602
 -- New score CSfast: 0.019473426833855667 All time best: 0.019473426833855667
 -- New score CSfast: 0.019467800146715987 All time best: 0.019467800146715987
 -- New score CSfast: 0.01946779457708438 All time best: 0.01946779457708438
 -- New score CSfast: 0.01946768258336476 All time best: 0.01946768258336476
 -- New score CSfast: 0.01945756468229047 All time best: 0.01945756468229047
SW: all time best: 0.01945756468229047 current score: 0.01945756468229047
 -- New score C1fast: 0.01945705739305828 All time best: 0.01945705739305828 at pointer: 185
SW: all time best: 0.01945705739305828 current score: 0.01945705739305828
SW: all time best: 0.01945705739305828 current score: 0.01945705739305828
 -- New score Perturbation: 0.025110519238628348 All time best: 0.01945705739305828
 -- New score C1fast: 0.025097326200865865 All time best: 0.01945705739305828 at pointer: 0
 -- New score C1fast: 0.02509231044886288 All time best: 0.01945705739305828 at pointer: 1
 -- New score C1fast: 0.02494992291341021 All time best: 0.01945705739305828 at pointer: 5
 -- New score C1fast: 0.024624733608399965 All time best: 0.01945705739305828 at pointer: 6
 -- New score C1fast: 0.02462418349504601 All time best: 0.01945705739305828 at pointer: 4
 -- New score C1fast: 0.024622964786793114 All time best: 0.01945705739305828 at pointer: 1
 -- New score C1fast: 0.021268795847855487 All time best: 0.01945705739305828 at pointer: 7
 -- New score C1fast: 0.021264094137318997 All time best: 0.01945705739305828 at pointer: 5
 -- New score C1fast: 0.02122048584587434 All time best: 0.01945705739305828 at pointer: 23
 -- New score C1fast: 0.021208602273833622 All time best: 0.01945705739305828 at pointer: 24
 -- New score C1fast: 0.021200029099164408 All time best: 0.01945705739305828 at pointer: 25
 -- New score C1fast: 0.02119929240223126 All time best: 0.01945705739305828 at pointer: 21
 -- New score C1fast: 0.02108273378564269 All time best: 0.01945705739305828 at pointer: 26
 -- New score C1fast: 0.021079295650128196 All time best: 0.01945705739305828 at pointer: 27
 -- New score C1fast: 0.021049623128385018 All time best: 0.01945705739305828 at pointer: 28
 -- New score C1fast: 0.021041875901068596 All time best: 0.01945705739305828 at pointer: 30
 -- New score C1fast: 0.021014801103843142 All time best: 0.01945705739305828 at pointer: 31
 -- New score C1fast: 0.020947120373740552 All time best: 0.01945705739305828 at pointer: 36
 -- New score C1fast: 0.020940216542089368 All time best: 0.01945705739305828 at pointer: 35
 -- New score C1fast: 0.020937506473602256 All time best: 0.01945705739305828 at pointer: 37
 -- New score C1fast: 0.020929821225752595 All time best: 0.01945705739305828 at pointer: 39
 -- New score C1fast: 0.02091662233729193 All time best: 0.01945705739305828 at pointer: 40
 -- New score C1fast: 0.020915010989307016 All time best: 0.01945705739305828 at pointer: 45
 -- New score C1fast: 0.020901773393480927 All time best: 0.01945705739305828 at pointer: 55
 -- New score C1fast: 0.020900379469353865 All time best: 0.01945705739305828 at pointer: 63
 -- New score C1fast: 0.02089782340502229 All time best: 0.01945705739305828 at pointer: 65
 -- New score C1fast: 0.020885452453707445 All time best: 0.01945705739305828 at pointer: 66
 -- New score C1fast: 0.020883206168389474 All time best: 0.01945705739305828 at pointer: 67
 -- New score C1fast: 0.020879851747368183 All time best: 0.01945705739305828 at pointer: 66
 -- New score C1fast: 0.020870319055823948 All time best: 0.01945705739305828 at pointer: 70
 -- New score C1fast: 0.020853492935347284 All time best: 0.01945705739305828 at pointer: 83
 -- New score C1fast: 0.020845322054469657 All time best: 0.01945705739305828 at pointer: 86
 -- New score C1fast: 0.02082182685456979 All time best: 0.01945705739305828 at pointer: 91
 -- New score C1fast: 0.020618399910074307 All time best: 0.01945705739305828 at pointer: 93
 -- New score C1fast: 0.02060093918318752 All time best: 0.01945705739305828 at pointer: 91
 -- New score C1fast: 0.020588547203619523 All time best: 0.01945705739305828 at pointer: 96
 -- New score C1fast: 0.020548023337593868 All time best: 0.01945705739305828 at pointer: 97
 -- New score C1fast: 0.02052779541756443 All time best: 0.01945705739305828 at pointer: 101
 -- New score C1fast: 0.02048676975938406 All time best: 0.01945705739305828 at pointer: 104
 -- New score C1fast: 0.02043466391307914 All time best: 0.01945705739305828 at pointer: 106
 -- New score C1fast: 0.020426317751959952 All time best: 0.01945705739305828 at pointer: 114
 -- New score C1fast: 0.02041927889793346 All time best: 0.01945705739305828 at pointer: 118
 -- New score C1fast: 0.02021875818359942 All time best: 0.01945705739305828 at pointer: 120
 -- New score C1fast: 0.02021704452163926 All time best: 0.01945705739305828 at pointer: 121
 -- New score C1fast: 0.020213040485775446 All time best: 0.01945705739305828 at pointer: 124
 -- New score C1fast: 0.02021111748421238 All time best: 0.01945705739305828 at pointer: 131
 -- New score C1fast: 0.02016226685464742 All time best: 0.01945705739305828 at pointer: 134
 -- New score C1fast: 0.020033329819218158 All time best: 0.01945705739305828 at pointer: 137
 -- New score C1fast: 0.0199732983994253 All time best: 0.01945705739305828 at pointer: 144
 -- New score C1fast: 0.019934997125620635 All time best: 0.01945705739305828 at pointer: 146
 -- New score C1fast: 0.019931998602943125 All time best: 0.01945705739305828 at pointer: 150
 -- New score C1fast: 0.019924825036006205 All time best: 0.01945705739305828 at pointer: 153
 -- New score C1fast: 0.019924092063877227 All time best: 0.01945705739305828 at pointer: 157
 -- New score C1fast: 0.019921382923008334 All time best: 0.01945705739305828 at pointer: 158
 -- New score C1fast: 0.019916779725512822 All time best: 0.01945705739305828 at pointer: 172
 -- New score C1fast: 0.019862042507628082 All time best: 0.01945705739305828 at pointer: 173
 -- New score C1fast: 0.01986203486343622 All time best: 0.01945705739305828 at pointer: 174
 -- New score C1fast: 0.019809960915959345 All time best: 0.01945705739305828 at pointer: 175
 -- New score C1fast: 0.01980142120766659 All time best: 0.01945705739305828 at pointer: 178
 -- New score C1fast: 0.019798468691730433 All time best: 0.01945705739305828 at pointer: 181
 -- New score C1fast: 0.019795992926683874 All time best: 0.01945705739305828 at pointer: 178
 -- New score C1fast: 0.019782085874956654 All time best: 0.01945705739305828 at pointer: 183
 -- New score C1fast: 0.019743297156880373 All time best: 0.01945705739305828 at pointer: 186
 -- New score C1fast: 0.01974264597394728 All time best: 0.01945705739305828 at pointer: 185
 -- New score C1fast: 0.019740870175936842 All time best: 0.01945705739305828 at pointer: 187
 -- New score C1fast: 0.019736339733354466 All time best: 0.01945705739305828 at pointer: 190
 -- New score C1fast: 0.019669659300961765 All time best: 0.01945705739305828 at pointer: 192
 -- New score C1fast: 0.019665378128107883 All time best: 0.01945705739305828 at pointer: 205
 -- New score C1fast: 0.019664088309069527 All time best: 0.01945705739305828 at pointer: 0
 -- New score C1fast: 0.0196465057251441 All time best: 0.01945705739305828 at pointer: 4
 -- New score C1fast: 0.019596071321666 All time best: 0.01945705739305828 at pointer: 5
 -- New score C1fast: 0.019595073803416584 All time best: 0.01945705739305828 at pointer: 11
 -- New score C1fast: 0.019586752452034045 All time best: 0.01945705739305828 at pointer: 22
 -- New score C1fast: 0.01957212641460426 All time best: 0.01945705739305828 at pointer: 24
 -- New score C1fast: 0.019547852500444565 All time best: 0.01945705739305828 at pointer: 21
 -- New score C1fast: 0.01953065796334221 All time best: 0.01945705739305828 at pointer: 27
 -- New score C1fast: 0.01952608399462788 All time best: 0.01945705739305828 at pointer: 40
 -- New score C1fast: 0.019524877841746932 All time best: 0.01945705739305828 at pointer: 43
 -- New score C1fast: 0.019493885243077845 All time best: 0.01945705739305828 at pointer: 45
 -- New score C1fast: 0.01949206579007507 All time best: 0.01945705739305828 at pointer: 51
 -- New score C1fast: 0.01947808773295357 All time best: 0.01945705739305828 at pointer: 52
 -- New score C1fast: 0.019476642509726274 All time best: 0.01945705739305828 at pointer: 75
 -- New score C1fast: 0.019475196901154648 All time best: 0.01945705739305828 at pointer: 86
 -- New score C1fast: 0.019473985103618065 All time best: 0.01945705739305828 at pointer: 97
 -- New score C1fast: 0.019459282201022807 All time best: 0.01945705739305828 at pointer: 114
 -- New score C1fast: 0.019458432996201182 All time best: 0.01945705739305828 at pointer: 115
 -- New score C1fast: 0.019448630015284806 All time best: 0.019448630015284806 at pointer: 117
 -- New score C1fast: 0.019445377736664174 All time best: 0.019445377736664174 at pointer: 131
 -- New score C1fast: 0.019434054230961006 All time best: 0.019434054230961006 at pointer: 153
 -- New score C1fast: 0.0194313362715316 All time best: 0.0194313362715316 at pointer: 158
 -- New score C1fast: 0.01942565638522313 All time best: 0.01942565638522313 at pointer: 172
 -- New score C1fast: 0.019425571099342037 All time best: 0.019425571099342037 at pointer: 174
 -- New score C1fast: 0.019424816350142964 All time best: 0.019424816350142964 at pointer: 184
 -- New score C1fast: 0.01941700966958735 All time best: 0.01941700966958735 at pointer: 185
 -- New score C1fast: 0.019410989739975983 All time best: 0.019410989739975983 at pointer: 187
 -- New score C1fast: 0.01940643204640529 All time best: 0.01940643204640529 at pointer: 198
 -- New score C1fast: 0.019405228586967888 All time best: 0.019405228586967888 at pointer: 200
 -- New score C1fast: 0.019403281170089163 All time best: 0.019403281170089163 at pointer: 11
 -- New score C1fast: 0.019402943362267992 All time best: 0.019402943362267992 at pointer: 51
 -- New score C1fast: 0.019398928903332186 All time best: 0.019398928903332186 at pointer: 85
 -- New score C1fast: 0.01939716070352888 All time best: 0.01939716070352888 at pointer: 118
 -- New score C1fast: 0.019394320750725582 All time best: 0.019394320750725582 at pointer: 158
 -- New score C1fast: 0.019394138119210973 All time best: 0.019394138119210973 at pointer: 157
 -- New score C1fast: 0.019393928162932342 All time best: 0.019393928162932342 at pointer: 174
 -- New score C1fast: 0.019393880751061174 All time best: 0.019393880751061174 at pointer: 175
 -- New score C1fast: 0.01939202720853922 All time best: 0.01939202720853922 at pointer: 193
 -- New score C1fast: 0.019391024399272667 All time best: 0.019391024399272667 at pointer: 106
SW: all time best: 0.019391024399272667 current score: 0.019391024399272667
SW: all time best: 0.019391024399272667 current score: 0.019391024399272667
 -- New score Perturbation: 0.022865963504482903 All time best: 0.019391024399272667
 -- New score C1fast: 0.022614371367406367 All time best: 0.019391024399272667 at pointer: 5
 -- New score C1fast: 0.021433604728683713 All time best: 0.019391024399272667 at pointer: 6
 -- New score C1fast: 0.021050217783631406 All time best: 0.019391024399272667 at pointer: 8
 -- New score C1fast: 0.021041799187466036 All time best: 0.019391024399272667 at pointer: 6
 -- New score C1fast: 0.021009079970330642 All time best: 0.019391024399272667 at pointer: 5
 -- New score C1fast: 0.02098193968463175 All time best: 0.019391024399272667 at pointer: 11
 -- New score C1fast: 0.020665467856437976 All time best: 0.019391024399272667 at pointer: 21
 -- New score C1fast: 0.020610894752840992 All time best: 0.019391024399272667 at pointer: 23
 -- New score C1fast: 0.020532734155841642 All time best: 0.019391024399272667 at pointer: 35
 -- New score C1fast: 0.020522982466598574 All time best: 0.019391024399272667 at pointer: 36
 -- New score C1fast: 0.020480426372980903 All time best: 0.019391024399272667 at pointer: 37
 -- New score C1fast: 0.020474977411952353 All time best: 0.019391024399272667 at pointer: 36
 -- New score C1fast: 0.020434143521566656 All time best: 0.019391024399272667 at pointer: 39
 -- New score C1fast: 0.020432497691820307 All time best: 0.019391024399272667 at pointer: 40
 -- New score C1fast: 0.020431544499343438 All time best: 0.019391024399272667 at pointer: 50
 -- New score C1fast: 0.0202573824976859 All time best: 0.019391024399272667 at pointer: 52
 -- New score C1fast: 0.020248475041810425 All time best: 0.019391024399272667 at pointer: 55
 -- New score C1fast: 0.02009494143799931 All time best: 0.019391024399272667 at pointer: 56
 -- New score C1fast: 0.02008672982565966 All time best: 0.019391024399272667 at pointer: 55
 -- New score C1fast: 0.020048816351060737 All time best: 0.019391024399272667 at pointer: 60
 -- New score C1fast: 0.020042075659871463 All time best: 0.019391024399272667 at pointer: 59
 -- New score C1fast: 0.020023283954848516 All time best: 0.019391024399272667 at pointer: 66
 -- New score C1fast: 0.019992973562729513 All time best: 0.019391024399272667 at pointer: 67
 -- New score C1fast: 0.019953175237501973 All time best: 0.019391024399272667 at pointer: 76
 -- New score C1fast: 0.019952110259052455 All time best: 0.019391024399272667 at pointer: 86
 -- New score C1fast: 0.01990192525716497 All time best: 0.019391024399272667 at pointer: 87
 -- New score C1fast: 0.019900413022121005 All time best: 0.019391024399272667 at pointer: 86
 -- New score C1fast: 0.019802491668265268 All time best: 0.019391024399272667 at pointer: 101
 -- New score C1fast: 0.01973125471727305 All time best: 0.019391024399272667 at pointer: 110
 -- New score C1fast: 0.019618236641657943 All time best: 0.019391024399272667 at pointer: 113
 -- New score C1fast: 0.019618088114142982 All time best: 0.019391024399272667 at pointer: 121
 -- New score C1fast: 0.01961327052794155 All time best: 0.019391024399272667 at pointer: 135
 -- New score C1fast: 0.019612603882361506 All time best: 0.019391024399272667 at pointer: 134
 -- New score C1fast: 0.019570678772061156 All time best: 0.019391024399272667 at pointer: 150
 -- New score C1fast: 0.019570492436535032 All time best: 0.019391024399272667 at pointer: 175
 -- New score C1fast: 0.019556294602191507 All time best: 0.019391024399272667 at pointer: 188
 -- New score C1fast: 0.01953761597329631 All time best: 0.019391024399272667 at pointer: 191
 -- New score C1fast: 0.019518118693918417 All time best: 0.019391024399272667 at pointer: 192
 -- New score C1fast: 0.019514432804036426 All time best: 0.019391024399272667 at pointer: 200
 -- New score C1fast: 0.01947708340885903 All time best: 0.019391024399272667 at pointer: 201
 -- New score C1fast: 0.01947008169336732 All time best: 0.019391024399272667 at pointer: 40
 -- New score C1fast: 0.01946699537531766 All time best: 0.019391024399272667 at pointer: 43
 -- New score C1fast: 0.01946379207717837 All time best: 0.019391024399272667 at pointer: 49
 -- New score C1fast: 0.01944507980486232 All time best: 0.019391024399272667 at pointer: 66
 -- New score C1fast: 0.019443726111694707 All time best: 0.019391024399272667 at pointer: 85
 -- New score CSfast: 0.019442921972603375 All time best: 0.019391024399272667
 -- New score CSfast: 0.019439301651907666 All time best: 0.019391024399272667
 -- New score CSfast: 0.019439019356197344 All time best: 0.019391024399272667
 -- New score CSfast: 0.01943185949219745 All time best: 0.019391024399272667
 -- New score CSfast: 0.019428355663263376 All time best: 0.019391024399272667
 -- New score CSfast: 0.01942807222133725 All time best: 0.019391024399272667
 -- New score CSfast: 0.019427878576608878 All time best: 0.019391024399272667
 -- New score CSfast: 0.019425832032644117 All time best: 0.019391024399272667
 -- New score CSfast: 0.019422185536494236 All time best: 0.019391024399272667
 -- New score CSfast: 0.01942129748906187 All time best: 0.019391024399272667
 -- New score CSfast: 0.01942065558221855 All time best: 0.019391024399272667
 -- New score CSfast: 0.01942012220977242 All time best: 0.019391024399272667
SW: all time best: 0.01942012220977242 current score: 0.019391024399272667
SW: all time best: 0.01942012220977242 current score: 0.019391024399272667
 -- New score Perturbation: 0.022087343567592337 All time best: 0.019391024399272667
 -- New score C1fast: 0.022072802257726055 All time best: 0.019391024399272667 at pointer: 0
 -- New score C1fast: 0.022024985686429736 All time best: 0.019391024399272667 at pointer: 1
 -- New score C1fast: 0.021818812278449114 All time best: 0.019391024399272667 at pointer: 4
 -- New score C1fast: 0.02179655591551541 All time best: 0.019391024399272667 at pointer: 11
 -- New score C1fast: 0.021665039263351706 All time best: 0.019391024399272667 at pointer: 14
 -- New score C1fast: 0.02142866404534849 All time best: 0.019391024399272667 at pointer: 34
 -- New score C1fast: 0.021296967566968264 All time best: 0.019391024399272667 at pointer: 35
 -- New score C1fast: 0.021289125639797228 All time best: 0.019391024399272667 at pointer: 33
 -- New score C1fast: 0.021266798351338913 All time best: 0.019391024399272667 at pointer: 45
 -- New score C1fast: 0.02123837418341683 All time best: 0.019391024399272667 at pointer: 53
 -- New score C1fast: 0.021237041501330697 All time best: 0.019391024399272667 at pointer: 54
 -- New score C1fast: 0.021161239927153692 All time best: 0.019391024399272667 at pointer: 63
 -- New score C1fast: 0.021153726073141775 All time best: 0.019391024399272667 at pointer: 66
 -- New score C1fast: 0.021097679654506662 All time best: 0.019391024399272667 at pointer: 70
 -- New score C1fast: 0.02107235688751676 All time best: 0.019391024399272667 at pointer: 82
 -- New score C1fast: 0.021065330060719947 All time best: 0.019391024399272667 at pointer: 81
 -- New score C1fast: 0.02105906940769711 All time best: 0.019391024399272667 at pointer: 85
 -- New score C1fast: 0.02101168685168657 All time best: 0.019391024399272667 at pointer: 87
 -- New score C1fast: 0.020853204326631132 All time best: 0.019391024399272667 at pointer: 92
 -- New score C1fast: 0.02074507066581531 All time best: 0.019391024399272667 at pointer: 94
 -- New score C1fast: 0.02072501711268148 All time best: 0.019391024399272667 at pointer: 95
 -- New score C1fast: 0.02070081151048925 All time best: 0.019391024399272667 at pointer: 97
 -- New score C1fast: 0.020692880968823872 All time best: 0.019391024399272667 at pointer: 104
 -- New score C1fast: 0.02068410359537317 All time best: 0.019391024399272667 at pointer: 107
 -- New score C1fast: 0.020635845285591658 All time best: 0.019391024399272667 at pointer: 108
 -- New score C1fast: 0.020632606607798046 All time best: 0.019391024399272667 at pointer: 109
 -- New score C1fast: 0.020370079176847283 All time best: 0.019391024399272667 at pointer: 110
 -- New score C1fast: 0.0203520941012043 All time best: 0.019391024399272667 at pointer: 107
 -- New score C1fast: 0.02032589959589604 All time best: 0.019391024399272667 at pointer: 108
 -- New score C1fast: 0.020294339298991583 All time best: 0.019391024399272667 at pointer: 117
 -- New score C1fast: 0.020293192281221346 All time best: 0.019391024399272667 at pointer: 121
 -- New score C1fast: 0.020270468012443286 All time best: 0.019391024399272667 at pointer: 122
 -- New score C1fast: 0.020064195312391307 All time best: 0.019391024399272667 at pointer: 126
 -- New score C1fast: 0.020029941530160293 All time best: 0.019391024399272667 at pointer: 122
 -- New score C1fast: 0.01999835684870874 All time best: 0.019391024399272667 at pointer: 128
 -- New score C1fast: 0.01999439336242674 All time best: 0.019391024399272667 at pointer: 144
 -- New score C1fast: 0.019993090750760667 All time best: 0.019391024399272667 at pointer: 145
 -- New score C1fast: 0.019757694070189947 All time best: 0.019391024399272667 at pointer: 152
 -- New score C1fast: 0.01975741927075246 All time best: 0.019391024399272667 at pointer: 157
 -- New score C1fast: 0.019756909064210217 All time best: 0.019391024399272667 at pointer: 159
 -- New score C1fast: 0.019755259239204022 All time best: 0.019391024399272667 at pointer: 158
 -- New score C1fast: 0.019738290695833213 All time best: 0.019391024399272667 at pointer: 162
 -- New score C1fast: 0.019677877995723493 All time best: 0.019391024399272667 at pointer: 174
 -- New score C1fast: 0.019622458078865077 All time best: 0.019391024399272667 at pointer: 177
 -- New score C1fast: 0.019619118479721975 All time best: 0.019391024399272667 at pointer: 182
 -- New score C1fast: 0.01958990552974678 All time best: 0.019391024399272667 at pointer: 192
 -- New score C1fast: 0.019574188979069672 All time best: 0.019391024399272667 at pointer: 36
 -- New score C1fast: 0.01957065455585384 All time best: 0.019391024399272667 at pointer: 66
 -- New score C1fast: 0.019536689470603396 All time best: 0.019391024399272667 at pointer: 81
 -- New score C1fast: 0.019535409245948786 All time best: 0.019391024399272667 at pointer: 85
 -- New score C1fast: 0.01953505017135818 All time best: 0.019391024399272667 at pointer: 87
 -- New score C1fast: 0.019529626273675573 All time best: 0.019391024399272667 at pointer: 109
 -- New score C1fast: 0.01952874229096983 All time best: 0.019391024399272667 at pointer: 121
 -- New score C1fast: 0.019517992431581314 All time best: 0.019391024399272667 at pointer: 144
 -- New score C1fast: 0.019515161437223795 All time best: 0.019391024399272667 at pointer: 145
 -- New score C1fast: 0.019505139909745797 All time best: 0.019391024399272667 at pointer: 165
 -- New score C1fast: 0.019504740210316774 All time best: 0.019391024399272667 at pointer: 182
SW: all time best: 0.019504740210316774 current score: 0.019391024399272667
SW: all time best: 0.019504740210316774 current score: 0.019391024399272667
 -- New score Perturbation: 0.022483426324276686 All time best: 0.019391024399272667
 -- New score C1fast: 0.021937895492177808 All time best: 0.019391024399272667 at pointer: 3
 -- New score C1fast: 0.02189850656344413 All time best: 0.019391024399272667 at pointer: 4
 -- New score C1fast: 0.021835883731243243 All time best: 0.019391024399272667 at pointer: 5
 -- New score C1fast: 0.02182741366802879 All time best: 0.019391024399272667 at pointer: 6
 -- New score C1fast: 0.021811452403236724 All time best: 0.019391024399272667 at pointer: 9
 -- New score C1fast: 0.021800567030852366 All time best: 0.019391024399272667 at pointer: 11
 -- New score C1fast: 0.021766645670372613 All time best: 0.019391024399272667 at pointer: 18
 -- New score C1fast: 0.021749528294592462 All time best: 0.019391024399272667 at pointer: 23
 -- New score C1fast: 0.021652862462433517 All time best: 0.019391024399272667 at pointer: 33
 -- New score C1fast: 0.021622337527186303 All time best: 0.019391024399272667 at pointer: 35
 -- New score C1fast: 0.021617796075659442 All time best: 0.019391024399272667 at pointer: 33
 -- New score C1fast: 0.021517092056176378 All time best: 0.019391024399272667 at pointer: 36
 -- New score C1fast: 0.021514570246433495 All time best: 0.019391024399272667 at pointer: 37
 -- New score C1fast: 0.02122804888260692 All time best: 0.019391024399272667 at pointer: 38
 -- New score C1fast: 0.02121698078887497 All time best: 0.019391024399272667 at pointer: 36
 -- New score C1fast: 0.021212548092175133 All time best: 0.019391024399272667 at pointer: 38
 -- New score C1fast: 0.021205497460891728 All time best: 0.019391024399272667 at pointer: 37
 -- New score C1fast: 0.021204039951533624 All time best: 0.019391024399272667 at pointer: 36
 -- New score C1fast: 0.02119717125362679 All time best: 0.019391024399272667 at pointer: 40
 -- New score C1fast: 0.020539279208870352 All time best: 0.019391024399272667 at pointer: 42
 -- New score C1fast: 0.02053908144543499 All time best: 0.019391024399272667 at pointer: 40
 -- New score C1fast: 0.020534489067688788 All time best: 0.019391024399272667 at pointer: 41
 -- New score C1fast: 0.020530494979005404 All time best: 0.019391024399272667 at pointer: 40
 -- New score C1fast: 0.02050136293320724 All time best: 0.019391024399272667 at pointer: 45
 -- New score C1fast: 0.02046647340560896 All time best: 0.019391024399272667 at pointer: 53
 -- New score C1fast: 0.020458572953648398 All time best: 0.019391024399272667 at pointer: 54
 -- New score C1fast: 0.02017809994927517 All time best: 0.019391024399272667 at pointer: 73
 -- New score C1fast: 0.020157122083745087 All time best: 0.019391024399272667 at pointer: 74
 -- New score C1fast: 0.02014640479239055 All time best: 0.019391024399272667 at pointer: 78
 -- New score C1fast: 0.020135585500722215 All time best: 0.019391024399272667 at pointer: 76
 -- New score C1fast: 0.020065595864617206 All time best: 0.019391024399272667 at pointer: 84
 -- New score C1fast: 0.020016451868664985 All time best: 0.019391024399272667 at pointer: 87
 -- New score C1fast: 0.02001585421110598 All time best: 0.019391024399272667 at pointer: 104
 -- New score C1fast: 0.019960580725536636 All time best: 0.019391024399272667 at pointer: 112
 -- New score C1fast: 0.019941445676534518 All time best: 0.019391024399272667 at pointer: 141
 -- New score C1fast: 0.019870537163459597 All time best: 0.019391024399272667 at pointer: 142
 -- New score C1fast: 0.019863654712580486 All time best: 0.019391024399272667 at pointer: 143
 -- New score C1fast: 0.01986116020903326 All time best: 0.019391024399272667 at pointer: 144
 -- New score C1fast: 0.0198528258110778 All time best: 0.019391024399272667 at pointer: 143
 -- New score C1fast: 0.019739434488915693 All time best: 0.019391024399272667 at pointer: 145
 -- New score C1fast: 0.019735492491185433 All time best: 0.019391024399272667 at pointer: 146
 -- New score C1fast: 0.019732408812722403 All time best: 0.019391024399272667 at pointer: 144
 -- New score C1fast: 0.019730615689732674 All time best: 0.019391024399272667 at pointer: 141
 -- New score C1fast: 0.019692390918914966 All time best: 0.019391024399272667 at pointer: 145
 -- New score C1fast: 0.019690683149809554 All time best: 0.019391024399272667 at pointer: 142
 -- New score C1fast: 0.01968260657440891 All time best: 0.019391024399272667 at pointer: 143
 -- New score C1fast: 0.019682570808461218 All time best: 0.019391024399272667 at pointer: 145
 -- New score C1fast: 0.019682282577474026 All time best: 0.019391024399272667 at pointer: 144
 -- New score C1fast: 0.01966476073613478 All time best: 0.019391024399272667 at pointer: 168
 -- New score C1fast: 0.01964956686833847 All time best: 0.019391024399272667 at pointer: 170
 -- New score C1fast: 0.019609853810223794 All time best: 0.019391024399272667 at pointer: 176
 -- New score C1fast: 0.019604834983021402 All time best: 0.019391024399272667 at pointer: 178
 -- New score C1fast: 0.019590039552067638 All time best: 0.019391024399272667 at pointer: 188
 -- New score C1fast: 0.01958178966726072 All time best: 0.019391024399272667 at pointer: 190
 -- New score C1fast: 0.019559533224998246 All time best: 0.019391024399272667 at pointer: 196
 -- New score C1fast: 0.019552224512008252 All time best: 0.019391024399272667 at pointer: 201
 -- New score C1fast: 0.019514397223522047 All time best: 0.019391024399272667 at pointer: 202
 -- New score C1fast: 0.01948688211532177 All time best: 0.019391024399272667 at pointer: 206
 -- New score C1fast: 0.019485437015811458 All time best: 0.019391024399272667 at pointer: 36
 -- New score C1fast: 0.01948133166088514 All time best: 0.019391024399272667 at pointer: 45
 -- New score C1fast: 0.0194799929282055 All time best: 0.019391024399272667 at pointer: 54
 -- New score C1fast: 0.01947982652798184 All time best: 0.019391024399272667 at pointer: 87
 -- New score C1fast: 0.019477959801574983 All time best: 0.019391024399272667 at pointer: 104
 -- New score C1fast: 0.019471278031430006 All time best: 0.019391024399272667 at pointer: 144
 -- New score C1fast: 0.01947045007476332 All time best: 0.019391024399272667 at pointer: 199
 -- New score C1fast: 0.019467011619727515 All time best: 0.019391024399272667 at pointer: 4
 -- New score C1fast: 0.019451308323725415 All time best: 0.019391024399272667 at pointer: 188
SW: all time best: 0.019445500188453833 current score: 0.019391024399272667
SW: all time best: 0.019445500188453833 current score: 0.019391024399272667
 -- New score CSfast: 0.01943420063207841 All time best: 0.019391024399272667
 -- New score CSfast: 0.019425298795874336 All time best: 0.019391024399272667
 -- New score CSfast: 0.01941789037497939 All time best: 0.019391024399272667
 -- New score CSfast: 0.01939357826832811 All time best: 0.019391024399272667
 -- New score CSfast: 0.01939005043593239 All time best: 0.01939005043593239
 -- New score CSfast: 0.019389251276067436 All time best: 0.019389251276067436
 -- New score CSfast: 0.019388887712832134 All time best: 0.019388887712832134
 -- New score CSfast: 0.019385971707766958 All time best: 0.019385971707766958
SW: all time best: 0.019385971707766958 current score: 0.019385971707766958
SW: all time best: 0.019385971707766958 current score: 0.019385971707766958
 -- New score Perturbation: 0.02136074040505074 All time best: 0.019385971707766958
 -- New score C1fast: 0.02135884629458194 All time best: 0.019385971707766958 at pointer: 0
 -- New score C1fast: 0.02075739097226459 All time best: 0.019385971707766958 at pointer: 7
 -- New score C1fast: 0.020619257118489394 All time best: 0.019385971707766958 at pointer: 11
 -- New score C1fast: 0.020580952220689598 All time best: 0.019385971707766958 at pointer: 15
 -- New score C1fast: 0.020546297480846135 All time best: 0.019385971707766958 at pointer: 17
 -- New score C1fast: 0.020544569617475104 All time best: 0.019385971707766958 at pointer: 18
 -- New score C1fast: 0.020543177884524342 All time best: 0.019385971707766958 at pointer: 20
 -- New score C1fast: 0.020475211850975308 All time best: 0.019385971707766958 at pointer: 21
 -- New score C1fast: 0.02045800059697412 All time best: 0.019385971707766958 at pointer: 20
 -- New score C1fast: 0.020450983803824197 All time best: 0.019385971707766958 at pointer: 18
 -- New score C1fast: 0.020442112124876777 All time best: 0.019385971707766958 at pointer: 37
 -- New score C1fast: 0.020410247213465044 All time best: 0.019385971707766958 at pointer: 47
 -- New score C1fast: 0.0203031332831919 All time best: 0.019385971707766958 at pointer: 65
 -- New score C1fast: 0.020282516805539507 All time best: 0.019385971707766958 at pointer: 72
 -- New score C1fast: 0.02022690641278325 All time best: 0.019385971707766958 at pointer: 75
 -- New score C1fast: 0.02016488108322044 All time best: 0.019385971707766958 at pointer: 83
 -- New score C1fast: 0.020155904060422433 All time best: 0.019385971707766958 at pointer: 87
 -- New score C1fast: 0.02013753689474114 All time best: 0.019385971707766958 at pointer: 91
 -- New score C1fast: 0.020065161370626125 All time best: 0.019385971707766958 at pointer: 93
 -- New score C1fast: 0.020059964982367416 All time best: 0.019385971707766958 at pointer: 110
 -- New score C1fast: 0.019951169555627316 All time best: 0.019385971707766958 at pointer: 116
 -- New score C1fast: 0.019921915100088533 All time best: 0.019385971707766958 at pointer: 128
 -- New score C1fast: 0.0198753092450008 All time best: 0.019385971707766958 at pointer: 134
 -- New score C1fast: 0.019782656150903962 All time best: 0.019385971707766958 at pointer: 135
 -- New score C1fast: 0.019749316248656987 All time best: 0.019385971707766958 at pointer: 138
 -- New score C1fast: 0.019739314289076736 All time best: 0.019385971707766958 at pointer: 146
 -- New score C1fast: 0.019738933733693325 All time best: 0.019385971707766958 at pointer: 143
 -- New score C1fast: 0.01973585679667932 All time best: 0.019385971707766958 at pointer: 144
 -- New score C1fast: 0.01973528529235363 All time best: 0.019385971707766958 at pointer: 143
 -- New score C1fast: 0.01972986469545629 All time best: 0.019385971707766958 at pointer: 145
 -- New score C1fast: 0.01970617911337976 All time best: 0.019385971707766958 at pointer: 147
 -- New score C1fast: 0.019680415989570155 All time best: 0.019385971707766958 at pointer: 148
 -- New score C1fast: 0.01967694907932089 All time best: 0.019385971707766958 at pointer: 146
 -- New score C1fast: 0.01967508233476902 All time best: 0.019385971707766958 at pointer: 145
 -- New score C1fast: 0.01967388804078831 All time best: 0.019385971707766958 at pointer: 144
 -- New score C1fast: 0.019670273604691285 All time best: 0.019385971707766958 at pointer: 147
 -- New score C1fast: 0.019666254461045606 All time best: 0.019385971707766958 at pointer: 144
 -- New score C1fast: 0.01966505485236794 All time best: 0.019385971707766958 at pointer: 145
 -- New score C1fast: 0.019663834047798437 All time best: 0.019385971707766958 at pointer: 158
 -- New score C1fast: 0.019660494463930415 All time best: 0.019385971707766958 at pointer: 157
 -- New score C1fast: 0.019658580997332566 All time best: 0.019385971707766958 at pointer: 162
 -- New score C1fast: 0.019637876386962804 All time best: 0.019385971707766958 at pointer: 168
 -- New score C1fast: 0.019632557391035824 All time best: 0.019385971707766958 at pointer: 169
 -- New score C1fast: 0.019467885029439358 All time best: 0.019385971707766958 at pointer: 189
 -- New score C1fast: 0.019440036323075144 All time best: 0.019385971707766958 at pointer: 192
 -- New score C1fast: 0.019436419382170344 All time best: 0.019385971707766958 at pointer: 193
 -- New score C1fast: 0.019424874621879463 All time best: 0.019385971707766958 at pointer: 0
 -- New score C1fast: 0.019420763939991613 All time best: 0.019385971707766958 at pointer: 37
 -- New score C1fast: 0.019410349756457317 All time best: 0.019385971707766958 at pointer: 75
 -- New score C1fast: 0.019410227144918205 All time best: 0.019385971707766958 at pointer: 106
 -- New score C1fast: 0.019402793016567537 All time best: 0.019385971707766958 at pointer: 110
 -- New score C1fast: 0.019388017271866557 All time best: 0.019385971707766958 at pointer: 106
 -- New score C1fast: 0.01938586610074113 All time best: 0.01938586610074113 at pointer: 162
SW: all time best: 0.01938586610074113 current score: 0.01938586610074113
SW: all time best: 0.01938586610074113 current score: 0.01938586610074113
 -- New score Perturbation: 0.022581692877571197 All time best: 0.01938586610074113
 -- New score C1fast: 0.022568415728336105 All time best: 0.01938586610074113 at pointer: 1
 -- New score C1fast: 0.02245975600060114 All time best: 0.01938586610074113 at pointer: 4
 -- New score C1fast: 0.021955697417589456 All time best: 0.01938586610074113 at pointer: 7
 -- New score C1fast: 0.021923352841426068 All time best: 0.01938586610074113 at pointer: 24
 -- New score C1fast: 0.02188790900278565 All time best: 0.01938586610074113 at pointer: 30
 -- New score C1fast: 0.021638679571241597 All time best: 0.01938586610074113 at pointer: 32
 -- New score C1fast: 0.021632836852805266 All time best: 0.01938586610074113 at pointer: 41
 -- New score C1fast: 0.02163264446788583 All time best: 0.01938586610074113 at pointer: 48
 -- New score C1fast: 0.02162479958632522 All time best: 0.01938586610074113 at pointer: 50
 -- New score C1fast: 0.021616334671117312 All time best: 0.01938586610074113 at pointer: 48
 -- New score C1fast: 0.021608944807521947 All time best: 0.01938586610074113 at pointer: 50
 -- New score C1fast: 0.02158440096421192 All time best: 0.01938586610074113 at pointer: 51
 -- New score C1fast: 0.021030941378098054 All time best: 0.01938586610074113 at pointer: 57
 -- New score C1fast: 0.021027125067486302 All time best: 0.01938586610074113 at pointer: 59
 -- New score C1fast: 0.02100636967666739 All time best: 0.01938586610074113 at pointer: 66
 -- New score C1fast: 0.020991150851174145 All time best: 0.01938586610074113 at pointer: 76
 -- New score C1fast: 0.020967670165799306 All time best: 0.01938586610074113 at pointer: 78
 -- New score C1fast: 0.020966813028418463 All time best: 0.01938586610074113 at pointer: 77
 -- New score C1fast: 0.020674713349187232 All time best: 0.01938586610074113 at pointer: 79
 -- New score C1fast: 0.020658374270124458 All time best: 0.01938586610074113 at pointer: 77
 -- New score C1fast: 0.020658100902232763 All time best: 0.01938586610074113 at pointer: 101
 -- New score C1fast: 0.020640764891643675 All time best: 0.01938586610074113 at pointer: 105
 -- New score C1fast: 0.020497159777982533 All time best: 0.01938586610074113 at pointer: 112
 -- New score C1fast: 0.020282814905679694 All time best: 0.01938586610074113 at pointer: 113
 -- New score C1fast: 0.02028217527756896 All time best: 0.01938586610074113 at pointer: 121
 -- New score C1fast: 0.020185209903465062 All time best: 0.01938586610074113 at pointer: 122
 -- New score C1fast: 0.02000182043525974 All time best: 0.01938586610074113 at pointer: 124
 -- New score C1fast: 0.020001808841045358 All time best: 0.01938586610074113 at pointer: 121
 -- New score C1fast: 0.01993338091240956 All time best: 0.01938586610074113 at pointer: 122
 -- New score C1fast: 0.019927709123890146 All time best: 0.01938586610074113 at pointer: 140
 -- New score C1fast: 0.019788606553845678 All time best: 0.01938586610074113 at pointer: 141
 -- New score C1fast: 0.019786623832889844 All time best: 0.01938586610074113 at pointer: 142
 -- New score C1fast: 0.019783331357172185 All time best: 0.01938586610074113 at pointer: 143
 -- New score C1fast: 0.01976455077163774 All time best: 0.01938586610074113 at pointer: 147
 -- New score C1fast: 0.01973129696626767 All time best: 0.01938586610074113 at pointer: 148
 -- New score C1fast: 0.019731280390811203 All time best: 0.01938586610074113 at pointer: 145
 -- New score C1fast: 0.019731130439670726 All time best: 0.01938586610074113 at pointer: 144
 -- New score C1fast: 0.01973105282392399 All time best: 0.01938586610074113 at pointer: 143
 -- New score C1fast: 0.019569402163419267 All time best: 0.01938586610074113 at pointer: 156
 -- New score C1fast: 0.019545687763842585 All time best: 0.01938586610074113 at pointer: 157
 -- New score C1fast: 0.01950767662683072 All time best: 0.01938586610074113 at pointer: 158
 -- New score C1fast: 0.019484406642108845 All time best: 0.01938586610074113 at pointer: 160
 -- New score C1fast: 0.01948380146321173 All time best: 0.01938586610074113 at pointer: 158
 -- New score C1fast: 0.019480112475967107 All time best: 0.01938586610074113 at pointer: 165
 -- New score C1fast: 0.019477741192723278 All time best: 0.01938586610074113 at pointer: 169
 -- New score C1fast: 0.019471778053454295 All time best: 0.01938586610074113 at pointer: 170
 -- New score C1fast: 0.0194463475556983 All time best: 0.01938586610074113 at pointer: 183
 -- New score C1fast: 0.019436010353821784 All time best: 0.01938586610074113 at pointer: 193
 -- New score C1fast: 0.019433470528779716 All time best: 0.01938586610074113 at pointer: 207
 -- New score C1fast: 0.01943338542628276 All time best: 0.01938586610074113 at pointer: 0
 -- New score C1fast: 0.019427119020607064 All time best: 0.01938586610074113 at pointer: 41
 -- New score C1fast: 0.019423879974438524 All time best: 0.01938586610074113 at pointer: 40
 -- New score C1fast: 0.019421167966052894 All time best: 0.01938586610074113 at pointer: 76
 -- New score C1fast: 0.019419497987835203 All time best: 0.01938586610074113 at pointer: 162
 -- New score C1fast: 0.019414814912043117 All time best: 0.01938586610074113 at pointer: 41
 -- New score C1fast: 0.01941356059924527 All time best: 0.01938586610074113 at pointer: 40
SW: all time best: 0.01941068558811728 current score: 0.01938586610074113
SW: all time best: 0.01941068558811728 current score: 0.01938586610074113
 -- New score C1fast: 0.01941029735265378 All time best: 0.01938586610074113 at pointer: 143
 -- New score C1fast: 0.019408576312474283 All time best: 0.01938586610074113 at pointer: 151
 -- New score C1fast: 0.01940771972373273 All time best: 0.01938586610074113 at pointer: 149
 -- New score CSfast: 0.019407080015230737 All time best: 0.01938586610074113
SW: all time best: 0.019407080015230737 current score: 0.01938586610074113
SW: all time best: 0.019407080015230737 current score: 0.01938586610074113
 -- New score Perturbation: 0.02204427905704635 All time best: 0.01938586610074113
 -- New score C1fast: 0.022035423232163558 All time best: 0.01938586610074113 at pointer: 0
 -- New score C1fast: 0.022029875921239575 All time best: 0.01938586610074113 at pointer: 1
 -- New score C1fast: 0.021998031570775785 All time best: 0.01938586610074113 at pointer: 9
 -- New score C1fast: 0.021361914812033436 All time best: 0.01938586610074113 at pointer: 10
 -- New score C1fast: 0.02134065253658065 All time best: 0.01938586610074113 at pointer: 9
 -- New score C1fast: 0.021322238246363864 All time best: 0.01938586610074113 at pointer: 11
 -- New score C1fast: 0.02126258959814587 All time best: 0.01938586610074113 at pointer: 31
 -- New score C1fast: 0.02124386942561781 All time best: 0.01938586610074113 at pointer: 32
 -- New score C1fast: 0.021240268541189856 All time best: 0.01938586610074113 at pointer: 31
 -- New score C1fast: 0.021212523777166824 All time best: 0.01938586610074113 at pointer: 32
 -- New score C1fast: 0.02118949511460917 All time best: 0.01938586610074113 at pointer: 69
 -- New score C1fast: 0.021148003391505504 All time best: 0.01938586610074113 at pointer: 76
 -- New score C1fast: 0.02094779142502064 All time best: 0.01938586610074113 at pointer: 90
 -- New score C1fast: 0.02094508989332263 All time best: 0.01938586610074113 at pointer: 93
 -- New score C1fast: 0.020942581487369567 All time best: 0.01938586610074113 at pointer: 101
 -- New score C1fast: 0.020927263171572133 All time best: 0.01938586610074113 at pointer: 111
 -- New score C1fast: 0.020895573127906453 All time best: 0.01938586610074113 at pointer: 112
 -- New score C1fast: 0.02083338764450661 All time best: 0.01938586610074113 at pointer: 114
 -- New score C1fast: 0.020701745157614658 All time best: 0.01938586610074113 at pointer: 115
 -- New score C1fast: 0.020629960982610832 All time best: 0.01938586610074113 at pointer: 116
 -- New score C1fast: 0.020579284972418888 All time best: 0.01938586610074113 at pointer: 117
 -- New score C1fast: 0.02047825992182775 All time best: 0.01938586610074113 at pointer: 118
 -- New score C1fast: 0.020456924729211227 All time best: 0.01938586610074113 at pointer: 117
 -- New score C1fast: 0.020441345581789054 All time best: 0.01938586610074113 at pointer: 119
 -- New score C1fast: 0.020440352729783548 All time best: 0.01938586610074113 at pointer: 125
 -- New score C1fast: 0.0204251147381701 All time best: 0.01938586610074113 at pointer: 128
 -- New score C1fast: 0.020409502227468033 All time best: 0.01938586610074113 at pointer: 125
 -- New score C1fast: 0.0203990763045803 All time best: 0.01938586610074113 at pointer: 129
 -- New score C1fast: 0.020298137702269126 All time best: 0.01938586610074113 at pointer: 132
 -- New score C1fast: 0.020292327971039262 All time best: 0.01938586610074113 at pointer: 134
 -- New score C1fast: 0.02009287563790198 All time best: 0.01938586610074113 at pointer: 135
 -- New score C1fast: 0.02008501388219966 All time best: 0.01938586610074113 at pointer: 134
 -- New score C1fast: 0.020073215450691826 All time best: 0.01938586610074113 at pointer: 135
 -- New score C1fast: 0.020030039663087005 All time best: 0.01938586610074113 at pointer: 141
 -- New score C1fast: 0.02001336373973946 All time best: 0.01938586610074113 at pointer: 142
 -- New score C1fast: 0.02000694588218039 All time best: 0.01938586610074113 at pointer: 143
 -- New score C1fast: 0.0199446885655303 All time best: 0.01938586610074113 at pointer: 144
 -- New score C1fast: 0.01994300215838768 All time best: 0.01938586610074113 at pointer: 143
 -- New score C1fast: 0.019884984761188284 All time best: 0.01938586610074113 at pointer: 145
 -- New score C1fast: 0.019883665475390458 All time best: 0.01938586610074113 at pointer: 143
 -- New score C1fast: 0.019882499742284544 All time best: 0.01938586610074113 at pointer: 145
 -- New score C1fast: 0.019877557684795943 All time best: 0.01938586610074113 at pointer: 144
 -- New score C1fast: 0.019875473650680476 All time best: 0.01938586610074113 at pointer: 143
 -- New score C1fast: 0.01985064244388345 All time best: 0.01938586610074113 at pointer: 148
 -- New score C1fast: 0.01984905159816933 All time best: 0.01938586610074113 at pointer: 151
 -- New score C1fast: 0.01984820500736452 All time best: 0.01938586610074113 at pointer: 148
 -- New score C1fast: 0.01970643989871385 All time best: 0.01938586610074113 at pointer: 156
 -- New score C1fast: 0.019699647768304004 All time best: 0.01938586610074113 at pointer: 158
 -- New score C1fast: 0.01969406122664582 All time best: 0.01938586610074113 at pointer: 165
 -- New score C1fast: 0.01969396439908576 All time best: 0.01938586610074113 at pointer: 174
 -- New score C1fast: 0.019692519889660774 All time best: 0.01938586610074113 at pointer: 185
 -- New score C1fast: 0.019609920957263438 All time best: 0.01938586610074113 at pointer: 189
 -- New score C1fast: 0.01945529870405517 All time best: 0.01938586610074113 at pointer: 194
 -- New score C1fast: 0.01944472548116984 All time best: 0.01938586610074113 at pointer: 196
 -- New score C1fast: 0.019432407170146864 All time best: 0.01938586610074113 at pointer: 48
 -- New score C1fast: 0.019432347775324915 All time best: 0.01938586610074113 at pointer: 51
 -- New score C1fast: 0.019429110273505107 All time best: 0.01938586610074113 at pointer: 66
 -- New score C1fast: 0.019412680003391997 All time best: 0.01938586610074113 at pointer: 93
 -- New score C1fast: 0.019412216180901748 All time best: 0.01938586610074113 at pointer: 129
 -- New score C1fast: 0.019409974465561322 All time best: 0.01938586610074113 at pointer: 186
SW: all time best: 0.019409974465561322 current score: 0.01938586610074113
SW: all time best: 0.019409974465561322 current score: 0.01938586610074113
 -- New score Perturbation: 0.021417565620764828 All time best: 0.01938586610074113
 -- New score C1fast: 0.02141687799864386 All time best: 0.01938586610074113 at pointer: 0
 -- New score C1fast: 0.020430431791734687 All time best: 0.01938586610074113 at pointer: 2
 -- New score C1fast: 0.020414289870225213 All time best: 0.01938586610074113 at pointer: 0
 -- New score C1fast: 0.02020541837354625 All time best: 0.01938586610074113 at pointer: 26
 -- New score C1fast: 0.020179539884865653 All time best: 0.01938586610074113 at pointer: 54
 -- New score C1fast: 0.02010683038052273 All time best: 0.01938586610074113 at pointer: 55
 -- New score C1fast: 0.020092677269925245 All time best: 0.01938586610074113 at pointer: 71
 -- New score C1fast: 0.02008103366748618 All time best: 0.01938586610074113 at pointer: 75
 -- New score C1fast: 0.02008022368078398 All time best: 0.01938586610074113 at pointer: 83
 -- New score C1fast: 0.020070392806419982 All time best: 0.01938586610074113 at pointer: 89
 -- New score C1fast: 0.02005985448872716 All time best: 0.01938586610074113 at pointer: 91
 -- New score C1fast: 0.020057824278449425 All time best: 0.01938586610074113 at pointer: 98
 -- New score C1fast: 0.02005529687650134 All time best: 0.01938586610074113 at pointer: 95
 -- New score C1fast: 0.020030180486612488 All time best: 0.01938586610074113 at pointer: 94
 -- New score C1fast: 0.020013957841555678 All time best: 0.01938586610074113 at pointer: 96
 -- New score C1fast: 0.020009871120110073 All time best: 0.01938586610074113 at pointer: 94
 -- New score C1fast: 0.020004293538214153 All time best: 0.01938586610074113 at pointer: 90
 -- New score C1fast: 0.01999831412577352 All time best: 0.01938586610074113 at pointer: 92
 -- New score C1fast: 0.01998696538501365 All time best: 0.01938586610074113 at pointer: 107
 -- New score C1fast: 0.019975761484440035 All time best: 0.01938586610074113 at pointer: 117
 -- New score C1fast: 0.01996024598557622 All time best: 0.01938586610074113 at pointer: 118
 -- New score C1fast: 0.019956743232648455 All time best: 0.01938586610074113 at pointer: 117
 -- New score C1fast: 0.01995313725148724 All time best: 0.01938586610074113 at pointer: 121
 -- New score C1fast: 0.01995232949075497 All time best: 0.01938586610074113 at pointer: 117
 -- New score C1fast: 0.019949281896413196 All time best: 0.01938586610074113 at pointer: 119
 -- New score C1fast: 0.019948412563367122 All time best: 0.01938586610074113 at pointer: 121
 -- New score C1fast: 0.019917455430891004 All time best: 0.01938586610074113 at pointer: 122
 -- New score C1fast: 0.01991041848539926 All time best: 0.01938586610074113 at pointer: 124
 -- New score C1fast: 0.019908921012906207 All time best: 0.01938586610074113 at pointer: 128
 -- New score C1fast: 0.01990775524888547 All time best: 0.01938586610074113 at pointer: 129
 -- New score C1fast: 0.01988705033787537 All time best: 0.01938586610074113 at pointer: 132
 -- New score C1fast: 0.019715769301162357 All time best: 0.01938586610074113 at pointer: 133
 -- New score C1fast: 0.019715298365045916 All time best: 0.01938586610074113 at pointer: 129
 -- New score C1fast: 0.019682399931432965 All time best: 0.01938586610074113 at pointer: 138
 -- New score C1fast: 0.019677797692002955 All time best: 0.01938586610074113 at pointer: 141
 -- New score C1fast: 0.01964480170604698 All time best: 0.01938586610074113 at pointer: 146
 -- New score C1fast: 0.01964387593981313 All time best: 0.01938586610074113 at pointer: 158
 -- New score C1fast: 0.019600599847576866 All time best: 0.01938586610074113 at pointer: 159
 -- New score C1fast: 0.01959706467003328 All time best: 0.01938586610074113 at pointer: 161
 -- New score C1fast: 0.019594540826203044 All time best: 0.01938586610074113 at pointer: 162
 -- New score C1fast: 0.019561911612649932 All time best: 0.01938586610074113 at pointer: 172
 -- New score C1fast: 0.019558767924577034 All time best: 0.01938586610074113 at pointer: 177
 -- New score C1fast: 0.019520966846092724 All time best: 0.01938586610074113 at pointer: 181
 -- New score C1fast: 0.019517281886867566 All time best: 0.01938586610074113 at pointer: 177
 -- New score C1fast: 0.01951349671231505 All time best: 0.01938586610074113 at pointer: 183
 -- New score C1fast: 0.019511424521622873 All time best: 0.01938586610074113 at pointer: 184
 -- New score C1fast: 0.01950344524516163 All time best: 0.01938586610074113 at pointer: 185
 -- New score C1fast: 0.019502338850784215 All time best: 0.01938586610074113 at pointer: 186
 -- New score C1fast: 0.019496713297932622 All time best: 0.01938586610074113 at pointer: 187
 -- New score C1fast: 0.019493981349487384 All time best: 0.01938586610074113 at pointer: 191
 -- New score C1fast: 0.01949298656129634 All time best: 0.01938586610074113 at pointer: 193
 -- New score C1fast: 0.019462617496542784 All time best: 0.01938586610074113 at pointer: 194
 -- New score C1fast: 0.019456283252269717 All time best: 0.01938586610074113 at pointer: 199
 -- New score C1fast: 0.01944931770672074 All time best: 0.01938586610074113 at pointer: 202
 -- New score C1fast: 0.01943662788842797 All time best: 0.01938586610074113 at pointer: 48
 -- New score C1fast: 0.019433242857846568 All time best: 0.01938586610074113 at pointer: 52
 -- New score C1fast: 0.019431665741279393 All time best: 0.01938586610074113 at pointer: 117
 -- New score C1fast: 0.01942854366610709 All time best: 0.01938586610074113 at pointer: 148
 -- New score C1fast: 0.019427987235317808 All time best: 0.01938586610074113 at pointer: 146
 -- New score C1fast: 0.019425653105957723 All time best: 0.01938586610074113 at pointer: 150
 -- New score C1fast: 0.019424268103516086 All time best: 0.01938586610074113 at pointer: 146
 -- New score C1fast: 0.019423875166707877 All time best: 0.01938586610074113 at pointer: 174
 -- New score C1fast: 0.01942062183889098 All time best: 0.01938586610074113 at pointer: 175
 -- New score C1fast: 0.01941978160599275 All time best: 0.01938586610074113 at pointer: 186
 -- New score C1fast: 0.01941873611849382 All time best: 0.01938586610074113 at pointer: 195
 -- New score C1fast: 0.019418590444552776 All time best: 0.01938586610074113 at pointer: 199
 -- New score C1fast: 0.019410917605196136 All time best: 0.01938586610074113 at pointer: 119
 -- New score C1fast: 0.01940870193104131 All time best: 0.01938586610074113 at pointer: 187
SW: all time best: 0.019405196344069335 current score: 0.01938586610074113
SW: all time best: 0.019405196344069335 current score: 0.01938586610074113