0	 0.14385308332669997
1	 0.4557023250472812
2	 0.6684005230842202
3	 0.8299933065325822
4	 0.9737289911202953
5	 2.1291625896895083
6	 1.4194417264596721
7	 0.48686449556014766
8	 0.709720863229836
9	 0.6085806194501846
10	 0.48686449556014766
11	 0.19245008972987535
12	 0.36514837167011077
13	 1.5968719422671311
14	 1.0645812948447542
15	 0.7247988226627671
16	 0.5053051883103253
17	 0.749073501808141
18	 0.5962847939999438
19	 1.0929064207169998
20	 0.39205063920838557
21	 0.49441323247304414
22	 0.7698003589195008
23	 1.115546702045434
24	 0.4013864859597432
25	 0.4472135954999579
26	 0.5305482838361476
27	 1.0183501544346312
28	 0.8050764858994133
29	 0.5322906474223771
30	 0.5805489101161391
31	 0.4714045207910317
32	 0.47531665858238753
33	 0.8850612031567835
34	 0.5091750772173156
35	 0.6085806194501846
36	 0.8299933065325822
37	 0.5322906474223771
38	 0.4811252243246881
39	 1.0018501403422089
40	 0.2652741419180738
41	 0.769800358919501
42	 0.48686449556014766
43	 1.0610965676722952
44	 0.7302967433402214
45	 1.0
46	 1.0818365728567185
47	 1.6170389033090127
48	 0.7302967433402214
49	 0.5
50	 0.7958224257542215
51	 0.8793937305515279
52	 0.5842373946721773
53	 1.1276984099056377
54	 0.35486043161491787
55	 0.9622504486493761
56	 0.7155417527999326
57	 0.46443912809291127
58	 0.243432247780074
59	 1.6238956361284542
60	 0.7155417527999327
61	 0.0
62	 0.7439633603084774
63	 0.8059041391390674
64	 0.7155417527999326
65	 0.5842373946721773
66	 0.3837437416548433
67	 1.4900161570090933
68	 0.8516650358758032
69	 0.29211869733608864
70	 0.9877771528556953
71	 0.33333333333333337
72	 0.3245763303734317
73	 0.16228816518671596
74	 0.0
75	 0.0
76	 1.2041594578792296
77	 0.5590169943749475
78	 1.1786858833135458
79	 0.1746542734270695
80	 0.4228869037146142
81	 0.889777333777223
82	 0.4868644955601476
83	 0.7436978013636224
84	 0.9258796284721643
85	 0.6390096504226939
86	 0.9946358185399485
87	 0.2729204952139339
88	 0.3055050463303894
89	 1.292714628644354
90	 0.7698003589195008
91	 0.9216196157034543
92	 0.23657362107661203
93	 0.20703995092309993
94	 0.4343525428949098
95	 0.7661834225804134
96	 0.17743021580745896
97	 0.1931644872400229
98	 0.4429842864631429
99	 0.8515636781168925
100	 0.12133831814501203
101	 0.22439252415679842
102	 0.5335685890688225
103	 0.4106405367761842
104	 0.07297936108358964
105	 0.4130559808821512
106	 0.4235203089542753
107	 0.48686449556014766
108	 0.7302967433402212
109	 0.769800358919501
110	 1.0610965676722952
111	 0.9428090415820634
112	 0.9428090415820634
113	 0.7698003589195012
114	 0.8255189164891872
115	 0.6440611887195306
116	 0.8563488385776752
117	 0.8902766944004502
118	 0.8187614856418016
119	 0.8493134482235244
120	 0.4487018312123691
121	 0.2652741419180738
122	 0.3388433484883757
123	 0.46043457732885357
124	 0.9409215341001254
125	 1.1800816042090445
126	 0.5305482838361476
127	 0.593295878967653
128	 0.2129162589689508
129	 0.3548604316149181
130	 0.5305482838361476
131	 0.7302967433402214
132	 0.0
133	 0.0
134	 0.0
135	 0.0
136	 0.4565751913428872
137	 0.5155044674559845
138	 0.8354294625109145
139	 0.9462944843064481
140	 0.25453904112491293
141	 0.9160300819902757
142	 1.1925695879998877
143	 0.774065213488185
144	 0.4181873484889444
145	 0.4181873484889446
146	 0.9566746246496558
147	 0.8925849085269372
148	 0.6030921692486594
149	 0.6604151331913496
150	 0.5962847939999438
151	 0.7027283689263063
152	 0.20269785335095789
153	 0.31364051136670856
154	 0.48686449556014766
155	 1.4732176927970864
156	 0.3849001794597505
157	 0.596284793999944
158	 0.24343224778007388
159	 0.22589556565891736
160	 0.4969039949999533
161	 0.27517297216306236
162	 0.5132002392796674
163	 0.3333333333333333
164	 0.4714045207910317
165	 0.24343224778007383
166	 0.33333333333333337
167	 0.48686449556014766
168	 0.3849001794597504
169	 0.24343224778007377
170	 0.24343224778007366
171	 0.2434322477800738
172	 0.5773502691896258
173	 0.818761485641802
174	 1.0818365728567187
175	 0.5305482838361476
176	 0.90267093384844
177	 0.6085806194501846
178	 0.7841012784167711
179	 0.5227341856111809
180	 0.6017806225656267
181	 0.3536988558907651
182	 0.47314724215322407
183	 0.7591219019237606
184	 0.7302967433402214
185	 0.3785639412257483
186	 0.596284793999944
187	 0.6085806194501846
188	 0.6956655929999347
189	 0.3933605347363484
190	 0.5132002392796674
191	 0.8512880581945759
192	 0.7911548052852401
193	 0.0
194	 0.0
195	 0.7075876427050175
196	 0.6104754475888801
197	 1.2063719713808563
198	 0.8681611046941136
199	 0.8299933065325822
200	 0.9737289911202953
201	 2.1291625896895083
202	 1.4194417264596721
203	 0.48686449556014766
204	 1.1547005383792515
205	 0.9128709291752769
206	 0.9934973764620805
207	 0.19245008972987535
208	 0.36514837167011077
209	 1.5968719422671311
210	 1.0645812948447542
211	 0.7247988226627671
212	 0.5053051883103253
213	 0.749073501808141
214	 0.5962847939999438
215	 1.0929064207169998
216	 0.39205063920838557
217	 0.49441323247304414
218	 0.7698003589195008
219	 1.115546702045434
220	 0.4013864859597432
221	 0.4472135954999579
222	 0.5305482838361476
223	 0.74535599249993
224	 0.6085806194501846
225	 0.5322906474223771
226	 0.4260064336151292
227	 0.9888264649460883
228	 0.7552286874651746
229	 0.8944271909999159
230	 0.5091750772173156
231	 0.48686449556014777
232	 0.5577733510227172
233	 0.5322906474223771
234	 0.6131279849476174
235	 1.0900220860827308
236	 0.2
237	 0.5900408021045224
238	 0.7097208632298361
239	 0.7423685817106696
240	 0.2
241	 0.5900408021045224
242	 0.7097208632298361
243	 0.6422183775355891
244	 0.49915154349604646
245	 0.7740652134881856
246	 0.6491526607468633
247	 0.8925849085269374
248	 0.4127594582445934
249	 0.8925849085269372
250	 0.6592176432973923
251	 0.7330057217314465
252	 0.5619436210519261
253	 0.7950463919999253
254	 0.4731472421532239
255	 0.6507549349691841
256	 0.6238182747747062
257	 0.4517911313178343
258	 0.5132002392796672
259	 0.5626605385721011
260	 0.5281684912529632
261	 0.6491526607468637
262	 0.473147242153224
263	 0.6285393610547089
264	 0.32457633037343236
265	 0.1622881651867154
266	 0.0
267	 0.0
268	 0.19474579822405902
269	 0.11925695879998882
270	 0.1419441726459673
271	 0.8014801122737674
272	 0.29211869733608875
273	 0.1275897926491226
274	 0.37913115758207677
275	 0.9918183824187288
276	 0.4895618264254313
277	 0.5962847939999439
278	 0.7436978013636227
279	 0.7964530422816342
280	 0.6192521707905484
281	 0.6337555447765166
282	 0.3975231959999627
283	 0.8126570756682949
284	 0.42007250011134295
285	 0.9566746246496556
286	 2.220446049250313E-16
287	 0.6555116118353884
288	 0.27826623719997384
289	 0.6099315214885601
290	 0.32457633037343186
291	 0.29076315082304227
292	 0.46641968773078235
293	 0.7950463919999251
294	 0.7950463919999249
295	 0.8415545090899027
296	 0.7173797772839482
297	 0.19876159799998114
298	 0.5503459443261248
299	 1.4594660503976704
300	 0.9128709291752768
301	 0.18257418583505539
302	 1.0954451150103321
303	 1.271348312073543
304	 0.10114985178934642
305	 0.4244386270689181
306	 0.769800358919501
307	 0.9462944843064482
308	 0.3282075023655817
309	 0.704062286806859
310	 0.7453559924999299
311	 0.6776866969767513
312	 0.3651483716701107
313	 0.709720863229836
314	 0.6776866969767513
315	 0.8520128672302585
316	 0.3548604316149181
317	 0.24343224778007388
318	 0.6666666666666666
319	 0.769800358919501
320	 0.9057429935530112
321	 0.9299542003855966
322	 0.9737289911202953
323	 0.0
324	 1.1589693164804709
325	 0.9462944843064481
326	 0.6491526607468634
327	 1.80534186769688
328	 0.8663817195385746
329	 0.8663817195385746
330	 0.6491526607468636
331	 1.3339504744602615
332	 0.38005847503304596
333	 0.24343224778007383
334	 0.24343224778007383
335	 0.79115480528524
336	 0.24343224778007386
337	 0.12171612389003697
338	 0.24343224778007386
339	 0.8343531175207255
340	 0.20277738949423887
341	 0.4177763002337938
342	 0.3708099243547831
343	 0.8299933065325822
344	 0.9737289911202953
345	 0.4868644955601476
346	 0.0
347	 0.6868068896740216
348	 0.7945648704374825
349	 0.4472135954999579
350	 0.6353768202442577
351	 0.3388433484883757
352	 0.36514837167011077
353	 1.5968719422671311
354	 1.0645812948447542
355	 0.7247988226627671
356	 0.5053051883103253
357	 0.749073501808141
358	 0.5962847939999438
359	 1.0929064207169998
360	 0.5725188012439222
361	 0.8255189164891871
362	 0.7698003589195008
363	 1.1221672153735642
364	 0.5660126945311124
365	 0.4472135954999579
366	 0.5305482838361476
367	 0.7841012784167712
368	 0.9299542003855971
369	 0.8366600265340756
370	 0.5805489101161391
371	 0.2981423969999719
372	 0.7175059684872418
373	 0.7302967433402214
374	 0.5091750772173156
375	 0.48686449556014777
376	 0.2788866755113585
377	 0.9128709291752769
378	 0.4811252243246881
379	 1.0018501403422089
380	 0.2652741419180738
381	 0.769800358919501
382	 0.7097208632298361
383	 1.285964114469647
384	 0.8944271909999157
385	 0.9128709291752768
386	 1.0869597423462756
387	 0.4127594582445934
388	 0.7302967433402213
389	 1.35400640077266
390	 0.8520128672302584
391	 0.7674874833096871
392	 0.8132240363721016
393	 0.5740047747897934
394	 0.48686449556014744
395	 0.8294576541331088
396	 0.4
397	 0.6041829499721397
398	 0.6776866969767514
399	 1.4471427787962812
400	 0.9409215341001254
401	 0.8695677938770204
402	 0.6776866969767514
403	 0.9950991017090821
404	 0.0
405	 0.7204936579256692
406	 0.4944132324730443
407	 1.0417933256329361
408	 0.7302967433402215
409	 0.5982691082831587
410	 0.3849001794597505
411	 0.7797435475847171
412	 0.0
413	 0.7155417527999327
414	 0.7797435475847171
415	 1.1523888232710349
416	 0.9237604307034013
417	 0.7080489625254269
418	 0.693461526610445
419	 0.8902766944004501
420	 0.8114408259335794
421	 0.4057204129667898
422	 0.0
423	 0.0
424	 1.2041594578792296
425	 0.5590169943749475
426	 1.1786858833135458
427	 0.202860206483395
428	 0.10954451150103325
429	 1.1935629822479383
430	 0.4868644955601476
431	 0.7436978013636224
432	 0.9258796284721643
433	 0.6390096504226939
434	 0.9946358185399485
435	 0.25988680663583996
436	 0.48733971724044817
437	 0.9888264649460882
438	 1.2171612389003688
439	 0.5477225575051662
440	 0.1217161238900369
441	 0.3933605347363482
442	 0.3245763303734315
443	 0.7302967433402212
444	 0.23570226039551587
445	 0.3676545669843176
446	 0.4890912845929992
447	 0.8515636781168925
448	 0.12133831814501203
449	 0.22439252415679842
450	 0.5335685890688225
451	 0.4106405367761842
452	 0.07297936108358964
453	 0.4130559808821512
454	 0.40064227590396134
455	 0.6776866969767514
456	 0.24343224778007377
457	 0.769800358919501
458	 1.0610965676722952
459	 0.9428090415820634
460	 0.9428090415820634
461	 0.7698003589195012
462	 0.8255189164891872
463	 0.6440611887195306
464	 0.8563488385776752
465	 0.8902766944004502
466	 0.8187614856418016
467	 0.8493134482235244
468	 0.4487018312123691
469	 0.2652741419180738
470	 0.3388433484883757
471	 0.46043457732885357
472	 0.9409215341001254
473	 1.1800816042090445
474	 0.5305482838361476
475	 0.593295878967653
476	 0.2129162589689508
477	 0.3548604316149181
478	 0.3548604316149181
479	 0.8299933065325822
480	 0.0
481	 0.0
482	 0.0
483	 0.0
484	 0.4565751913428872
485	 0.5155044674559845
486	 0.8354294625109145
487	 0.9462944843064481
488	 0.25453904112491293
489	 0.9160300819902757
490	 1.1925695879998877
491	 0.774065213488185
492	 0.4181873484889444
493	 0.2794468374833105
494	 0.7740652134881856
495	 0.8925849085269372
496	 0.6030921692486594
497	 0.6604151331913496
498	 0.5962847939999438
499	 0.6337555447765164
500	 0.33060612747290946
501	 0.6509252673723026
502	 0.48686449556014766
503	 0.5305482838361476
504	 0.4944132324730443
505	 0.596284793999944
506	 0.24343224778007388
507	 0.22589556565891736
508	 0.4969039949999533
509	 0.27517297216306236
510	 0.5132002392796674
511	 0.7601169500660919
512	 0.5305482838361476
513	 0.2981423969999719
514	 0.33333333333333337
515	 0.24343224778007383
516	 0.4944132324730441
517	 0.24343224778007377
518	 0.24343224778007366
519	 0.2434322477800738
520	 0.5773502691896258
521	 0.6353768202442577
522	 0.6085806194501846
523	 0.6085806194501846
524	 0.35486043161491804
525	 0.3849001794597505
526	 0.557773351022717
527	 1.073435314532551
528	 0.7804187965076104
529	 0.5034857916434498
530	 1.0069715832868995
531	 1.0570999562294559
532	 1.1187942975686411
533	 0.8041840698127447
534	 0.48686449556014766
535	 0.6085806194501846
536	 0.6956655929999344
537	 0.4731472421532239
538	 0.3975231959999628
539	 0.23657362107661206
540	 0.10865337342004412
541	 0.06519202405202647
542	 0.0
