Encoder: class com.chromamorph.points022.COSIATECEncoding
Input file: Happy_birthday2.mid
Output file set: Happy_birthday2-chrom

COSIATECEncoding called with following parameters:

inputFilePath: Happy_birthday2.mid
outputFileDirectoryPath: /home/dorienhs/workspace/PMusicOR/cosiatec
diatonicPitch: false
mirex: false
withCompactnessTrawler: false
a: 0.5
b: 3
forRSuperdiagonals: false
r: 1
removeRedundantTranslators: false
minTECCompactness: 0.9
minPatternSize: 0
mergeTECs: false
minMatchSize: 5
computeVectorTable...completed
computeMtpCisPairs...completed: 206 MTPs found
removeTranslationallyEquivalentMtps...DONE: 36 translationally distinct MTPs
Finding best TEC

Best TEC: (1.80,1.00) T(P(p(960,60),p(1440,62),p(1920,60)),V(v(0,0),v(2880,0),v(9600,5)))
computeVectorTable...completed
computeMtpCisPairs...completed: 100 MTPs found
removeTranslationallyEquivalentMtps...DONE: 15 translationally distinct MTPs
Finding best TEC

Best TEC: (1.50,1.00) T(P(p(1320,60),p(2400,65),p(2880,64)),V(v(0,0),v(5760,0)))
computeVectorTable...completed
computeMtpCisPairs...completed: 43 MTPs found
removeTranslationallyEquivalentMtps...DONE: 3 translationally distinct MTPs
Finding best TEC

Best TEC: (1.33,1.00) T(P(p(5280,67),p(7680,69)),V(v(0,0),v(1440,-7)))
computeVectorTable...completed
computeMtpCisPairs...completed: 15 MTPs found
removeTranslationallyEquivalentMtps...DONE: 1 translationally distinct MTPs
Finding best TEC

Best TEC: (1.00,1.00) T(P(p(4200,60)),V(v(0,0),v(1560,5),v(3000,12),v(5400,10),v(5760,10),v(5880,9)))

56 ms taken to analyse 25 points

Last TEC is T(P(p(4200,60)),V(v(0,0),v(1560,5),v(3000,12),v(5400,10),v(5760,10),v(5880,9)))
T(P(p(960,60),p(1440,62),p(1920,60)),V(v(0,0),v(2880,0),v(9600,5)))
T(P(p(1320,60),p(2400,65),p(2880,64)),V(v(0,0),v(5760,0)))
T(P(p(5280,67),p(7680,69)),V(v(0,0),v(1440,-7)))
T(P(p(4200,60)),V(v(0,0),v(1560,5),v(3000,12),v(5400,10),v(5760,10),v(5880,9)))

Number of TECs: 4
Encoding length: 18
Number of notes: 25
Encoding length without residual point set: 12
Number and proportion of residual points: 6, 24.00%
Compression ratio: 1.39
Compression ratio excluding residual point set: 1.58
Maximum time in tatums: 11520
Minimum time in tatums: 960
Maximum pitch: 72
Minimum pitch: 60
Running time: 56 milliseconds
/home/dorienhs/workspace/PMusicOR/cosiatec/Happy_birthday2-chrom.cos
