0	 0.4360848298637931
1	 0.693654557762003
2	 0.4068589995366946
3	 0.4360848298637931
4	 0.4068589995366946
5	 0.693654557762003
6	 0.4068589995366946
7	 0.693654557762003
8	 0.4360848298637931
9	 0.693654557762003
10	 0.4068589995366946
11	 0.4360848298637931
12	 0.4068589995366946
13	 0.693654557762003
14	 0.4068589995366946
15	 0.693654557762003
16	 0.3589946780069773
17	 0.6397002257599519
18	 0.5384544352471556
19	 0.6397002257599519
20	 0.4068589995366946
21	 0.693654557762003
22	 0.4068589995366946
23	 0.45084850985373504
24	 0.4360848298637931
25	 0.45084850985373504
26	 0.4068589995366946
27	 0.4360848298637931
28	 0.4068589995366946
29	 0.693654557762003
30	 0.4068589995366946
31	 0.9093120360125742
32	 0.30416899716659707
33	 0.5384544352471555
34	 0.6847180287076813
35	 0.30416899716659707
36	 0.6847180287076813
37	 0.6397002257599519
38	 0.6847180287076813
39	 0.6397002257599519
40	 0.30416899716659707
41	 0.6397002257599519
42	 0.9778563521826712
43	 0.30416899716659707
44	 0.9778563521826712
45	 0.6397002257599519
46	 0.9778563521826712
47	 0.6397002257599519
48	 0.40685899953669447
49	 0.9075049194562712
50	 1.206155039303544
51	 1.206155039303544
52	 0.568844775696616
53	 0.9555096958363812
54	 0.3190190885156143
55	 0.9555096958363812
56	 0.9075049194562712
57	 0.7919517528469352
58	 0.7729012736678169
59	 0.9555096958363812
60	 0.6258778199489098
61	 0.44197901025274955
62	 0.5985906604995882
63	 0.7919517528469352
64	 0.5422662127626984
65	 1.0389925146525356
66	 1.0389925146525356
67	 0.44285661205104904
68	 1.3225116932705485
69	 1.3225116932705485
70	 1.3225116932705485
71	 1.3225116932705485
72	 0.7998402208174661
73	 1.0389925146525356
74	 1.0389925146525356
75	 0.44285661205104904
76	 1.3225116932705485
77	 1.3225116932705485
78	 0.7293835608493883
79	 0.6519782042655516
80	 0.7673708222478448
81	 0.8339939920870735
82	 0.8789996466650785
83	 0.6662759029391153
84	 0.8789996466650785
85	 0.8339939920870735
86	 0.8789996466650785
87	 0.8339939920870735
88	 0.31901908851561434
89	 1.1236057933445045
90	 1.1236057933445045
91	 0.895207003344664
92	 0.7146246419186322
93	 0.8149485743513717
94	 0.4490254397069278
95	 0.8149485743513717
96	 0.9412198355524245
97	 0.8799383949103101
98	 0.9412198355524245
99	 0.8221093877970254
100	 0.9412198355524245
101	 0.8799383949103101
102	 0.9412198355524245
103	 0.8221093877970254
104	 0.9412198355524246
105	 0.6756333168497045
106	 0.5422662127626984
107	 0.5462876948129072
108	 0.5462876948129072
109	 0.6756333168497045
110	 0.5462876948129072
111	 0.9536122790932033
112	 0.2557631303322145
113	 0.7076710008923638
114	 0.6646313104551526
115	 0.2557631303322145
116	 0.6646313104551526
117	 0.7076710008923638
118	 0.6646313104551526
119	 0.5630605463334589
120	 0.2557631303322145
121	 0.7076710008923638
122	 0.6646313104551526
123	 0.2557631303322145
124	 0.5422662127626984
125	 0.846039466477382
126	 0.5422662127626984
127	 0.7146246419186322
128	 0.3190190885156142
129	 0.4419790102527493
130	 0.7729012736678168
131	 0.6258778199489099
132	 0.7729012736678168
133	 0.6258778199489099
134	 0.7729012736678168
135	 0.6258778199489099
136	 0.8737306099921951
137	 1.2459780009443717
138	 1.7385641141002919
139	 0.7820877053357465
140	 0.6148053539794345
141	 1.7385641141002919
142	 0.7820877053357465
143	 1.79045837115453
144	 1.2760615889671365
145	 1.2760615889671365
146	 1.2079873041491302
147	 1.2079873041491302
148	 1.2079873041491302
149	 1.2079873041491302
150	 1.2079873041491302
151	 1.2079873041491302
152	 1.2079873041491302
153	 1.2079873041491302
154	 1.2079873041491302
155	 1.2079873041491302
156	 1.2079873041491302
157	 1.2079873041491302
158	 1.2079873041491302
159	 1.2079873041491302
160	 1.2079873041491302
161	 1.2079873041491302
162	 1.2079873041491302
163	 1.2079873041491302
164	 1.2079873041491302
165	 1.2079873041491302
166	 1.2079873041491302
167	 1.2079873041491302
168	 1.2079873041491302
169	 1.2079873041491302
170	 1.2079873041491302
171	 1.2079873041491302
172	 1.2079873041491302
173	 1.2079873041491302
174	 1.2079873041491302
175	 1.2079873041491302
176	 1.2079873041491302
177	 1.2079873041491302
178	 1.2079873041491302
179	 1.2079873041491302
180	 1.2079873041491302
181	 1.2079873041491302
182	 1.2079873041491302
183	 1.2079873041491302
184	 1.2079873041491302
185	 1.2079873041491302
186	 1.2079873041491302
187	 1.2079873041491302
188	 1.2079873041491302
189	 1.2079873041491302
190	 1.2079873041491302
191	 1.2079873041491302
192	 1.2079873041491302
193	 1.2079873041491302
194	 1.2079873041491302
195	 1.2079873041491302
196	 1.2079873041491302
197	 1.2079873041491302
198	 1.2079873041491302
199	 1.2079873041491302
200	 1.2079873041491302
201	 1.2079873041491302
202	 1.2079873041491302
203	 1.2079873041491302
204	 1.2079873041491302
205	 1.2079873041491302
206	 1.2079873041491302
207	 1.2079873041491302
208	 1.2079873041491302
209	 1.2079873041491302
210	 1.2079873041491302
211	 1.2079873041491302
212	 1.2079873041491302
213	 1.2079873041491302
214	 1.2079873041491302
215	 1.2079873041491302
216	 1.2079873041491302
217	 1.2079873041491302
218	 1.2079873041491302
219	 1.2079873041491302
220	 1.2079873041491302
221	 1.2079873041491302
222	 1.2079873041491302
223	 1.2079873041491302
224	 1.2079873041491302
225	 1.2079873041491302
226	 1.2079873041491302
227	 1.2079873041491302
228	 1.2079873041491302
229	 1.2079873041491302
230	 1.2079873041491302
231	 1.2079873041491302
232	 1.2079873041491302
233	 1.2079873041491302
234	 1.2079873041491302
235	 1.2079873041491302
236	 1.2079873041491302
237	 1.2079873041491302
238	 1.2079873041491302
239	 1.2079873041491302
240	 1.2079873041491302
241	 1.2079873041491302
242	 1.2079873041491302
243	 1.2079873041491302
244	 1.2079873041491302
245	 1.2079873041491302
246	 1.2079873041491302
247	 1.2079873041491302
248	 1.2079873041491302
249	 1.2079873041491302
250	 1.2079873041491302
251	 1.2079873041491302
252	 1.2079873041491302
253	 1.2079873041491302
254	 1.2079873041491302
255	 1.2079873041491302
256	 1.2079873041491302
257	 1.2079873041491302
258	 1.2079873041491302
259	 1.2079873041491302
260	 1.2079873041491302
261	 1.2079873041491302
262	 1.2079873041491302
263	 1.2079873041491302
264	 1.2079873041491302
265	 1.2079873041491302
266	 1.2079873041491302
267	 1.2079873041491302
268	 1.2079873041491302
269	 1.2079873041491302
270	 1.2079873041491302
271	 1.2079873041491302
272	 1.2079873041491302
273	 1.2079873041491302
274	 1.2079873041491302
275	 1.2079873041491302
276	 1.2079873041491302
277	 1.2079873041491302
278	 1.2079873041491302
279	 1.2079873041491302
280	 1.2079873041491302
281	 1.2079873041491302
282	 1.2079873041491302
283	 1.2079873041491302
284	 1.2079873041491302
285	 1.2079873041491302
286	 1.2079873041491302
287	 1.2079873041491302
288	 1.2079873041491302
289	 1.2079873041491302
290	 1.2079873041491302
291	 1.2079873041491302
292	 1.2079873041491302
293	 1.2079873041491302
294	 1.2079873041491302
295	 1.2079873041491302
296	 1.2079873041491302
297	 1.2079873041491302
298	 1.2079873041491302
299	 1.2079873041491302
300	 1.2079873041491302
301	 1.2079873041491302
302	 1.2079873041491302
303	 1.2079873041491302
304	 1.2079873041491302
305	 1.2079873041491302
306	 1.2079873041491302
307	 1.2079873041491302
308	 1.2079873041491302
309	 1.2079873041491302
310	 1.2079873041491302
311	 1.2079873041491302
312	 1.2079873041491302
313	 1.2079873041491302
314	 1.2079873041491302
315	 1.2079873041491302
316	 1.2079873041491302
317	 1.2079873041491302
318	 1.2079873041491302
319	 1.2079873041491302
320	 1.2079873041491302
321	 1.2079873041491302
322	 1.2079873041491302
323	 1.2079873041491302
324	 1.2079873041491302
325	 1.2079873041491302
326	 1.2079873041491302
327	 1.2079873041491302
328	 1.2079873041491302
329	 1.2079873041491302
330	 1.2079873041491302
331	 1.2079873041491302
332	 1.2079873041491302
333	 1.2079873041491302
334	 1.2079873041491302
335	 1.2079873041491302
336	 1.2079873041491302
337	 1.2079873041491302
338	 1.2079873041491302
339	 1.2079873041491302
340	 1.2079873041491302
341	 1.2079873041491302
342	 1.2079873041491302
343	 1.2079873041491302
344	 1.2079873041491302
345	 1.2079873041491302
346	 1.2079873041491302
347	 1.2079873041491302
348	 1.2079873041491302
349	 1.2079873041491302
350	 1.2079873041491302
351	 1.2079873041491302
352	 1.2079873041491302
353	 1.2079873041491302
354	 1.2079873041491302
355	 1.2079873041491302
356	 1.2079873041491302
357	 1.2079873041491302
358	 1.2079873041491302
359	 1.2079873041491302
360	 1.2079873041491302
361	 1.2079873041491302
362	 1.2079873041491302
363	 1.2079873041491302
364	 1.2079873041491302
365	 1.2079873041491302
366	 1.2079873041491302
367	 1.2079873041491302
368	 1.2079873041491302
369	 1.2079873041491302
370	 1.2079873041491302
371	 1.2079873041491302
372	 1.2079873041491302
373	 1.2079873041491302
374	 1.2079873041491302
375	 1.2079873041491302
376	 1.2079873041491302
377	 1.2079873041491302
378	 1.2079873041491302
379	 1.2079873041491302
380	 1.2079873041491302
381	 1.2079873041491302
382	 1.2079873041491302
383	 1.2079873041491302
384	 1.2079873041491302
385	 1.2079873041491302
386	 1.2079873041491302
387	 1.2079873041491302
388	 1.2079873041491302
389	 1.2079873041491302
390	 1.2079873041491302
391	 1.2079873041491302
392	 1.2079873041491302
393	 1.2079873041491302
394	 1.2079873041491302
395	 1.2079873041491302
396	 1.2079873041491302
397	 1.2079873041491302
398	 1.2079873041491302
399	 1.2079873041491302
400	 1.2079873041491302
401	 1.2079873041491302
402	 1.2079873041491302
403	 1.2079873041491302
404	 1.2079873041491302
405	 1.2079873041491302
406	 1.2079873041491302
407	 1.2079873041491302
408	 1.2079873041491302
409	 1.2079873041491302
410	 1.2079873041491302
411	 1.2079873041491302
412	 1.2079873041491302
413	 1.2079873041491302
414	 1.2079873041491302
415	 1.2079873041491302
416	 1.2079873041491302
417	 1.2079873041491302
418	 1.2079873041491302
419	 1.2079873041491302
420	 1.2079873041491302
421	 1.2079873041491302
422	 1.2079873041491302
423	 1.2079873041491302
424	 1.2079873041491302
425	 1.2079873041491302
426	 1.2079873041491302
427	 1.2079873041491302
428	 1.2079873041491302
429	 1.2079873041491302
430	 1.2079873041491302
431	 1.2079873041491302
432	 1.2079873041491302
433	 1.2079873041491302
434	 1.2079873041491302
435	 1.2079873041491302
436	 1.2079873041491302
437	 1.2079873041491302
438	 1.2079873041491302
439	 1.2079873041491302
440	 1.2079873041491302
441	 1.2079873041491302
442	 1.2079873041491302
443	 1.2079873041491302
444	 1.2079873041491302
445	 1.2079873041491302
446	 1.2079873041491302
447	 1.2079873041491302
448	 1.2079873041491302
449	 1.2079873041491302
450	 1.2079873041491302
451	 1.2079873041491302
452	 1.2079873041491302
453	 1.2079873041491302
454	 1.2079873041491302
455	 1.2079873041491302
456	 1.2079873041491302
457	 1.2079873041491302
458	 1.2079873041491302
459	 1.2079873041491302
460	 1.2079873041491302
461	 1.2079873041491302
462	 1.2079873041491302
463	 1.2079873041491302
464	 1.2079873041491302
465	 1.2079873041491302
466	 1.2079873041491302
467	 1.2079873041491302
468	 1.2079873041491302
469	 1.2079873041491302
470	 1.2079873041491302
471	 1.2079873041491302
472	 1.2079873041491302
473	 1.2079873041491302
474	 1.2079873041491302
475	 1.2079873041491302
476	 1.2079873041491302
477	 1.2079873041491302
478	 1.2079873041491302
479	 1.2079873041491302
480	 1.2079873041491302
481	 1.2079873041491302
482	 1.2079873041491302
483	 1.2079873041491302
484	 1.2079873041491302
485	 1.2079873041491302
486	 1.2079873041491302
487	 1.2079873041491302
488	 1.2079873041491302
489	 1.2079873041491302
490	 1.2079873041491302
491	 1.2079873041491302
492	 1.2079873041491302
493	 1.2079873041491302
494	 1.2079873041491302
495	 1.2079873041491302
496	 1.2079873041491302
497	 1.2079873041491302
498	 1.2079873041491302
499	 1.2079873041491302
500	 1.2079873041491302
501	 1.2079873041491302
502	 1.2079873041491302
503	 1.2079873041491302
504	 1.2079873041491302
505	 1.2079873041491302
506	 1.2079873041491302
507	 1.2079873041491302
508	 1.2079873041491302
509	 1.2079873041491302
510	 1.2079873041491302
511	 1.2079873041491302
512	 1.2079873041491302
513	 1.2079873041491302
514	 1.2079873041491302
515	 1.2079873041491302
516	 1.2079873041491302
517	 1.2079873041491302
518	 1.2079873041491302
519	 1.2079873041491302
520	 1.2079873041491302
521	 1.2079873041491302
522	 1.2079873041491302
523	 1.2079873041491302
524	 1.2079873041491302
525	 1.2079873041491302
526	 1.2079873041491302
527	 1.2079873041491302
528	 1.2079873041491302
529	 1.2079873041491302
530	 1.2079873041491302
531	 1.2079873041491302
532	 1.2079873041491302
533	 1.2079873041491302
534	 1.2079873041491302
535	 1.2079873041491302
536	 1.2079873041491302
537	 1.2079873041491302
538	 1.2079873041491302
539	 1.2079873041491302
540	 1.2079873041491302
541	 1.2079873041491302
542	 1.2079873041491302
543	 1.2079873041491302
544	 1.2079873041491302
545	 1.2079873041491302
546	 1.2079873041491302
547	 1.2079873041491302
548	 1.2079873041491302
549	 1.2079873041491302
550	 1.2079873041491302
551	 1.2079873041491302
552	 1.2079873041491302
553	 1.2079873041491302
554	 1.2079873041491302
555	 1.2079873041491302
556	 1.2079873041491302
557	 1.2079873041491302
558	 1.2079873041491302
559	 1.2079873041491302
560	 1.2079873041491302
561	 1.2079873041491302
562	 1.2079873041491302
563	 1.2079873041491302
564	 1.2079873041491302
565	 1.2079873041491302
566	 1.2079873041491302
567	 1.2079873041491302
568	 1.2079873041491302
569	 1.2079873041491302
570	 1.2079873041491302
571	 1.2079873041491302
572	 1.2079873041491302
573	 1.2079873041491302
574	 1.2079873041491302
575	 1.2079873041491302
576	 1.2079873041491302
577	 1.2079873041491302
578	 1.2079873041491302
579	 1.2079873041491302
580	 1.2079873041491302
581	 1.2079873041491302
582	 1.2079873041491302
583	 1.2079873041491302
584	 1.2079873041491302
585	 1.2079873041491302
586	 1.2079873041491302
587	 1.2079873041491302
588	 1.2079873041491302
589	 1.2079873041491302
590	 1.2079873041491302
591	 1.2079873041491302
592	 1.2079873041491302
593	 1.2079873041491302
594	 1.2079873041491302
595	 1.2079873041491302
596	 1.2079873041491302
597	 1.2079873041491302
598	 1.2079873041491302
599	 1.2079873041491302
600	 1.2079873041491302
601	 1.2079873041491302
602	 1.2079873041491302
603	 1.2079873041491302
604	 1.2079873041491302
605	 1.2079873041491302
606	 1.2079873041491302
607	 1.2079873041491302
608	 1.2079873041491302
609	 1.2079873041491302
610	 1.2079873041491302
611	 1.2079873041491302
612	 1.2079873041491302
613	 1.2079873041491302
614	 1.2079873041491302
615	 1.2079873041491302
616	 1.2079873041491302
617	 1.2079873041491302
618	 1.2079873041491302
619	 1.2079873041491302
620	 1.2079873041491302
621	 1.2079873041491302
622	 1.2079873041491302
623	 1.2079873041491302
624	 1.2079873041491302
625	 1.2079873041491302
626	 1.2079873041491302
627	 1.2079873041491302
628	 1.2079873041491302
629	 1.2079873041491302
630	 1.2079873041491302
631	 1.2079873041491302
632	 1.2079873041491302
633	 1.2079873041491302
634	 1.2079873041491302
635	 1.2079873041491302
636	 1.2079873041491302
637	 1.2079873041491302
638	 1.2079873041491302
639	 1.2079873041491302
640	 1.2079873041491302
641	 1.2079873041491302
642	 1.2079873041491302
643	 1.2079873041491302
644	 1.2079873041491302
645	 1.2079873041491302
646	 1.2079873041491302
647	 1.2079873041491302
648	 1.2079873041491302
649	 1.2079873041491302
650	 1.2079873041491302
651	 1.2079873041491302
652	 1.2079873041491302
653	 1.2079873041491302
654	 1.2079873041491302
655	 1.2079873041491302
656	 1.2079873041491302
657	 1.2079873041491302
658	 1.2079873041491302
659	 1.2079873041491302
660	 1.2079873041491302
661	 1.2079873041491302
662	 1.2079873041491302
663	 1.2079873041491302
664	 1.2079873041491302
665	 1.2079873041491302
666	 1.2079873041491302
667	 1.2079873041491302
668	 1.2079873041491302
669	 1.2079873041491302
670	 1.2079873041491302
671	 1.2079873041491302
672	 1.2079873041491302
673	 1.2079873041491302
674	 1.2079873041491302
675	 1.2079873041491302
676	 1.2079873041491302
677	 1.2079873041491302
678	 1.2079873041491302
679	 1.2079873041491302
680	 1.2079873041491302
681	 1.2079873041491302
682	 1.2079873041491302
683	 1.2079873041491302
684	 1.2079873041491302
685	 1.2079873041491302
686	 1.2079873041491302
687	 1.2079873041491302
688	 1.2079873041491302
689	 1.2079873041491302
690	 1.2079873041491302
691	 1.2079873041491302
692	 1.2079873041491302
693	 1.2079873041491302
694	 1.2079873041491302
695	 1.2079873041491302
696	 1.2079873041491302
697	 1.2079873041491302
698	 1.2079873041491302
699	 1.2079873041491302
700	 1.2079873041491302
701	 1.2079873041491302
702	 1.2079873041491302
703	 1.2079873041491302
704	 1.2079873041491302
705	 1.2079873041491302
706	 1.2079873041491302
707	 1.2079873041491302
708	 1.2079873041491302
709	 1.2079873041491302
710	 1.2079873041491302
711	 1.2079873041491302
712	 1.2079873041491302
713	 1.2079873041491302
714	 1.2079873041491302
715	 1.2079873041491302
716	 1.2079873041491302
717	 1.2079873041491302
718	 1.2079873041491302
719	 1.2079873041491302
720	 1.2079873041491302
721	 1.2079873041491302
722	 1.2079873041491302
723	 1.2079873041491302
724	 1.2079873041491302
725	 1.2079873041491302
726	 1.2079873041491302
727	 1.2079873041491302
728	 1.2079873041491302
729	 1.2079873041491302
730	 1.2079873041491302
731	 1.2079873041491302
732	 1.2079873041491302
733	 1.2079873041491302
734	 1.2079873041491302
735	 1.2079873041491302
736	 1.2079873041491302
737	 1.2079873041491302
738	 1.2079873041491302
739	 1.2079873041491302
740	 1.2079873041491302
741	 1.2079873041491302
742	 1.2079873041491302
743	 1.2079873041491302
744	 1.2079873041491302
745	 1.2079873041491302
746	 1.2079873041491302
747	 1.2079873041491302
748	 1.2079873041491302
749	 1.2079873041491302
750	 1.2079873041491302
751	 1.2079873041491302
752	 1.2079873041491302
753	 1.2079873041491302
754	 1.2079873041491302
755	 1.2079873041491302
756	 1.2079873041491302
757	 1.2079873041491302
758	 1.2079873041491302
759	 1.2079873041491302
760	 1.2079873041491302
761	 1.2079873041491302
762	 1.2079873041491302
763	 1.2079873041491302
764	 1.2079873041491302
765	 1.2079873041491302
766	 1.2079873041491302
767	 1.2079873041491302
768	 1.2079873041491302
769	 1.2079873041491302
770	 1.2079873041491302
771	 1.2079873041491302
772	 1.2079873041491302
773	 1.2079873041491302
774	 1.2079873041491302
775	 1.2079873041491302
776	 1.2079873041491302
777	 1.2079873041491302
778	 1.2079873041491302
779	 1.2079873041491302
780	 1.2079873041491302
781	 1.2079873041491302
782	 1.2079873041491302
783	 1.2079873041491302
784	 1.2079873041491302
785	 1.2079873041491302
786	 1.2079873041491302
787	 1.2079873041491302
788	 1.2079873041491302
789	 1.2079873041491302
790	 1.2079873041491302
791	 1.2079873041491302
792	 1.2079873041491302
793	 1.2079873041491302
794	 1.2079873041491302
795	 1.2079873041491302
796	 1.2079873041491302
797	 1.2079873041491302
798	 1.2079873041491302
799	 1.2079873041491302
800	 1.2079873041491302
801	 1.2079873041491302
802	 1.2079873041491302
803	 1.2079873041491302
804	 1.2079873041491302
805	 1.2079873041491302
806	 1.2079873041491302
807	 1.2079873041491302
808	 1.2079873041491302
809	 1.2079873041491302
810	 1.2079873041491302
811	 1.2079873041491302
812	 1.2079873041491302
813	 1.2079873041491302
814	 1.2079873041491302
815	 1.2079873041491302
816	 1.2079873041491302
817	 1.2079873041491302
818	 1.2079873041491302
819	 1.2079873041491302
820	 1.2079873041491302
821	 1.2079873041491302
822	 1.2079873041491302
823	 1.2079873041491302
824	 1.2079873041491302
825	 1.2079873041491302
826	 1.2079873041491302
827	 1.2079873041491302
828	 1.2079873041491302
829	 1.2079873041491302
830	 1.2079873041491302
831	 1.2079873041491302
832	 1.2079873041491302
833	 1.2079873041491302
834	 1.2079873041491302
835	 1.2079873041491302
836	 1.2079873041491302
837	 1.2079873041491302
838	 1.2079873041491302
839	 1.2079873041491302
840	 1.2079873041491302
841	 1.2079873041491302
842	 1.2079873041491302
843	 1.2079873041491302
844	 1.2079873041491302
845	 1.2079873041491302
846	 1.2079873041491302
847	 1.2079873041491302
848	 1.2079873041491302
849	 1.2079873041491302
850	 1.2079873041491302
851	 1.2079873041491302
852	 1.2079873041491302
853	 1.2079873041491302
854	 1.2079873041491302
855	 1.2079873041491302
856	 1.2079873041491302
857	 1.2079873041491302
858	 1.2079873041491302
859	 1.2079873041491302
860	 1.2079873041491302
861	 1.2079873041491302
862	 1.2079873041491302
863	 1.2079873041491302
864	 1.2079873041491302
865	 1.2079873041491302
866	 1.2079873041491302
867	 1.2079873041491302
868	 1.2079873041491302
869	 1.2079873041491302
870	 1.2079873041491302
871	 1.2079873041491302
872	 1.2079873041491302
873	 1.2079873041491302
874	 1.2079873041491302
875	 1.2079873041491302
876	 1.2079873041491302
877	 1.2079873041491302
878	 1.2079873041491302
879	 1.2079873041491302
880	 1.2079873041491302
881	 1.2079873041491302
882	 1.2079873041491302
883	 1.2079873041491302
884	 1.2079873041491302
885	 1.2079873041491302
886	 1.2079873041491302
887	 1.2079873041491302
888	 1.2079873041491302
889	 1.2079873041491302
890	 1.2079873041491302
891	 1.2079873041491302
892	 1.2079873041491302
893	 1.2079873041491302
894	 1.2079873041491302
895	 1.2079873041491302
896	 1.2079873041491302
897	 1.2079873041491302
898	 1.2079873041491302
899	 1.2079873041491302
900	 1.2079873041491302
901	 1.2079873041491302
902	 1.2079873041491302
903	 1.2079873041491302
904	 1.2079873041491302
905	 1.2079873041491302
906	 1.2079873041491302
907	 1.2079873041491302
908	 1.2079873041491302
909	 1.2079873041491302
910	 1.2079873041491302
