C C C C C C C C C E E E G G G 
C C C E E E E E E E E E G G G 
C C C E E E G G G G G G G G G 
C C C C C C C C C E E E G G G 
C C C E E E G G G G G G G G G 
C C C E E E E E E E E E G G G 
C C C E E E G G G G G G G G G 
C C C E E E E E E E E E G G G 
C C C C C C C C C E E E G G G 
C C C E E E E E E E E E G G G 
C C C E E E G G G G G G G G G 
C C C C C C C C C E E E G G G 
C C C E E E G G G G G G G G G 
C C C E E E E E E E E E G G G 
C C C E E E G G G G G G G G G 
C C C E E E E E E E E E G G G 
A A A C C C C C C C C C F F F 
A A A C C C F F F F F F F F F 
A A A A A A A A A C C C F F F 
A A A C C C C C C C C C F F F 
A A A A A A A A A C C C F F F 
A A A C C C F F F F F F F F F 
A A A A A A A A A C C C F F F 
A A A C C C F F F F F F F F F 
A A A C C C C C C C C C F F F 
A A A C C C F F F F F F F F F 
A A A A A A A A A C C C F F F 
A A A C C C C C C C C C F F F 
A A A A A A A A A C C C F F F 
A A A C C C F F F F F F F F F 
A A A A A A A A A C C C F F F 
A A A C C C F F F F F F F F F 
B B B C C C C C C C C C G G G 
B B B C C C G G G G G G G G G 
B B B B B B B B B C C C G G G 
B B B C C C C C C C C C G G G 
B B B B B B B B B C C C G G G 
B B B C C C G G G G G G G G G 
B B B B B B B B B C C C G G G 
B B B C C C G G G G G G G G G 
B B B C C C C C C C C C G G G 
B B B C C C G G G G G G G G G 
B B B B B B B B B C C C G G G 
B B B C C C C C C C C C G G G 
B B B B B B B B B C C C G G G 
B B B C C C G G G G G G G G G 
B B B B B B B B B C C C G G G 
B B B C C C G G G G G G G G G 
C C C C C C C C C E E E G G G 
C C C E E E G G G G G G G G G 
C C C C C C C C C E E E G G G 
C C C E E E Eb Eb Eb Eb Eb Eb G G G 
C C C C C C C C C E E E G G G 
Bb Bb Bb Bb Bb Bb C C C E E E G G G 
C C C C C C C C C E E E G G G 
Bb Bb Bb Bb Bb Bb C C C E E E G G G 
C C C E E E G G G G G G G G G 
C C C E E E F F F F F F G G G 
C C C E E E G G G G G G G G G 
C C C E E E F F F F F F G G G 
C C C E E E Eb Eb Eb Eb Eb Eb G G G 
C C C C C C C C C E E E G G G 
Bb Bb Bb Bb Bb Bb C C C E E E G G G 
C C C E E E G G G G G G G G G 
A A A C C C F F F F F F F F F 
A A A A A A A A A C C C F F F 
A A A C C C C C C C C C F F F 
A A A C C C F F F F F F F F F 
A A A C C C C C C C C C F F F 
A A A A A A A A A C C C F F F 
A A A C C C C C C C C C F F F 
A A A A A A A A A C C C F F F 
A A A C C C F F F F F F F F F 
A A A A A A A A A C C C F F F 
A A A C C C C C C C C C F F F 
A A A C C C F F F F F F F F F 
A A A C C C C C C C C C F F F 
A A A A A A A A A C C C F F F 
A A A C C C C C C C C C F F F 
A A A A A A A A A C C C F F F 
B B B D D D G G G G G G G G G 
B B B B B B B B B D D D G G G 
B B B D D D D D D D D D G G G 
B B B D D D G G G G G G G G G 
B B B D D D D D D D D D G G G 
B B B B B B B B B D D D G G G 
B B B D D D D D D D D D G G G 
B B B B B B B B B D D D G G G 
B B B D D D G G G G G G G G G 
B B B B B B B B B D D D G G G 
B B B D D D D D D D D D G G G 
B B B D D D E E E E E E G G G 
B B B D D D F F F F F F G G G 
B B B D D D E E E E E E G G G 
B B B D D D D D D D D D G G G 
B B B B B B B B B D D D G G G 
C C C C C C C C C E E E G G G 
C C C E E E E E E E E E G G G 
C C C E E E G G G G G G G G G 
C C C C C C C C C E E E G G G 
C C C E E E G G G G G G G G G 
C C C E E E E E E E E E G G G 
C C C E E E G G G G G G G G G 
C C C E E E E E E E E E G G G 
A A A C C C C C C C C C F F F 
A A A C C C F F F F F F F F F 
A A A A A A A A A C C C F F F 
A A A C C C C C C C C C F F F 
A A A A A A A A A C C C F F F 
A A A C C C F F F F F F F F F 
A A A A A A A A A C C C F F F 
A A A C C C F F F F F F F F F 
C C C C C C C C C E E E G G G 
C C C E E E E E E E E E G G G 
C C C E E E G G G G G G G G G 
C C C C C C C C C E E E G G G 
C C C E E E G G G G G G G G G 
C C C E E E E E E E E E G G G 
C C C E E E G G G G G G G G G 
C C C E E E E E E E E E G G G 
B B B C C C C C C D D D G G G 
B B B D D D D D D D D D G G G 
B B B D D D G G G G G G G G G 
B B B B B B B B B D D D G G G 
B B B D D D G G G G G G G G G 
B B B D D D D D D D D D G G G 
B B B D D D G G G G G G G G G 
B B B D D D D D D D D D G G G 
C C C C C C C C C E E E G G G 
C C C E E E E E E E E E G G G 
C C C E E E G G G G G G G G G 
C C C C C C C C C E E E G G G 
C C C E E E G G G G G G G G G 
C C C E E E E E E E E E G G G 
C C C E E E G G G G G G G G G 
C C C E E E E E E E E E G G G 
C C C C C C 
G G G G G G G G G G G G 
Bb Bb Bb Bb Bb Bb Bb Bb Bb Bb Bb Bb 
G G G G G G G G G G G G 
F F F F F F F F F F F G 
Eb Eb Eb Eb Eb Eb Eb Eb Eb Eb Eb Eb 
C C C C C C C C C C C C 
Bb Bb Bb Bb Bb Bb Bb Bb Bb Bb Bb Bb 
C C C C C C C C C C C C 
C C C C C C C C C C C C 
C C C C C C C C C C C C C C C C C C C C C C C C E E E E E E G G G G G G 
C C C C C C C C C C C C C C C C C C C C C C C C E E E E E E G G G G G G 
C C C C C C C C C C C C C C C C C C C C C C C C E E E E E E G G G G G G 
C C C C C C C C C C C C C C C C C C C C C C C C E E E E E E G G G G G G 
C C C C C C C C C C C C C C C C C C C C C C C C E E E E E E G G G G G G 
C C C C C C C C C C C C C C C C C C C C C C C C E E E E E E G G G G G G 
