0	 0.27820828317722723
1	 0.47531665858238753
2	 0.9209495904489818
3	 2.163673145713437
4	 1.9776529298921766
5	 2.1291625896895083
6	 1.4194417264596721
7	 0.48686449556014766
8	 0.14907119849998599
9	 0.7302967433402214
10	 0.48686449556014766
11	 2.1675211990077856
12	 1.9706175005143267
13	 2.033060090930254
14	 1.0645812948447542
15	 0.47046076705006273
16	 0.4597100535482483
17	 0.6280481227138924
18	 0.24343224778007383
19	 1.0292032157252808
20	 0.6776866969767513
21	 1.0610965676722952
22	 1.4194417264596717
23	 1.9012666343295497
24	 0.6236095644623234
25	 1.1401754250991378
26	 0.8520128672302586
27	 0.9622504486493761
28	 1.1879019787470306
29	 1.064581294844754
30	 0.6776866969767514
31	 0.8902766944004502
32	 0.34694433324435536
33	 1.040832999733066
34	 0.8520128672302586
35	 1.5396007178390017
36	 1.8418991808979646
37	 1.064581294844754
38	 0.6776866969767514
39	 0.8681611046941136
40	 1.3574213025411797
41	 0.9737289911202953
42	 0.6666666666666666
43	 1.4656562175858798
44	 0.7302967433402214
45	 0.4472135954999579
46	 0.8520128672302585
47	 1.6843506277010847
48	 0.8944271909999159
49	 0.8944271909999159
50	 0.41275945824459354
51	 1.543636879196275
52	 0.7155417527999326
53	 0.19474579822405905
54	 0.41275945824459354
55	 1.222383827699885
56	 0.5842373946721772
57	 0.6639946452260657
58	 0.2434322477800738
59	 0.713468315370092
60	 0.9959919678390986
61	 0.29211869733608864
62	 0.7808826914318039
63	 0.9861259779786984
64	 0.3577708763999664
65	 0.2921186973360886
66	 0.9922663919495573
67	 1.5932264027345173
68	 0.8516650358758033
69	 0.29211869733608864
70	 0.5677766905838688
71	 1.9776529298921766
72	 0.7436978013636227
73	 0.3718489006818113
74	 0.0
75	 0.0
76	 0.912870929175277
77	 0.44721359549995787
78	 1.3416407864998738
79	 1.4832396974191326
80	 0.40166320883712175
81	 0.9995554567462033
82	 0.48686449556014766
83	 1.2171612389003692
84	 0.9128709291752771
85	 0.44721359549995787
86	 1.3416407864998738
87	 1.4832396974191326
88	 0.10954451150103311
89	 1.0594198272499766
90	 0.7097208632298361
91	 1.1374652348506424
92	 0.1622881651867159
93	 0.2165566517212525
94	 0.40555477898847775
95	 0.711024300256718
96	 0.14907119849998599
97	 0.31218494985182804
98	 0.15833152094076502
99	 0.7853689627897823
100	 0.09950904889075021
101	 0.12778875666492065
102	 0.27462861362369984
103	 0.687106316589295
104	 0.2510461734542062
105	 0.09973948312187625
106	 0.1519186546304705
107	 0.14907119849998596
108	 0.7097208632298361
109	 0.6666666666666666
110	 0.48686449556014766
111	 0.5962847939999438
112	 1.0610965676722952
113	 0.9737289911202953
114	 0.4868644955601476
115	 0.26666666666666666
116	 0.7810249675906654
117	 1.1080513425729772
118	 0.5577733510227171
119	 0.7518865162598231
120	 0.3087609647175843
121	 0.2063797291222968
122	 0.5305482838361476
123	 1.1407599805977298
124	 0.8434057939884768
125	 1.1080513425729772
126	 0.5577733510227171
127	 0.7518865162598231
128	 0.3087609647175843
129	 0.2063797291222968
130	 0.6938886664887108
131	 1.4832396974191324
132	 0.0
133	 0.0
134	 0.0
135	 0.0
136	 0.6552102040739548
137	 0.5574781547326452
138	 0.08114408259335792
139	 0.16228816518671582
140	 0.3978543274159794
141	 1.223474106341809
142	 0.7097208632298361
143	 1.3722709543003744
144	 0.6552102040739548
145	 0.48483164953936503
146	 0.4517911313178342
147	 0.3296088216486961
148	 0.7118514664507376
149	 0.3955305859784354
150	 0.769800358919501
151	 0.8663817195385745
152	 0.49331331290707936
153	 0.4816637831516918
154	 0.8027729719194864
155	 1.3249737942901192
156	 0.8027729719194864
157	 0.49441323247304414
158	 0.4714045207910317
159	 0.9758398303438921
160	 0.4057204129667898
161	 0.35369885589076505
162	 0.6491526607468637
163	 1.4956727707078967
164	 0.5577733510227171
165	 0.4868644955601476
166	 0.5305482838361476
167	 0.9428090415820634
168	 1.0110500592068734
169	 0.3651483716701106
170	 0.7552286874651746
171	 0.5962847939999438
172	 0.4868644955601476
173	 0.49441323247304414
174	 0.3849001794597505
175	 0.5305482838361476
176	 0.7097208632298362
177	 0.6938886664887107
178	 1.0073801739238344
179	 1.622881651867159
180	 1.2478788587401164
181	 0.236573621076612
182	 0.32457633037343175
183	 0.9434501902733566
184	 0.9095113437191101
185	 0.5356525537624457
186	 0.48686449556014766
187	 0.7708687846369005
188	 0.60993152148856
189	 0.9938079899999064
190	 0.4444444444444444
191	 0.8104258901693542
192	 0.47140452079103184
193	 0.0
194	 0.0
195	 0.6410026160176702
196	 0.4296494378627561
197	 1.283744522870497
198	 1.0818365728567185
199	 2.163673145713437
200	 1.9776529298921766
201	 2.1291625896895083
202	 1.4194417264596721
203	 0.48686449556014766
204	 0.0
205	 1.0954451150103321
206	 0.6776866969767512
207	 2.1675211990077856
208	 1.9706175005143267
209	 2.033060090930254
210	 1.0645812948447542
211	 0.47046076705006273
212	 0.4597100535482483
213	 0.6280481227138924
214	 0.24343224778007383
215	 1.0292032157252808
216	 0.6776866969767513
217	 1.0610965676722952
218	 1.4194417264596717
219	 1.9012666343295497
220	 0.6236095644623234
221	 1.1401754250991378
222	 0.8520128672302586
223	 0.8255189164891868
224	 0.9148972822328398
225	 1.064581294844754
226	 0.5577733510227171
227	 0.38490017945975047
228	 0.47531665858238736
229	 1.1401754250991378
230	 0.8520128672302586
231	 1.3249737942901192
232	 1.5646559200502035
233	 1.064581294844754
234	 0.5577733510227171
235	 1.462114146630754
236	 0.7810249675906654
237	 0.6483597538175626
238	 0.48686449556014766
239	 1.2156997680043893
240	 0.9654014708917735
241	 0.5805489101161391
242	 0.48686449556014766
243	 0.865469258285375
244	 0.9454591498923823
245	 0.5503459443261247
246	 0.39752319599996255
247	 0.840952820371354
248	 1.9799925177561581
249	 0.7681949341086046
250	 0.6491526607468637
251	 0.7886402682764325
252	 0.27036985265898517
253	 0.7867210694726963
254	 0.9035822626356683
255	 0.5882303538491978
256	 0.5826067173056234
257	 0.473147242153224
258	 0.946294484306448
259	 0.5357466186597837
260	 0.26585919572388916
261	 0.721224381904479
262	 0.32457633037343175
263	 0.16228816518671574
264	 0.3245763303734316
265	 0.16228816518671596
266	 0.0
267	 0.0
268	 0.1539600717839002
269	 0.14194417264596718
270	 0.21221931353445894
271	 1.282589972297085
272	 0.15396007178390012
273	 0.2863617658001008
274	 0.9589045887923895
275	 1.0594198272499766
276	 0.9200465187738166
277	 0.7633584016585631
278	 0.9035822626356685
279	 0.30792014356780045
280	 0.9122847003461126
281	 0.3245763303734316
282	 0.32457633037343175
283	 1.6977545082756722
284	 0.7789831928962362
285	 1.1575481395921514
286	 0.5503459443261248
287	 0.3616150330099199
288	 1.5603312933015114
289	 0.35369885589076494
290	 0.7950463919999256
291	 0.5166527278087895
292	 0.9866266258141586
293	 0.35369885589076516
294	 0.3975231959999628
295	 1.31042040814791
296	 0.6730558039466986
297	 1.0916819808557363
298	 0.7950463919999249
299	 2.046375899239349
300	 0.912870929175277
301	 0.44721359549995787
302	 1.3416407864998738
303	 2.5640104640706802
304	 0.608868695562002
305	 0.2838883452919344
306	 1.419441726459672
307	 1.5267168033171254
308	 0.34196238331860174
309	 1.8385179216282193
310	 0.7097208632298361
311	 0.29814239699997197
312	 0.6085806194501846
313	 0.24343224778007383
314	 1.338877362790406
315	 2.1430335024428793
316	 1.4832396974191326
317	 0.35486043161491804
318	 0.7097208632298361
319	 0.3849001794597505
320	 0.9593593541371087
321	 0.7876359377087679
322	 0.0
323	 2.005030710026195
324	 0.7627543763775645
325	 0.45179113131783427
326	 0.0
327	 1.4492796564617005
328	 0.3975231959999628
329	 0.45179113131783427
330	 0.6491526607468637
331	 0.9031551917646946
332	 0.3645138822738722
333	 0.3776143437325873
334	 0.24343224778007383
335	 0.717505968487242
336	 0.3548604316149181
337	 0.27888667551135854
338	 0.38490017945975036
339	 0.6960095741341997
340	 0.30139230677532947
341	 0.5432905383434335
342	 0.7607257743127307
343	 1.90126663432955
344	 1.9776529298921766
345	 1.5682025568335423
346	 0.0
347	 1.4144230599762548
348	 0.3183289703016886
349	 0.7958224257542215
350	 0.7490735018081408
351	 1.6815997674172585
352	 1.9706175005143267
353	 2.033060090930254
354	 1.0645812948447542
355	 0.47046076705006273
356	 0.4597100535482483
357	 0.6280481227138924
358	 0.24343224778007383
359	 1.0292032157252808
360	 0.7673909622147557
361	 0.9737289911202954
362	 1.4194417264596717
363	 2.1221931353445904
364	 0.6497862896539309
365	 1.1401754250991378
366	 0.8520128672302586
367	 1.0110500592068732
368	 0.825518916489187
369	 1.4259499757471625
370	 0.6776866969767514
371	 0.3849001794597505
372	 0.47531665858238736
373	 1.1401754250991378
374	 0.8520128672302586
375	 1.3249737942901192
376	 1.226255969895235
377	 1.4259499757471625
378	 0.6776866969767514
379	 0.8681611046941136
380	 1.3574213025411797
381	 0.9737289911202953
382	 0.48686449556014766
383	 1.1610978202322784
384	 0.7302967433402214
385	 0.0
386	 0.6776866969767514
387	 1.7040257344605165
388	 0.7302967433402214
389	 0.0
390	 0.42600643361512913
391	 0.9764637635270862
392	 0.7155417527999327
393	 0.6158402871356008
394	 0.24343224778007377
395	 1.5748015748023623
396	 0.8132240363721017
397	 1.0543736072681749
398	 0.4868644955601476
399	 0.8763560920082656
400	 0.9409215341001254
401	 0.772106306248141
402	 0.49441323247304414
403	 1.0564791281176111
404	 0.5842373946721772
405	 0.8572134009771516
406	 0.24343224778007386
407	 1.6637307474468337
408	 1.1684747893443541
409	 0.5740047747897934
410	 0.6776866969767513
411	 1.387563812346421
412	 0.8763560920082658
413	 0.6366579406033772
414	 0.5842373946721772
415	 1.5916448515084427
416	 1.02241544067631
417	 0.1460593486680443
418	 0.9673177883734505
419	 1.6375229712836028
420	 0.9462944843064478
421	 0.4731472421532239
422	 0.0
423	 0.0
424	 0.912870929175277
425	 0.44721359549995787
426	 1.3416407864998738
427	 1.4605934866804429
428	 0.2921186973360885
429	 0.9503215829976245
430	 0.48686449556014766
431	 1.2171612389003692
432	 0.9128709291752771
433	 0.44721359549995787
434	 1.3416407864998738
435	 1.2449899597988732
436	 0.31304951684997057
437	 0.8276696424522509
438	 1.0610965676722952
439	 1.3263707095903692
440	 0.24343224778007366
441	 0.13758648608153104
442	 0.5132002392796673
443	 0.7552286874651746
444	 0.2981423969999719
445	 0.09356392870229827
446	 0.32566947363946464
447	 0.7853689627897823
448	 0.09950904889075021
449	 0.12778875666492065
450	 0.27462861362369984
451	 0.687106316589295
452	 0.2510461734542062
453	 0.09973948312187625
454	 0.2936164006932264
455	 0.8085194516545063
456	 0.9428090415820634
457	 0.6666666666666666
458	 0.48686449556014766
459	 0.5962847939999438
460	 1.0610965676722952
461	 0.9737289911202953
462	 0.4868644955601476
463	 0.26666666666666666
464	 0.7810249675906654
465	 1.1080513425729772
466	 0.5577733510227171
467	 0.7518865162598231
468	 0.3087609647175843
469	 0.2063797291222968
470	 0.5305482838361476
471	 1.1407599805977298
472	 0.8434057939884768
473	 1.1080513425729772
474	 0.5577733510227171
475	 0.7518865162598231
476	 0.3087609647175843
477	 0.2063797291222968
478	 0.7601169500660919
479	 0.8520128672302584
480	 0.0
481	 0.0
482	 0.0
483	 0.0
484	 0.7555555555555553
485	 0.5574781547326452
486	 0.08114408259335792
487	 0.16228816518671582
488	 0.3978543274159794
489	 1.223474106341809
490	 0.7097208632298361
491	 1.3722709543003744
492	 0.6552102040739548
493	 0.5834479605189692
494	 0.3536988558907651
495	 0.3296088216486961
496	 0.7118514664507376
497	 0.3955305859784354
498	 0.769800358919501
499	 1.0610965676722952
500	 0.7605066537318201
501	 0.5992588014465129
502	 0.9428090415820635
503	 1.0434983894999021
504	 0.3333333333333333
505	 0.49441323247304414
506	 0.4714045207910317
507	 0.9758398303438921
508	 0.4057204129667898
509	 0.35369885589076505
510	 0.6491526607468637
511	 0.6776866969767513
512	 0.24343224778007383
513	 0.3849001794597505
514	 0.5305482838361476
515	 0.9428090415820634
516	 1.0110500592068734
517	 0.3651483716701106
518	 0.7552286874651746
519	 0.298142396999972
520	 0.5805489101161392
521	 0.5270462766947299
522	 0.9428090415820635
523	 1.5104573749303492
524	 0.6085806194501846
525	 0.49441323247304414
526	 0.7601169500660919
527	 0.9834013368408705
528	 0.3536988558907651
529	 0.5067446333773945
530	 0.473147242153224
531	 0.5069434737355972
532	 0.521640530957301
533	 0.43155924998009976
534	 0.5962847939999439
535	 1.4252283045760104
536	 0.6099315214885601
537	 0.7546835927081498
538	 1.0264004785593348
539	 0.5680085781535056
540	 0.14513722752903466
541	 0.08708233651742082
542	 0.0
