0	 0.6612165445260946
1	 0.36885708507185233
2	 0.8301144411595881
3	 0.9181466805393794
4	 1.2733484622872675
5	 0.8164685435098138
6	 1.0045829518921745
7	 0.7651094288378575
8	 1.8815703476288137
9	 1.8574045993008632
10	 0.4611607579586047
11	 0.36349475662874786
12	 1.7262702849011815
13	 1.4360629800050682
14	 1.6076489216805214
15	 1.387865665244032
16	 0.6060374516720093
17	 0.658106031888254
18	 0.7110163896910883
19	 0.5190063094103035
20	 2.0369457674409914
21	 1.6224857452847308
22	 0.7977178210665786
23	 1.0847789300062392
24	 1.3073280299964074
25	 1.1917261030804265
26	 0.6402277451568379
27	 0.73512659097822
28	 1.1371080249117997
29	 1.0398467805333058
30	 0.8030065378469763
31	 0.6231923735034701
32	 1.3669245683449953
33	 0.9432651688880137
34	 1.5277944867200393
35	 1.1036466797178108
36	 1.3669245683449953
37	 1.4836353229247157
38	 1.5082789615157117
39	 1.3824086846623633
40	 1.5044965066453677
41	 1.6824914047285588
42	 1.303703421386973
43	 1.0007048595237111
44	 0.8191540011516549
45	 1.0230835711964825
46	 0.9657245695691045
47	 1.0675589987791636
48	 0.48567022316445246
49	 0.29054048156827644
50	 1.676106602649839
51	 0.8959833792400226
52	 2.0369457674409914
53	 1.9034745990445217
54	 0.8111850256972959
55	 0.73512659097822
56	 2.1327569615468693
57	 1.9858769853793956
58	 0.409824063714508
59	 0.5279414890632961
60	 1.0225415975670762
61	 1.0341658980856308
62	 2.128658677007536
63	 2.1023437699352314
64	 1.2803314425201178
65	 0.8876313012650473
66	 1.9717156558177968
67	 1.5431539112000943
68	 1.2803314425201178
69	 1.4360629800050684
70	 2.0403427478322294
71	 1.4685922186785747
72	 1.5675473469755772
73	 1.6395394546279685
74	 1.2386704714580163
75	 0.9530376353496691
76	 0.8065756974965621
77	 0.8690208161127861
78	 0.8936191970701574
79	 0.5064372224854872
80	 0.6612165445260946
81	 0.5300640013281415
82	 1.5486859137655284
83	 1.208577673818339
84	 0.856974874800294
85	 1.1107678330044193
86	 2.013393084774246
87	 1.8999807779593743
88	 1.0254199309572694
89	 1.4787047864614493
90	 0.8414483360813801
91	 0.5025948898285554
92	 0.6187145657059944
93	 0.992895873631455
94	 1.1743996880947318
95	 0.8586865902754124
96	 2.2489492328837395
97	 1.96557796446564
98	 1.0968332464904957
99	 0.9340386983141783
100	 0.6748631028911846
101	 0.7531951650237214
102	 0.9258800872893742
103	 0.6048785561798519
104	 1.5749330254980403
105	 1.5820030883123861
106	 0.8434530692764719
107	 0.8192568409417926
108	 0.8622801871921705
109	 0.7812735052134075
110	 1.3127631563855144
111	 1.1901654386806588
112	 1.6068190932990618
113	 1.3463285030395045
114	 1.425203314435982
115	 0.9999464398361729
116	 0.878955165496261
117	 0.999811312357894
118	 1.2473076625976371
119	 1.207982521160768
120	 1.313527419477032
121	 1.121327979717171
122	 1.2807711194115887
123	 1.1347406267286126
124	 0.8536571975542049
125	 0.5521334993093207
126	 1.4027697505563828
127	 1.1671282234392433
128	 0.9896202091010478
129	 0.9026152091973468
130	 0.8434530692764719
131	 0.8143375364563381
132	 0.46778125474854526
133	 0.5568329701222002
134	 0.14119330440110717
135	 0.43788024020645094
136	 1.5300168998467814
137	 1.441340371919909
138	 0.39323444277616565
139	 0.3503329542554245
140	 1.2459780009443724
141	 1.2459780009443724
142	 1.2459780009443724
143	 1.2459780009443724
