0	 0.0
1	 0.0
2	 0.05841925547856891
3	 0.9845243435705194
4	 0.05668965253321351
5	 0.06877122745641173
6	 0.9840221092489547
7	 0.0440704628326864
8	 0.3439847097522969
9	 0.10539740637376471
10	 0.9028146166471811
11	 0.9659370727568594
12	 0.0625
13	 0.0
14	 0.0
15	 0.0
16	 0.1307255270620018
17	 0.061486563386127124
18	 0.854540036388119
19	 0.7664695814891596
20	 0.37500000000000006
21	 0.0011502200650214678
22	 0.9605475788647575
23	 0.3495857906009533
24	 0.23084728903802249
25	 0.07252216494274161
26	 0.9393343895967545
27	 0.4828622344654037
28	 0.010178560784828095
29	 0.5743664216101152
30	 0.2402421402855089
31	 0.3482827499512051
32	 0.20690540962219928
33	 0.517106309628512
34	 0.7177862025921886
35	 0.15574235813395593
36	 0.18569072145314397
37	 0.22131479914342317
38	 0.04730409065492891
39	 0.71997067253203
40	 0.008292448919610673
41	 0.0
42	 0.0
43	 0.05685082529949825
44	 0.193813782152103
45	 0.7420614591379632
46	 0.9670642765846458
47	 0.2573186641514623
48	 0.7420614591379635
49	 0.78125
50	 0.14644660940672616
51	 0.125
52	 0.20495157782395884
53	 0.03254166298172739
54	 0.09816285908505568
55	 0.021745356792665205
56	 0.8389538403416501
57	 0.0
58	 0.0
59	 0.7508762128616597
60	 0.024447998155905593
61	 0.0836479174979744
62	 0.09248812458701344
63	 0.6703928445027395
64	 0.07940026831293928
65	 0.19285244158302445
66	 0.05865336957017803
67	 0.20029787462144655
68	 0.0015997993272203193
69	 0.9455210556068152
70	 0.42345344553802566
71	 0.06249999999999989
72	 0.0
73	 0.0
74	 0.0
75	 0.32252554743389417
76	 0.041906006297418086
77	 0.0836479174979744
78	 0.09248812458701344
79	 0.6703928445027395
80	 0.0382157620175006
81	 0.2083637352291045
82	 0.5478182534797502
83	 0.32930541661134605
84	 0.009981044167576336
85	 0.7948839123097942
86	 0.02165539689253948
87	 0.048585513612155684
88	 0.20998707211388834
89	 0.013051403980556653
90	 0.8644344934278313
91	 0.8423265984407289
92	 0.0
93	 0.0
94	 1.0
95	 0.0
96	 0.0
97	 0.22131479914342328
98	 0.37499999999999956
99	 0.959279326771846
100	 0.6148198316929615
101	 0.17688483617925155
102	 1.0
103	 0.0
104	 0.0
105	 0.1753776781231084
106	 0.8164908872100656
107	 0.34642622079151203
108	 0.7335773271715281
109	 0.14530974436435695
110	 0.16104615965834973
111	 0.43220923193167005
112	 0.4455113686331922
113	 0.05672578046762916
114	 0.9637721131367898
115	 0.7633788764772731
116	 0.1848628224439936
117	 0.12570688093013133
118	 0.058058261758407836
119	 0.0669872981077807
120	 0.7294157338705618
121	 0.013157894736842035
122	 0.5389934168251235
123	 0.07818613510255701
124	 0.8061862178478972
125	 0.4571253537143726
126	 0.6546490899162659
127	 0.026950083208733877
128	 0.972455591261534
129	 0.09495370634950878
130	 0.8476700738480093
131	 0.7097039976538756
132	 0.007845930817613533
133	 0.6399377835265581
134	 0.011042261202800718
135	 0.5131035604590239
136	 0.4259804343170259
137	 0.022205758027226075
138	 0.07949779987082162
139	 0.04858666304184245
140	 0.7365849755540168
141	 0.8467114218895159
142	 0.06934705792048851
143	 0.5131035604590239
144	 0.22552810448322502
145	 0.0
146	 0.0
147	 0.9999999999999999
148	 0.0
149	 0.0
150	 0.0
151	 0.0
152	 0.0
153	 0.7955670838195825
154	 0.43398145469418614
155	 0.34986538628269054
156	 0.12484684500076182
157	 0.42924508623227764
158	 0.13682198404006368
159	 0.09374999999999994
160	 0.5183932582398232
161	 0.08159226449707074
162	 0.315946985096462
163	 0.8918227604476783
164	 0.25304270971318465
165	 0.53125
166	 0.6932747589581506
167	 0.009303960522982213
168	 0.031998783102427264
169	 0.9370841788586532
170	 0.4187431371966397
171	 0.34986538628269054
172	 0.08374011127605108
173	 0.2783776082195677
174	 0.516292609979521
175	 0.024992874839683432
176	 0.22448292025790662
177	 0.1395547243508849
178	 0.84375
179	 0.685367001271571
180	 0.16431155026523864
181	 0.15914835558995488
182	 0.3956988171658735
183	 0.08388014021808815
184	 0.03127772578828164
185	 0.780688338626785
186	 0.2213147991434234
187	 0.8675735220573528
188	 0.2111922326692231
189	 0.024861783503291546
190	 0.04628552602931374
191	 0.013331632149659656
192	 0.042981290695157104
193	 0.9770323263946921
194	 0.015877081724072817
195	 0.049306090567001304
196	 0.00132802359361478
197	 0.753041262664712
198	 0.43866453969012703
199	 0.07675968329496846
200	 0.22555475118179213
201	 0.5015872787772669
202	 0.07295080142266958
203	 0.0
204	 0.0
205	 5.551115123125783E-17
206	 1.0
207	 0.0
208	 0.9489199931713534
209	 0.25656978499586813
210	 0.16432115279401593
211	 0.0
212	 0.0
213	 0.09177743163492208
214	 0.9265625923135904
215	 0.0
216	 0.0
217	 0.04848566904700519
218	 0.0
219	 0.0
220	 0.0
221	 0.0
222	 0.08418398235960683
223	 0.7107318076058812
224	 0.3499387380003047
225	 0.08574805820578607
226	 0.0
227	 0.0
228	 0.0
229	 0.0
230	 0.02978545116215775
231	 0.22321428571428575
232	 0.061486563386127124
233	 0.08542190120557491
234	 0.26461051354807
235	 0.8998889952062756
236	 0.028378890858100747
237	 0.34246849054684875
238	 0.10906581114063113
239	 0.9835120176626628
240	 0.03149992893977516
241	 0.13854450318081696
242	 1.0
243	 0.405862718185912
244	 0.04839890272386632
245	 0.19381378215210276
246	 0.2893125429802368
247	 0.5923186182344996
248	 0.20645736355383626
249	 0.12703021864967196
250	 0.4443188833792201
251	 0.34836958487583447
252	 0.18410568317665427
253	 0.46099617743807425
254	 0.13556550657216881
255	 1.1102230246251565E-16
256	 0.18569072145314397
257	 0.1497636015421101
258	 0.5632410628731104
259	 0.21880833850537057
260	 0.11999674668830451
261	 0.13556550657216876
262	 0.04743036214474827
263	 0.34476989485873344
264	 0.4642857142857143
265	 0.0
266	 0.0
267	 0.0
268	 0.0
269	 0.0
270	 0.0
271	 0.0
272	 0.0
273	 0.0707158558694222
274	 0.6359136810697585
275	 0.7884075026202567
276	 0.13689770026177478
277	 0.4902539853051818
278	 0.5418205606962326
279	 0.8569001504501006
280	 0.0018416268836964345
281	 0.9930584322847129
282	 0.371728293543812
283	 0.6872517261934468
284	 0.18225796962991453
285	 0.18249287987763346
286	 0.6179416307773156
287	 0.0
288	 0.0
289	 0.5946175716901065
290	 0.2656243481444194
291	 0.8045032418600275
292	 0.1475522198678642
293	 0.188424663458564
294	 0.6459685520302856
295	 0.9384333897062385
296	 0.007191532146871682
297	 0.8723320550146182
298	 0.29876414889837577
299	 0.9335168411853786
300	 0.21577372664004985
301	 0.0
302	 0.0
303	 1.1102230246251565E-16
304	 0.09202914639486287
305	 0.8639973292574022
306	 0.4483134321818054
307	 0.16465879652532955
308	 0.13387908158414413
309	 0.6636634176769942
310	 0.021655396892539425
311	 0.5199310251294775
312	 0.05447894439318479
313	 0.3850741721793853
314	 0.013827565195602298
315	 0.6345068967122427
316	 0.12719943246033716
317	 0.13556550657216881
318	 0.1270302186496719
319	 0.7781469555832954
320	 0.2722559330467266
321	 0.27225593304672646
322	 0.3040328267481328
323	 0.48156975548063774
324	 0.0
325	 0.0
326	 1.0
327	 0.0
328	 0.0
329	 0.41304895704496847
330	 1.1102230246251565E-16
331	 0.020011426581585334
332	 0.1938137821521027
333	 0.5262552515755252
334	 0.24709343766912406
335	 0.10115943639002456
336	 0.864921380075714
337	 0.28104717195457163
338	 0.42094305849579056
339	 0.25000000000000006
340	 0.13556550657216876
341	 0.1351154205745041
342	 0.19999375630872906
343	 0.6622547828629672
344	 0.014277845852784132
345	 0.23208705938308982
346	 0.33540183501026827
347	 0.9065412369548049
348	 0.6813101669057107
349	 0.536196281679938
350	 0.08900731822567742
351	 0.10117901293499831
352	 0.8574523428645486
353	 0.16432115279401577
354	 0.08648724287738702
355	 0.6799057292822311
356	 0.2213147991434231
357	 0.14276625267726412
358	 0.8417995363907373
359	 0.06698729810778076
360	 0.43114717090559457
361	 0.43114717090559457
362	 0.1938137821521027
363	 0.9592793267718459
364	 0.0
365	 0.0
366	 1.0
367	 0.0
368	 0.0
369	 0.9725257180102459
370	 0.06325133148351036
371	 0.8135862288692419
372	 0.0641114235232344
373	 0.09628609908364139
374	 0.9777968263835908
375	 0.38209472271452516
376	 0.516004609991612
377	 0.3735214362999747
378	 0.18427893438773008
379	 0.2288369277266798
380	 0.10471529247895262
381	 0.18569072145314391
382	 0.9808464860103527
383	 0.1768848361792516
384	 0.6648925587194663
385	 0.7488572867381612
386	 1.0
387	 0.0
388	 0.0
389	 0.0
390	 0.0
391	 0.0
392	 0.0
393	 0.1307255270620018
394	 0.0
395	 1.0
396	 -1.1102230246251565E-16
397	 0.00998104416757628
398	 0.8553504191293351
399	 0.5946175716901068
400	 0.3439847097522969
401	 0.10539740637376471
402	 0.9028146166471811
403	 0.9659370727568594
404	 0.0625
405	 0.0
406	 0.0
407	 0.0
408	 0.1307255270620018
409	 0.06209434390914326
410	 0.9379056560908567
411	 0.9808464860103528
412	 0.14078939594645024
413	 0.01586054775373702
414	 0.8987206278758443
415	 0.37817083586005673
416	 0.23084728903802249
417	 0.07252216494274161
418	 0.9393343895967545
419	 0.4828622344654037
420	 0.010178560784828095
421	 0.5743664216101152
422	 0.2402421402855089
423	 0.3482827499512051
424	 0.20690540962219928
425	 0.517106309628512
426	 0.7177862025921886
427	 0.15574235813395593
428	 0.18569072145314397
429	 0.22131479914342317
430	 0.09432787353276101
431	 0.0
432	 0.0
433	 0.06249999999999989
434	 0.044032030957103896
435	 0.05954114555039969
436	 0.19381378215210265
437	 0.53125
438	 0.6384779273517494
439	 0.9385134366138728
440	 0.0789939504591412
441	 0.125
442	 0.14644660940672616
443	 0.125
444	 0.20495157782395884
445	 0.03254166298172739
446	 0.09816285908505568
447	 0.021745356792665205
448	 0.8389538403416501
449	 0.0
450	 0.0
451	 0.7508762128616597
452	 0.024447998155905593
453	 0.0836479174979744
454	 0.09248812458701344
455	 0.6703928445027395
456	 0.019564349447035112
457	 0.0920291463948627
458	 0.09405434515446764
459	 0.13348535734067163
460	 0.06490028060180675
461	 0.9455210556068152
462	 0.42345344553802566
463	 0.06249999999999989
464	 0.0
465	 0.0
466	 0.0
467	 0.854540036388119
468	 0.07771345984345057
469	 0.7899594860281964
470	 0.09248812458701344
471	 0.6703928445027395
472	 0.0382157620175006
473	 0.2083637352291045
474	 0.13681400114068015
475	 0.5134790966504297
476	 0.09369774583552892
477	 0.7948839123097942
478	 0.02165539689253948
479	 0.048585513612155684
480	 0.2766100556654353
481	 0.30972678823653027
482	 0.4090506551311896
483	 0.7582587542210855
484	 0.1500728938881174
485	 0.3424684905468489
486	 0.12396447650238329
487	 0.014187293276528123
488	 0.20998707211388834
489	 0.12075232507200795
490	 0.9773469514461604
491	 0.9920428705010836
492	 0.18915881442920268
493	 0.1171875
494	 0.9693542143163343
495	 0.9797870211503596
496	 0.8837299067108892
497	 0.20511608769020573
498	 0.5722629373529924
499	 0.8569287261676036
500	 0.21788774400679256
501	 0.18486282244399327
502	 0.16104615965834967
503	 0.9543303139298518
504	 0.4645023853595584
505	 0.0
506	 0.8464101615137756
507	 0.975
508	 0.21753365856698392
509	 0.9125684985035174
510	 0.44264606653235955
511	 0.988110519963715
512	 0.055784002984909375
513	 0.57791112811975
514	 0.6394720386590922
515	 0.9801536737673435
516	 0.03853100967425982
517	 0.8549761464044154
518	 0.14502385359558445
519	 0.9808464860103528
520	 0.8231151638207486
521	 0.0
522	 0.9107142857142858
523	 0.9945896696520568
524	 0.22185304441670445
525	 0.9037864265436242
526	 0.5
527	 0.8644344934278313
528	 0.04072067322815409
529	 0.0
530	 0.0
531	 0.9999999999999999
532	 0.0
533	 0.0
534	 0.0
535	 0.0
536	 0.0
537	 0.13917125339152553
538	 0.08733152950083822
539	 0.028378890858100747
540	 0.625
541	 0.375
542	 0.139711653938554
543	 0.5205963138642908
544	 0.007243405346747278
545	 0.5779111281197502
546	 0.21875000000000017
547	 0.193813782152103
548	 0.4999999999999995
549	 0.005894115598690741
550	 0.25348667171382544
551	 0.0
552	 0.0
553	 0.6875
554	 0.6687078283137238
555	 0.9920613798185375
556	 0.4450073318669927
557	 0.2579385408620366
558	 0.8173958594231299
559	 0.846711421889516
560	 0.9217308004238769
561	 0.034366926333582515
562	 0.9331107462050103
563	 0.9953931793776666
564	 0.8812765865392707
565	 0.0027766973901686143
566	 0.9718646522044219
567	 0.5934431251995502
568	 0.285626768571864
569	 0.19381378215210276
570	 0.9515285284986905
571	 0.9462865522811414
572	 0.06698729810778076
573	 0.12689874637768173
574	 0.4545454545454544
575	 0.7551473183931294
576	 0.20957649097047043
577	 0.6312226647919559
578	 0.9942360508422021
579	 0.99746738827305
580	 0.049774831109251794
581	 0.00930025393705286
582	 0.5376889180722205
583	 0.7338535866733713
584	 0.13162040176020667
585	 0.33620411923442195
586	 0.7202983513559129
587	 0.867812758618437
588	 0.8952847075210473
589	 0.0
590	 0.1938137821521027
591	 0.984122918275927
592	 0.8549761464044154
593	 0.06088906943266004
594	 0.9136374857092469
595	 0.8039625387438591
596	 0.4011788231197382
597	 0.0018416268836964345
598	 1.0
599	 0.0
600	 0.0
601	 0.19188198874333962
602	 0.43398145469418614
603	 0.34986538628269054
604	 0.318145947229192
605	 0.37830427187139093
606	 0.0790255694993029
607	 0.09803741097397972
608	 0.8471091915730908
609	 0.28891237650948237
610	 0.6899818556606374
611	 0.8342827632263455
612	 0.04803094580211886
613	 0.17158351572903213
614	 0.28995798739579853
615	 0.37499999999999994
616	 0.7419928767710571
617	 0.9892614541717379
618	 0.12604073682544742
619	 0.9816834276015378
620	 0.04789735421523866
621	 0.906302254164471
622	 0.5451446949071639
623	 0.5765465544619743
624	 0.11999674668830462
625	 0.4679029630616816
626	 0.36572846111760615
627	 0.9385290096535146
628	 0.06313419106575435
629	 0.012251703275910908
630	 0.8732829833737303
631	 0.524514516892273
632	 0.6875
633	 0.1938137821521027
634	 0.44264606653235955
635	 0.6606711467292878
636	 0.0
637	 0.0
638	 1.0
639	 0.0
640	 0.0
641	 0.061470990346485455
642	 0.9944030408023573
643	 0.4486334503062489
644	 0.5312499999999999
645	 0.1355655065721687
646	 0.8644344934278313
647	 0.46875000000000006
648	 0.36152207264825054
649	 0.07252216494274155
650	 0.6471713079976733
651	 0.8247033153367151
652	 0.625
653	 0.1938137821521026
654	 0.6224812729932319
655	 0.9892633301226126
656	 0.01120560674923865
657	 0.05936000755585469
658	 0.6450298377788302
659	 0.15930742806537657
660	 0.3363365823230057
661	 0.049436443110417005
662	 0.8173958594231301
663	 0.5582815505150196
664	 0.9359242881596486
665	 0.05050315485745244
666	 0.6547817294577396
667	 0.7869264720527382
668	 0.034366926333582515
669	 0.03893103405383341
670	 0.9200840252084029
671	 0.14078939594645024
672	 0.18569072145314391
673	 0.15221523743638715
674	 0.9500743986117344
675	 0.13556550657216854
676	 0.16104615965834967
677	 0.11183812286992573
678	 0.9999999999999999
679	 0.0
680	 0.0
681	 0.3012751606243018
682	 0.37560383585369
683	 0.893931510669713
684	 0.0
685	 0.0
686	 0.48893704226065393
687	 0.8470037623998385
688	 0.3439847097522969
689	 0.10539740637376471
690	 0.9028146166471811
691	 0.9659370727568594
692	 0.0625
693	 0.0
694	 0.0
695	 0.0
696	 0.11751568948829988
697	 0.0671198708517709
698	 0.8690091905210614
699	 0.44042207191750415
700	 0.211192232669223
701	 0.019980419197337174
702	 0.5950016081754017
703	 0.38450648249160596
704	 0.6565591691819792
705	 4.947067600949429E-4
706	 0.9841229182759272
707	 0.4093154687362485
708	 0.010178560784828095
709	 0.5743664216101152
710	 0.2402421402855089
711	 0.3482827499512051
712	 0.6182624791978165
713	 0.625
714	 0.19923399443039447
715	 0.5104384624284133
716	 0.45688990633028675
717	 0.1938137821521027
718	 0.18569072145314391
719	 0.5549926681330075
720	 1.0
721	 0.1938137821521027
722	 0.12128025351210808
723	 0.08054421391577116
724	 0.1938137821521027
725	 0.9375
726	 0.625
727	 0.9375
728	 0.07551456161996067
729	 0.005681818181818177
730	 0.14644660940672616
731	 0.125
732	 0.20495157782395884
733	 0.03254166298172739
734	 0.09816285908505568
735	 0.021745356792665205
736	 0.8389538403416501
737	 0.0
738	 0.0
739	 0.7508762128616597
740	 0.024447998155905593
741	 0.0836479174979744
742	 0.09248812458701344
743	 0.6703928445027395
744	 0.00716711709304213
745	 0.21601908287646754
746	 0.0893645769378123
747	 0.21104317749440715
748	 0.12257279019485262
749	 0.9455210556068152
750	 0.42345344553802566
751	 0.06249999999999989
752	 0.0
753	 0.0
754	 0.0
755	 0.32252554743389417
756	 0.041906006297418086
757	 0.0836479174979744
758	 0.09248812458701344
759	 0.6703928445027395
760	 0.0382157620175006
761	 0.2083637352291045
762	 0.15974064051364922
763	 0.43506929311923936
764	 0.09202914639486276
765	 0.7948839123097942
766	 0.02165539689253948
767	 0.048585513612155684
768	 0.20998707211388834
769	 0.013051403980556653
770	 0.8644344934278313
771	 0.8423265984407289
772	 0.0
773	 0.0
774	 1.0
775	 0.0
776	 0.0
777	 0.13242647794264745
778	 0.6575315094531513
779	 0.9543303139298518
780	 0.41019734898661253
781	 0.17688483617925155
782	 1.0
783	 0.0
784	 0.0
785	 0.23456060101378795
786	 0.3253784256551981
787	 0.35208781828232605
788	 0.02021355058354457
789	 0.07218240131199682
790	 0.32850141485749157
791	 0.9999999999999999
792	 0.7233149000672153
793	 0.013152945742481215
794	 0.9828862753442891
795	 0.9134511215479058
796	 0.02764866978186986
797	 0.23662470561100407
798	 0.15767340155927118
799	 0.22049150281252627
800	 0.7338535866733714
801	 0.24122541524661723
802	 0.0
803	 0.10471529247895234
804	 0.05952752490116203
805	 0.1269705710815694
806	 0.3988556525151652
807	 0.11627009328911064
808	 0.7937401687236355
809	 0.6080423609098431
810	 0.5268336744213181
811	 0.31887269765610193
812	 0.034785114760085833
813	 0.12584615723427967
814	 0.06250000000000006
815	 0.0
816	 0.0
817	 0.920084025208403
818	 0.08966249784885383
819	 0.48016215455397687
820	 0.15625
821	 0.15625
822	 0.375
823	 0.0
824	 1.0
825	 0.14078939594645024
826	 0.0774390178304924
827	 0.07818613510255701
828	 0.40439172998350736
829	 0.5627410698635755
830	 0.6459685520302854
831	 0.0
832	 0.0
833	 0.004115296319535278
834	 0.1539092067537836
835	 0.28184971419841265
836	 0.568153087061676
837	 0.568463538661919
838	 0.1739112197308077
839	 0.10471529247895256
840	 0.06766229883288305
841	 0.0
842	 0.0
843	 0.9999999999999999
844	 0.0
845	 0.0
846	 0.0
847	 0.0
848	 0.0
849	 0.9039772574460492
850	 0.43398145469418614
851	 0.34986538628269054
852	 0.12484684500076182
853	 0.42924508623227764
854	 0.13682198404006368
855	 0.09374999999999994
856	 0.6495024861916465
857	 0.7172220763724906
858	 0.3769463509863054
859	 0.6075091585776867
860	 0.2778030703094443
861	 0.40679985811508407
862	 0.6932747589581506
863	 0.009303960522982213
864	 0.031998783102427264
865	 0.9370841788586532
866	 0.4187431371966397
867	 0.34986538628269054
868	 0.08374011127605108
869	 0.2783776082195677
870	 0.516292609979521
871	 0.024992874839683432
872	 0.23551875089937319
873	 0.016966698592751128
874	 0.8696636008178231
875	 0.67428316349683
876	 0.07970183486238536
877	 0.05700534308521754
878	 0.43862621837112714
879	 0.3363365823230058
880	 0.11533475650657415
881	 0.11927190116399627
882	 0.3750000000000001
883	 0.6875
884	 0.2757462707125304
885	 0.03745700100727484
886	 0.06932662702737724
887	 0.00291703010158767
888	 0.042981290695157104
889	 0.9770323263946921
890	 0.015877081724072817
891	 0.049306090567001304
892	 0.00132802359361478
893	 0.9314335671979541
894	 0.3061530540069681
895	 0.032303125057401405
896	 0.2625541475803531
897	 0.4407734365976199
898	 0.07295080142266958
899	 0.0
900	 0.0
901	 5.551115123125783E-17
902	 1.0
903	 0.0
904	 0.9489199931713534
905	 0.25656978499586813
906	 0.16432115279401593
907	 0.0
908	 0.0
909	 0.09177743163492208
910	 0.9265625923135904
911	 0.0
912	 0.0
913	 0.04848566904700519
914	 0.0
915	 0.0
916	 0.0
917	 0.0
918	 0.08418398235960683
919	 0.7107318076058812
920	 0.3499387380003047
921	 0.08574805820578607
922	 0.0
923	 0.0
924	 0.0
925	 0.0
926	 0.02978545116215775
927	 0.22321428571428575
928	 0.029300927143997846
929	 0.22049150281252622
930	 0.20253431355953905
931	 0.9911241514813471
932	 0.15441176470588236
933	 0.34246849054684875
934	 0.08033758499757682
935	 0.988693021889699
936	 0.017928014283730753
937	 0.1131591945816498
938	 0.20814560938607007
939	 0.5431992263363072
940	 0.41676176350619537
941	 0.19381378215210276
942	 0.2893125429802368
943	 0.5923186182344996
944	 0.20645736355383626
945	 0.12703021864967196
946	 0.8317967134087976
947	 0.034893256942655715
948	 0.43720862312908093
949	 0.3424684905468489
950	 0.13556550657216881
951	 1.1102230246251565E-16
952	 0.3323940474829462
953	 0.15938634262713403
954	 0.39807592242677814
955	 0.13166229062738538
956	 0.05241634767586234
957	 0.13556550657216876
958	 0.04743036214474827
959	 0.2420486813293194
960	 0.43367634675719274
961	 0.0
962	 0.0
963	 0.0
964	 0.0
965	 0.0
966	 0.0
967	 0.0
968	 0.0
969	 0.0
970	 0.0
971	 0.9015609146642531
972	 0.8424391873595569
973	 0.325489606671639
974	 0.5418205606962326
975	 0.8569001504501006
976	 0.0018416268836964345
977	 0.9930584322847129
978	 0.371728293543812
979	 0.6872517261934468
980	 0.18225796962991453
981	 0.18249287987763346
982	 0.6179416307773156
983	 0.0
984	 0.0
985	 0.5946175716901065
986	 0.2656243481444194
987	 0.8045032418600275
988	 0.1475522198678642
989	 0.188424663458564
990	 0.6459685520302856
991	 0.9384333897062385
992	 0.006575966494176466
993	 0.3294449315626176
994	 0.4098810596156827
995	 0.7275166008909715
996	 0.10070214687503753
997	 0.7587745847533829
998	 0.03284534565694386
999	 0.23295454545454547
1000	 0.28931254298023684
1001	 0.7949624398276685
1002	 0.4019265350738893
1003	 0.8146284300488035
1004	 0.16384195362470183
1005	 0.536196281679938
1006	 0.08900731822567742
1007	 0.10117901293499831
1008	 0.23217216588514306
1009	 0.7766650000762773
1010	 0.026261622413934038
1011	 0.6500056713991362
1012	 0.12719943246033716
1013	 0.13556550657216881
1014	 0.1270302186496719
1015	 0.7781469555832954
1016	 0.2722559330467266
1017	 0.27225593304672646
1018	 0.3040328267481328
1019	 0.48156975548063774
1020	 0.0
1021	 0.0
1022	 1.0
1023	 0.0
1024	 0.0
1025	 0.41304895704496847
1026	 0.005894115598690797
1027	 0.05659941062139956
1028	 0.28002932746797005
1029	 0.211192232669223
1030	 0.417936186484358
1031	 0.04064119250993825
1032	 0.864921380075714
1033	 0.28104717195457163
1034	 0.24497054164167265
1035	 0.10847873395228758
1036	 0.1324264779426474
1037	 0.5000000000000001
1038	 0.055900179745982936
1039	 0.6622547828629672
1040	 0.26972621056762114
1041	 0.030049613911622308
1042	 0.5083148763154721
1043	 0.2789260470362861
1044	 0.7727272727272727
1045	 0.3100098510856629
1046	 0.3739734292438355
1047	 0.07397948476498667
1048	 0.8292194724861099
1049	 0.06962785264356935
1050	 0.17702979588319184
1051	 0.4641144217647991
1052	 0.32394045449691444
1053	 0.9229530930084906
1054	 0.14577636541062405
1055	 0.28002932746797027
1056	 0.039348458258915586
1057	 0.5580193739696908
1058	 0.18749999999999983
1059	 0.984122918275927
1060	 0.0
1061	 0.0
1062	 1.0
1063	 0.0
1064	 0.0
1065	 0.39055191929962574
1066	 0.03316234352992836
1067	 0.49227638230089094
1068	 0.21477172603468853
1069	 0.016908228620619026
1070	 0.9068407541644044
1071	 0.3285014148574912
1072	 0.014810799469645974
1073	 0.032672298233701325
1074	 0.7160762147017841
1075	 0.04269437951001259
1076	 0.13072552706200197
1077	 0.6636634176769943
1078	 0.7454951265154915
1079	 0.4687499999999999
1080	 0.44518387379331076
1081	 0.0
1082	 0.0
1083	 1.0
1084	 0.0
1085	 0.0
1086	 0.0
1087	 0.0
