0	 0.8059163597032468
1	 0.6899718681492263
2	 0.6121058115361637
3	 0.8358444793453791
4	 0.923156658359983
5	 0.4784438585415312
6	 0.5748626833977478
7	 0.8059163597032468
8	 1.738564114100292
9	 0.8391651015898017
10	 0.7616715494277725
11	 2.4911838910119286
12	 1.4802242551397407
13	 1.7237719603909114
14	 1.7237719603909114
15	 1.4802242551397407
16	 1.664593597700051
17	 0.9470055854309061
18	 0.7383221175122032
19	 0.5300640013281415
20	 1.8427623772036734
21	 0.446653558207651
22	 0.8722840989079783
23	 1.1411116709174436
24	 0.7462813447380283
25	 0.49108571434865966
26	 0.9325095536916618
27	 1.0114187290652668
28	 1.2942311292324762
29	 1.2807711194115887
30	 0.6756333168497045
31	 1.2779196611363388
32	 0.8282607352180834
33	 0.5300640013281412
34	 0.5384544352471556
35	 0.923156658359983
36	 1.1917261030804265
37	 1.3750130481348302
38	 1.254509197648818
39	 1.1919175311486763
40	 2.4911838910119286
41	 2.4911838910119286
42	 1.0865753852016997
43	 2.2612686362977747
44	 1.8316935275414756
45	 0.1366677274495417
46	 0.797659628250695
47	 0.8737306099921951
48	 0.8963664063277297
49	 1.4693922632441543
50	 1.0825778396204742
51	 1.7950298855307238
52	 1.2942311292324762
53	 1.146156640910831
54	 0.6593173750626896
55	 0.9582036400861614
56	 1.2459780009443717
57	 1.2459780009443717
58	 0.9101878810648564
59	 1.634203711729332
60	 1.2468566080586632
61	 0.49645608617882814
62	 1.4787047864614489
63	 1.7006601314022258
64	 1.2415448535118563
65	 1.8191757578905319
66	 0.9874402490804189
67	 1.7950298855307238
68	 1.2942311292324762
69	 1.3507617032020613
70	 1.1919175311486763
71	 1.4802242551397407
72	 1.4802242551397407
73	 1.4802242551397407
74	 0.8740040305994018
75	 1.634203711729332
76	 1.2468566080586632
77	 0.49645608617882814
78	 1.4787047864614489
79	 1.7006601314022258
80	 1.2752275008159655
81	 1.2853792613481827
82	 1.5608472987286244
83	 0.8737306099921951
84	 1.1371080249117997
85	 2.013342492883947
86	 0.4815433455589935
87	 1.7237719603909114
88	 1.664593597700051
89	 1.1834703117684588
90	 1.0854737117209856
91	 1.2459780009443717
92	 1.2459780009443717
93	 1.0854737117209856
94	 1.1334465928473794
95	 1.1334465928473794
96	 1.664593597700051
97	 1.7847855834349777
98	 1.5353499857808752
99	 0.8737306099921951
100	 0.7820877053357465
101	 0.5384544352471556
102	 0.8059163597032468
103	 0.8059163597032468
104	 1.015585141107004
105	 1.0602622287208707
106	 1.2663111171840828
107	 1.1610782828204704
108	 1.236219862810699
109	 2.0860624243048416
110	 1.36868820447155
111	 1.3814380567956202
112	 0.8090421366265995
113	 1.119986042052707
114	 1.7636563097262836
115	 2.160642461284142
116	 0.3847063251561002
117	 1.5367066737212913
118	 0.6660175681313185
119	 1.234464163688005
120	 1.5666294537969083
121	 1.3272733932083527
122	 0.304168997166597
123	 0.8149485743513717
124	 1.457421007688632
125	 1.4296954846530545
126	 0.7804212497013914
127	 1.0490162557192615
128	 1.790925229828798
129	 1.6275431589954499
130	 0.5576621248605647
131	 1.023378121144542
132	 0.42468654360459174
133	 1.239763355982638
134	 0.7804212497013914
135	 1.1778695744406038
136	 1.1816146490448285
137	 1.083865028986338
138	 1.198198806057381
139	 1.023378121144542
140	 1.083865028986338
141	 1.239763355982638
142	 0.7804212497013914
143	 1.1778695744406038
144	 1.2805827930861964
145	 1.2805827930861964
146	 0.9784807625628855
147	 0.7616715494277725
148	 0.7616715494277725
149	 0.7616715494277725
150	 0.7616715494277725
151	 0.7616715494277725
152	 0.5088167498813128
153	 0.5278054357566698
154	 0.4725898632401391
155	 0.6300199828873155
156	 0.2246290628444378
157	 0.36452590857304895
158	 0.5947378661684636
159	 0.2246290628444378
160	 0.9210249883567053
161	 0.6768646260864944
162	 0.8040421067640539
163	 2.1330802960056854
164	 2.0860624243048416
165	 1.8354423811149418
166	 1.6154183477033408
167	 1.5367066737212913
168	 0.6641760961192923
169	 0.5278054357566698
170	 0.4725898632401391
171	 0.6300199828873155
172	 0.8412908033934344
173	 0.6848401635313401
174	 0.6641760961192923
175	 0.8412908033934344
176	 0.6847719779828397
177	 0.8191540011516549
178	 0.9592552145244952
179	 1.4918508989718975
180	 1.6154183477033408
181	 1.4336022981314251
182	 1.2468566080586632
183	 1.634203711729332
184	 0.7110163896910883
185	 0.7548326892191914
186	 0.9115095119415744
187	 1.1509384727854677
188	 0.4774541645528458
189	 1.2468166848033433
190	 1.6154183477033408
191	 1.5367066737212913
192	 0.34106737840947365
193	 0.3442606585997819
194	 0.44665355820765107
195	 0.5113967738643008
196	 0.30624680367843726
197	 0.7109005407490794
198	 0.8926298189351216
199	 0.8468684761368618
200	 0.7476493689138868
201	 0.6952088902333999
202	 0.768554483203467
203	 0.768554483203467
204	 0.6847971267194828
205	 0.7491950205636269
206	 0.8805497405053277
207	 0.6847971267194828
208	 0.5504503418450508
209	 0.580225876470726
210	 0.645569166865723
211	 0.645569166865723
212	 0.7107576507478429
213	 0.5970329796898437
214	 0.6124093229510255
215	 0.6124093229510255
216	 1.634203711729332
217	 0.8391651015898017
218	 0.8391651015898017
219	 1.738564114100292
220	 1.738564114100292
221	 1.634203711729332
222	 1.2279438373664417
223	 0.7820877053357465
224	 1.1667827851516417
225	 0.7616715494277725
226	 0.7616715494277725
227	 2.4911838910119286
228	 2.4911838910119286
229	 1.1667827851516417
230	 1.5636247042926796
231	 0.7820877053357465
232	 2.255513506684749
233	 1.8354423811149418
234	 1.7847855834349773
235	 1.664593597700051
236	 1.894348435122786
237	 1.2251343664571532
238	 0.5576621248605647
239	 1.7237719603909114
240	 0.2838682420372757
241	 0.8059163597032468
242	 1.0886088272824783
243	 1.3916338895489133
244	 2.314959561510724
245	 2.255513506684749
246	 1.4640453017253254
247	 1.664593597700051
248	 0.6124093229510255
249	 0.6532812855857671
250	 0.30902229504897105
251	 0.6847971267194828
252	 1.1917261030804265
253	 1.3750130481348302
254	 1.3309799317936137
255	 1.664593597700051
256	 2.1842154607174935
257	 1.770608807503143
258	 1.6568404808059622
259	 1.1177204949195745
260	 1.236219862810699
261	 1.437079391974338
262	 1.2184104372715083
263	 0.3823779315559894
264	 1.4188755567363898
265	 1.4188755567363898
266	 1.4188755567363898
267	 1.4188755567363898
268	 1.4188755567363898
269	 1.4188755567363898
270	 1.4188755567363898
271	 1.4188755567363898
272	 1.6239940431197284
273	 1.573648726571404
274	 0.8532579312286995
275	 1.79045837115453
276	 1.0125577978879383
277	 0.921049112101617
278	 0.7772869627484643
279	 1.8848955461747996
280	 0.43132550252147067
281	 0.5413172869720512
282	 0.7365415842760987
283	 1.1919175311486763
284	 2.4700627959374573
285	 2.2329694216662688
286	 1.6154183477033408
287	 1.6154183477033408
288	 1.4735980356280611
289	 1.7518430911112928
290	 0.8532579312286995
291	 0.6847971267194828
292	 0.8568201967853152
293	 0.7114471499346177
294	 0.7711666605497841
295	 2.3512939248899025
296	 0.33063263002761756
297	 0.7199876612382158
298	 0.5964636903780264
299	 0.9308093616451342
300	 1.547075087701137
301	 1.547075087701137
302	 1.2779196611363388
303	 1.547075087701137
304	 0.5572075086033189
305	 0.2672751272605593
306	 0.9165821802342914
307	 0.5615271448406468
308	 0.2468482686312023
309	 0.8587419702273354
310	 0.29638937281693273
311	 0.9642354835444618
312	 0.42468654360459174
313	 1.372445287698647
314	 0.7356264105334789
315	 1.2642808500195764
316	 0.7480614905555212
317	 1.6546826464064985
318	 1.2838246653768284
319	 1.2932135658836403
320	 0.3039677428838076
321	 0.18999677772307685
322	 0.4490851168896816
323	 0.7134526335495684
324	 0.7134526335495684
325	 0.982509766980369
326	 1.1667827851516417
327	 1.1667827851516417
328	 1.0322191094668052
329	 0.5780053770289428
330	 1.0322191094668052
331	 0.9396356234005068
332	 0.5213073248914516
333	 0.44665355820765107
334	 0.6054841903495576
335	 0.45728359903723254
336	 1.1919175311486763
337	 1.2086508522071362
338	 0.9308093616451342
339	 1.6154183477033408
340	 1.3036950880252012
341	 0.7410607969412896
342	 0.5947978127873307
343	 0.9642354835444618
344	 0.941188292032766
345	 1.0723745170243737
346	 1.2468166848033433
347	 1.2805827930861964
348	 0.8933088684172393
349	 0.9653063959679292
350	 1.3814380567956202
351	 1.041273931806398
352	 1.0883809897445533
353	 0.7193401253053874
354	 0.738101765256235
355	 1.1411116709174436
356	 1.258299202312803
357	 0.7801953181049529
358	 1.7220455088042501
359	 1.2282553092754207
360	 0.6423115741298778
361	 0.5572075086033189
362	 0.17234135016661278
363	 0.760481032675737
364	 0.760481032675737
365	 0.22778636350098772
366	 0.6562313229400923
367	 0.6562313229400923
368	 0.8059163597032468
369	 1.2046265723606353
370	 0.4487016590534666
371	 1.471417404694308
372	 1.8316935275414747
373	 0.48708550578768445
374	 0.5836570475953355
375	 0.3926828816029545
376	 1.087982635833114
377	 0.9454767744903667
378	 0.578744499151602
379	 0.7339061356020743
380	 0.7480614905555212
381	 0.4047910727550562
382	 0.6739674390343241
383	 0.6033723691671423
384	 0.4121674160305899
385	 0.474863612463907
386	 0.5864308815515545
387	 0.5864308815515545
388	 0.5864308815515545
389	 0.5864308815515545
390	 0.5864308815515545
391	 0.5864308815515545
392	 0.42320347214706705
393	 0.7233679415327537
394	 0.5848850883655996
395	 1.2459780009443717
396	 1.79045837115453
397	 0.3143201852209516
398	 0.5748626833977478
399	 0.8059163597032468
400	 1.738564114100292
401	 0.8391651015898017
402	 0.7616715494277725
403	 2.4911838910119286
404	 1.4802242551397407
405	 1.7237719603909114
406	 1.7237719603909114
407	 1.4802242551397407
408	 1.664593597700051
409	 0.7919517528469352
410	 0.2514477656240621
411	 1.4802242551397407
412	 2.255513506684749
413	 0.6407481919631144
414	 0.8722840989079783
415	 1.1411116709174436
416	 0.7462813447380283
417	 0.49108571434865966
418	 0.9325095536916618
419	 1.0114187290652668
420	 1.2942311292324762
421	 1.2807711194115887
422	 0.6756333168497045
423	 1.2779196611363388
424	 0.8282607352180834
425	 0.5300640013281412
426	 0.5384544352471556
427	 0.923156658359983
428	 1.1917261030804265
429	 1.3750130481348302
430	 1.1919175311486763
431	 1.1919175311486763
432	 1.79045837115453
433	 1.1549214600297864
434	 1.296347973241067
435	 1.4188755567363898
436	 0.9246475971078567
437	 0.5346712326144744
438	 0.7554798286055862
439	 1.6662140255193307
440	 0.8963664063277297
441	 1.4693922632441543
442	 1.0825778396204742
443	 1.7950298855307238
444	 1.2942311292324762
445	 1.146156640910831
446	 0.6593173750626896
447	 0.9582036400861614
448	 1.2459780009443717
449	 1.2459780009443717
450	 0.9101878810648564
451	 1.634203711729332
452	 1.2468566080586632
453	 0.49645608617882814
454	 1.4787047864614489
455	 1.7006601314022258
456	 1.2578178021008357
457	 1.5688159704719047
458	 0.8607608139531754
459	 1.7950298855307238
460	 1.2942311292324762
461	 1.3507617032020613
462	 1.1919175311486763
463	 1.4802242551397407
464	 1.4802242551397407
465	 1.4802242551397407
466	 1.371433646044897
467	 1.7518430911112928
468	 1.2468566080586632
469	 0.49645608617882814
470	 1.4787047864614489
471	 1.7006601314022258
472	 1.2752275008159655
473	 1.2271386143534615
474	 1.433259913217883
475	 0.8737306099921951
476	 1.1371080249117997
477	 2.013342492883947
478	 0.4815433455589935
479	 1.7237719603909114
480	 1.66722919205409
481	 1.806570598395059
482	 1.122259794122555
483	 1.1177204949195745
484	 1.7054343188391545
485	 2.4911838910119286
486	 0.4815433455589935
487	 1.7237719603909114
488	 1.664593597700051
489	 0.899607719834391
490	 0.7146445617362706
491	 0.789847519944995
492	 1.3127631563855144
493	 0.7712987349322665
494	 0.4838787151095807
495	 0.9783185088524387
496	 1.79045837115453
497	 1.3821653948921357
498	 1.0564239438822387
499	 0.5864308815515545
500	 0.9482497684058655
501	 1.0040754534824028
502	 0.921049112101617
503	 1.1177204949195747
504	 0.7407616657900163
505	 0.9813486530470875
506	 1.0861295394050365
507	 1.4918508989718975
508	 0.6548111355816865
509	 0.6849089406823609
510	 0.5459950197148163
511	 0.8401975920294869
512	 0.7337773360068661
513	 0.8775654840736008
514	 0.9297643987987211
515	 1.1177204949195745
516	 1.122583327412928
517	 1.175568078168742
518	 0.8005500230036598
519	 1.1177204949195745
520	 1.2459780009443717
521	 1.1316559454345356
522	 0.9507631815531161
523	 1.2475830830881376
524	 0.6548111355816865
525	 0.5485148015134219
526	 0.33063263002761756
527	 0.4358077994903172
528	 0.2672751272605593
529	 0.2672751272605593
530	 0.17751872859487922
531	 0.5888365121972248
532	 0.5888365121972248
533	 0.5888365121972249
534	 0.5888365121972249
535	 0.5888365121972249
536	 0.8538575609508232
537	 0.8810675811429206
538	 0.7893990360372836
539	 0.6897888197661444
540	 0.7788043406784244
541	 0.8572721040129643
542	 0.586976200811255
543	 0.737690586261988
544	 0.8725856814261427
545	 0.9380372382367422
546	 1.2307875321141757
547	 1.1779441323073574
548	 0.9566149701209758
549	 1.2828758968007916
550	 0.9325095536916618
551	 0.9325095536916618
552	 1.437079391974338
553	 1.5085110767353522
554	 1.2410716238578465
555	 1.0594965231377764
556	 1.0097187695849512
557	 0.5561067578823657
558	 0.3970021118076328
559	 0.789847519944995
560	 2.4911838910119286
561	 2.1418537099652144
562	 1.8858878146960982
563	 1.5367066737212913
564	 1.2279438373664415
565	 0.3382495879902959
566	 0.9089255141979276
567	 1.0079107071820141
568	 1.4188755567363898
569	 1.462041851697907
570	 1.6520820863351784
571	 1.9034745990445217
572	 1.0791146547501764
573	 0.7132388608765607
574	 0.46778125474854537
575	 1.087982635833114
576	 1.4188755567363898
577	 1.462041851697907
578	 1.7009340092843734
579	 2.0860624243048416
580	 0.6562313229400923
581	 0.4874785147000055
582	 0.3382495879902959
583	 0.4886202732489984
584	 1.4188755567363898
585	 1.268904249801325
586	 1.0923578350259968
587	 0.6033723691671423
588	 0.2246290628444378
589	 0.3198697423770528
590	 0.21041243506290894
591	 0.4815433455589935
592	 1.79045837115453
593	 0.8292140089957986
594	 0.6593485825592789
595	 0.4358077994903174
596	 1.5467801183079928
597	 0.4764479099923713
598	 0.38941874199261534
599	 0.38941874199261534
600	 0.5088167498813128
601	 0.5278054357566698
602	 0.4725898632401391
603	 0.6300199828873155
604	 0.3306063419278736
605	 0.5148347419224878
606	 0.5248973658544638
607	 0.5264505356552069
608	 1.0085302072012188
609	 0.838868987886269
610	 0.180056251397349
611	 1.95987516447319
612	 1.4336022981314251
613	 0.9308093616451342
614	 0.7820877053357465
615	 0.9325095536916618
616	 1.5239775152223132
617	 1.8225524931699408
618	 1.1962311373390067
619	 0.9308093616451342
620	 0.2468482686312023
621	 0.9659949357395047
622	 1.0467844913973106
623	 0.941188292032766
624	 1.3259795516635713
625	 1.5380517236956823
626	 0.8933088684172393
627	 0.22865304693874164
628	 1.372445287698647
629	 0.48058929214686236
630	 0.8648199947282543
631	 0.9308093616451342
632	 1.4188755567363898
633	 1.5277944867200393
634	 0.8412908033934344
635	 1.2628527938114298
636	 1.2628527938114298
637	 1.38143805679562
638	 1.6662140255193307
639	 1.6662140255193307
640	 0.9316808352849882
641	 0.7278580404072497
642	 1.1610782828204704
643	 1.437079391974338
644	 1.4188755567363898
645	 0.8358444793453791
646	 1.1177204949195745
647	 1.437079391974338
648	 1.738564114100292
649	 0.6242846970084771
650	 0.4522555200111362
651	 0.6548111355816865
652	 1.0731879098966985
653	 1.0923578350259968
654	 0.5252778158037944
655	 1.3183388513525196
656	 1.5535380388315543
657	 1.161921784086724
658	 0.8911992254797855
659	 1.1371080249118
660	 1.0097187695849512
661	 0.7110163896910885
662	 0.5612617269709705
663	 0.38941874199261534
664	 1.7385641141002919
665	 0.8677869816400797
666	 0.6685529932348364
667	 0.6592701865224404
668	 1.0545064464022966
669	 0.6659234698718932
670	 0.6173437672686762
671	 0.6931934642200064
672	 1.6662140255193307
673	 1.2386999730692567
674	 1.1549593519961032
675	 1.3773713535223533
676	 0.8059163597032466
677	 1.2415448535118565
678	 1.4902124609723721
679	 1.4902124609723721
680	 0.7407616657900163
681	 0.2509605125061179
682	 0.17234135016661278
683	 0.760481032675737
684	 0.760481032675737
685	 0.6887236409963472
686	 0.5748626833977478
687	 0.8059163597032468
688	 1.738564114100292
689	 0.8391651015898017
690	 0.7616715494277725
691	 2.4911838910119286
692	 1.4802242551397407
693	 1.7237719603909114
694	 1.7237719603909114
695	 1.4802242551397407
696	 1.4374523222831888
697	 1.1316919458575352
698	 0.6756333168497045
699	 0.4358077994903172
700	 1.3127631563855144
701	 0.8191067363317188
702	 1.2956396936935708
703	 0.9656642279071724
704	 2.4381303996103236
705	 1.239763355982638
706	 0.9325095536916618
707	 1.0114187290652668
708	 1.2942311292324762
709	 1.2807711194115887
710	 0.6756333168497045
711	 1.2779196611363388
712	 1.4802242551397407
713	 1.4336022981314251
714	 1.0364989044072037
715	 0.923156658359983
716	 0.4358077994903172
717	 1.236219862810699
718	 1.4188755567363898
719	 1.1919175311486763
720	 1.4802242551397407
721	 1.3225116932705485
722	 0.8793062043790864
723	 1.2271386143534615
724	 0.5300640013281415
725	 0.4623413773476301
726	 0.9396356234005067
727	 1.8316935275414747
728	 0.8963664063277297
729	 1.4693922632441543
730	 1.0825778396204742
731	 1.7950298855307238
732	 1.2942311292324762
733	 1.146156640910831
734	 0.6593173750626896
735	 0.9582036400861614
736	 1.2459780009443717
737	 1.2459780009443717
738	 0.9101878810648564
739	 1.634203711729332
740	 1.2468566080586632
741	 0.49645608617882814
742	 1.4787047864614489
743	 1.7006601314022258
744	 1.7661178584535187
745	 2.2106874733356716
746	 1.3416019698494779
747	 1.7950298855307238
748	 1.2942311292324762
749	 1.3507617032020613
750	 1.1919175311486763
751	 1.4802242551397407
752	 1.4802242551397407
753	 1.4802242551397407
754	 0.8740040305994018
755	 1.634203711729332
756	 1.2468566080586632
757	 0.49645608617882814
758	 1.4787047864614489
759	 1.7006601314022258
760	 1.2752275008159655
761	 1.2853792613481827
762	 1.5687077464117234
763	 0.8737306099921951
764	 1.1371080249117997
765	 2.013342492883947
766	 0.4815433455589935
767	 1.7237719603909114
768	 1.664593597700051
769	 1.1834703117684588
770	 1.0854737117209856
771	 1.2459780009443717
772	 1.2459780009443717
773	 1.0854737117209856
774	 1.1334465928473794
775	 1.1334465928473794
776	 1.437079391974338
777	 1.5830523613694312
778	 1.3085729041608647
779	 0.8737306099921951
780	 0.7820877053357465
781	 0.5384544352471556
782	 0.8059163597032468
783	 0.8059163597032468
784	 1.0496728913510787
785	 0.9546142876034236
786	 1.1070394657993603
787	 1.135881850738594
788	 2.0860624243048416
789	 1.437079391974338
790	 1.2462664216178447
791	 1.1334465928473791
792	 2.026875389732679
793	 1.1263342676759136
794	 0.9101878810648564
795	 1.135881850738594
796	 1.5636247042926796
797	 1.2805827930861964
798	 1.3746158497532641
799	 0.8059163597032468
800	 1.1095355689825057
801	 0.5982751698318536
802	 0.7919517528469354
803	 1.135881850738594
804	 1.5636247042926796
805	 0.9305642220878286
806	 1.5423426605462993
807	 0.8953695663349379
808	 0.7838349181028702
809	 0.7543478868485608
810	 0.6836781739268849
811	 1.5125707406610773
812	 1.9858769853793952
813	 0.6717046261291187
814	 0.7407616657900163
815	 0.7407616657900163
816	 1.4545945066709598
817	 1.7547732556764515
818	 0.40044822241749717
819	 0.7820877053357465
820	 1.3750130481348302
821	 1.2459780009443717
822	 1.6775605285608863
823	 1.2459780009443717
824	 0.9577375312878436
825	 1.3272733932083527
826	 0.304168997166597
827	 0.8149485743513717
828	 0.8809897596539422
829	 1.4962886905620854
830	 1.4370793919743379
831	 1.4370793919743379
832	 1.1816146490448285
833	 1.0918182562877665
834	 0.48729167737335033
835	 1.52095982157233
836	 1.6061993307022775
837	 0.9660641001010233
838	 0.7337773360068661
839	 1.1592624064401817
840	 1.5636247042926796
841	 1.5636247042926796
842	 1.3631794873162526
843	 1.2779196611363388
844	 1.2779196611363388
845	 1.2779196611363388
846	 1.2779196611363388
847	 1.2779196611363388
848	 0.5088167498813128
849	 0.5278054357566698
850	 0.4725898632401391
851	 0.6300199828873155
852	 0.2246290628444378
853	 0.36452590857304895
854	 0.5947378661684636
855	 0.2246290628444378
856	 0.4305891651881982
857	 0.6454815743210264
858	 0.5500208115362978
859	 0.6717046261291187
860	 2.0860624243048416
861	 1.8354423811149418
862	 1.6154183477033408
863	 1.5367066737212913
864	 0.6641760961192923
865	 0.5278054357566698
866	 0.4725898632401391
867	 0.6300199828873155
868	 0.8412908033934344
869	 0.6848401635313401
870	 0.6641760961192923
871	 0.8412908033934344
872	 0.4305891651881982
873	 0.6454815743210264
874	 0.8160028731820832
875	 1.4918508989718975
876	 1.6154183477033408
877	 0.3847063251561002
878	 1.2468566080586632
879	 1.634203711729332
880	 0.47479663594427457
881	 0.8482393929346964
882	 0.8954044777849468
883	 0.7922512655251629
884	 1.0692986248975092
885	 0.9437906984819447
886	 1.6154183477033408
887	 1.5367066737212913
888	 0.34106737840947365
889	 0.3442606585997819
890	 0.44665355820765107
891	 0.5113967738643008
892	 0.30624680367843726
893	 0.5773570635554165
894	 0.6511367788439378
895	 0.6411271275278781
896	 0.7476493689138868
897	 0.6952088902333999
898	 0.768554483203467
899	 0.768554483203467
900	 0.6847971267194828
901	 0.7491950205636269
902	 0.8805497405053277
903	 0.6847971267194828
904	 0.5504503418450508
905	 0.580225876470726
906	 0.645569166865723
907	 0.645569166865723
908	 0.7107576507478429
909	 0.5970329796898437
910	 0.6124093229510255
911	 0.6124093229510255
912	 1.634203711729332
913	 0.8391651015898017
914	 0.8391651015898017
915	 1.738564114100292
916	 1.738564114100292
917	 1.634203711729332
918	 1.2279438373664417
919	 0.7820877053357465
920	 1.1667827851516417
921	 0.7616715494277725
922	 0.7616715494277725
923	 2.4911838910119286
924	 2.4911838910119286
925	 1.1667827851516417
926	 1.5636247042926796
927	 0.7820877053357465
928	 1.490212460972372
929	 1.4575470493467972
930	 1.1834703117684586
931	 1.664593597700051
932	 1.894348435122786
933	 1.2251343664571532
934	 0.6756333168497045
935	 2.0860624243048416
936	 0.2838682420372757
937	 0.8059163597032468
938	 0.6575934753609811
939	 1.3916338895489133
940	 2.314959561510724
941	 2.255513506684749
942	 1.4640453017253254
943	 1.664593597700051
944	 0.6124093229510255
945	 0.6532812855857671
946	 0.8339939920870733
947	 0.7616715494277725
948	 1.1917261030804265
949	 1.3750130481348302
950	 1.3309799317936137
951	 1.664593597700051
952	 1.2752275008159655
953	 0.9035699531961068
954	 1.131962004149138
955	 1.1177204949195745
956	 1.236219862810699
957	 1.437079391974338
958	 1.2184104372715083
959	 0.5888365121972249
960	 1.437079391974338
961	 1.437079391974338
962	 1.437079391974338
963	 1.437079391974338
964	 1.437079391974338
965	 1.437079391974338
966	 1.437079391974338
967	 1.437079391974338
968	 1.573648726571404
969	 1.573648726571404
970	 0.8532579312286995
971	 0.9308093616451342
972	 1.0125577978879383
973	 0.921049112101617
974	 0.7772869627484643
975	 1.8848955461747996
976	 0.43132550252147067
977	 0.5413172869720512
978	 0.7365415842760987
979	 1.1919175311486763
980	 2.4700627959374573
981	 2.2329694216662688
982	 1.6154183477033408
983	 1.6154183477033408
984	 1.4735980356280611
985	 1.7518430911112928
986	 0.8532579312286995
987	 0.6847971267194828
988	 0.8568201967853152
989	 0.7114471499346177
990	 0.7711666605497841
991	 2.3512939248899025
992	 0.38471762108478447
993	 0.8487769619285785
994	 0.8185223840085545
995	 0.9308093616451342
996	 1.1667827851516417
997	 1.7237719603909114
998	 1.2251343664571532
999	 1.5277944867200393
1000	 0.5572075086033189
1001	 0.2672751272605593
1002	 0.7583605001746125
1003	 1.2805827930861964
1004	 0.8933088684172393
1005	 0.9653063959679292
1006	 1.3814380567956202
1007	 1.041273931806398
1008	 0.2246290628444378
1009	 1.457421007688632
1010	 0.7356264105334789
1011	 1.2642808500195764
1012	 0.7480614905555212
1013	 1.6546826464064985
1014	 1.2838246653768284
1015	 1.2932135658836403
1016	 0.3039677428838076
1017	 0.18999677772307685
1018	 0.4490851168896816
1019	 0.7134526335495684
1020	 0.7134526335495684
1021	 0.982509766980369
1022	 1.1667827851516417
1023	 1.1667827851516417
1024	 1.0322191094668052
1025	 0.5780053770289428
1026	 1.1504308344108565
1027	 0.23866199782894573
1028	 0.49578803074492017
1029	 0.4368610181827897
1030	 0.6054841903495576
1031	 0.45728359903723254
1032	 1.1919175311486763
1033	 1.2086508522071362
1034	 0.7119256054716827
1035	 0.9296266839059245
1036	 0.6594903708225797
1037	 0.7410607969412896
1038	 0.5947978127873307
1039	 0.9642354835444618
1040	 1.5467801183079928
1041	 1.3127631563855144
1042	 1.6580831841328103
1043	 1.2805827930861964
1044	 0.8963664063277297
1045	 0.7339061356020743
1046	 2.0709811937251525
1047	 0.9642354835444618
1048	 1.3445268454354464
1049	 0.3218577917288823
1050	 0.8412908033934344
1051	 1.4370793919743379
1052	 1.0490162557192615
1053	 0.544182017091912
1054	 1.0682960442202303
1055	 0.7824960023234292
1056	 1.7187328503685784
1057	 2.0369457674409914
1058	 1.5271890238735355
1059	 0.8358444793453791
1060	 0.8358444793453791
1061	 0.5459950197148163
1062	 0.9783185088524387
1063	 0.9783185088524387
1064	 0.9316808352849882
1065	 0.9669146009364011
1066	 0.9987992017938341
1067	 1.471417404694308
1068	 1.1107678330044193
1069	 0.4815433455589935
1070	 0.5864308815515545
1071	 0.5300640013281415
1072	 1.087982635833114
1073	 0.8002950136533936
1074	 1.2928593799668224
1075	 0.7339061356020743
1076	 0.7975957350783107
1077	 0.5666251344891649
1078	 0.6187145657059944
1079	 0.789847519944995
1080	 0.4521115819585217
1081	 0.4521115819585217
1082	 0.537725366558798
1083	 0.8928972200113516
1084	 0.8928972200113516
1085	 0.8928972200113516
1086	 0.8928972200113516
1087	 0.8928972200113516
