0	 1.2628527938114298
1	 0.890511709503732
2	 0.890511709503732
3	 1.2942311292324762
4	 1.2628527938114298
5	 1.129378521800375
6	 1.79045837115453
7	 1.4188755567363898
8	 1.437079391974338
9	 0.7820877053357463
10	 0.8737306099921951
11	 1.79045837115453
12	 1.4802242551397407
13	 1.2628527938114298
14	 0.931680835284988
15	 1.4802242551397404
16	 1.2628527938114298
17	 1.129378521800375
18	 1.5277944867200393
19	 1.666214025519331
20	 0.9325095536916618
21	 0.5982751698318537
22	 0.9308093616451341
23	 1.1411116709174436
24	 1.2942311292324762
25	 1.1105025193595912
26	 0.805916359703247
27	 0.5864308815515544
28	 1.2628527938114298
29	 0.805916359703247
30	 0.7820877053357463
31	 0.47726426520045817
32	 0.7337773360068661
33	 0.931680835284988
34	 1.0883809897445533
35	 0.8805497405053275
36	 1.3264980885162758
37	 1.015585141107004
38	 0.5864308815515544
39	 0.7337773360068661
40	 0.9432651688880139
41	 1.0496728913510787
42	 1.5835428145471786
43	 1.0688410447009102
44	 1.1411116709174436
45	 0.5864308815515544
46	 0.2838682420372758
47	 0.640453885020095
48	 1.3264980885162758
49	 1.015585141107004
50	 0.5864308815515544
51	 0.7337773360068661
52	 0.9432651688880139
53	 1.0496728913510787
54	 1.5835428145471786
55	 1.0688410447009102
56	 1.1411116709174436
57	 0.5864308815515544
58	 0.2838682420372758
59	 0.640453885020095
60	 1.2779196611363388
61	 0.5300640013281416
62	 0.8805497405053275
63	 0.805916359703247
64	 0.5864308815515544
65	 0.5300640013281416
66	 1.4802242551397407
67	 1.2628527938114298
68	 1.437079391974338
69	 1.437079391974338
70	 1.4370793919743383
71	 1.1411116709174436
72	 1.245978000944372
73	 0.5982751698318537
74	 0.8737306099921951
75	 0.8737306099921951
76	 1.2760615889671365
77	 0.7407616657900165
78	 1.2942311292324762
79	 1.0496728913510787
80	 1.2475830830881378
81	 1.1411116709174436
82	 1.2942311292324762
83	 1.3264980885162758
84	 0.7604810326757372
85	 0.9689773881971309
86	 0.43378386103749006
87	 0.7407616657900165
88	 0.7604810326757372
89	 0.8690208161127864
90	 1.2757908197954593
91	 0.8581980223141976
92	 1.2757908197954593
93	 0.8581980223141976
94	 0.43378386103749006
95	 0.6684767601325668
96	 1.2757908197954593
97	 0.8581980223141976
98	 1.2757908197954593
99	 0.8581980223141976
100	 0.43378386103749006
101	 0.6684767601325668
102	 1.2757908197954593
103	 0.8581980223141976
104	 1.2757908197954593
105	 0.8581980223141976
106	 0.43378386103749006
107	 0.6684767601325668
108	 0.38237793155598954
109	 0.38237793155598954
110	 1.0097187695849512
111	 1.0097187695849512
112	 0.0
113	 0.0
114	 0.7820877053357463
115	 0.7820877053357463
116	 1.245978000944372
117	 1.245978000944372
118	 0.8737306099921951
119	 0.8737306099921951
120	 0.7820877053357463
121	 0.48040491519242084
122	 0.7407616657900165
123	 1.1334465928473796
124	 0.5864308815515544
125	 0.805916359703247
126	 0.7820877053357463
127	 0.7820877053357463
128	 1.245978000944372
129	 1.245978000944372
130	 0.8737306099921951
131	 0.8737306099921951
132	 0.7820877053357463
133	 0.48040491519242084
134	 0.805916359703247
135	 0.5982751698318537
136	 0.5300640013281416
137	 0.7337773360068661
138	 1.174191160987442
139	 1.0602622287208707
140	 0.951316044159022
141	 1.0602622287208707
142	 0.42320347214706705
143	 1.1334465928473796
144	 0.6194383306706165
145	 0.6592701865224404
146	 0.7516177079056436
147	 0.7516177079056436
148	 0.6579226082368428
149	 0.6592701865224404
150	 0.3743569660377737
151	 0.3891835627361464
152	 0.4498857397577004
153	 0.4498857397577004
154	 0.3743569660377737
155	 0.3891835627361464
156	 1.0224411540676612
157	 1.0441135852182621
158	 0.844040981728573
159	 0.844040981728573
160	 1.0224411540676612
161	 1.0441135852182621
162	 0.7407616657900165
163	 1.26176061339067
164	 0.7337773360068661
165	 1.1107678330044193
166	 1.2628527938114298
167	 0.5982751698318537
168	 0.7407616657900165
169	 1.26176061339067
170	 0.7337773360068661
171	 1.1107678330044193
172	 1.2628527938114298
173	 0.5982751698318537
174	 1.2942311292324762
175	 0.9432651688880139
176	 0.805916359703247
177	 0.5864308815515544
178	 1.2779196611363388
179	 1.4802242551397407
180	 0.7604810326757372
181	 1.0810093333719804
182	 0.42320347214706705
183	 0.7337773360068661
184	 0.5615271448406469
185	 1.245978000944372
186	 1.2942311292324762
187	 0.9432651688880139
188	 0.805916359703247
189	 0.5864308815515544
190	 1.2779196611363388
191	 1.4802242551397407
192	 0.7604810326757372
193	 1.0810093333719804
194	 0.42320347214706705
195	 0.7337773360068661
196	 0.5300640013281416
197	 0.8316568876870638
198	 1.245978000944372
199	 0.0
200	 0.0
201	 0.0
202	 0.0
203	 0.0
204	 1.0894016677296525
205	 0.7050014927383199
206	 1.478704786461449
207	 0.805916359703247
208	 0.805916359703247
209	 0.805916359703247
210	 1.1636622239421222
211	 1.1111697511516276
212	 0.805916359703247
213	 0.5982751698318537
214	 0.5300640013281416
215	 1.478704786461449
216	 1.0894016677296525
217	 0.7050014927383199
218	 1.478704786461449
219	 0.805916359703247
220	 0.805916359703247
221	 0.805916359703247
222	 0.9642354835444618
223	 1.10029632083914
224	 0.42320347214706705
225	 1.1334465928473796
226	 0.5300640013281416
227	 0.5982751698318537
228	 0.8621603320128992
229	 0.620239016909282
230	 1.1411116709174436
231	 0.4703755721094935
232	 1.1796676843518263
233	 0.6885151986974096
234	 0.3891835627361464
235	 0.6124093229510253
236	 0.8917517473138661
237	 1.1249983017041998
238	 0.561944106506451
239	 0.9577375312878438
240	 0.9622785426539179
241	 1.3103345887188083
242	 0.38237793155598954
243	 0.38237793155598954
244	 1.0097187695849512
245	 1.0097187695849512
246	 0.3891835627361464
247	 0.6124093229510253
248	 0.8917517473138661
249	 1.1249983017041998
250	 0.561944106506451
251	 0.9577375312878438
252	 0.8090421366265995
253	 1.2073408158030607
254	 0.6005573901279821
255	 0.8690208161127864
256	 0.8595439753171445
257	 1.3264980885162758
258	 1.1518911315038993
259	 1.1518911315038993
260	 0.5982751698318537
261	 0.4703755721094935
262	 1.1796676843518263
263	 0.6885151986974096
264	 0.3891835627361464
265	 0.6124093229510253
266	 0.8917517473138661
267	 1.1249983017041998
268	 0.5656829313646765
269	 0.8438671966038258
270	 1.2200785012480564
271	 1.3103345887188083
272	 0.38237793155598954
273	 0.38237793155598954
274	 1.0097187695849512
275	 1.0097187695849512
276	 0.7820877053357463
277	 0.39812169313042595
278	 0.5982751698318537
279	 1.1411116709174436
280	 0.7407616657900165
281	 1.26176061339067
282	 0.6717046261291187
283	 0.39812169313042595
284	 0.38237793155598954
285	 0.7134526335495683
286	 0.38237793155598954
287	 1.0097187695849512
288	 0.5003298700231013
289	 0.7820877053357463
290	 0.7820877053357463
291	 0.7820877053357463
292	 0.7820877053357463
293	 0.7820877053357463
294	 0.7820877053357463
295	 0.4337838610374902
296	 0.8737306099921951
297	 0.7820877053357463
298	 0.7407616657900165
299	 1.2760615889671365
300	 1.4802242551397407
301	 1.437079391974338
302	 1.245978000944372
303	 0.8737306099921951
304	 1.4188755567363898
305	 1.4802242551397407
306	 0.7820877053357463
307	 0.7407616657900165
308	 0.8737306099921951
309	 0.7820877053357463
310	 0.7407616657900165
311	 1.2760615889671365
312	 1.2942311292324762
313	 1.7547732556764517
314	 0.7604810326757372
315	 1.26176061339067
316	 1.1667827851516417
317	 0.7337773360068661
318	 0.6717046261291187
319	 0.47726426520045817
320	 1.1334465928473796
321	 0.42320347214706705
322	 0.7407616657900165
323	 1.1334465928473796
324	 0.8737306099921951
325	 0.4703755721094935
326	 0.5982751698318537
327	 0.39268288160295445
328	 1.1411116709174436
329	 0.5864308815515545
330	 0.6684767601325668
331	 0.3891835627361464
332	 0.42320347214706705
333	 0.5982751698318537
334	 0.9042388210555882
335	 0.8690208161127864
336	 1.3264980885162758
337	 0.8282607352180833
338	 0.7337773360068661
339	 0.42320347214706705
340	 0.6885151986974096
341	 0.5199229226568107
342	 0.6684767601325668
343	 0.3891835627361464
344	 0.42320347214706705
345	 0.5982751698318537
346	 0.9042388210555882
347	 0.8690208161127864
348	 1.3264980885162758
349	 0.8282607352180833
350	 0.7337773360068661
351	 0.42320347214706705
352	 0.6885151986974096
353	 0.5199229226568107
354	 0.8745210716519409
355	 0.9042388210555882
356	 0.5864308815515544
357	 1.1334465928473796
358	 0.42320347214706705
359	 0.805916359703247
360	 0.7820877053357463
361	 0.2838682420372758
362	 0.5864308815515544
363	 1.1334465928473796
364	 0.42320347214706705
365	 0.805916359703247
366	 0.7820877053357463
367	 0.8391651015898017
368	 0.8391651015898017
369	 1.087982635833114
370	 0.4592736547511128
371	 0.7976596282506951
372	 0.8737306099921951
373	 0.9246475971078567
374	 1.736934419843574
375	 0.6562313229400923
376	 1.3916338895489133
377	 0.6834172259778497
378	 0.7337773360068661
379	 0.6834172259778497
380	 1.0791146547501764
381	 1.3916338895489133
382	 0.6834172259778497
383	 1.0791146547501764
384	 1.0883809897445533
385	 1.0791146547501764
386	 1.4918508989718975
387	 0.6562313229400923
388	 1.3916338895489133
389	 0.6834172259778497
390	 0.7337773360068661
391	 0.6834172259778497
392	 1.0791146547501764
393	 1.3916338895489133
394	 0.6834172259778497
395	 1.0791146547501764
396	 1.0791146547501764
397	 1.0791146547501764
398	 1.4918508989718975
399	 1.4918508989718975
400	 0.0
401	 0.0
402	 1.3855368558206358
403	 1.2610409901495403
404	 1.1538389743969186
405	 1.3030161340152315
406	 1.186158103080698
407	 1.3204461287145846
408	 1.3855368558206358
409	 1.2610409901495403
410	 1.1538389743969186
411	 1.3030161340152315
412	 0.42320347214706705
413	 1.1411116709174436
414	 1.79045837115453
415	 1.5277944867200393
416	 1.5277944867200393
417	 1.1548335109861472
418	 1.2807711194115887
419	 1.1548335109861472
420	 1.9843204996935346
421	 0.38941874199261534
422	 0.38941874199261534
423	 1.0097187695849512
424	 0.7975957350783108
425	 1.2468566080586634
426	 1.7385641141002919
427	 0.7976596282506951
428	 0.7976596282506951
429	 0.4337838610374902
430	 0.7976596282506951
431	 0.6562313229400923
432	 1.79045837115453
433	 0.7975957350783109
434	 0.7975957350783109
435	 1.1371080249118
436	 1.0731879098966985
437	 1.56362470429268
438	 1.4802242551397407
439	 1.122583327412928
440	 1.122583327412928
441	 1.2475830830881378
442	 1.122583327412928
443	 1.122583327412928
444	 1.79045837115453
445	 0.9308093616451343
446	 0.9308093616451343
447	 0.8737306099921951
448	 0.5615271448406469
449	 1.7950298855307238
450	 1.437079391974338
451	 1.437079391974338
452	 2.4911838910119286
453	 2.491183891011929
454	 1.245978000944372
455	 1.245978000944372
456	 1.437079391974338
457	 1.2462664216178452
458	 1.8979630780139007
459	 1.666214025519331
460	 1.7547732556764515
461	 0.7337773360068661
462	 0.965994935739505
463	 1.4575470493467977
464	 0.805916359703247
465	 1.285379261348183
466	 0.9878865549768354
467	 1.4962886905620856
468	 0.8917517473138661
469	 0.9471472142724171
470	 0.8438671966038258
471	 1.2373487162089756
472	 1.16203837236011
473	 1.146792561380363
474	 1.0883809897445533
475	 0.48872607750900027
476	 1.2628527938114298
477	 1.2628527938114298
478	 1.129378521800375
479	 1.129378521800375
480	 1.4188755567363898
481	 1.2073408158030607
482	 1.437079391974338
483	 1.437079391974338
484	 1.437079391974338
485	 1.437079391974338
486	 1.79045837115453
487	 0.7839192094760028
488	 1.2807711194115887
489	 1.2807711194115887
490	 1.2807711194115887
491	 1.2807711194115887
492	 0.2672751272605592
493	 0.3554846367784147
494	 0.6562313229400923
495	 0.8361173900526434
496	 0.6205336958830053
497	 0.6562313229400923
498	 0.7820877053357463
499	 0.49228025097905354
500	 0.7549144623757051
501	 0.6124093229510253
502	 0.5145715164134138
503	 0.7549144623757051
504	 0.3891835627361464
505	 0.5688278991376331
506	 0.6684767601325668
507	 0.5864308815515545
508	 0.6124093229510253
509	 0.5145715164134138
510	 1.2628527938114298
511	 0.890511709503732
512	 0.890511709503732
513	 1.2942311292324762
514	 1.2628527938114298
515	 1.129378521800375
516	 1.79045837115453
517	 1.4188755567363898
518	 1.437079391974338
519	 0.7820877053357463
520	 0.8737306099921951
521	 1.79045837115453
522	 1.2942311292324762
523	 1.015585141107004
524	 0.9316808352849881
525	 0.5300640013281416
526	 1.0496728913510787
527	 0.8595439753171445
528	 1.5277944867200393
529	 1.666214025519331
530	 0.9325095536916618
531	 0.5982751698318537
532	 0.9308093616451341
533	 1.1411116709174436
534	 1.2942311292324762
535	 1.1105025193595912
536	 0.805916359703247
537	 0.5864308815515544
538	 1.2628527938114298
539	 0.805916359703247
540	 0.7820877053357463
541	 0.47726426520045817
542	 0.7337773360068661
543	 0.931680835284988
544	 1.0883809897445533
545	 0.8805497405053275
546	 1.3264980885162758
547	 1.015585141107004
548	 0.5864308815515544
549	 0.7337773360068661
550	 0.9432651688880139
551	 1.0496728913510787
552	 1.5835428145471786
553	 1.0688410447009102
554	 1.1411116709174436
555	 0.5864308815515544
556	 0.2838682420372758
557	 0.640453885020095
558	 1.3264980885162758
559	 1.015585141107004
560	 0.5864308815515544
561	 0.7337773360068661
562	 0.9432651688880139
563	 1.0496728913510787
564	 1.5835428145471786
565	 1.0688410447009102
566	 1.1411116709174436
567	 0.5864308815515544
568	 0.2838682420372758
569	 0.640453885020095
570	 1.2779196611363388
571	 0.5300640013281416
572	 0.8805497405053275
573	 0.805916359703247
574	 0.5864308815515544
575	 0.5300640013281416
576	 1.4802242551397407
577	 1.2628527938114298
578	 1.437079391974338
579	 1.437079391974338
580	 1.4370793919743383
581	 1.1411116709174436
582	 1.245978000944372
583	 0.5982751698318537
584	 0.8737306099921951
585	 0.8737306099921951
586	 1.2760615889671365
587	 0.7407616657900165
588	 1.2475830830881378
589	 0.779285043381004
590	 1.79045837115453
591	 1.1411116709174436
592	 1.4188755567363898
593	 1.2473191968527275
594	 0.43378386103749006
595	 0.3347354858750413
596	 1.437079391974338
597	 0.7407616657900165
598	 0.7820877053357463
599	 0.6405038476366347
600	 1.3916338895489133
601	 1.2473191968527275
602	 0.8737306099921951
603	 1.440882083599256
604	 1.79045837115453
605	 1.2235292581315742
606	 1.1917261030804265
607	 0.5257044595942985
608	 1.4802242551397404
609	 0.7337773360068661
610	 1.437079391974338
611	 0.9660641001010233
612	 0.6717046261291187
613	 0.640453885020095
614	 0.5615271448406469
615	 0.8805497405053275
616	 1.2942311292324762
617	 1.1816146490448283
618	 0.6717046261291187
619	 0.640453885020095
620	 0.5615271448406469
621	 0.6213317783900429
622	 1.2942311292324762
623	 1.1816146490448283
624	 0.6717046261291187
625	 0.640453885020095
626	 0.5615271448406469
627	 0.6213317783900429
628	 1.2942311292324762
629	 1.1816146490448283
630	 0.890511709503732
631	 0.890511709503732
632	 0.38237793155598954
633	 0.38237793155598954
634	 0.0
635	 0.0
636	 1.4802242551397404
637	 1.4802242551397404
638	 1.437079391974338
639	 1.437079391974338
640	 0.7820877053357463
641	 0.7820877053357463
642	 1.4802242551397404
643	 1.1592624064401817
644	 1.2628527938114298
645	 0.805916359703247
646	 0.8805497405053275
647	 0.5300640013281416
648	 1.4802242551397404
649	 1.4802242551397404
650	 1.437079391974338
651	 1.437079391974338
652	 0.7820877053357463
653	 0.7820877053357463
654	 1.4802242551397404
655	 1.1592624064401817
656	 0.5300640013281416
657	 0.7337773360068661
658	 0.42320347214706705
659	 1.1411116709174436
660	 1.0685185283859142
661	 1.030916669201412
662	 0.8960266991022087
663	 1.030916669201412
664	 0.5864308815515544
665	 0.805916359703247
666	 0.340172278172889
667	 0.18252993956426247
668	 0.39960627977714924
669	 0.39960627977714924
670	 0.3850576535071185
671	 0.18252993956426247
672	 0.9592552145244952
673	 1.0155851411070038
674	 0.9741730743750482
675	 0.9741730743750482
676	 0.9592552145244952
677	 1.0155851411070038
678	 0.3439235923002879
679	 0.3503329542554245
680	 0.16740722456732063
681	 0.16740722456732063
682	 0.3439235923002879
683	 0.3503329542554245
684	 1.2628527938114298
685	 0.5982751698318537
686	 1.1411116709174436
687	 0.7407616657900165
688	 1.440882083599256
689	 0.7337773360068661
690	 1.2628527938114298
691	 0.5982751698318537
692	 1.1411116709174436
693	 0.7407616657900165
694	 1.440882083599256
695	 0.7337773360068661
696	 1.5277944867200393
697	 0.9015659592272399
698	 0.5300640013281416
699	 0.8805497405053275
700	 1.3916338895489133
701	 1.79045837115453
702	 0.9325095536916618
703	 1.0523065992558127
704	 0.5864308815515544
705	 1.1411116709174436
706	 0.6205336958830053
707	 1.437079391974338
708	 1.5277944867200393
709	 0.9015659592272399
710	 0.5300640013281416
711	 0.8805497405053275
712	 1.3916338895489133
713	 1.79045837115453
714	 0.9325095536916618
715	 1.0523065992558127
716	 0.5864308815515544
717	 1.1411116709174436
718	 0.42320347214706705
719	 0.4060145877970397
720	 1.437079391974338
721	 0.0
722	 0.0
723	 0.0
724	 0.0
725	 0.0
726	 0.5888365121972249
727	 0.46624313433960063
728	 1.1334465928473796
729	 0.5300640013281416
730	 0.5300640013281416
731	 0.5300640013281416
732	 0.5504660593906194
733	 0.6054841903495577
734	 0.5300640013281416
735	 0.7337773360068661
736	 0.42320347214706705
737	 1.1334465928473796
738	 0.5888365121972249
739	 0.46624313433960063
740	 1.1334465928473796
741	 0.5300640013281416
742	 0.5300640013281416
743	 0.5300640013281416
744	 0.4893268175696985
745	 0.6732841519059422
746	 0.5864308815515544
747	 0.805916359703247
748	 0.42320347214706705
749	 0.7337773360068661
750	 0.48040491519242084
751	 0.4008607326559705
752	 1.1411116709174436
753	 0.47726426520045817
754	 1.0237290553839593
755	 0.2838682420372758
756	 1.015585141107004
757	 1.2436236751943892
758	 0.6213317783900429
759	 0.5684363161375248
760	 0.8090421366265995
761	 1.3025604959094992
762	 1.1792786845671255
763	 1.5343535232771126
764	 0.890511709503732
765	 0.890511709503732
766	 0.38237793155598954
767	 0.38237793155598954
768	 1.015585141107004
769	 1.2436236751943892
770	 0.6213317783900429
771	 0.5684363161375248
772	 0.8090421366265995
773	 1.3025604959094992
774	 0.9188513729129428
775	 0.8797665479190109
776	 0.6124093229510253
777	 1.0496728913510787
778	 0.8917517473138661
779	 1.5835428145471786
780	 0.7303295001828514
781	 0.7303295001828514
782	 0.7337773360068661
783	 0.47726426520045817
784	 1.0237290553839593
785	 0.2838682420372758
786	 1.015585141107004
787	 1.2436236751943892
788	 0.6213317783900429
789	 0.5684363161375248
790	 0.8090421366265995
791	 1.3025604959094992
792	 0.9740476037611758
793	 1.0985370040229427
794	 0.890511709503732
795	 0.890511709503732
796	 0.38237793155598954
797	 0.38237793155598954
798	 1.4802242551397404
799	 0.9516206026720553
800	 0.7337773360068661
801	 1.0883809897445533
802	 1.2628527938114298
803	 0.5982751698318537
804	 1.2942311292324762
805	 0.9516206026720553
806	 0.890511709503732
807	 0.9783185088524387
808	 0.890511709503732
809	 0.38237793155598954
810	 0.5483741568257664
811	 0.5483741568257664
812	 1.1000045358257997
813	 1.1000045358257997
814	 1.1000045358257997
815	 1.1000045358257997
