0	 0.4868644955601476
1	 0.0
2	 0.48686449556014766
3	 0.2434322477800736
4	 1.1547005383792515
5	 2.556038601690775
6	 1.4605934866804429
7	 1.4605934866804429
8	 1.7888543819998317
9	 1.4605934866804429
10	 1.7888543819998317
11	 1.4605934866804429
12	 0.7302967433402214
13	 0.8944271909999157
14	 0.7302967433402214
15	 0.7302967433402212
16	 1.1547005383792515
17	 2.194268628681278
18	 2.0147603478476688
19	 1.247219128924647
20	 1.1925695879998877
21	 1.247219128924647
22	 1.1925695879998877
23	 0.7097208632298361
24	 0.697880388775209
25	 1.5438048235879211
26	 1.0954451150103321
27	 1.0645812948447542
28	 1.2382783747337807
29	 1.4832396974191324
30	 0.5
31	 0.7416198487095662
32	 0.7302967433402212
33	 1.4142135623730951
34	 0.7302967433402214
35	 1.0645812948447542
36	 0.3651483716701107
37	 0.7958224257542215
38	 0.8944271909999159
39	 0.6191391873668903
40	 0.3651483716701107
41	 1.879716290649558
42	 0.5322906474223771
43	 0.6191391873668903
44	 0.7302967433402214
45	 0.7416198487095662
46	 0.7302967433402214
47	 1.132843031197762
48	 0.3651483716701107
49	 0.7958224257542215
50	 0.8944271909999159
51	 0.6191391873668903
52	 0.3651483716701107
53	 1.879716290649558
54	 0.5322906474223771
55	 0.6191391873668903
56	 0.7302967433402214
57	 0.7416198487095662
58	 0.7302967433402214
59	 1.3696444523765743
60	 1.0073801739238344
61	 1.0954451150103321
62	 1.4605934866804429
63	 1.0954451150103321
64	 0.7302967433402214
65	 1.4832396974191324
66	 0.7302967433402214
67	 0.7302967433402214
68	 0.0
69	 1.6653345369377348E-16
70	 1.1547005383792517
71	 2.033060090930254
72	 0.8944271909999159
73	 0.8944271909999159
74	 0.0
75	 1.4605934866804429
76	 1.1547005383792515
77	 1.539600717839002
78	 0.784101278416771
79	 1.0073801739238344
80	 0.7097208632298361
81	 0.7097208632298361
82	 0.12171612389003672
83	 1.8499249234015476
84	 0.5055250296034367
85	 1.3179670090852187
86	 0.769800358919501
87	 0.5962847939999438
88	 0.14907119849998596
89	 1.0715167512214394
90	 0.8585086120925269
91	 0.8585086120925269
92	 0.8585086120925269
93	 1.275118004706202
94	 0.5305482838361476
95	 1.7170172241850539
96	 0.8585086120925269
97	 0.8585086120925269
98	 0.8585086120925269
99	 1.275118004706202
100	 0.5305482838361476
101	 1.7170172241850539
102	 0.8585086120925269
103	 0.8585086120925269
104	 0.8585086120925269
105	 1.275118004706202
106	 0.5305482838361476
107	 0.5305482838361476
108	 0.0
109	 1.1155467020454342
110	 0.0
111	 0.0
112	 0.0
113	 0.0
114	 0.0
115	 1.4605934866804429
116	 0.0
117	 1.7888543819998317
118	 0.0
119	 1.4605934866804429
120	 0.38490017945975047
121	 0.4868644955601476
122	 1.2382783747337807
123	 1.4605934866804429
124	 1.0954451150103321
125	 1.4832396974191324
126	 0.0
127	 1.4605934866804429
128	 0.0
129	 1.7888543819998317
130	 0.0
131	 1.4605934866804429
132	 0.38490017945975047
133	 1.1610978202322784
134	 0.7302967433402214
135	 0.7302967433402214
136	 0.7302967433402214
137	 0.784101278416771
138	 0.35486043161491804
139	 0.24343224778007386
140	 0.24343224778007386
141	 0.8520128672302585
142	 1.0954451150103321
143	 1.064581294844754
144	 0.18257418583505536
145	 0.22360679774997896
146	 0.0
147	 0.09671474291233288
148	 0.20370713939245177
149	 0.9720586192116573
150	 0.08247860988423225
151	 0.18257418583505536
152	 0.0
153	 0.12777531299998796
154	 0.08247860988423225
155	 1.3134572958521382
156	 0.1043281061914602
157	 0.22360679774997894
158	 0.0
159	 0.2608202654786505
160	 0.1043281061914602
161	 1.591644851508443
162	 1.6733200530681511
163	 1.591644851508443
164	 1.6733200530681511
165	 2.1291625896895083
166	 1.6733200530681511
167	 0.7302967433402214
168	 1.6733200530681511
169	 1.591644851508443
170	 1.6733200530681511
171	 2.1291625896895083
172	 1.6733200530681511
173	 1.7680288249703187
174	 0.9359091440550872
175	 0.5322906474223771
176	 1.0954451150103321
177	 1.1706281947614154
178	 0.9737289911202952
179	 2.086996778999804
180	 0.5217491947499509
181	 1.2041594578792294
182	 0.7302967433402214
183	 1.1925695879998877
184	 1.1925695879998877
185	 1.9474579822405904
186	 0.9359091440550872
187	 0.5322906474223771
188	 1.0954451150103321
189	 1.1706281947614154
190	 0.9737289911202952
191	 2.086996778999804
192	 0.5217491947499509
193	 1.2041594578792294
194	 0.7302967433402214
195	 0.7302967433402214
196	 0.6191391873668903
197	 1.1761519176251567
198	 0.0
199	 0.0
200	 0.0
201	 0.0
202	 0.0
203	 0.0
204	 0.41275945824459354
205	 0.8520128672302584
206	 0.7302967433402214
207	 0.0
208	 0.0
209	 0.7552286874651746
210	 0.24343224778007388
211	 0.8520128672302584
212	 0.7302967433402214
213	 0.7302967433402214
214	 1.0954451150103321
215	 0.693888666488711
216	 0.41275945824459354
217	 0.8520128672302584
218	 0.7302967433402214
219	 0.0
220	 0.0
221	 0.8692269873603532
222	 0.48686449556014755
223	 1.1800816042090445
224	 1.0954451150103321
225	 0.7302967433402214
226	 0.7302967433402214
227	 0.7841012784167711
228	 0.24343224778007388
229	 1.338877362790406
230	 1.1328430311977618
231	 1.35400640077266
232	 1.0645812948447542
233	 0.9128709291752768
234	 0.5322906474223771
235	 1.2780193008453875
236	 0.7302967433402214
237	 1.016530045465127
238	 0.5322906474223771
239	 1.4732176927970864
240	 0.4868644955601476
241	 1.6375229712836035
242	 0.0
243	 1.1155467020454342
244	 0.0
245	 1.2707536404885154
246	 0.5322906474223771
247	 1.2780193008453875
248	 0.7302967433402214
249	 1.016530045465127
250	 0.5322906474223771
251	 1.2449899597988732
252	 0.7958224257542215
253	 1.4259499757471625
254	 0.8944271909999159
255	 1.1547005383792515
256	 0.8850612031567833
257	 2.0936411663256274
258	 0.0
259	 0.7416198487095662
260	 0.7416198487095662
261	 1.35400640077266
262	 1.0645812948447542
263	 0.9128709291752768
264	 0.5322906474223771
265	 1.2780193008453875
266	 0.7302967433402214
267	 1.3038404810405297
268	 0.5322906474223771
269	 1.4388781638381931
270	 0.24343224778007377
271	 1.6375229712836035
272	 0.0
273	 1.1155467020454342
274	 0.0
275	 1.7805533888009004
276	 0.6776866969767514
277	 0.8255189164891871
278	 1.591644851508443
279	 1.6733200530681511
280	 1.6733200530681511
281	 1.7680288249703187
282	 0.5305482838361476
283	 0.5577733510227171
284	 1.0610965676722952
285	 1.0610965676722952
286	 1.1155467020454342
287	 1.2658476884563838
288	 0.7155417527999326
289	 0.0
290	 0.0
291	 0.0
292	 0.0
293	 0.0
294	 0.4868644955601476
295	 0.9737289911202954
296	 1.4605934866804429
297	 0.7302967433402214
298	 1.1547005383792515
299	 2.556038601690775
300	 1.4605934866804429
301	 1.4605934866804429
302	 1.7888543819998317
303	 1.4605934866804429
304	 1.7888543819998317
305	 1.4605934866804429
306	 0.7302967433402214
307	 1.4605934866804429
308	 1.4605934866804429
309	 0.7302967433402214
310	 1.1547005383792515
311	 2.194268628681278
312	 2.0147603478476688
313	 1.2472191289246473
314	 1.1925695879998877
315	 1.247219128924647
316	 1.1925695879998877
317	 0.7097208632298361
318	 0.6978803887752091
319	 1.5438048235879214
320	 1.0954451150103321
321	 1.0645812948447542
322	 1.2382783747337807
323	 1.4832396974191324
324	 0.5
325	 0.7416198487095662
326	 0.7302967433402214
327	 1.4142135623730951
328	 0.7302967433402215
329	 1.0645812948447542
330	 0.3651483716701107
331	 0.7958224257542215
332	 0.8944271909999159
333	 0.6191391873668903
334	 0.3651483716701107
335	 1.8797162906495577
336	 0.532290647422377
337	 0.6191391873668903
338	 0.7302967433402214
339	 0.7416198487095662
340	 0.7302967433402214
341	 1.1328430311977618
342	 0.3651483716701107
343	 0.7958224257542215
344	 0.8944271909999159
345	 0.6191391873668903
346	 0.3651483716701107
347	 1.8797162906495577
348	 0.532290647422377
349	 0.6191391873668903
350	 0.7302967433402214
351	 0.7416198487095662
352	 0.7302967433402214
353	 1.3696444523765743
354	 0.5853140973807077
355	 1.37234592334926
356	 1.4605934866804429
357	 1.0954451150103321
358	 0.7302967433402214
359	 1.4832396974191324
360	 0.7416198487095662
361	 0.7416198487095662
362	 1.4605934866804429
363	 1.0954451150103321
364	 0.7302967433402214
365	 1.4832396974191324
366	 0.596284793999944
367	 0.0
368	 0.709720863229836
369	 0.769800358919501
370	 0.7097208632298362
371	 0.7698003589195012
372	 0.7302967433402214
373	 1.1547005383792515
374	 1.9012666343295501
375	 1.1155467020454342
376	 1.1155467020454342
377	 0.5305482838361476
378	 0.5305482838361476
379	 1.0610965676722952
380	 0.4868644955601477
381	 1.1155467020454342
382	 1.0610965676722952
383	 0.3849001794597505
384	 0.3849001794597505
385	 1.3877773329774221
386	 1.7384539747207066
387	 1.1155467020454342
388	 1.1155467020454342
389	 0.5305482838361476
390	 0.5305482838361476
391	 1.0610965676722952
392	 0.4868644955601477
393	 1.1155467020454342
394	 1.0610965676722952
395	 0.0
396	 0.0
397	 1.3877773329774221
398	 0.0
399	 0.0
400	 0.0
401	 0.0
402	 0.2129162589689509
403	 0.21908902300206645
404	 0.29211869733608864
405	 0.21908902300206645
406	 0.14605934866804426
407	 0.14605934866804432
408	 0.2129162589689509
409	 0.21908902300206645
410	 0.29211869733608864
411	 0.9660917830792959
412	 0.7302967433402214
413	 1.1547005383792515
414	 0.48686449556014766
415	 0.0
416	 0.7097208632298361
417	 0.5962847939999438
418	 0.5962847939999438
419	 1.6510378329783744
420	 2.1081851067789197
421	 0.0
422	 0.769800358919501
423	 0.7097208632298361
424	 0.5962847939999438
425	 2.3851391759997753
426	 0.973728991120295
427	 0.0
428	 0.5962847939999439
429	 0.5962847939999439
430	 0.48686449556014766
431	 1.2171612389003692
432	 1.6055459438389728
433	 0.0
434	 0.769800358919501
435	 0.48686449556014766
436	 0.7097208632298362
437	 2.1221931353445904
438	 0.9737289911202953
439	 0.0
440	 0.5962847939999438
441	 0.5962847939999438
442	 0.0
443	 1.539600717839002
444	 1.1925695879998877
445	 0.0
446	 0.5962847939999442
447	 0.5962847939999438
448	 1.6055459438389723
449	 1.5202339001321838
450	 0.0
451	 1.4605934866804429
452	 2.220446049250313E-16
453	 1.7888543819998317
454	 0.0
455	 1.4605934866804429
456	 0.3548604316149181
457	 0.6938886664887107
458	 0.7302967433402214
459	 1.0645812948447542
460	 1.4605934866804429
461	 0.5900408021045224
462	 0.5305482838361477
463	 0.8692269873603533
464	 0.7958224257542215
465	 1.3038404810405297
466	 1.3038404810405297
467	 1.591644851508443
468	 0.3651483716701107
469	 1.3038404810405297
470	 0.7416198487095662
471	 1.1547005383792515
472	 0.36514837167011066
473	 1.3540064007726602
474	 0.8850612031567837
475	 1.5110702608857516
476	 0.0
477	 1.1547005383792515
478	 0.0
479	 1.6733200530681511
480	 0.4472135954999579
481	 1.2382783747337807
482	 0.0
483	 0.0
484	 0.0
485	 2.309401076758503
486	 1.0818365728567187
487	 0.5305482838361476
488	 0.0
489	 0.0
490	 0.0
491	 1.1155467020454342
492	 0.12171612389003694
493	 0.5305482838361477
494	 0.48686449556014766
495	 1.1155467020454342
496	 1.0610965676722954
497	 1.0610965676722952
498	 0.6390096504226938
499	 0.41833001326703784
500	 0.3651483716701107
501	 0.7958224257542217
502	 0.8366600265340757
503	 0.8366600265340755
504	 0.7958224257542214
505	 0.8366600265340756
506	 1.0645812948447542
507	 0.8366600265340757
508	 0.7958224257542217
509	 1.3540064007726602
510	 0.4868644955601476
511	 0.0
512	 0.48686449556014766
513	 0.2434322477800736
514	 1.1547005383792515
515	 2.556038601690775
516	 1.4605934866804429
517	 1.4605934866804429
518	 1.7888543819998317
519	 1.4605934866804429
520	 1.7888543819998317
521	 1.6510378329783741
522	 0.35486043161491804
523	 0.44721359549995804
524	 1.1547005383792515
525	 0.7958224257542215
526	 0.3651483716701107
527	 1.4826153068642411
528	 2.0147603478476688
529	 1.247219128924647
530	 1.1925695879998877
531	 1.247219128924647
532	 1.1925695879998877
533	 0.7097208632298361
534	 0.697880388775209
535	 1.5438048235879211
536	 1.0954451150103321
537	 1.0645812948447542
538	 1.2382783747337807
539	 1.4832396974191324
540	 0.5
541	 0.7416198487095662
542	 0.7302967433402212
543	 1.4142135623730951
544	 0.7302967433402214
545	 1.0645812948447542
546	 0.3651483716701107
547	 0.7958224257542215
548	 0.8944271909999159
549	 0.6191391873668903
550	 0.3651483716701107
551	 1.879716290649558
552	 0.5322906474223771
553	 0.6191391873668903
554	 0.7302967433402214
555	 0.7416198487095662
556	 0.7302967433402214
557	 1.132843031197762
558	 0.3651483716701107
559	 0.7958224257542215
560	 0.8944271909999159
561	 0.6191391873668903
562	 0.3651483716701107
563	 1.879716290649558
564	 0.5322906474223771
565	 0.6191391873668903
566	 0.7302967433402214
567	 0.7416198487095662
568	 0.7302967433402214
569	 1.3696444523765743
570	 1.0073801739238344
571	 1.0954451150103321
572	 1.4605934866804429
573	 1.0954451150103321
574	 0.7302967433402214
575	 1.4832396974191324
576	 0.7302967433402214
577	 0.7302967433402214
578	 0.0
579	 1.6653345369377348E-16
580	 1.1547005383792517
581	 2.033060090930254
582	 0.8944271909999159
583	 0.8944271909999159
584	 0.0
585	 1.4605934866804429
586	 1.1547005383792515
587	 1.7040257344605165
588	 0.7175059684872418
589	 1.2780193008453875
590	 1.1547005383792515
591	 0.8944271909999159
592	 0.7302967433402214
593	 1.5323668451608277
594	 0.3776143437325873
595	 1.4433756729740643
596	 1.4605934866804429
597	 0.7302967433402214
598	 0.7302967433402214
599	 1.8114859871060227
600	 0.38490017945975047
601	 1.4832396974191324
602	 1.4605934866804429
603	 0.7302967433402214
604	 0.7302967433402214
605	 1.9302657656203523
606	 0.7175059684872418
607	 1.2780193008453875
608	 1.1547005383792512
609	 0.8944271909999159
610	 0.7302967433402214
611	 1.0610965676722952
612	 0.8355526004675876
613	 1.1426091000668406
614	 1.3249737942901192
615	 1.1122216672215286
616	 0.5305482838361476
617	 1.3052600138300812
618	 0.8355526004675876
619	 1.1426091000668406
620	 0.819891591749923
621	 1.5049301694147856
622	 0.5305482838361476
623	 1.3052600138300812
624	 0.8355526004675876
625	 1.1426091000668406
626	 0.819891591749923
627	 1.5049301694147856
628	 0.5305482838361476
629	 0.5305482838361478
630	 0.0
631	 1.115546702045434
632	 0.0
633	 0.0
634	 0.0
635	 0.0
636	 0.0
637	 1.4605934866804426
638	 0.0
639	 1.7888543819998317
640	 0.0
641	 1.4605934866804429
642	 0.3849001794597505
643	 0.4868644955601474
644	 1.2382783747337807
645	 1.4605934866804429
646	 1.0954451150103321
647	 1.4832396974191324
648	 0.0
649	 1.4605934866804426
650	 0.0
651	 1.7888543819998317
652	 0.0
653	 1.4605934866804429
654	 0.3849001794597505
655	 1.1610978202322781
656	 0.7302967433402214
657	 0.7302967433402214
658	 0.7302967433402214
659	 0.8944271909999159
660	 0.2661453237111886
661	 0.18257418583505536
662	 0.18257418583505536
663	 0.6519202405202649
664	 1.0954451150103321
665	 1.0645812948447542
666	 0.18257418583505547
667	 0.22360679774997902
668	 0.0
669	 0.09671474291233288
670	 0.2037071393924518
671	 0.9720586192116571
672	 0.08247860988423222
673	 0.18257418583505536
674	 0.0
675	 0.12777531299998798
676	 0.08247860988423222
677	 1.313457295852138
678	 0.1043281061914602
679	 0.22360679774997902
680	 0.0
681	 0.26082026547865056
682	 0.1043281061914602
683	 1.591644851508443
684	 1.6733200530681511
685	 1.591644851508443
686	 1.6733200530681511
687	 2.1291625896895083
688	 1.6733200530681511
689	 0.7302967433402214
690	 1.6733200530681511
691	 1.591644851508443
692	 1.6733200530681511
693	 2.1291625896895083
694	 1.6733200530681511
695	 1.7680288249703187
696	 0.9359091440550871
697	 0.5322906474223771
698	 1.0954451150103321
699	 1.1706281947614154
700	 0.9737289911202953
701	 2.086996778999804
702	 0.5217491947499509
703	 1.2041594578792294
704	 0.7302967433402214
705	 1.1925695879998877
706	 1.1925695879998877
707	 1.9474579822405904
708	 0.9359091440550871
709	 0.5322906474223771
710	 1.0954451150103321
711	 1.1706281947614154
712	 0.9737289911202953
713	 2.086996778999804
714	 0.5217491947499509
715	 1.2041594578792294
716	 0.7302967433402214
717	 0.7302967433402214
718	 0.6191391873668903
719	 1.1761519176251567
720	 0.0
721	 0.0
722	 0.0
723	 0.0
724	 0.0
725	 0.0
726	 0.41275945824459354
727	 0.8520128672302584
728	 0.7302967433402214
729	 0.0
730	 0.0
731	 0.7552286874651746
732	 0.24343224778007388
733	 0.8520128672302584
734	 0.7302967433402214
735	 0.7302967433402214
736	 1.0954451150103321
737	 0.6938886664887108
738	 0.41275945824459354
739	 0.8520128672302584
740	 0.7302967433402214
741	 0.0
742	 0.0
743	 0.8692269873603532
744	 0.4868644955601476
745	 1.1800816042090447
746	 1.0954451150103321
747	 0.7302967433402214
748	 0.7302967433402214
749	 0.7841012784167712
750	 0.24343224778007386
751	 1.2707536404885151
752	 1.1328430311977618
753	 1.35400640077266
754	 1.0645812948447542
755	 0.9128709291752768
756	 0.532290647422377
757	 1.2780193008453875
758	 0.7302967433402217
759	 1.016530045465127
760	 0.5322906474223771
761	 1.4732176927970864
762	 0.4868644955601478
763	 1.6375229712836037
764	 0.0
765	 1.115546702045434
766	 0.0
767	 1.2707536404885151
768	 0.532290647422377
769	 1.2780193008453875
770	 0.7302967433402217
771	 1.016530045465127
772	 0.5322906474223771
773	 1.2449899597988732
774	 0.7958224257542215
775	 1.4259499757471625
776	 0.8944271909999159
777	 1.1547005383792515
778	 0.8850612031567835
779	 2.0936411663256274
780	 0.0
781	 0.7416198487095662
782	 0.7416198487095662
783	 1.35400640077266
784	 1.0645812948447542
785	 0.9128709291752768
786	 0.532290647422377
787	 1.2780193008453875
788	 0.7302967433402217
789	 1.016530045465127
790	 0.5322906474223771
791	 1.0434983894999017
792	 0.24343224778007377
793	 0.8902766944004503
794	 0.0
795	 1.115546702045434
796	 0.0
797	 1.7805533888009004
798	 0.6776866969767513
799	 0.825518916489187
800	 1.591644851508443
801	 1.6733200530681511
802	 1.6733200530681511
803	 1.7680288249703187
804	 0.5305482838361476
805	 0.5577733510227171
806	 1.0610965676722954
807	 1.0610965676722954
808	 1.115546702045434
809	 0.8944271909999157
810	 0.0
811	 0.6371231638591757
812	 0.0
813	 0.0
814	 0.0
