1	 0.0
2	 -0.9445534949477314
3	 -0.8740018835652725
4	 -0.757151154928537
5	 -0.8616000547929287
6	 -0.5178980105065254
7	 -0.8322397195638237
8	 -0.8766085916478458
9	 -0.24593468841898233
10	 -0.925133158595543
11	 -0.8740018835652725
12	 -0.757151154928537
13	 0.6042691353411971
14	 -0.47725703232684
15	 -0.05737704918032794
16	 -0.8649927266519617
17	 -0.28050536489530137
18	 -0.8787441334905642
19	 -0.8866206949335729
20	 0.028906080628929992
21	 -0.6867247695335513
22	 -0.18202343288841089
23	 -0.9828067413836205
24	 0.1207697906500421
25	 0.809776330178916
26	 -0.8558443270800606
27	 -0.8740018835652725
28	 -0.757151154928537
29	 -0.8616000547929287
30	 -0.5178980105065257
31	 -0.8322397195638239
