Encoder: class com.chromamorph.points022.COSIATECEncoding
Input file: /home/dorien/workspace/PMusicOR/sia/rach2_short.mid
Output file set: rach2_short-chrom

COSIATECEncoding called with following parameters:

inputFilePath: /home/dorien/workspace/PMusicOR/sia/rach2_short.mid
outputFileDirectoryPath: /home/dorien/workspace/PMusicOR/sia/rach2_short-mid-2016-09-26-15-37-40-720
diatonicPitch: false
mirex: false
withCompactnessTrawler: false
a: 0.5
b: 3
forRSuperdiagonals: false
r: 1
removeRedundantTranslators: false
minTECCompactness: 0.0
minPatternSize: 0
mergeTECs: false
minMatchSize: 5
computeVectorTable...completed
computeMtpCisPairs...completed: 5193 MTPs found

removeTranslationallyEquivalentMtps
...DONE: 905 translationally distinct MTPs
Finding best TEC

Best TEC: (2.91,0.57) T(P(p(0,36),p(0,48),p(2880,36),p(2880,48)),V(v(0,0),v(160,1),v(320,2),v(480,3),v(640,4),v(800,5),v(1440,-15),v(9840,29)))
computeVectorTable...completed
computeMtpCisPairs...completed: 3181 MTPs found

removeTranslationallyEquivalentMtps
...DONE: 698 translationally distinct MTPs
Finding best TEC

Best TEC: (2.50,0.50) T(P(p(7680,81),p(8040,69),p(8160,72),p(8160,81),p(8520,69)),V(v(0,0),v(1440,2),v(2880,3),v(4800,2)))
computeVectorTable...completed
computeMtpCisPairs...completed: 2514 MTPs found

removeTranslationallyEquivalentMtps
...DONE: 424 translationally distinct MTPs
Finding best TEC

Best TEC: (2.40,1.00) T(P(p(7800,75),p(7920,63),p(7920,75)),V(v(0,0),v(480,1),v(1440,1),v(2880,2),v(3360,3),v(3840,4),v(5280,0),v(5760,1)))
computeVectorTable...completed
computeMtpCisPairs...completed: 1556 MTPs found

removeTranslationallyEquivalentMtps
...DONE: 175 translationally distinct MTPs
Finding best TEC

Best TEC: (1.82,1.00) T(P(p(960,30),p(3840,30)),V(v(0,0),v(0,24),v(160,1),v(160,25),v(320,2),v(320,26),v(480,22),v(480,27),v(480,30),v(8760,47)))
computeVectorTable...completed
computeMtpCisPairs...completed: 719 MTPs found

removeTranslationallyEquivalentMtps
...DONE: 95 translationally distinct MTPs
Finding best TEC

Best TEC: (1.80,1.00) T(P(p(8640,64),p(8760,76),p(8880,76)),V(v(0,0),v(1440,1),v(5280,0)))
computeVectorTable...completed
computeMtpCisPairs...completed: 489 MTPs found

removeTranslationallyEquivalentMtps
...DONE: 42 translationally distinct MTPs
Finding best TEC

Best TEC: (1.80,0.43) T(P(p(7680,71),p(9120,73),p(10560,74)),V(v(0,0),v(960,10),v(1320,-2)))
computeVectorTable...completed
computeMtpCisPairs...completed: 275 MTPs found

removeTranslationallyEquivalentMtps
...DONE: 18 translationally distinct MTPs
Finding best TEC

Best TEC: (1.50,1.00) T(P(p(5760,21),p(5760,33)),V(v(0,0),v(5760,36),v(6480,45)))
computeVectorTable...completed
computeMtpCisPairs...completed: 160 MTPs found

removeTranslationallyEquivalentMtps
...DONE: 10 translationally distinct MTPs
Finding best TEC

Best TEC: (1.33,1.00) T(P(p(5760,52),p(5760,57)),V(v(0,0),v(6240,26)))
computeVectorTable...completed
computeMtpCisPairs...completed: 98 MTPs found

removeTranslationallyEquivalentMtps
...DONE: 6 translationally distinct MTPs
Finding best TEC

Best TEC: (1.33,0.40) T(P(p(11760,75),p(12240,84)),V(v(0,0),v(1680,-3)))
computeVectorTable...completed
computeMtpCisPairs...completed: 54 MTPs found

removeTranslationallyEquivalentMtps
...DONE: 2 translationally distinct MTPs
Finding best TEC

Best TEC: (1.00,1.00) T(P(p(5760,60)),V(v(0,0),v(3120,-3),v(4560,-3),v(6360,11),v(6480,14),v(6600,12),v(6960,13),v(7680,21),v(8040,9),v(8400,-3),v(8520,9)))

579 ms taken to analyse 139 points

Last TEC is T(P(p(5760,60)),V(v(0,0),v(3120,-3),v(4560,-3),v(6360,11),v(6480,14),v(6600,12),v(6960,13),v(7680,21),v(8040,9),v(8400,-3),v(8520,9)))
T(P(p(0,36),p(0,48),p(2880,36),p(2880,48)),V(v(0,0),v(160,1),v(320,2),v(480,3),v(640,4),v(800,5),v(1440,-15),v(9840,29)))
T(P(p(7680,81),p(8040,69),p(8160,72),p(8160,81),p(8520,69)),V(v(0,0),v(1440,2),v(2880,3),v(4800,2)))
T(P(p(7800,75),p(7920,63),p(7920,75)),V(v(0,0),v(480,1),v(1440,1),v(2880,2),v(3360,3),v(3840,4),v(5280,0),v(5760,1)))
T(P(p(960,30),p(3840,30)),V(v(0,0),v(0,24),v(160,1),v(160,25),v(320,2),v(320,26),v(480,22),v(480,27),v(480,30),v(8760,47)))
T(P(p(8640,64),p(8760,76),p(8880,76)),V(v(0,0),v(1440,1),v(5280,0)))
T(P(p(7680,71),p(9120,73),p(10560,74)),V(v(0,0),v(960,10),v(1320,-2)))
T(P(p(5760,21),p(5760,33)),V(v(0,0),v(5760,36),v(6480,45)))
T(P(p(5760,52),p(5760,57)),V(v(0,0),v(6240,26)))
T(P(p(11760,75),p(12240,84)),V(v(0,0),v(1680,-3)))
T(P(p(5760,60)),V(v(0,0),v(3120,-3),v(4560,-3),v(6360,11),v(6480,14),v(6600,12),v(6960,13),v(7680,21),v(8040,9),v(8400,-3),v(8520,9)))

Number of TECs: 10
Encoding length: 71
Number of notes: 139
Encoding length without residual point set: 60
Number and proportion of residual points: 11, 7.91%
Compression ratio: 1.96
Compression ratio excluding residual point set: 2.13
Maximum time in tatums: 14280
Minimum time in tatums: 0
Maximum pitch: 84
Minimum pitch: 21
Running time: 579 milliseconds
/home/dorien/workspace/PMusicOR/sia/rach2_short-mid-2016-09-26-15-37-40-720/rach2_short-chrom.cos
