1	 2.3782361249878727
2	 2.0334771423400744
3	 2.0072688242644534
4	 2.1634618245296897
5	 2.0480462044343004
6	 1.978029153137067
7	 1.9590807723289436
8	 1.947018556354799
9	 2.125589840220864
10	 2.2752189793836264
11	 2.4680373473941453
12	 2.6301163939608174
13	 2.5982116977254437
14	 2.5723931683566454
15	 2.4604459768667177
16	 2.364179010121638
17	 2.381579893834183
18	 2.3981391316537
19	 2.452488209263143
20	 2.502210916783528
21	 2.4424260189385336
22	 2.3883950439405344
23	 2.39429643702221
24	 2.399921571944549
25	 2.446306831806575
26	 2.489402744956545
27	 2.4912445360061004
28	 2.493065525438756
29	 2.475203899215713
30	 2.458734251000867
31	 2.456222453852168
32	 2.454235838460973
33	 2.4523415476228707
34	 2.4615617128557505
35	 2.470958262064336
36	 2.4805291907569518
37	 2.4805291907569518
38	 2.4805291907569518
39	 2.4805291907569518
40	 2.4805291907569518
41	 2.4805291907569518
42	 2.4805291907569518
43	 2.4805291907569518
44	 2.4805291907569518
45	 2.4805291907569518
46	 2.4805291907569518
47	 2.4805291907569518
48	 2.4805291907569518
49	 2.4805291907569518
50	 2.4805291907569518
51	 2.4805291907569518
52	 2.4805291907569518
53	 2.547613307823096
54	 2.6147690273133763
55	 2.6819909705659604
56	 2.749274279914127
57	 2.749274279914127
58	 2.749274279914127
59	 2.749274279914127
60	 2.749274279914127
61	 2.749274279914127
62	 2.749274279914127
63	 2.749274279914127
64	 2.749274279914127
65	 2.749274279914127
66	 2.7553363533993465
67	 2.749274279914127
68	 2.7532965361902706
69	 2.762655230093688
70	 2.77217021324401
71	 2.7850815524320547
72	 2.7982125216282876
73	 2.7665783702431677
74	 2.7350544067466016
75	 2.712550495603232
76	 2.690051940241552
77	 2.722147693678162
78	 2.754649445246588
79	 2.807271841343003
80	 2.860018674099408
81	 2.8271393565223017
82	 2.7946420059101196
83	 2.7271888807336637
84	 2.6913463954615726
85	 2.7026350227504516
86	 2.7147881369818405
87	 2.6662449373974124
88	 2.6187412536746217
89	 2.6133040516169044
90	 2.6082299560616446
91	 2.6595270928990353
92	 2.711414530037288
93	 2.7715077694636414
94	 2.8318201603145625
95	 2.859680260308367
96	 2.8877224812466538
97	 2.8934944817983204
98	 2.891968631606735
99	 2.9047172954002476
100	 2.9047172954002476
101	 2.9143827933539077
102	 2.92419445879784
103	 2.9273516834670423
104	 2.931349593821475
105	 2.9704606551336994
106	 3.009755676606325
107	 3.0389733846916127
108	 3.0686130593256618
109	 3.0480428255189147
110	 3.0281499205285938
111	 2.984683376484681
112	 2.941282788376073
113	 2.9835181943801388
114	 3.0264979940294015
115	 3.108428612852051
116	 3.158373405124436
117	 3.0921300680702277
118	 3.026544988298923
119	 3.021249076601265
120	 3.016116553815076
121	 3.03091885881119
122	 3.04601259565091
123	 3.010239930835635
124	 2.975393934624007
125	 2.93178919055651
126	 2.888923599923911
127	 2.8671687369593943
128	 2.845522107838442
129	 2.828696343494178
130	 2.8121634879330895
131	 2.795928737235148
132	 2.7799973140629706
133	 2.7799973140629706
134	 2.7799973140629706
135	 2.7799973140629706
136	 2.7799973140629706
137	 2.7799973140629706
138	 2.7799973140629706
139	 2.7799973140629706
140	 2.7799973140629706
141	 2.7799973140629706
142	 2.7799973140629706
143	 2.7799973140629706
144	 2.7799973140629706
145	 2.7799973140629706
146	 2.7799973140629706
147	 2.7799973140629706
148	 2.7799973140629706
149	 2.7799973140629706
150	 2.7799973140629706
151	 2.7799973140629706
152	 2.7799973140629706
153	 2.7799973140629706
154	 2.7799973140629706
155	 2.7799973140629706
156	 2.7799973140629706
157	 2.7799973140629706
158	 2.7799973140629706
159	 2.7799973140629706
160	 2.7799973140629706
161	 2.8011741852654093
162	 2.829451117919751
163	 2.8438790087128054
164	 2.8661695227016835
165	 2.871581402937645
166	 2.8771641317793
167	 2.893883507278296
168	 2.9107752517494943
169	 2.883223637764507
170	 2.855862162499677
171	 2.8335824688658695
172	 2.8113114717507437
173	 2.8502309233108347
174	 2.8893697091575756
175	 2.944365414006444
176	 2.9993946166180496
177	 2.960193015868617
178	 2.9212008132268723
179	 2.854548903276547
180	 2.8151966634140035
181	 2.8151966634140035
182	 2.8151966634140035
183	 2.7890493794835076
184	 2.7636442207160705
185	 2.7265528495148117
186	 2.689748757541741
187	 2.7121058015308583
188	 2.7344705237694567
189	 2.75684273738952
190	 2.779222261478441
191	 2.7778797339333
192	 2.776724134724947
193	 2.747786211879909
194	 2.7190191942495257
195	 2.7213310628619483
196	 2.694258630161058
197	 2.701957739991012
198	 2.71064391634116
199	 2.680442000155448
200	 2.651566019895413
201	 2.6289417911390385
202	 2.606321006936278
203	 2.583874993660491
204	 2.562198019513194
205	 2.5339477483163177
206	 2.5063662158319966
207	 2.4836775537894074
208	 2.460991353336565
209	 2.44337980221332
210	 2.4266600897524433
211	 2.445845036219044
212	 2.42328824971305
213	 2.443459062721808
214	 2.4645744442392763
215	 2.4513535766722856
216	 2.4398761630864256
217	 2.417586852875681
218	 2.395307570618856
219	 2.364101005921139
220	 2.333537377287396
221	 2.3143106928120103
222	 2.296000694947051
223	 2.2736753706713144
224	 2.251360001835336
225	 2.2248683817694332
226	 2.231347907177185
227	 2.183151473870743
228	 2.160088005428791
229	 2.1357636962448194
230	 2.112700489388877
231	 2.1242848756379167
232	 2.13763458239803
233	 2.187018419263389
234	 2.23667997625886
235	 2.236482157585286
236	 2.23715753048312
237	 2.190112692959885
238	 2.144009547832596
239	 2.1056720284026507
240	 2.0676627665548684
241	 2.1016144398288983
242	 2.137403434356119
243	 2.1355321896108235
244	 2.151614970868162
245	 2.0850633392531113
246	 2.0194780739580547
247	 1.9880440616840802
248	 1.957701890277816
249	 1.947029340738689
250	 1.9367014008869134
251	 1.9318421755405728
252	 1.9283891765401853
253	 1.9135197781045623
254	 1.898945382626192
255	 1.873976849607273
256	 1.8505288049268513
257	 1.854060443647222
258	 1.8619429825759974
259	 1.879013222730839
260	 1.881688803627564
261	 1.8992329327557482
262	 1.9171938487532587
263	 1.9281972483896284
264	 1.9402122745627604
265	 1.9365376651894313
266	 1.9339336218436594
267	 1.9377363682565283
268	 1.9421016332049499
269	 1.9470256331639126
270	 1.9525041409338932
271	 1.9642906808049907
272	 1.9770609509312893
273	 1.9992273620986687
274	 2.022181187158395
275	 2.0384526769580242
276	 2.055133917866182
277	 2.072215014470587
278	 2.089686161531758
279	 2.1007777834326027
280	 2.11279743555726
281	 2.117853439498903
282	 2.1234186870148806
283	 2.1220874460533747
284	 2.121737496415929
285	 2.132778304316696
286	 2.143822987958039
287	 2.161709292711981
288	 2.17702174319964
289	 2.1880216243669377
290	 2.1592019801763183
291	 2.1880393057935072
292	 2.192826710632648
293	 2.1994961221146383
294	 2.2063814416816805
295	 2.18421314577981
296	 2.162058448068414
297	 2.099667752375123
298	 2.0381463963278006
299	 2.016194947468457
300	 1.9942630383671394
301	 2.057069017120557
302	 2.1204096458461352
303	 2.139557061721888
304	 2.159047316803718
305	 2.0820012466848654
306	 2.004981853499926
307	 1.9760856677273213
308	 1.9313417409573064
309	 1.9867617034252831
310	 2.044565633257424
311	 2.0758709325719966
312	 2.1095522736742027
313	 2.1372320747165787
314	 2.165159406070909
315	 2.202512027859098
316	 2.2406948986190267
317	 2.269070391415245
318	 2.2976621641059416
319	 2.331683177706039
320	 2.3587078788743643
321	 2.363670385480458
322	 2.392206526660551
323	 2.369853472867891
324	 2.369853472867891
325	 2.3276819440945973
326	 2.2860995128961465
327	 2.27374528667952
328	 2.2624173335610145
329	 2.3028194683251515
330	 2.3434140656025777
331	 2.381450945928553
332	 2.4197778013412714
333	 2.3807076818033193
334	 2.342709209696614
335	 2.3063538286360137
336	 2.270333938256073
337	 2.310757790465572
338	 2.3522031922995086
339	 2.385875036794118
340	 2.4356998873418982
341	 2.375267564653998
342	 2.316013489352771
343	 2.3103908903467683
344	 2.304980545730773
345	 2.3126102369106643
346	 2.320691802285976
347	 2.269628159603242
348	 2.219208516835976
349	 2.1740752496630216
350	 2.1298809492232182
351	 2.1154640555594413
352	 2.1013200572173667
353	 2.1062644815400864
354	 2.0862626381556084
355	 2.077266428794663
356	 2.091874414537673
357	 2.0979740831805644
358	 2.104303592133036
359	 2.120552739349814
360	 2.137043923943539
361	 2.1085899029202744
362	 2.0803726087403986
363	 2.0577960154488903
364	 2.035224891225537
365	 2.0662190065102
366	 2.097779417113248
367	 2.146188099366875
368	 2.1949528999192673
369	 2.1627335383407726
370	 2.1310352784184494
371	 2.1055471239555135
372	 2.0659604867625134
373	 2.1431365457425557
374	 2.2212071472956625
375	 2.2460317097488485
376	 2.2717888196743408
377	 2.2746293799644226
378	 2.277895150395938
379	 2.337366008536961
380	 2.3971268095779457
381	 2.458131137917044
382	 2.5193380048862055
383	 2.542535497037817
384	 2.566030726861497
385	 2.5674079591481638
386	 2.5627510737871795
387	 2.5786108670556205
388	 2.5786108670556205
389	 2.585148702917753
390	 2.5918710028402274
391	 2.593264678199535
392	 2.595610911461373
393	 2.6390592672763793
394	 2.682580529148008
395	 2.7188351794222476
396	 2.7553925392517136
397	 2.7434262116370727
398	 2.732313054665834
399	 2.6923833044096828
400	 2.652637885897232
401	 2.6854906448724294
402	 2.71943103798644
403	 2.750078670001522
404	 2.7958567678258026
405	 2.724728324291679
406	 2.6540976306202464
407	 2.644760965795839
408	 2.6355888461968675
409	 2.6514794540716324
410	 2.667690305525988
411	 2.6259682229349246
412	 2.58513434200185
413	 2.5328735047762128
414	 2.4811387975814663
415	 2.462133319473989
416	 2.4432997632022153
417	 2.4523415476228707
418	 2.467407167189343
419	 2.470958262064336
420	 2.484357626469534
421	 2.5040105213831145
422	 2.5243358003371905
423	 2.5569301914008795
424	 2.589617141817944
425	 2.5680266993739256
426	 2.5465599965831043
427	 2.5292512609856184
428	 2.512263841212544
429	 2.556932623515399
430	 2.6016352436875816
431	 2.664427984176718
432	 2.727398245800811
433	 2.7050231868132557
434	 2.682655653986178
435	 2.6675243874918944
436	 2.6438845599226415
437	 2.695879843149049
438	 2.7480285098952915
439	 2.7383226586478084
440	 2.728773156786276
441	 2.700606379352114
442	 2.672703029306473
443	 2.7084048779427348
444	 2.7444251416032466
445	 2.7833676289459137
446	 2.822534009159854
447	 2.8298427745543275
448	 2.8373162832503063
449	 2.818668303241326
450	 2.8001751402720036
451	 2.8117426283114892
452	 2.791205807149305
453	 2.804598311915155
454	 2.819497772866178
455	 2.790544246414548
456	 2.7628899467521326
457	 2.740186981064857
458	 2.7174860057040466
459	 2.694951248698944
460	 2.6731521077554365
461	 2.646160485722159
462	 2.6198351776140423
463	 2.597084941082469
464	 2.5743359709248006
465	 2.5552894127405614
466	 2.537075125256904
467	 2.5187602488520695
468	 2.496132079410864
469	 2.4795108774105707
470	 2.4645744442392763
471	 2.4513535766722856
472	 2.4398761630864256
473	 2.417586852875681
474	 2.395307570618856
475	 2.364101005921139
476	 2.333537377287396
477	 2.3143106928120103
478	 2.296000694947051
479	 2.2736753706713144
480	 2.251360001835336
481	 2.2340458262303695
482	 2.207906739507808
483	 2.1991827325616518
484	 2.1855156150660036
485	 2.168602949757593
486	 2.160865380165394
487	 2.1974763801227386
488	 2.2181184320719516
489	 2.2342682768333804
490	 2.2176634061245637
491	 2.1568968893290505
492	 2.1127683714021597
493	 2.08586283194685
494	 2.037059968728789
495	 2.043814113048771
496	 2.0152259136047257
497	 2.075309661519778
498	 2.1357759868950055
499	 2.1522289617271984
500	 2.1807764346360683
501	 2.2200986332136994
502	 2.2442657864798465
503	 2.3246067686164333
504	 2.3875219509351817
505	 2.4388485251645573
506	 2.4903459564614727
507	 2.519964331665035
508	 2.550311007086
509	 2.5889801932802303
510	 2.628319057153705
511	 2.6810583349423807
512	 2.7338994707555253
513	 2.7737966683659034
514	 2.7957328430916566
515	 2.7840357735629677
516	 2.81421392199634
517	 2.791070110953379
518	 2.7672905052607994
519	 2.7328858872317614
520	 2.710936848190667
521	 2.734061366353259
522	 2.7907305279414607
523	 2.8901832536261005
524	 2.9695425137570393
525	 2.990015601096818
526	 3.0254270923664044
527	 2.9808835712994637
528	 2.9635691819544374
529	 2.931916894228578
530	 2.900892068325341
531	 2.9121725899550275
532	 2.9269976594335874
533	 2.849925284503764
534	 2.7862350652843433
535	 2.730957063191466
536	 2.6944587037394037
537	 2.6944587037394037
538	 2.6944587037394037
539	 2.661771791128043
540	 2.6291895946629524
541	 2.5782673897305504
542	 2.527967320781678
543	 2.490700061112223
544	 2.454235838460973
545	 2.4523415476228707
546	 2.4615617128557505
547	 2.470958262064336
548	 2.4805291907569518
549	 2.4805291907569518
550	 2.4805291907569518
551	 2.4805291907569518
552	 2.4805291907569518
553	 2.4805291907569518
554	 2.4805291907569518
555	 2.4805291907569518
556	 2.4805291907569518
557	 2.4805291907569518
558	 2.4805291907569518
559	 2.4805291907569518
560	 2.4805291907569518
561	 2.4805291907569518
562	 2.4805291907569518
563	 2.4805291907569518
564	 2.4805291907569518
565	 2.547613307823096
566	 2.6147690273133763
567	 2.6819909705659604
568	 2.749274279914127
569	 2.749274279914127
570	 2.749274279914127
571	 2.749274279914127
572	 2.749274279914127
573	 2.749274279914127
574	 2.749274279914127
575	 2.749274279914127
576	 2.749274279914127
577	 2.749274279914127
578	 2.7553363533993465
579	 2.749274279914127
580	 2.7532965361902706
581	 2.762655230093688
582	 2.77217021324401
583	 2.7850815524320547
584	 2.7982125216282876
585	 2.7665783702431677
586	 2.7350544067466016
587	 2.712550495603232
588	 2.690051940241552
589	 2.722147693678162
590	 2.754649445246588
591	 2.807271841343003
592	 2.860018674099408
593	 2.8271393565223017
594	 2.7946420059101196
595	 2.7271888807336637
596	 2.6913463954615726
597	 2.7026350227504516
598	 2.7147881369818405
599	 2.6662449373974124
600	 2.6187412536746217
601	 2.6133040516169044
602	 2.6082299560616446
603	 2.6595270928990353
604	 2.711414530037288
605	 2.7715077694636414
606	 2.8318201603145625
607	 2.859680260308367
608	 2.8877224812466538
609	 2.8934944817983204
610	 2.891968631606735
611	 2.9047172954002476
612	 2.9047172954002476
613	 2.9143827933539077
614	 2.92419445879784
615	 2.9273516834670423
616	 2.931349593821475
617	 2.9704606551336994
618	 3.009755676606325
619	 3.0389733846916127
620	 3.0686130593256618
621	 3.0480428255189147
622	 3.0281499205285938
623	 2.984683376484681
624	 2.941282788376073
625	 2.9835181943801388
626	 3.0264979940294015
627	 3.108428612852051
628	 3.158373405124436
629	 3.0921300680702277
630	 3.026544988298923
631	 3.021249076601265
632	 3.016116553815076
633	 3.03091885881119
634	 3.04601259565091
635	 3.010239930835635
636	 2.975393934624007
637	 2.93178919055651
638	 2.888923599923911
639	 2.8671687369593943
640	 2.845522107838442
641	 2.828696343494178
642	 2.8121634879330895
643	 2.795928737235148
644	 2.7799973140629706
645	 2.7799973140629706
646	 2.7799973140629706
647	 2.7799973140629706
648	 2.7799973140629706
649	 2.7799973140629706
650	 2.7799973140629706
651	 2.7799973140629706
652	 2.7799973140629706
653	 2.7799973140629706
654	 2.7799973140629706
655	 2.7799973140629706
656	 2.7799973140629706
657	 2.7799973140629706
658	 2.7799973140629706
659	 2.7799973140629706
660	 2.7799973140629706
661	 2.7799973140629706
662	 2.7799973140629706
663	 2.7799973140629706
664	 2.7799973140629706
665	 2.7799973140629706
666	 2.7799973140629706
667	 2.7799973140629706
668	 2.7799973140629706
669	 2.7799973140629706
670	 2.7799973140629706
671	 2.7799973140629706
672	 2.7799973140629706
673	 2.8011741852654093
674	 2.829451117919751
675	 2.8438790087128054
676	 2.8661695227016835
677	 2.871581402937645
678	 2.8771641317793
679	 2.893883507278296
680	 2.9107752517494943
681	 2.883223637764507
682	 2.855862162499677
683	 2.8335824688658695
684	 2.8113114717507437
685	 2.8502309233108347
686	 2.8893697091575756
687	 2.944365414006444
688	 2.9993946166180496
689	 2.960193015868617
690	 2.9212008132268723
691	 2.854548903276547
692	 2.8151966634140035
693	 2.8151966634140035
694	 2.8151966634140035
695	 2.7890493794835076
696	 2.7636442207160705
697	 2.7265528495148117
698	 2.689748757541741
699	 2.7121058015308583
700	 2.7344705237694567
701	 2.75684273738952
702	 2.779222261478441
703	 2.7778797339333
704	 2.776724134724947
705	 2.747786211879909
706	 2.7190191942495257
707	 2.7213310628619483
708	 2.694258630161058
709	 2.701957739991012
710	 2.71064391634116
711	 2.680442000155448
712	 2.651566019895413
713	 2.6289417911390385
714	 2.606321006936278
715	 2.583874993660491
716	 2.562198019513194
717	 2.5339477483163177
718	 2.5063662158319966
719	 2.4836775537894074
720	 2.460991353336565
721	 2.44337980221332
722	 2.4266600897524433
723	 2.445845036219044
724	 2.42328824971305
725	 2.443459062721808
726	 2.4645744442392763
727	 2.4513535766722856
728	 2.4398761630864256
729	 2.417586852875681
730	 2.395307570618856
731	 2.364101005921139
732	 2.333537377287396
733	 2.3143106928120103
734	 2.296000694947051
735	 2.2736753706713144
736	 2.251360001835336
737	 2.2248683817694332
738	 2.231347907177185
739	 2.183151473870743
740	 2.160088005428791
741	 2.1357636962448194
742	 2.112700489388877
743	 2.1242848756379167
744	 2.13763458239803
745	 2.187018419263389
746	 2.23667997625886
747	 2.236482157585286
748	 2.23715753048312
749	 2.190112692959885
750	 2.144009547832596
751	 2.1056720284026507
752	 2.0676627665548684
753	 2.1016144398288983
754	 2.137403434356119
755	 2.1355321896108235
756	 2.151614970868162
757	 2.0850633392531113
758	 2.0194780739580547
759	 1.9880440616840802
760	 1.957701890277816
761	 1.947029340738689
762	 1.9367014008869134
763	 1.9318421755405728
764	 1.9283891765401853
765	 1.9135197781045623
766	 1.898945382626192
767	 1.873976849607273
768	 1.8505288049268513
769	 1.854060443647222
770	 1.8619429825759974
771	 1.879013222730839
772	 1.881688803627564
773	 1.8992329327557482
774	 1.9171938487532587
775	 1.9281972483896284
776	 1.9402122745627604
777	 1.9365376651894313
778	 1.9339336218436594
779	 1.9377363682565283
780	 1.9421016332049499
781	 1.9470256331639126
782	 1.9525041409338932
783	 1.9642906808049907
784	 1.9770609509312893
785	 1.9992273620986687
786	 2.022181187158395
787	 2.0384526769580242
788	 2.055133917866182
789	 2.072215014470587
790	 2.089686161531758
791	 2.1007777834326027
792	 2.11279743555726
793	 2.117853439498903
794	 2.1234186870148806
795	 2.1220874460533747
796	 2.121737496415929
797	 2.132778304316696
798	 2.143822987958039
799	 2.161709292711981
800	 2.17702174319964
801	 2.1880216243669377
802	 2.1592019801763183
803	 2.1880393057935072
804	 2.192826710632648
805	 2.1994961221146383
806	 2.2063814416816805
807	 2.18421314577981
808	 2.162058448068414
809	 2.099667752375123
810	 2.0381463963278006
811	 2.016194947468457
812	 1.9942630383671394
813	 2.057069017120557
814	 2.1204096458461352
815	 2.139557061721888
816	 2.159047316803718
817	 2.0820012466848654
818	 2.004981853499926
819	 1.9760856677273213
820	 1.9313417409573064
821	 1.9867617034252831
822	 2.044565633257424
823	 2.0758709325719966
824	 2.1095522736742027
825	 2.1372320747165787
826	 2.165159406070909
827	 2.202512027859098
828	 2.2406948986190267
829	 2.269070391415245
830	 2.2976621641059416
831	 2.331683177706039
832	 2.3587078788743643
833	 2.363670385480458
834	 2.392206526660551
835	 2.369853472867891
836	 2.369853472867891
837	 2.3276819440945973
838	 2.2860995128961465
839	 2.27374528667952
840	 2.2624173335610145
841	 2.3028194683251515
842	 2.3434140656025777
843	 2.381450945928553
844	 2.4197778013412714
845	 2.3807076818033193
846	 2.342709209696614
847	 2.3063538286360137
848	 2.270333938256073
849	 2.310757790465572
850	 2.3522031922995086
851	 2.385875036794118
852	 2.4356998873418982
853	 2.375267564653998
854	 2.316013489352771
855	 2.3103908903467683
856	 2.304980545730773
857	 2.3126102369106643
858	 2.320691802285976
859	 2.269628159603242
860	 2.219208516835976
861	 2.1740752496630216
862	 2.1298809492232182
863	 2.1154640555594413
864	 2.1013200572173667
865	 2.1062644815400864
866	 2.0862626381556084
867	 2.077266428794663
868	 2.091874414537673
869	 2.0979740831805644
870	 2.104303592133036
871	 2.120552739349814
872	 2.137043923943539
873	 2.1085899029202744
874	 2.0803726087403986
875	 2.0577960154488903
876	 2.035224891225537
877	 2.0662190065102
878	 2.097779417113248
879	 2.146188099366875
880	 2.1949528999192673
881	 2.1627335383407726
882	 2.1310352784184494
883	 2.1055471239555135
884	 2.0659604867625134
885	 2.1431365457425557
886	 2.2212071472956625
887	 2.2460317097488485
888	 2.2717888196743408
889	 2.2746293799644226
890	 2.277895150395938
891	 2.337366008536961
892	 2.3971268095779457
893	 2.458131137917044
894	 2.5193380048862055
895	 2.542535497037817
896	 2.566030726861497
897	 2.5674079591481638
898	 2.5627510737871795
899	 2.5786108670556205
900	 2.5786108670556205
901	 2.585148702917753
902	 2.5918710028402274
903	 2.593264678199535
904	 2.595610911461373
905	 2.6390592672763793
906	 2.682580529148008
907	 2.7188351794222476
908	 2.7553925392517136
909	 2.7434262116370727
910	 2.732313054665834
911	 2.6923833044096828
912	 2.652637885897232
913	 2.6854906448724294
914	 2.71943103798644
915	 2.750078670001522
916	 2.7958567678258026
917	 2.724728324291679
918	 2.6540976306202464
919	 2.644760965795839
920	 2.6355888461968675
921	 2.6514794540716324
922	 2.667690305525988
923	 2.6259682229349246
924	 2.58513434200185
925	 2.5328735047762128
926	 2.4811387975814663
927	 2.462133319473989
928	 2.4432997632022153
929	 2.4523415476228707
930	 2.467407167189343
931	 2.470958262064336
932	 2.484357626469534
933	 2.5040105213831145
934	 2.5243358003371905
935	 2.5569301914008795
936	 2.589617141817944
937	 2.5680266993739256
938	 2.5465599965831043
939	 2.5292512609856184
940	 2.512263841212544
941	 2.556932623515399
942	 2.6016352436875816
943	 2.664427984176718
944	 2.727398245800811
945	 2.7050231868132557
946	 2.682655653986178
947	 2.6675243874918944
948	 2.6438845599226415
949	 2.695879843149049
950	 2.7480285098952915
951	 2.7383226586478084
952	 2.728773156786276
953	 2.700606379352114
954	 2.672703029306473
955	 2.7084048779427348
956	 2.7444251416032466
957	 2.7833676289459137
958	 2.822534009159854
959	 2.8298427745543275
960	 2.8373162832503063
961	 2.818668303241326
962	 2.8001751402720036
963	 2.8117426283114892
964	 2.791205807149305
965	 2.804598311915155
966	 2.819497772866178
967	 2.790544246414548
968	 2.7628899467521326
969	 2.740186981064857
970	 2.7174860057040466
971	 2.694951248698944
972	 2.6731521077554365
973	 2.646160485722159
974	 2.6198351776140423
975	 2.597084941082469
976	 2.5743359709248006
977	 2.5552894127405614
978	 2.537075125256904
979	 2.5187602488520695
980	 2.496132079410864
981	 2.4795108774105707
982	 2.4645744442392763
983	 2.4513535766722856
984	 2.4398761630864256
985	 2.417586852875681
986	 2.395307570618856
987	 2.364101005921139
988	 2.333537377287396
989	 2.3143106928120103
990	 2.296000694947051
991	 2.2736753706713144
992	 2.251360001835336
993	 2.2340458262303695
994	 2.207906739507808
995	 2.1991827325616518
996	 2.1855156150660036
997	 2.168602949757593
998	 2.160865380165394
999	 2.1974763801227386
1000	 2.2181184320719516
1001	 2.2342682768333804
1002	 2.2176634061245637
1003	 2.1568968893290505
1004	 2.1127683714021597
1005	 2.08586283194685
1006	 2.037059968728789
1007	 2.043814113048771
1008	 2.0152259136047257
1009	 2.075309661519778
1010	 2.1357759868950055
1011	 2.1522289617271984
1012	 2.1807764346360683
1013	 2.2200986332136994
1014	 2.2442657864798465
1015	 2.3246067686164333
1016	 2.3875219509351817
1017	 2.4388485251645573
1018	 2.4903459564614727
1019	 2.519964331665035
1020	 2.550311007086
1021	 2.5889801932802303
1022	 2.628319057153705
1023	 2.6810583349423807
1024	 2.7338994707555253
1025	 2.7856814511580628
1026	 2.819553334584851
1027	 2.8425809181815427
1028	 2.8730561605116445
1029	 2.9165604797027296
1030	 2.9597836261964106
1031	 2.9679483240369953
1032	 2.9897184502826244
1033	 3.000356447361093
1034	 3.0455221894889113
1035	 3.089401048710884
1036	 3.11358600763273
1037	 3.1450053797677517
1038	 3.1921767763071025
1039	 3.237585909642491
1040	 3.3091350994647772
1041	 3.2670401830000517
1042	 3.225062479978618
1043	 3.1797280615636363
1044	 3.137941966282749
1045	 3.137941966282749
1046	 3.1519997878174517
1047	 3.0962863261693405
1048	 3.059688246711155
1049	 2.993180372646137
1050	 2.9269976594335883
1051	 2.894035213680718
1052	 2.8611626714448244
1053	 2.841572660420126
1054	 2.8221323557330775
1055	 2.78457958652446
1056	 2.7477362775527427
1057	 2.7169575477355803
1058	 2.697263185378345
1059	 2.684053484538638
1060	 2.6670024027355765
1061	 2.648559219877354
1062	 2.6307787312626663
1063	 2.614650276078492
1064	 2.598847617925556
1065	 2.588919100293403
1066	 2.57938147938558
1067	 2.570239106814255
1068	 2.5614962146885962
1069	 2.5531569068894564
1070	 2.5452251503938377
1071	 2.538648579040432
1072	 2.5324919923263995
1073	 2.5179786667478616
1074	 2.5038232730893775
1075	 2.490031915698539
1076	 2.4766106761453917
1077	 2.4635656035234783
1078	 2.450902704351466
1079	 2.4344383471752433
1080	 2.418319583484366
1081	 2.4040211503223783
1082	 2.390508824747847
1083	 2.375489972166584
1084	 2.3608444074519883
1085	 2.347599772362685
1086	 2.3347540786695284
1087	 2.36767048038728
1088	 2.4014913733339402
1089	 2.4612323986905422
1090	 2.518636871642543
1091	 2.5332650258504996
1092	 2.5937030123353235
1093	 2.5412696022258894
1094	 2.4889871566959387
1095	 2.4368653925068022
1096	 2.3849148446427457
1097	 2.341908299413963
1098	 2.29985283576957
1099	 2.28977417089488
1100	 2.280850102746197
1101	 2.280850102746197
1102	 2.280850102746197
1103	 2.280850102746197
1104	 2.280850102746197
1105	 2.325708571137838
1106	 2.3314618142267167
1107	 2.353958178868946
1108	 2.4023722485002197
1109	 2.357315582118215
1110	 2.31228193646392
1111	 2.3151712012715895
1112	 2.3191238745189966
1113	 2.3619801949206383
1114	 2.404939085236326
1115	 2.4164610710425283
1116	 2.428947123487322
1117	 2.433399830045199
1118	 2.438298357194487
1119	 2.3837945205485593
1120	 2.3293569399508813
1121	 2.2903297077853226
1122	 2.282668327023734
1123	 2.2640501465730245
1124	 2.2183031764986496
1125	 2.251589258989599
1126	 2.285473105551088
1127	 2.2862336393503915
1128	 2.2872216459853645
1129	 2.2753079744723204
1130	 2.2635616992247707
1131	 2.2346529241019364
1132	 2.206604759851055
1133	 2.2293621994187784
1134	 2.252988012143873
1135	 2.2087749582511416
1136	 2.1646212870147363
1137	 2.1189398842024754
1138	 2.1132921156804927
1139	 2.096225969736405
1140	 2.085210177143781
1141	 2.0685103797654323
1142	 2.0522140339636445
1143	 2.0635731156654793
1144	 2.075246507332884
1145	 2.074989112308143
1146	 2.0756728586647113
1147	 2.0661801065889684
1148	 2.0576562677467134
1149	 2.0501892147305174
1150	 2.043236613283934
1151	 2.0259016983055558
1152	 2.0089681595777806
1153	 2.004777404401131
1154	 1.9621254906853782
1155	 1.9410518259946938
1156	 1.9410518259946938
1157	 1.9267633275428517
1158	 1.912946729837853
1159	 1.9967319350288368
1160	 2.080679021665124
1161	 2.0902927684570893
1162	 2.1001105188054594
1163	 2.0952913589038964
1164	 2.090990460969156
1165	 2.090990460969156
1166	 2.090990460969156
1167	 2.1485878462059684
1168	 2.207691012769676
1169	 2.230093034202236
1170	 2.2525034830599777
1171	 2.2654850758054734
1172	 2.2469590430618296
1173	 2.3278052663107363
1174	 2.408992178525563
1175	 2.4232716657851903
1176	 2.437921524139774
1177	 2.4256182424000685
1178	 2.4135759482278574
1179	 2.4408275499709786
1180	 2.468305808889436
1181	 2.490611735336789
1182	 2.5129269254922635
1183	 2.5575841269051804
1184	 2.6022755553932666
1185	 2.6012296578472265
1186	 2.601304709409748
1187	 2.6402868577481
1188	 2.6356475847877188
1189	 2.680106128097169
1190	 2.7246038594990893
1191	 2.720108396957249
1192	 2.7157972784918987
1193	 2.705518654749461
1194	 2.695394069741442
1195	 2.677399030065809
1196	 2.659575988987217
1197	 2.6367242349546784
1198	 2.61471866387138
1199	 2.608941281030297
1200	 2.6033511463491323
1201	 2.6021055303729215
1202	 2.6010595644590704
1203	 2.5843174113997707
1204	 2.567770357306901
1205	 2.5568000230491252
1206	 2.54685626957314
1207	 2.5473878417306897
1208	 2.548123709947643
1209	 2.543669516243021
1210	 2.5401816256317855
1211	 2.5033682317424533
1212	 2.466876403713274
1213	 2.438212870874349
1214	 2.4100999338611118
1215	 2.423035274443469
1216	 2.4369173371011175
1217	 2.4369173371011175
1218	 2.4520565610722223
1219	 2.419260213962938
1220	 2.4187946902739252
1221	 2.374488454460034
1222	 2.330233840990499
1223	 2.324121783856718
1224	 2.3184148687621318
1225	 2.3449791184992104
1226	 2.3723986550951617
1227	 2.438613105578115
1228	 2.504948578054515
1229	 2.466427422987347
1230	 2.4281531569687558
1231	 2.396456160395456
1232	 2.3656556181526787
1233	 2.3615934114909223
1234	 2.3245984473016694
1235	 2.339615750046148
1236	 2.3615934114909223
1237	 2.2815731012170817
1238	 2.2025475457291113
1239	 2.1474718429346944
1240	 2.0924399492452186
1241	 2.1317486228909197
1242	 2.1713351459867574
1243	 2.204928471900468
1244	 2.2389482983901177
1245	 2.199779473689124
1246	 2.1608949205974826
1247	 2.0963935558948217
1248	 2.032407855524411
1249	 2.025343166280059
1250	 2.0484400577912947
1251	 2.075780742563466
1252	 2.1000283042610004
1253	 2.0757280157486915
1254	 2.0523456406505542
1255	 2.029649755178793
1256	 2.0069567248358893
1257	 1.979991446622266
1258	 1.9539203869905584
1259	 1.9311465623727269
1260	 1.9083738833617836
1261	 1.8890574709884644
1262	 1.8708643177323148
1263	 1.8255952749347266
1264	 1.7820267030445982
1265	 1.7524939382769156
1266	 1.7299286123124655
1267	 1.7009380266088474
1268	 1.6783001828330155
1269	 1.6628068900799435
1270	 1.6498533784442786
1271	 1.6362485305409242
1272	 1.624053648651218
1273	 1.5998486398294063
1274	 1.576841464351231
1275	 1.566770405546816
1276	 1.5594756074924676
1277	 1.5361855368728525
1278	 1.5141716394442652
1279	 1.5082457261215763
1280	 1.5052404305284035
1281	 1.5016311143877292
1282	 1.4974134099720093
1283	 1.4974134099720093
1284	 1.5163527526153011
1285	 1.5527858243161978
1286	 1.5904315070751507
1287	 1.585920140233213
1288	 1.581889851948401
1289	 1.6609489329488734
1290	 1.740643775646624
1291	 1.815691897376131
1292	 1.891892803172879
1293	 1.9339349091590443
1294	 1.9772237174122038
1295	 1.9600215250596953
1296	 1.9436721376552513
1297	 2.00459199494494
1298	 2.0846439902768372
1299	 2.1833229270305696
1300	 2.2641724903808313
1301	 2.2948766995630367
1302	 2.3260713086369473
1303	 2.3914451661838294
1304	 2.4569874303431027
1305	 2.5015814880185965
1306	 2.546212739775947
1307	 2.5629573013800546
1308	 2.579896013640343
1309	 2.6454944133748106
1310	 2.7112345787846044
1311	 2.732500995644344
1312	 2.7547378171429173
1313	 2.7884237900405298
1314	 2.783563645077534
1315	 2.799072514458553
1316	 2.783563645077534
1317	 2.82799895088335
1318	 2.872472146577577
1319	 2.901945766699301
1320	 2.93185591526323
1321	 2.8504640747073666
1322	 2.7693366202391
1323	 2.643884559922639
1324	 2.518826980533596
1325	 2.5277947288491065
1326	 2.5371670355333977
1327	 2.6170337899736786
1328	 2.6972631853783438
1329	 2.6340174131664353
1330	 2.570937755216437
1331	 2.495844334328032
1332	 2.4214604029106086
1333	 2.480770055083167
1334	 2.5403608387780934
1335	 2.52517093141514
1336	 2.5103300213711623
1337	 2.4371687346585866
1338	 2.3653781021640783
1339	 2.352325060700016
1340	 2.3396722757394897
1341	 2.352325060700016
1342	 2.3653781021640783
1343	 2.3937003875514584
1344	 2.423035274443469
1345	 2.411020583424649
1346	 2.411020583424649
1347	 2.3704196234416677
1348	 2.3585509595294596
1349	 2.3142166339168284
1350	 2.2699342050737954
1351	 2.2585752661498804
1352	 2.247506545121505
1353	 2.302606969906936
1354	 2.3577451188294294
1355	 2.4607678136841775
1356	 2.5641453342905525
1357	 2.5977366838648868
1358	 2.631839352752622
1359	 2.605836114928183
1360	 2.580075484108428
1361	 2.6011052906147425
1362	 2.619177086006978
1363	 2.6293077161483667
1364	 2.6585752535328657
1365	 2.5893159214737276
1366	 2.5206848117850837
1367	 2.5102686243104215
1368	 2.500017375679085
1369	 2.5356472677005644
1370	 2.5716189703564822
1371	 2.6079183396336116
1372	 2.6445318827152255
1373	 2.6522525771245844
1374	 2.6603669161785435
1375	 2.6679247286728316
1376	 2.6756558548694813
1377	 2.657754915562633
1378	 2.6267416729091075
1379	 2.622852586631079
1380	 2.6147690273133763
1381	 2.5817575375824906
1382	 2.550055110423564
1383	 2.519711157295085
1384	 2.4907753276568325
1385	 2.4681016118055865
1386	 2.44543065045757
1387	 2.4237510923904706
1388	 2.4029056507065216
1389	 2.3676704803872797
1390	 2.332824107428019
1391	 2.3029164669386804
1392	 2.2735604382108106
1393	 2.301923512600712
1394	 2.3369799251093277
1395	 2.3928003171731644
1396	 2.4331749970352172
1397	 2.4809145834478055
1398	 2.5289629428280143
1399	 2.537704766686621
1400	 2.5473879398704335
1401	 2.5697674634482652
1402	 2.592154698868105
1403	 2.567121536441934
1404	 2.542917366503284
1405	 2.475390420290099
1406	 2.407916471322043
1407	 2.3802197254029576
1408	 2.352750372690934
1409	 2.381636032477954
1410	 2.4248105345979774
1411	 2.485855709381378
1412	 2.522614971683946
1413	 2.6048659401584042
1414	 2.687555069891095
1415	 2.7089859617940673
1416	 2.7305347697286937
1417	 2.720108396957248
1418	 2.704681185684799
1419	 2.686748349063851
1420	 2.654153797106967
1421	 2.658626098732952
1422	 2.6632864573112167
1423	 2.6430444337349552
1424	 2.6234404263035964
1425	 2.6091959616321136
1426	 2.627137761176092
1427	 2.6022210432367188
1428	 2.6074095748841097
1429	 2.6074095748841097
1430	 2.6074095748841097
1431	 2.646486303326986
1432	 2.685794424597187
1433	 2.6728784467680784
1434	 2.647155384313005
1435	 2.6666338807000365
1436	 2.668871309411028
1437	 2.7456679863372657
1438	 2.822497206883295
1439	 2.837283887428962
1440	 2.852267822779622
1441	 2.8310592068807043
1442	 2.8099685465969193
1443	 2.7516622255824448
1444	 2.73687681330332
1445	 2.6791061366055167
1446	 2.6136861907461912
1447	 2.6187078881955004
1448	 2.6286848786412826
1449	 2.596449306976228
1450	 2.5690918960527673
1451	 2.4943682950192696
1452	 2.433399830045199
1453	 2.4260372402742165
1454	 2.418867568966382
1455	 2.488096206512924
1456	 2.5579455753000957
1457	 2.535769817273906
1458	 2.480770055083166
1459	 2.4209953022873334
1460	 2.332518007153929
1461	 2.3394931483544323
1462	 2.3466695113210982
1463	 2.292068744321892
1464	 2.2379395386599112
1465	 2.1769642719156725
1466	 2.1306247185267835
1467	 2.0820923329343497
1468	 2.0502053259850177
1469	 2.018459670441135
1470	 1.9868621417612244
1471	 1.984721376213128
1472	 1.982840986740322
1473	 1.9768470960591096
1474	 2.0160360559021098
1475	 1.9992306289830597
1476	 1.9866683751607868
1477	 1.9768470960591096
1478	 1.9743200737715592
1479	 1.9519177118150586
1480	 1.9242111867457101
1481	 2.0084989844070127
1482	 2.092907353706163
1483	 2.2219076084220966
1484	 2.3509464458377898
1485	 2.346725698435447
1486	 2.3429697731434787
1487	 2.258106176356049
1488	 2.173313873143347
1489	 2.199659008505031
1490	 2.2266574031937054
1491	 2.2990960188076826
1492	 2.372423941428682
1493	 2.3113404668497752
1494	 2.250479435853022
1495	 2.266312516040981
1496	 2.282520688010809
1497	 2.3607721599504976
1498	 2.440036309401427
1499	 2.457774705642756
1500	 2.4758330634079515
1501	 2.457774705642756
1502	 2.440036309401427
1503	 2.444974796127219
1504	 2.450355047307227
1505	 2.465393195387706
1506	 2.435763574569038
1507	 2.461995037809243
1508	 2.484357626469534
1509	 2.5040105213831145
1510	 2.5069775011350495
1511	 2.5069775011350495
1512	 2.533481506813106
1513	 2.489942708416669
1514	 2.4241446265361315
1515	 2.379500263437123
1516	 2.3207585737995244
1517	 2.316856505310015
1518	 2.3391593538842117
1519	 2.387663987289111
1520	 2.4688949542991905
1521	 2.4547934195903336
1522	 2.473044670279398
1523	 2.449986412281505
1524	 2.402754292722695
1525	 2.424750370216283
1526	 2.465930487739669
1527	 2.4687874941349923
1528	 2.4908277455223597
1529	 2.448346760135092
1530	 2.406414523282305
1531	 2.396764942833847
1532	 2.3872945338180065
1533	 2.3961079777834167
1534	 2.405105685383493
1535	 2.403368249186407
1536	 2.402659451773666
1537	 2.414673747645416
1538	 2.411800046775487
1539	 2.43507513001605
1540	 2.4249408747793213
1541	 2.469701224950776
1542	 2.5338570530713618
1543	 2.578602807888586
1544	 2.600136059279734
1545	 2.635966943295242
1546	 2.6945867202185823
1547	 2.689025282317669
1548	 2.6932250497917996
1549	 2.7127181454635636
1550	 2.709054672428882
1551	 2.746431280125503
1552	 2.754712934482959
1553	 2.7488661978007554
1554	 2.713271373220779
1555	 2.6754127956971114
1556	 2.663226054932267
1557	 2.714059941369958
1558	 2.748260192912827
1559	 2.7426997244597184
1560	 2.71994073653215
1561	 2.697188988529186
1562	 2.6744446652229548
1563	 2.6833909271029937
1564	 2.6925070967182605
1565	 2.7140367160954324
1566	 2.7364283045106492
1567	 2.741622537538633
1568	 2.7477362775527427
1569	 2.7169575477355803
1570	 2.697263185378345
1571	 2.684053484538638
1572	 2.6670024027355765
1573	 2.648559219877354
1574	 2.6307787312626663
1575	 2.614650276078492
1576	 2.598847617925556
1577	 2.588919100293403
1578	 2.57938147938558
1579	 2.570239106814255
1580	 2.5614962146885962
1581	 2.5531569068894564
1582	 2.5452251503938377
1583	 2.538648579040432
1584	 2.5324919923263995
1585	 2.5179786667478616
1586	 2.5038232730893775
1587	 2.490031915698539
1588	 2.4766106761453917
1589	 2.4635656035234783
1590	 2.450902704351466
1591	 2.4344383471752433
1592	 2.418319583484366
1593	 2.4040211503223783
1594	 2.390508824747847
1595	 2.375489972166584
1596	 2.3608444074519883
1597	 2.347599772362685
1598	 2.3347540786695284
1599	 2.36767048038728
1600	 2.4014913733339402
1601	 2.4612323986905422
1602	 2.518636871642543
1603	 2.5332650258504996
1604	 2.5937030123353235
1605	 2.5412696022258894
1606	 2.4889871566959387
1607	 2.4368653925068022
1608	 2.3849148446427457
1609	 2.341908299413963
1610	 2.29985283576957
1611	 2.28977417089488
1612	 2.280850102746197
1613	 2.280850102746197
1614	 2.280850102746197
1615	 2.280850102746197
1616	 2.280850102746197
1617	 2.325708571137838
1618	 2.3314618142267167
1619	 2.353958178868946
1620	 2.4023722485002197
1621	 2.357315582118215
1622	 2.31228193646392
1623	 2.3151712012715895
1624	 2.3191238745189966
1625	 2.3619801949206383
1626	 2.404939085236326
1627	 2.4164610710425283
1628	 2.428947123487322
1629	 2.433399830045199
1630	 2.438298357194487
1631	 2.3837945205485593
1632	 2.3293569399508813
1633	 2.2903297077853226
1634	 2.282668327023734
1635	 2.2640501465730245
1636	 2.2183031764986496
1637	 2.251589258989599
1638	 2.285473105551088
1639	 2.2862336393503915
1640	 2.2872216459853645
1641	 2.2753079744723204
1642	 2.2635616992247707
1643	 2.2346529241019364
1644	 2.206604759851055
1645	 2.2293621994187784
1646	 2.252988012143873
1647	 2.2087749582511416
1648	 2.1646212870147363
1649	 2.1189398842024754
1650	 2.1132921156804927
1651	 2.096225969736405
1652	 2.085210177143781
1653	 2.0685103797654323
1654	 2.0522140339636445
1655	 2.0635731156654793
1656	 2.075246507332884
1657	 2.074989112308143
1658	 2.0756728586647113
1659	 2.0661801065889684
1660	 2.0576562677467134
1661	 2.0501892147305174
1662	 2.043236613283934
1663	 2.0259016983055558
1664	 2.0089681595777806
1665	 2.004777404401131
1666	 1.9621254906853782
1667	 1.9410518259946938
1668	 1.9410518259946938
1669	 1.9267633275428517
1670	 1.912946729837853
1671	 1.9967319350288368
1672	 2.080679021665124
1673	 2.0902927684570893
1674	 2.1001105188054594
1675	 2.0952913589038964
1676	 2.090990460969156
1677	 2.090990460969156
1678	 2.090990460969156
1679	 2.1485878462059684
1680	 2.207691012769676
1681	 2.230093034202236
1682	 2.2525034830599777
1683	 2.2654850758054734
1684	 2.2469590430618296
1685	 2.3278052663107363
1686	 2.408992178525563
1687	 2.4232716657851903
1688	 2.437921524139774
1689	 2.4256182424000685
1690	 2.4135759482278574
1691	 2.4408275499709786
1692	 2.468305808889436
1693	 2.490611735336789
1694	 2.5129269254922635
1695	 2.5575841269051804
1696	 2.6022755553932666
1697	 2.6012296578472265
1698	 2.601304709409748
1699	 2.6402868577481
1700	 2.6356475847877188
1701	 2.680106128097169
1702	 2.7246038594990893
1703	 2.720108396957249
1704	 2.7157972784918987
1705	 2.705518654749461
1706	 2.695394069741442
1707	 2.677399030065809
1708	 2.659575988987217
1709	 2.6367242349546784
1710	 2.61471866387138
1711	 2.608941281030297
1712	 2.6033511463491323
1713	 2.6021055303729215
1714	 2.6010595644590704
1715	 2.5843174113997707
1716	 2.567770357306901
1717	 2.5568000230491252
1718	 2.54685626957314
1719	 2.5473878417306897
1720	 2.548123709947643
1721	 2.543669516243021
1722	 2.5401816256317855
1723	 2.5033682317424533
1724	 2.466876403713274
1725	 2.438212870874349
1726	 2.4100999338611118
1727	 2.423035274443469
1728	 2.4369173371011175
1729	 2.4369173371011175
1730	 2.4520565610722223
1731	 2.419260213962938
1732	 2.4187946902739252
1733	 2.374488454460034
1734	 2.330233840990499
1735	 2.324121783856718
1736	 2.3184148687621318
1737	 2.3449791184992104
1738	 2.3723986550951617
1739	 2.438613105578115
1740	 2.504948578054515
1741	 2.466427422987347
1742	 2.4281531569687558
1743	 2.396456160395456
1744	 2.3656556181526787
1745	 2.3615934114909223
1746	 2.3245984473016694
1747	 2.339615750046148
1748	 2.3615934114909223
1749	 2.2815731012170817
1750	 2.2025475457291113
1751	 2.1474718429346944
1752	 2.0924399492452186
1753	 2.1317486228909197
1754	 2.1713351459867574
1755	 2.204928471900468
1756	 2.2389482983901177
1757	 2.199779473689124
1758	 2.1608949205974826
1759	 2.0963935558948217
1760	 2.032407855524411
1761	 2.025343166280059
1762	 2.0484400577912947
1763	 2.075780742563466
1764	 2.1000283042610004
1765	 2.0757280157486915
1766	 2.0523456406505542
1767	 2.029649755178793
1768	 2.0069567248358893
1769	 1.979991446622266
1770	 1.9539203869905584
1771	 1.9311465623727269
1772	 1.9083738833617836
1773	 1.8890574709884644
1774	 1.8708643177323148
1775	 1.8255952749347266
1776	 1.7820267030445982
1777	 1.7524939382769156
1778	 1.7299286123124655
1779	 1.7009380266088474
1780	 1.6783001828330155
1781	 1.6628068900799435
1782	 1.6498533784442786
1783	 1.6362485305409242
1784	 1.624053648651218
1785	 1.5998486398294063
1786	 1.576841464351231
1787	 1.566770405546816
1788	 1.5594756074924676
1789	 1.5361855368728525
1790	 1.5141716394442652
1791	 1.5082457261215763
1792	 1.5052404305284035
1793	 1.5016311143877292
1794	 1.4974134099720093
1795	 1.4974134099720093
1796	 1.5163527526153011
1797	 1.5527858243161978
1798	 1.5904315070751507
1799	 1.585920140233213
1800	 1.581889851948401
1801	 1.6609489329488734
1802	 1.740643775646624
1803	 1.815691897376131
1804	 1.891892803172879
1805	 1.9339349091590443
1806	 1.9772237174122038
1807	 1.9600215250596953
1808	 1.9436721376552513
1809	 2.00459199494494
1810	 2.0846439902768372
1811	 2.1833229270305696
1812	 2.2641724903808313
1813	 2.2948766995630367
1814	 2.3260713086369473
1815	 2.3914451661838294
1816	 2.4569874303431027
1817	 2.5015814880185965
1818	 2.546212739775947
1819	 2.5629573013800546
1820	 2.579896013640343
1821	 2.6454944133748106
1822	 2.7112345787846044
1823	 2.732500995644344
1824	 2.7547378171429173
1825	 2.7884237900405298
1826	 2.783563645077534
1827	 2.799072514458553
1828	 2.783563645077534
1829	 2.82799895088335
1830	 2.872472146577577
1831	 2.901945766699301
1832	 2.93185591526323
1833	 2.8504640747073666
1834	 2.7693366202391
1835	 2.643884559922639
1836	 2.518826980533596
1837	 2.5277947288491065
1838	 2.5371670355333977
1839	 2.6170337899736786
1840	 2.6972631853783438
1841	 2.6340174131664353
1842	 2.570937755216437
1843	 2.495844334328032
1844	 2.4214604029106086
1845	 2.480770055083167
1846	 2.5403608387780934
1847	 2.52517093141514
1848	 2.5103300213711623
1849	 2.4371687346585866
1850	 2.3653781021640783
1851	 2.352325060700016
1852	 2.3396722757394897
1853	 2.352325060700016
1854	 2.3653781021640783
1855	 2.3937003875514584
1856	 2.423035274443469
1857	 2.411020583424649
1858	 2.411020583424649
1859	 2.3704196234416677
1860	 2.3585509595294596
1861	 2.3142166339168284
1862	 2.2699342050737954
1863	 2.2585752661498804
1864	 2.247506545121505
1865	 2.302606969906936
1866	 2.3577451188294294
1867	 2.4607678136841775
1868	 2.5641453342905525
1869	 2.5977366838648868
1870	 2.631839352752622
1871	 2.605836114928183
1872	 2.580075484108428
1873	 2.6011052906147425
1874	 2.619177086006978
1875	 2.6293077161483667
1876	 2.6585752535328657
1877	 2.5893159214737276
1878	 2.5206848117850837
1879	 2.5102686243104215
1880	 2.500017375679085
1881	 2.5356472677005644
1882	 2.5716189703564822
1883	 2.6079183396336116
1884	 2.6445318827152255
1885	 2.6522525771245844
1886	 2.6603669161785435
1887	 2.6679247286728316
1888	 2.6756558548694813
1889	 2.657754915562633
1890	 2.6267416729091075
1891	 2.622852586631079
1892	 2.6147690273133763
1893	 2.5817575375824906
1894	 2.550055110423564
1895	 2.519711157295085
1896	 2.4907753276568325
1897	 2.4681016118055865
1898	 2.44543065045757
1899	 2.4237510923904706
1900	 2.4029056507065216
1901	 2.3676704803872797
1902	 2.332824107428019
1903	 2.3029164669386804
1904	 2.2735604382108106
1905	 2.301923512600712
1906	 2.3369799251093277
1907	 2.3928003171731644
1908	 2.4331749970352172
1909	 2.4809145834478055
1910	 2.5289629428280143
1911	 2.537704766686621
1912	 2.5473879398704335
1913	 2.5697674634482652
1914	 2.592154698868105
1915	 2.567121536441934
1916	 2.542917366503284
1917	 2.475390420290099
1918	 2.407916471322043
1919	 2.3802197254029576
1920	 2.352750372690934
1921	 2.381636032477954
1922	 2.4248105345979774
1923	 2.485855709381378
1924	 2.522614971683946
1925	 2.6048659401584042
1926	 2.687555069891095
1927	 2.7089859617940673
1928	 2.7305347697286937
1929	 2.720108396957248
1930	 2.704681185684799
1931	 2.686748349063851
1932	 2.654153797106967
1933	 2.658626098732952
1934	 2.6632864573112167
1935	 2.6430444337349552
1936	 2.6234404263035964
1937	 2.6091959616321136
1938	 2.627137761176092
1939	 2.6022210432367188
1940	 2.6074095748841097
1941	 2.6074095748841097
1942	 2.6074095748841097
1943	 2.646486303326986
1944	 2.685794424597187
1945	 2.6728784467680784
1946	 2.647155384313005
1947	 2.6666338807000365
1948	 2.668871309411028
1949	 2.7456679863372657
1950	 2.822497206883295
1951	 2.837283887428962
1952	 2.852267822779622
1953	 2.8310592068807043
1954	 2.8099685465969193
1955	 2.7516622255824448
1956	 2.73687681330332
1957	 2.6791061366055167
1958	 2.6136861907461912
1959	 2.6187078881955004
1960	 2.6286848786412826
1961	 2.596449306976228
1962	 2.5690918960527673
1963	 2.4943682950192696
1964	 2.433399830045199
1965	 2.4260372402742165
1966	 2.418867568966382
1967	 2.488096206512924
1968	 2.5579455753000957
1969	 2.535769817273906
1970	 2.480770055083166
1971	 2.4209953022873334
1972	 2.332518007153929
1973	 2.3394931483544323
1974	 2.3466695113210982
1975	 2.292068744321892
1976	 2.2379395386599112
1977	 2.1769642719156725
1978	 2.1306247185267835
1979	 2.0820923329343497
1980	 2.0502053259850177
1981	 2.018459670441135
1982	 1.9868621417612244
1983	 1.984721376213128
1984	 1.982840986740322
1985	 1.9768470960591096
1986	 2.0160360559021098
1987	 1.9992306289830597
1988	 1.9866683751607868
1989	 1.9768470960591096
1990	 1.9743200737715592
1991	 1.9519177118150586
1992	 1.9242111867457101
1993	 2.0084989844070127
1994	 2.092907353706163
1995	 2.2219076084220966
1996	 2.3509464458377898
1997	 2.346725698435447
1998	 2.3429697731434787
1999	 2.258106176356049
2000	 2.173313873143347
2001	 2.199659008505031
2002	 2.2266574031937054
2003	 2.2990960188076826
2004	 2.372423941428682
2005	 2.3113404668497752
2006	 2.250479435853022
2007	 2.266312516040981
2008	 2.282520688010809
2009	 2.3607721599504976
2010	 2.440036309401427
2011	 2.457774705642756
2012	 2.4758330634079515
2013	 2.457774705642756
2014	 2.440036309401427
2015	 2.444974796127219
2016	 2.450355047307227
2017	 2.465393195387706
2018	 2.435763574569038
2019	 2.461995037809243
2020	 2.484357626469534
2021	 2.5040105213831145
2022	 2.5069775011350495
2023	 2.5069775011350495
2024	 2.533481506813106
2025	 2.489942708416669
2026	 2.4241446265361315
2027	 2.379500263437123
2028	 2.3207585737995244
2029	 2.316856505310015
2030	 2.3391593538842117
2031	 2.387663987289111
2032	 2.4688949542991905
2033	 2.4547934195903336
2034	 2.473044670279398
2035	 2.449986412281505
2036	 2.402754292722695
2037	 2.424750370216283
2038	 2.465930487739669
2039	 2.4687874941349923
2040	 2.4908277455223597
2041	 2.448346760135092
2042	 2.406414523282305
2043	 2.396764942833847
2044	 2.3872945338180065
2045	 2.3961079777834167
2046	 2.405105685383493
2047	 2.403368249186407
2048	 2.402659451773666
2049	 2.407570147659773
2050	 2.4128967959029697
2051	 2.4222584565089584
2052	 2.406315297523434
2053	 2.4168919739609347
2054	 2.4509977546336166
2055	 2.4748363069498827
2056	 2.4699430251888033
2057	 2.480255878172005
2058	 2.5238852166567503
2059	 2.510228962189419
2060	 2.5076447647538385
2061	 2.530789717713269
2062	 2.5179761952201374
2063	 2.5163705959639437
2064	 2.4596379441286342
2065	 2.466197171440182
2066	 2.411050888290254
2067	 2.402586679105559
2068	 2.4519940395321185
2069	 2.4921446952173167
2070	 2.4907176742585655
2071	 2.4675672472488515
2072	 2.3782361249878727
2073	 2.3782361249878727
2074	 2.3782361249878727
2075	 2.3782361249878727
2076	 2.3782361249878727
2077	 2.3782361249878727
2078	 2.3782361249878727
2079	 2.3782361249878727
2080	 1.238882991326192
2081	 1.238882991326192
2082	 1.238882991326192
2083	 1.238882991326192
2084	 1.238882991326192
2085	 1.238882991326192
2086	 1.238882991326192
2087	 1.238882991326192
2088	 1.238882991326192
2089	 2.953357704861367
2090	 2.953357704861367
2091	 2.953357704861367
2092	 2.953357704861367
2093	 2.953357704861367
2094	 2.953357704861367
2095	 2.953357704861367
2096	 2.953357704861367
2097	 2.8108655178078954
2098	 2.6984820670512772
2099	 2.607737605437789
2100	 2.533036932860311
2101	 2.4705419310469594
2102	 2.4175360914104598
2103	 2.3720452339960256
2104	 2.332601780458322
2105	 2.239636149801653
2106	 2.157945606134881
2107	 2.0856977089773445
2108	 2.021429362158701
2109	 1.9639587838715165
2110	 1.9123214722699662
2111	 1.8657228675664246
2112	 1.8235028439113794
2113	 1.9162825747256935
2114	 2.002900917157115
2115	 2.0838336937432174
2116	 2.1595436887797277
2117	 2.2304661277529987
2118	 2.2970027909762947
2119	 2.3595206709597627
2120	 2.4183529655940084
2121	 2.4014213426095217
2122	 2.383388776257437
2123	 2.3641450827437693
2124	 2.343565024781904
2125	 2.321505690327101
2126	 2.2978033170723755
2127	 2.2722694264099346
2128	 2.2446860935974824
2129	 2.2716565563045874
2130	 2.3016066379344906
2131	 2.33501655202821
2132	 2.3724697959856096
2133	 2.3684424979714693
2134	 2.3691967976926973
2135	 2.374728138727463
2136	 2.3850032843158377
2137	 2.4896807558796237
2138	 2.598611141782728
2139	 2.711281886155944
2140	 2.8272458446688593
2141	 2.9316827703892745
2142	 3.0369187234537574
2143	 3.1428734410086148
2144	 3.249476614194559
2145	 3.109368660387079
2146	 2.9698342264954793
2147	 2.8309581180577954
2148	 2.6928421911054
2149	 2.5839158138112786
2150	 2.4755826518614428
2151	 2.367924125937597
2152	 2.2610366058213214
2153	 2.2956758183357575
2154	 2.327202252804125
2155	 2.3556910377654328
2156	 2.3813845837212204
2157	 2.4472668502980426
2158	 2.5049518424241213
2159	 2.5558778136634905
2160	 2.6011656686463973
2161	 2.5810113152963194
2162	 2.5635506365580794
2163	 2.5483180071554354
2164	 2.5349444954718345
2165	 2.5402886471921455
2166	 2.5222834082864645
2167	 2.4986097350469687
2168	 2.512325547931622
2169	 2.4699721748934618
2170	 2.430084382526116
2171	 2.3925082930955104
2172	 2.357101321573137
2173	 2.314164885743982
2174	 2.30255367962218
2175	 2.2746237102479445
2176	 2.239220714072953
2177	 2.3069406337262413
2178	 2.3494190762915745
2179	 2.3984133492622277
2180	 2.446191552320011
2181	 2.4806556651911427
2182	 2.507356568192467
2183	 2.556411052856956
2184	 2.599001551788175
2185	 2.6292966457525724
2186	 2.6328525132486855
2187	 2.641689015566329
2188	 2.6509533462464248
2189	 2.635949079547322
2190	 2.6154978594373426
2191	 2.6250755122825993
2192	 2.6150066722915484
2193	 2.6362694412794356
2194	 2.6584663660073478
2195	 2.68165485719021
2196	 2.7058969027747275
2197	 2.7187096554170136
2198	 2.7521903368088068
2199	 2.7994960164075526
2200	 2.8342481933700516
2201	 2.8819477369489253
2202	 2.964529069626216
2203	 3.0130792857430206
2204	 3.0972274012531082
2205	 3.160246689295514
2206	 3.223502467030968
2207	 3.286981081224459
2208	 3.3781606185639936
2209	 3.3130222943714203
2210	 3.277078115557753
2211	 3.2348635249075377
2212	 3.1930791896174067
2213	 3.178533017884526
2214	 3.162043088064682
2215	 3.0770278854205646
2216	 3.021513683288198
2217	 2.9833752480925133
2218	 2.9812601974467343
2219	 2.9724079417207148
2220	 2.9644636043032566
2221	 2.9457307892484432
2222	 2.911905754075688
2223	 2.8320565150550077
2224	 2.8072852720199535
2225	 2.749497698527228
2226	 2.6939508724611834
2227	 2.6405379538710725
2228	 2.589158933304429
2229	 2.5737527311343067
2230	 2.5450999663216276
2231	 2.524115277455693
2232	 2.45541666340944
2233	 2.4347628191436352
2234	 2.3859790785741244
2235	 2.3661882203777256
2236	 2.3182337402936586
2237	 2.286130066512435
2238	 2.1986342459988237
2239	 2.162126158543158
2240	 2.0916816873062087
2241	 2.0867762518910826
2242	 2.0821438843380213
2243	 2.0777864110396522
2244	 2.073705564900919
2245	 2.0523836736106094
2246	 2.0183246260583156
2247	 2.023328493939795
2248	 2.014698831380618
2249	 2.014781129453033
2250	 2.015537597083813
2251	 1.9842983760926687
2252	 1.9864877870579205
2253	 2.026706515789105
2254	 2.070275254418546
2255	 2.14317284119642
2256	 2.18406927503917
2257	 2.1813055847883422
2258	 2.179002876393957
2259	 2.177127788245033
2260	 2.1756493005436424
2261	 2.1563322937187066
2262	 2.138875951890457
2263	 2.0942222928445604
2264	 2.1050514716401034
2265	 2.0764243786640675
2266	 2.0484402656395764
2267	 2.0211258404669916
2268	 1.994508617088443
2269	 1.9718823831212662
2270	 1.9893100645359443
2271	 1.964055464134691
2272	 1.9568261716865238
2273	 1.9902213611046728
2274	 2.0073232590186705
2275	 2.0245939509435806
2276	 2.042391898289194
2277	 2.0537119104896404
2278	 2.06388452331199
2279	 2.0898265433821326
2280	 2.1076381325531663
2281	 2.1225981501695346
2282	 2.113398752553784
2283	 2.1379403204241174
2284	 2.1384255577871625
2285	 2.1122674277397433
2286	 2.0759082591447466
2287	 2.0492493945441677
2288	 2.006626041596725
2289	 2.068369220454429
2290	 2.1320109256322897
2291	 2.197617674039793
2292	 2.26526036901906
2293	 2.309113302363501
2294	 2.361321981943871
2295	 2.430573136940394
2296	 2.4876656808036657
2297	 2.5305224798395076
2298	 2.6005828646024916
2299	 2.6411957207079952
2300	 2.708550121479172
2301	 2.7562057581948176
2302	 2.8027157623926238
2303	 2.8481172261382404
2304	 2.9100589798485754
2305	 2.8540982128946357
2306	 2.8199700824793084
2307	 2.783824867772021
2308	 2.7487858484518823
2309	 2.7601590166349963
2310	 2.767733442159238
2311	 2.7664808571295043
2312	 2.755917128500832
2313	 2.7237103614396205
2314	 2.7182553861250147
2315	 2.701677971361829
2316	 2.6855073975290074
2317	 2.686626373057579
2318	 2.682598466573781
2319	 2.6741853734305536
2320	 2.66848197195868
2321	 2.6283579320430435
2322	 2.5899360578026793
2323	 2.5531623849209417
2324	 2.517984877833203
2325	 2.506345288743947
2326	 2.4848940813823037
2327	 2.463243925294717
2328	 2.4408476962725545
2329	 2.422629948258161
2330	 2.3773984358046745
2331	 2.3580893250152597
2332	 2.3109574622511784
2333	 2.2691700946736946
2334	 2.2233042524539255
2335	 2.18654692577561
2336	 2.1408672271955322
2337	 2.1129062253604314
2338	 2.0850131107314827
2339	 2.0571906447254253
2340	 2.029441732998949
2341	 2.02209338950602
2342	 2.014309391597226
2343	 1.993674714239345
2344	 1.995710961825902
2345	 1.962509236219617
2346	 1.9571707119655886
2347	 1.9274734308390298
2348	 1.9118564712796917
2349	 1.8973881660241123
2350	 1.8845646323886083
2351	 1.8416111265435924
2352	 1.8383285945849726
2353	 1.8058402609781328
2354	 1.7743423391921387
2355	 1.7433937650795854
2356	 1.7296569804186763
2357	 1.715564080129125
2358	 1.7271845334950426
2359	 1.718546222979854
2360	 1.7002283622324088
2361	 1.7023607719553329
2362	 1.7188437094856384
2363	 1.7127506827956283
2364	 1.7171725550010568
2365	 1.7169022549865625
2366	 1.719418435440512
2367	 1.714538271996846
2368	 1.7071979103449668
2369	 1.7322607728950359
2370	 1.758473135128004
2371	 1.7858638453501674
2372	 1.8144625194363482
2373	 1.8200293907026694
2374	 1.843728968127165
2375	 1.855825313163236
2376	 1.8645552924486017
2377	 1.8645552924486017
2378	 1.8408243273581413
2379	 1.8408243273581413
2380	 1.829376608668172
2381	 1.8247521197991556
2382	 1.8207735378204513
2383	 1.8174451046150835
2384	 1.8147703974602136
2385	 1.8441441401392586
2386	 1.8875877247059825
2387	 1.9058954961211056
2388	 1.9110817303943128
2389	 1.9328067823589794
2390	 1.9546955664904413
2391	 1.9767426436995967
2392	 1.998942776375083
2393	 2.0023651984131705
2394	 1.9730238075225466
2395	 1.9697934612639374
2396	 1.9562663716477395
2397	 1.9534503899629416
2398	 1.9228625656370266
2399	 1.9262304272835966
2400	 1.9210760872136223
2401	 1.9250400167781798
2402	 1.9296868829417204
2403	 1.9350117655621635
2404	 1.9410090845221033
2405	 1.9184755578837416
2406	 1.8753467766959795
2407	 1.850495843334249
2408	 1.844119428398642
2409	 1.8385591821307612
2410	 1.8548975891399861
2411	 1.8498428220249774
2412	 1.8672208402321702
2413	 1.8646140439415335
2414	 1.891119950240421
2415	 1.91834576294195
2416	 1.9341402567714674
2417	 1.9204159957959925
2418	 1.8960411793115883
2419	 1.897849512808266
2420	 1.9000106155129852
2421	 1.8957727993782607
2422	 1.8666656836284807
2423	 1.8512612294097095
2424	 1.842999280966774
2425	 1.8305220623761573
2426	 1.85430182295835
2427	 1.8594988069329157
2428	 1.8803928548097486
2429	 1.8936521083124016
2430	 1.9257899598470032
2431	 1.9340890556322523
2432	 1.9596124319057893
2433	 1.9596124319057893
2434	 1.9596124319057893
2435	 1.9596124319057893
2436	 1.9596124319057893
2437	 2.0028431991187654
2438	 2.04630574357912
2439	 2.0877771759316053
2440	 2.117483984645419
2441	 2.150270641367159
2442	 2.1825753413385547
2443	 2.2154904687374706
2444	 2.2484382070246167
2445	 2.258947972282847
2446	 2.2712169999930665
2447	 2.292727277895928
2448	 2.3071928896206657
2449	 2.320568912500746
2450	 2.3354907663565907
2451	 2.352037031344887
2452	 2.3702886461773676
2453	 2.387535018842098
2454	 2.4073073476806695
2455	 2.4295439625981943
2456	 2.455619650148886
2457	 2.473748868862265
2458	 2.495851384370472
2459	 2.513955661143874
2460	 2.5364634959323453
2461	 2.5530275621042557
2462	 2.5749228078133397
2463	 2.592989214439068
2464	 2.6157607178149913
2465	 2.599504016704725
2466	 2.5838223880259266
2467	 2.579707399337633
2468	 2.5537937007905183
2469	 2.5423268501892133
2470	 2.5436955882934713
2471	 2.5521944390322395
2472	 2.5650606289493925
2473	 2.5820239071914974
2474	 2.5739841860309265
2475	 2.5739841860309265
2476	 2.5485390771050858
2477	 2.559255022176338
2478	 2.5452442955826213
2479	 2.543150082681269
2480	 2.533125641125198
2481	 2.5324639589211086
2482	 2.5322349313675026
2483	 2.530086382110661
2484	 2.528930570972295
2485	 2.5305445120878542
2486	 2.519905682894674
2487	 2.5042435006687715
2488	 2.498226233222769
2489	 2.4749093894952905
2490	 2.4236004477796738
2491	 2.4006237784494258
2492	 2.3497134192049125
2493	 2.3202095325348235
2494	 2.2853253996620495
2495	 2.2530842702226495
2496	 2.1990698082687743
2497	 2.2543880032650256
2498	 2.29087062092547
2499	 2.320149419891729
2500	 2.3733499856917484
2501	 2.3975477353400865
2502	 2.401861850278333
2503	 2.420588177884839
2504	 2.4209284296178857
2505	 2.4526288569850547
2506	 2.461796472725276
2507	 2.489396762829699
2508	 2.518127817479323
2509	 2.5280914662553053
2510	 2.5332311748560086
2511	 2.563208579400248
2512	 2.579348109723776
2513	 2.6158125294425845
2514	 2.653365864922536
2515	 2.6918122708134775
2516	 2.731547577628873
2517	 2.748559713702746
2518	 2.780110390226186
2519	 2.822479378882612
2520	 2.8538595345868147
2521	 2.8924239353674173
2522	 2.9548759690418236
2523	 2.9917180184223398
2524	 3.052226734904632
2525	 3.096664411246165
2526	 3.1401215481365936
2527	 3.182623239940895
2528	 3.2420614634617895
2529	 3.1937474923766818
2530	 3.16533233042177
2531	 3.133816098017395
2532	 3.103365140650531
2533	 3.1146223838307323
2534	 3.1259130359114575
2535	 3.0932240569020095
2536	 3.0792978321443516
2537	 3.051442468876785
2538	 3.0470568445991417
2539	 3.0372442152436743
2540	 3.0278513894081716
2541	 3.0254911385102616
2542	 3.011862565548726
2543	 2.962152561004486
2544	 2.952417500361455
2545	 2.8851344655491276
2546	 2.8181425426236597
2547	 2.751462995422301
2548	 2.6851190957196303
2549	 2.6671650811962224
2550	 2.6366836368840576
2551	 2.6129417761984053
2552	 2.547030679388739
2553	 2.5226513675425712
2554	 2.4730652015758237
2555	 2.4471950283975437
2556	 2.3954893940754167
2557	 2.3565700380920185
2558	 2.265169962106345
2559	 2.218754284252685
2560	 2.1384196422118213
2561	 2.1228325341438956
2562	 2.106858094773173
2563	 2.090485871530879
2564	 2.073705564900919
2565	 2.0627116024995407
2566	 2.051947544518766
2567	 2.041417027707016
2568	 2.0311236845039464
2569	 1.9834237998725934
2570	 1.9040166781417067
2571	 1.8564025703586957
2572	 1.8000617642420562
2573	 1.7756613696443149
2574	 1.7873393200565562
2575	 1.7966982436385848
2576	 1.7667371862346923
2577	 1.847010629605266
2578	 1.8993975378301184
2579	 1.9805904472528506
2580	 2.045286527258828
2581	 2.099742236451324
2582	 2.1413593644691757
2583	 2.160717484337086
2584	 2.195398168493923
2585	 2.175996200773591
2586	 2.169577546883304
2587	 2.1316135720068967
2588	 2.109172576280244
2589	 2.1103225770271195
2590	 2.1220886825160297
2591	 2.0920044650249383
2592	 2.1120490285148206
2593	 2.1152974102107414
2594	 2.1196222129088462
2595	 2.135451241063221
2596	 2.1310667439046793
2597	 2.11839517662996
2598	 2.0936496906550706
2599	 2.1169512091411984
2600	 2.1180349496859727
2601	 2.1848183142305757
2602	 2.248115439204975
2603	 2.3129449476631976
2604	 2.3683024279105376
2605	 2.4025774073840918
2606	 2.397890011741961
2607	 2.4032570368373944
2608	 2.4313575445797424
2609	 2.395916729048282
2610	 2.380473611010892
2611	 2.3431602130227467
2612	 2.3178288568681507
2613	 2.2774915138146827
2614	 2.245893669416573
2615	 2.2072426968674197
2616	 2.204061162496537
2617	 2.1914538788745626
2618	 2.1722836787611657
2619	 2.1753540051400395
2620	 2.168756618410889
2621	 2.142556920781784
2622	 2.1431807016444115
2623	 2.142660874182586
2624	 2.1169173629957507
2625	 2.138461464831129
2626	 2.1419288731605466
2627	 2.139512468585861
2628	 2.1552637355787883
2629	 2.1671232257203528
2630	 2.1790775170829946
2631	 2.191125058024081
2632	 2.2032643188664225
2633	 2.193966939026178
2634	 2.184531091812491
2635	 2.162218241100988
2636	 2.1511676338841372
2637	 2.1437126651497294
2638	 2.1386848621169885
2639	 2.16051124646628
2640	 2.1518032255050072
2641	 2.18125807335683
2642	 2.211425142369114
2643	 2.244825882021098
2644	 2.2790635571082
2645	 2.314473531568001
2646	 2.357172006325951
2647	 2.41443651834501
2648	 2.4604421138794104
2649	 2.50352503660405
2650	 2.571447586140613
2651	 2.615498184239563
2652	 2.6846493870715142
2653	 2.742736502056308
2654	 2.800995262132298
2655	 2.859415175841029
2656	 2.9348734320951624
2657	 2.905852771041283
2658	 2.897415331699643
2659	 2.8852689206037394
2660	 2.8733736890983432
2661	 2.8872524526553125
2662	 2.891183460431133
2663	 2.8830095190276332
2664	 2.8875516040752123
2665	 2.8431639651740097
2666	 2.848149129908287
2667	 2.835875326278878
2668	 2.837916747580403
2669	 2.8201783394312727
2670	 2.8375974461148172
2671	 2.823212590802187
2672	 2.828483468727367
2673	 2.7702803226744637
2674	 2.712333693740011
2675	 2.6546603799476873
2676	 2.597278588483979
2677	 2.568056854454962
2678	 2.5324048149193827
2679	 2.4918591140765027
2680	 2.436537543146282
2681	 2.402845804668319
2682	 2.3602644145037313
2683	 2.344284751505331
2684	 2.306086818832191
2685	 2.267412771055122
2686	 2.2202308716302888
2687	 2.180398469770441
2688	 2.1305200599721146
2689	 2.134479145918679
2690	 2.139069149614851
2691	 2.1392844414467627
2692	 2.132897161941481
2693	 2.133253603111991
2694	 2.1488692267226885
2695	 2.1323321322898265
2696	 2.1397376606925596
2697	 2.1273345040719582
2698	 2.1187779243336506
2699	 2.0872114209009203
2700	 2.0704198294935674
2701	 2.0455024489165554
2702	 2.0243802092212295
2703	 1.9881762684893494
2704	 1.9669364050025517
2705	 1.9938663918712858
2706	 2.0217096449189578
2707	 2.047192726029826
2708	 2.055205585933775
2709	 2.0646666479689637
2710	 2.0775065055807183
2711	 2.0596718729480874
2712	 2.0772800306441366
2713	 2.0575704708874305
2714	 2.0547930875195144
2715	 2.0173684682738475
2716	 2.01143407511051
2717	 1.9746195938068116
2718	 1.9551093357842986
2719	 1.9160955597842753
2720	 1.8964697764293892
2721	 1.8628086031671507
2722	 1.8306712726242982
2723	 1.818910437911934
2724	 1.812563600375893
2725	 1.7754104791663616
2726	 1.739223895294531
2727	 1.7326124026340861
2728	 1.7188041198662354
2729	 1.7469629027020595
2730	 1.7404700999586753
2731	 1.7695450085790023
2732	 1.7655847670385856
2733	 1.8338130182624146
2734	 1.8687586217491932
2735	 1.9035245542441908
2736	 1.9370841076839302
2737	 1.8920385688979315
2738	 1.8493228479694654
2739	 1.8127072525036998
2740	 1.7993200738743496
2741	 1.7803202157901876
2742	 1.756255890094634
2743	 1.7383467600342872
2744	 1.7261359929615434
2745	 1.722940819122158
2746	 1.6894353098586916
2747	 1.6872822129677456
2748	 1.6732314443009169
2749	 1.668050818429702
2750	 1.6639880607135773
2751	 1.658928589842653
2752	 1.6366300333909714
2753	 1.6771731175395497
2754	 1.6954179227742046
2755	 1.7136629966820582
2756	 1.7220654264179391
2757	 1.7373084999675348
2758	 1.7436714636301633
2759	 1.763596145562847
2760	 1.7647670445489767
2761	 1.777421571228585
2762	 1.7757948225516198
2763	 1.775893450327675
2764	 1.785243027208714
2765	 1.7476237489367414
2766	 1.7079496073620801
2767	 1.7009925835178297
2768	 1.6775730911556832
2769	 1.738432063962279
2770	 1.801372325180334
2771	 1.8664509705123857
2772	 1.9208603086785339
2773	 1.9507847034466537
2774	 1.988131650887099
2775	 2.05071206451494
2776	 2.0964772972696086
2777	 2.133922752781097
2778	 2.2075511993503607
2779	 2.2431115484500377
2780	 2.2948308134412034
2781	 2.3381536911996963
2782	 2.3806148427201417
2783	 2.42222520434753
2784	 2.4809721212051796
2785	 2.4298159813019793
2786	 2.416786560531525
2787	 2.3721801890722025
2788	 2.329106206741544
2789	 2.3215072990442094
2790	 2.34451905899133
2791	 2.3317229999693008
2792	 2.327440818225557
2793	 2.305231519219407
2794	 2.2881243135392406
2795	 2.263007849415195
2796	 2.238757694019479
2797	 2.219213564981644
2798	 2.2063356947021004
2799	 2.1891462140109015
2800	 2.1750292585549196
2801	 2.1547768103630838
2802	 2.1355359428251983
2803	 2.1173342337546464
2804	 2.100198701426059
2805	 2.070983080827222
2806	 2.0419602316742793
2807	 2.013073182382076
2808	 1.984460371593266
2809	 1.958424004381216
2810	 1.9306551495697362
2811	 1.9054903227390598
2812	 1.8797754366007848
2813	 1.8598851793205646
2814	 1.842025684335831
2815	 1.819625004472152
2816	 1.8058924190020629
2817	 1.8212098402909782
2818	 1.826149904679404
2819	 1.8572781058971215
2820	 1.889553934527495
2821	 1.8992572994924677
2822	 1.876986728559432
2823	 1.8719816593289582
2824	 1.8846169695894304
2825	 1.8543705636932435
2826	 1.8471449485207236
2827	 1.837202954249464
2828	 1.8279550141777097
2829	 1.8299490242375624
2830	 1.847440814186974
2831	 1.8279105433332234
2832	 1.8212123299819998
2833	 1.8191399650310296
2834	 1.8172582003878017
2835	 1.8155676287016447
2836	 1.8140687845037464
2837	 1.847016090647327
2838	 1.898048444953425
2839	 1.924005686455185
2840	 1.9379633083116625
2841	 2.0060854004121227
2842	 2.05185778494056
2843	 2.120531291054631
2844	 2.167279876427561
2845	 2.222526354985989
2846	 2.2499695249175944
2847	 2.2897252123763225
2848	 2.3378884990658495
2849	 2.3328358579347626
2850	 2.328525803592885
2851	 2.3372772845724787
2852	 2.3249624659033494
2853	 2.3146603633461957
2854	 2.3307164317919544
2855	 2.346471876285188
2856	 2.3619322260964153
2857	 2.370429695544927
2858	 2.3876676048981147
2859	 2.3936100221563112
2860	 2.3937105704788695
2861	 2.3910401846199134
2862	 2.407560362904758
2863	 2.4240897631259744
2864	 2.440628197914092
2865	 2.429906124888485
2866	 2.42703565063052
2867	 2.405904798513159
2868	 2.3877170101883483
2869	 2.4227256506368797
2870	 2.452452435117851
2871	 2.490488796076053
2872	 2.503401926611631
2873	 2.503401926611631
2874	 2.494502767888077
2875	 2.508898603555452
2876	 2.5095610452300283
2877	 2.500112897110069
2878	 2.4867030562706214
2879	 2.4734467900884756
2880	 2.4603465809304392
2881	 2.4672540484207066
2882	 2.4611527389556587
2883	 2.4436141541802567
2884	 2.4611527389556587
2885	 2.4672540484207066
2886	 2.4830215287604473
2887	 2.4830215287604473
2888	 2.4672540484207066
2889	 2.4603465809304392
2890	 2.4399007172589386
2891	 2.418999050235512
2892	 2.4285274098823217
2893	 2.4221547649527864
2894	 2.389453323298577
2895	 2.3883683501255772
2896	 2.381281770013099
2897	 2.3947646999673955
2898	 2.425228401414162
2899	 2.4606874560095466
2900	 2.492275844442473
2901	 2.487587449783881
2902	 2.4713613343460104
2903	 2.48965729756697
2904	 2.5186670415514114
2905	 2.4736920404513634
2906	 2.4344638648049988
2907	 2.3857400359390915
2908	 2.34099572487709
2909	 2.343242540210415
2910	 2.3456726011978923
2911	 2.348307172247069
2912	 2.351170741963246
2913	 2.3668290792405893
2914	 2.404729811475155
2915	 2.447476050352587
2916	 2.466727652396044
2917	 2.477946795041236
2918	 2.459196940540394
2919	 2.467314044223912
2920	 2.5042045271747617
2921	 2.548166587927091
2922	 2.6443569731220524
2923	 2.71688261894651
2924	 2.789911600045403
2925	 2.84026490095859
2926	 2.9367851533569507
2927	 2.9784630286032354
2928	 3.0605815209924994
2929	 3.0328685284136183
2930	 2.963976390901345
2931	 2.918161287207992
2932	 2.8770551827983906
2933	 2.8191192890242855
2934	 2.7838984140601837
2935	 2.6805522983234455
2936	 2.607652131978982
2937	 2.6054100735261136
2938	 2.64169861789694
2939	 2.6166091401130704
2940	 2.6374496854940443
2941	 2.5747598317507863
2942	 2.5631699361532476
2943	 2.5467193267364805
2944	 2.5178292328490373
2945	 2.4750580082872062
2946	 2.4619342644735376
2947	 2.4353015259588866
2948	 2.410622623709039
2949	 2.3982399656548123
2950	 2.381378853290261
2951	 2.3731023535981355
2952	 2.328498061121471
2953	 2.332143487457731
2954	 2.335945931258609
2955	 2.3398904156086573
2956	 2.343963076642044
2957	 2.351191241962247
2958	 2.358352880786999
2959	 2.3654462166039383
2960	 2.372469759799206
2961	 2.388568891037209
2962	 2.4044300779266954
2963	 2.4200554563072494
2964	 2.4354474208063275
2965	 2.4415672204801684
2966	 2.4415672204801684
2967	 2.4586939757109523
2968	 2.472156421376464
2969	 2.4796316522846986
2970	 2.4669522679053313
2971	 2.4744315268384667
2972	 2.4618311427586965
2973	 2.4819115638236946
2974	 2.4819115638236946
2975	 2.488621928544866
2976	 2.488621928544866
