1	 2.5066578014027625
2	 2.5066578014027625
3	 2.5066578014027625
4	 2.5066578014027625
5	 2.5066578014027625
6	 2.5066578014027625
7	 2.506657801402763
8	 2.5066578014027634
9	 2.5066578014027643
10	 2.5066578014027647
11	 2.5066578014027647
12	 2.5066578014027647
13	 2.5066578014027647
14	 2.5066578014027647
15	 2.5066578014027647
16	 2.493613526559104
17	 2.471131108872753
18	 2.4536188672322323
19	 2.4399839546571434
20	 2.404597511275443
21	 2.3491316496485575
22	 2.2998758293266057
23	 2.255950070155947
24	 2.222709391044417
25	 2.200066701517085
26	 2.1811570857803537
27	 2.165405782914338
28	 2.1457644057200818
29	 2.1216376827912167
30	 2.099551822563279
31	 2.0792828513982013
32	 2.0649921811797114
33	 2.0557734376830887
34	 2.046648365315842
35	 2.037618222541539
36	 2.0286842770212763
37	 2.0198478052194937
38	 2.011110091984856
39	 2.0024724301056778
40	 1.9939361198393502
41	 1.9855024684153222
42	 1.9771727895111586
43	 1.9689484027013007
44	 1.973716453958117
45	 1.986281072758839
46	 1.987947898954683
47	 1.990243127945262
48	 1.9845677399835306
49	 1.9653492453632773
50	 1.9467102993469105
51	 1.928667704552378
52	 1.9265905901574778
53	 1.9409076216639831
54	 1.9562599840000834
55	 1.972623504266169
56	 1.9695021711293799
57	 1.9460998657571524
58	 1.922962937327015
59	 1.9001010800963563
60	 1.8832500788198594
61	 1.8723635978912698
62	 1.8614833984509076
63	 1.8506095912901261
64	 1.8451089624554267
65	 1.8451089624554267
66	 1.8451089624554267
67	 1.8451089624554267
68	 1.8451089624554267
69	 1.8451089624554267
70	 1.8451089624554267
71	 1.8451089624554267
72	 1.802983560927986
73	 1.7195288920344047
74	 1.6376781913526377
75	 1.5574371934320703
76	 1.4688276742219963
77	 1.3781235363440494
78	 1.300345750861971
79	 1.2256957568258753
80	 1.1775461930255544
81	 1.158197802015184
82	 1.1396018498164415
83	 1.1217549108941527
84	 1.1046534859084836
85	 1.088293941947706
86	 1.0726724522609257
87	 1.0577849360659402
88	 1.0692690030015768
89	 1.1056254870283162
90	 1.1424691058593541
91	 1.1796804248729729
92	 1.2171571989323908
93	 1.2548119565998752
94	 1.2925698917480821
95	 1.330367041450071
96	 1.3505183235691152
97	 1.354363538421694
98	 1.3581908605810213
99	 1.3619997619986417
100	 1.365789757701229
101	 1.369560403276596
102	 1.3733112925023694
103	 1.3770420551091527
104	 1.4119099062381213
105	 1.4783401446667612
106	 1.5453660569586767
107	 1.6129133837045755
108	 1.6809192673455031
109	 1.7493302289733648
110	 1.8181005426910066
111	 1.8871909239219362
112	 1.9232215810977158
113	 1.9264253381154774
114	 1.93109155229195
115	 1.93720965566456
116	 1.9447659456431607
117	 1.9537437353279827
118	 1.96412353226573
119	 1.975883241321041
120	 1.9548529160261874
121	 1.8987587045212062
122	 1.8400446980987875
123	 1.7785683843164124
124	 1.7141910124733728
125	 1.6467851627682466
126	 1.5762467716995077
127	 1.5025142177678172
128	 1.4217439793126927
129	 1.3379130820089382
130	 1.2543758969854713
131	 1.1715390285079619
132	 1.0899504094121855
133	 1.0103526933642388
134	 0.9337559621484335
135	 0.8615319254891016
136	 0.7955230467626765
137	 0.7381368024419187
138	 0.6923494549213398
139	 0.6614875776215743
140	 0.6486655223213359
141	 0.6559613379322622
142	 0.6837587437839844
143	 0.7307324178066374
144	 0.7908361978508309
145	 0.8493388568526619
146	 0.909260575944789
147	 0.970583068966361
148	 1.0332990841429128
149	 1.097410137550123
150	 1.1629248618822103
151	 1.2298577938077857
152	 1.253080996484915
153	 1.241005695008097
154	 1.238063250550881
155	 1.2429439175821295
156	 1.243957426625604
157	 1.2383609468025338
158	 1.2465271619268798
159	 1.2696126705941988
160	 1.272531311009674
161	 1.2568691467624358
162	 1.2471973789594546
163	 1.243655775325311
164	 1.2462965972565816
165	 1.2550808199408252
166	 1.2698809614487498
167	 1.2904900554957155
168	 1.3051443187281377
169	 1.313597011786721
170	 1.327401763863653
171	 1.3463939589541902
172	 1.3703579311169054
173	 1.3990382206031182
174	 1.4321515082938467
175	 1.4693981282739565
176	 1.470256319773304
177	 1.4327480333552514
178	 1.3963890373925192
179	 1.3612714262164398
180	 1.3274937225212553
181	 1.2951607646350336
182	 1.2643833930352528
183	 1.2352778870899206
184	 1.2079651019379676
185	 1.182569258894944
186	 1.1592163525776096
187	 1.1380321557407784
188	 1.131829674225913
189	 1.1387112941647402
190	 1.134522775039504
191	 1.1208836729711682
192	 1.104058563890522
193	 1.0829977444959589
194	 1.0625153185170244
195	 1.0426453735570884
196	 1.023423584510995
197	 1.0048871464414966
198	 0.9870746710609083
199	 0.9700260413171049
200	 0.9637133855993356
201	 0.9684979510819836
202	 0.9747963195372322
203	 0.9825793808051001
204	 0.9918121829509863
205	 1.0024546695902683
206	 1.0144624756901233
207	 1.027787748637821
208	 1.0397534513447568
209	 1.0492432789078676
210	 1.0589093740731543
211	 1.0687469541866927
212	 1.0787513277318976
213	 1.0889178975019185
214	 1.0992421631894091
215	 1.1097197234362068
216	 1.1147682868351303
217	 1.1147682868351303
218	 1.1147682868351303
219	 1.1147682868351303
220	 1.1147682868351303
221	 1.1147682868351303
222	 1.1147682868351303
223	 1.1147682868351303
224	 1.1256653125300304
225	 1.1477871599662246
226	 1.1703948986346442
227	 1.1934609161314553
228	 1.2169591543405773
229	 1.2408650586385293
230	 1.2651555199197189
231	 1.2898088117365825
232	 1.3011788525218209
233	 1.2987874954484802
234	 1.2966051426063898
235	 1.2946328509465543
236	 1.2809196728652958
237	 1.256441734953649
238	 1.2332207155790627
239	 1.2113289017989024
240	 1.2025785069203585
241	 1.2067682999702225
242	 1.2118677131580873
243	 1.2179081948170105
244	 1.2249205050584326
245	 1.2329346048842007
246	 1.2419795575616348
247	 1.2520834445881899
248	 1.251470297872347
249	 1.2391703047990645
250	 1.2274557613343466
251	 1.216386141450356
252	 1.219248387215916
253	 1.236266390267111
254	 1.2535844211459237
255	 1.2712104805225035
256	 1.2888519914180647
257	 1.3076664317013869
258	 1.3286642312698047
259	 1.351743645945392
260	 1.376799996837782
261	 1.403727423780026
262	 1.4324204101074922
263	 1.4627750628014342
264	 1.4946901483102715
265	 1.5280678965931582
266	 1.5628145941801006
267	 1.5988409917833615
268	 1.654378595550295
269	 1.7297602661153053
270	 1.8063274557928362
271	 1.8839356239994378
272	 1.9348072045306
273	 1.9582835722781922
274	 1.981541585667879
275	 2.004575534208399
276	 2.009623085059184
277	 1.9970795658119456
278	 1.9849575330086948
279	 1.9732449207897778
280	 1.9785284299786172
281	 2.0019280895563636
282	 2.027119547655322
283	 2.0539295281143377
284	 2.068100359655368
285	 2.0685351576164046
286	 2.068971974240036
287	 2.069410548829678
288	 2.0647135630489695
289	 2.0548537110739753
290	 2.044885297369678
291	 2.034807622784337
292	 2.024620063724462
293	 2.0143220813222666
294	 2.00391323148865
295	 1.9933931759369004
296	 1.9827616942707258
297	 1.9720186972394869
298	 1.9611642412736983
299	 1.9501985444250536
300	 1.9532856527726463
301	 1.9648779337441158
302	 1.9642497054890222
303	 1.9645244713674141
304	 1.9559233851361333
305	 1.9324533024067223
306	 1.9094911681933668
307	 1.8871126203272859
308	 1.8840183147413878
309	 1.9011570961412942
310	 1.9204056816055377
311	 1.9418211956620275
312	 1.9391267116554518
313	 1.910800449002297
314	 1.8826733735357604
315	 1.8548101042491014
316	 1.8333118415228398
317	 1.817923355930984
318	 1.8023428221113966
319	 1.7865715242927775
320	 1.7786022393795438
321	 1.7786022393795438
322	 1.7786022393795438
323	 1.7786022393795438
324	 1.7786022393795438
325	 1.7786022393795438
326	 1.7786022393795438
327	 1.7786022393795438
328	 1.7309690338389425
329	 1.6367468772187854
330	 1.5445550238580878
331	 1.4543501290475975
332	 1.3546983859481427
333	 1.253561924844134
334	 1.1679476631977728
335	 1.086355924656422
336	 1.0361617739769229
337	 1.0207590236195878
338	 1.005662178765637
339	 0.9908629644867567
340	 0.9763534163129094
341	 0.9621258661323843
342	 0.9481729288595386
343	 0.9344874898219154
344	 0.9570583520522726
345	 1.0160097223384217
346	 1.0739818724749213
347	 1.1309914281744107
348	 1.1870563743299603
349	 1.2421954971860152
350	 1.296428002234604
351	 1.3497732492573746
352	 1.3859158374436773
353	 1.4052633738212523
354	 1.42542571272803
355	 1.4463100607300732
356	 1.4678306362893825
357	 1.4899084174875359
358	 1.512470832143737
359	 1.5354514098103975
360	 1.6141464462681225
361	 1.7533543002152603
362	 1.8979412502981612
363	 2.046767649856724
364	 2.1989728899723504
365	 2.3539016259358325
366	 2.511049799137808
367	 2.6700255538727267
368	 2.7748873851023266
369	 2.824747638064333
370	 2.8747452332772063
371	 2.924873127590325
372	 2.97512473478004
373	 3.0254938904664814
374	 3.075974820077369
375	 3.126562109570191
376	 3.1468429326403204
377	 3.137000395979414
378	 3.127480786145349
379	 3.11828706066461
380	 3.1094221101958794
381	 3.1008887544877073
382	 3.092689738352091
383	 3.0848277276656777
384	 3.0585327194315455
385	 3.013241177840454
386	 2.9679604213162953
387	 2.9226909511327634
388	 2.8774332999799217
389	 2.832188034453223
390	 2.78695575778184
391	 2.7417371128234285
392	 2.672139972241352
393	 2.578557413231931
394	 2.485334589312543
395	 2.392513551424529
396	 2.3001429416632666
397	 2.2082792839297616
398	 2.104806008479959
399	 1.9907337424510934
400	 1.9126770070593035
401	 1.8688788974498411
402	 1.8251712248443983
403	 1.7815606454267376
404	 1.7380544678845176
405	 1.6946607330082326
406	 1.6518465440858399
407	 1.6096884807963099
408	 1.5700965506999622
409	 1.53461434072867
410	 1.5008104531290276
411	 1.4686969081735144
412	 1.438285453179562
413	 1.409587162374427
414	 1.395832301235696
415	 1.395832301235696
416	 1.4086210498384464
417	 1.4345708814901592
418	 1.460995062147546
419	 1.4878683190551998
420	 1.515166757721853
421	 1.54286780969438
422	 1.5709501769010645
423	 1.5993937739182347
424	 1.6269706479436148
425	 1.65477453312418
426	 1.684307031388797
427	 1.7154788692368808
428	 1.7400290156797644
429	 1.7571521194968016
430	 1.7850274964870965
431	 1.823694193141795
432	 1.8414766741849788
433	 1.837730416426536
434	 1.8338665543767496
435	 1.829879533206103
436	 1.8140718189498917
437	 1.7862275159633147
438	 1.7586457898401862
439	 1.7322034438865834
440	 1.7486132091745779
441	 1.8097639698721761
442	 1.8752630465068485
443	 1.945488407220967
444	 1.9719223416200304
445	 1.9518459252493947
446	 1.8998964396728275
447	 1.818261914271124
448	 1.7648182153789487
449	 1.737321800081102
450	 1.7099247330197302
451	 1.682631867046385
452	 1.655448355962596
453	 1.6283796763563383
454	 1.6014316511588422
455	 1.5746104750534815
456	 1.4963156813523384
457	 1.3690506108895364
458	 1.2468715607334162
459	 1.1294928971387408
460	 1.0366711939355648
461	 0.9694369754759944
462	 0.9085910555164582
463	 0.8536292879238575
464	 0.853198625047815
465	 0.902884920312157
466	 0.9497998113629714
467	 0.9941305011021091
468	 1.0440719770882014
469	 1.098150181187326
470	 1.1492786485367912
471	 1.1976904202902126
472	 1.22699556062121
473	 1.2400543844370169
474	 1.2538680835847267
475	 1.2681919578437029
476	 1.3068144249984461
477	 1.368194710353637
478	 1.4275336955883886
479	 1.4849303312782718
480	 1.527246919697684
481	 1.5554128792617188
482	 1.5840571908886099
483	 1.613027608386475
484	 1.642194765691147
485	 1.6714491425683762
486	 1.7006983595656935
487	 1.729864793151305
488	 1.802262457540817
489	 1.9206907800824178
490	 2.0417765310411733
491	 2.1648059944049662
492	 2.2892197607668248
493	 2.4145772335782216
494	 2.5405294605019924
495	 2.666798478255698
496	 2.7475644586371426
497	 2.782561169867171
498	 2.817450813149807
499	 2.85222426564965
500	 2.8868732186422856
501	 2.9213901135798266
502	 2.9557680833320337
503	 2.9900008981790265
504	 3.008046079443394
505	 3.010032027298661
506	 3.012122914666122
507	 3.014325189768232
508	 3.0166457765522816
509	 3.0190921161864908
510	 3.021672212757827
511	 3.024394683657642
512	 3.015201450140531
513	 2.9935313595853166
514	 2.971189471734819
515	 2.9481441537134017
516	 2.9243617651735483
517	 2.899806497823926
518	 2.8744401995316076
519	 2.8482221812827118
520	 2.7912697733771688
521	 2.7029688272276644
522	 2.6121144737576194
523	 2.5186693485367213
524	 2.422617234050375
525	 2.323972255318281
526	 2.212598700358228
527	 2.089241768404477
528	 2.0039372428683007
529	 1.9553408721878167
530	 1.9048058634256555
531	 1.8522212458350509
532	 1.7974691014133124
533	 1.7404245494228858
534	 1.6814493166322426
535	 1.6204038456109189
536	 1.5760925511939612
537	 1.5534492626254297
538	 1.5335555711754145
539	 1.5163861453500258
540	 1.5019055385689302
541	 1.4900679532549412
542	 1.4850958772448952
543	 1.4850958772448952
544	 1.4969437441845088
545	 1.5210363719389706
546	 1.545637513098712
547	 1.5707232743749773
548	 1.5962708081829666
549	 1.622258298508449
550	 1.6486649407112794
551	 1.6754709164918675
552	 1.7004011512424515
553	 1.7245448958047151
554	 1.7504605892303462
555	 1.7780707538099594
556	 1.8177446027170354
557	 1.8685947250219992
558	 1.9300263874853356
559	 2.00173311704989
560	 2.053097188267694
561	 2.0848469847493356
562	 2.118121109222355
563	 2.1530311307227197
564	 2.1893732843212996
565	 2.227545541423303
566	 2.26796961315888
567	 2.310529897771739
568	 2.374871110436386
569	 2.4631127723287016
570	 2.5576870844496393
571	 2.6591360754763027
572	 2.7461528583979917
573	 2.8180088923325135
574	 2.8626462452972334
575	 2.87747021648954
576	 2.9162045606212956
577	 2.980341565855652
578	 3.0484281712992543
579	 3.1207603800981105
580	 3.198050647213603
581	 3.280282824480646
582	 3.367142364432393
583	 3.459010022524007
584	 3.5563961591357582
585	 3.6602102394227587
586	 3.7712988507860388
587	 3.890332606212551
588	 3.9930882445489226
589	 4.078193293456141
590	 4.169121781643677
591	 4.266489163318169
592	 4.272929971417429
593	 4.186482657847064
594	 4.102994919875724
595	 4.022317516980937
596	 3.9657145704283043
597	 3.933010004990317
598	 3.902186549882073
599	 3.8731352034049755
600	 3.805594839618816
601	 3.6985181435722816
602	 3.5914576021906974
603	 3.4844147045570444
604	 3.4308648083731534
605	 3.4308648083731534
606	 3.4308648083731534
607	 3.4308648083731534
608	 3.4313202026819583
609	 3.4324015220153594
610	 3.433804832106802
611	 3.435529738385822
612	 3.4155740122757337
613	 3.3738423940664477
614	 3.3322133535134504
615	 3.290690783609629
616	 3.271443679784205
617	 3.274566606183688
618	 3.2780242080151503
619	 3.281815427473035
620	 3.2635135718016177
621	 3.223045273236687
622	 3.200667248142698
623	 3.1964539271407233
624	 3.247374740976679
625	 3.353247803746892
626	 3.4592117358342427
627	 3.5652584349992575
628	 3.630222531057844
629	 3.6541571645638555
630	 3.678236953124874
631	 3.702459064594776
632	 3.78336087713388
633	 3.9192976638124244
634	 4.052031028221606
635	 4.1815851676352755
636	 4.289451769222615
637	 4.375957357028313
638	 4.460009595023831
639	 4.541711338363556
640	 4.517690162599238
641	 4.39068879364128
642	 4.267097665107356
643	 4.146781256859805
644	 4.064424573338679
645	 4.019193901972372
646	 3.975353467074189
647	 3.9328494927627817
648	 3.8500987489900913
649	 3.7281869624408577
650	 3.609482285055657
651	 3.4938849608241513
652	 3.405694006804997
653	 3.344338086855865
654	 3.270751282709446
655	 3.1861539778347887
656	 3.1180093314835005
657	 3.064961457081063
658	 3.013486325400093
659	 2.963539344235366
660	 2.942175563834641
661	 2.948473276037823
662	 2.9546401761862833
663	 2.9606802818963316
664	 2.9094255351262146
665	 2.801041472976319
666	 2.693291563207455
667	 2.5862550681976035
668	 2.489747495749841
669	 2.40341192659288
670	 2.317106273238561
671	 2.2308340078029967
672	 2.2407345232543086
673	 2.3472550951018283
674	 2.4546346941004265
675	 2.5627653430822956
676	 2.660322314084297
677	 2.747010159212162
678	 2.8337009565427196
679	 2.9203944431709425
680	 3.0229877375059147
681	 3.1426031981640836
682	 3.2635800681324065
683	 3.3857724172057284
684	 3.5021157626233346
685	 3.6124783736376886
686	 3.7235486857049165
687	 3.835265213679395
688	 3.9330773221769
689	 4.017114716827009
690	 4.1019205641765915
691	 4.187448175467035
692	 4.259140497539117
693	 4.316580865728145
694	 4.374113666832442
695	 4.431735300960308
696	 4.509683344749236
697	 4.60877085655208
698	 4.710040714476645
699	 4.813561635203596
700	 4.9035650287365105
701	 4.979896449271193
702	 5.057986063510586
703	 5.137892779515397
704	 5.037326239919635
705	 4.755712818044575
706	 4.474630046114064
707	 4.194184613605217
708	 3.92979015835518
709	 3.680836008165573
710	 3.432053975443588
711	 3.1834844122054116
712	 2.936354254605523
713	 2.6925951924720186
714	 2.4518082380895216
715	 2.214962890447741
716	 1.9784653317332928
717	 1.7400840675046347
718	 1.5055224329591546
719	 1.276887141195283
720	 1.0486939273057911
721	 0.8741977825900724
722	 0.8195485218181564
723	 0.9066824155981084
724	 1.0910984684108924
725	 1.3303772326927494
726	 1.6068251467852996
727	 1.9043230505856246
728	 2.181370725331093
729	 2.4258494542081896
730	 2.665743847505805
731	 2.900983261438453
732	 3.1255536342590204
733	 3.340582664134056
734	 3.510008320759694
735	 3.6352856468050505
736	 3.739460497827834
737	 3.822569428674515
738	 3.9058360891818698
739	 3.989250602603243
740	 4.096414703850903
741	 4.227103355464322
742	 4.357810144930502
743	 4.488533487718489
744	 4.571601145882805
745	 4.6075371021998395
746	 4.6440174577781335
747	 4.681029484743391
748	 4.743074873882891
749	 4.830608666885833
750	 4.919367196206341
751	 5.009285359691015
752	 5.017036946467721
753	 4.942411410997216
754	 4.868407222992838
755	 4.7950531511363
756	 4.759061775337806
757	 4.761645082205187
758	 4.766516120388757
759	 4.773667886708559
760	 4.725301283751353
761	 4.619954705566002
762	 4.515046860016861
763	 4.410609053432665
764	 4.326282993175204
765	 4.262549554398597
766	 4.235910742073632
767	 4.245429186958776
