0	 0.5340375485247928
1	 0.9305353056634779
2	 2.61868804293244
3	 2.61868804293244
4	 1.2564906859882055
5	 1.0756982708459828
6	 1.889404738587615
7	 1.889404738587615
8	 1.889404738587615
9	 1.889404738587615
10	 1.889404738587615
11	 1.889404738587615
12	 0.8313587002128235
13	 0.6633602112736617
14	 1.9108704123681435
15	 1.9108704123681435
16	 0.5580298275357293
17	 0.9788685605278812
18	 0.9734675475830382
19	 0.9734675475830382
20	 0.9734675475830382
21	 0.9734675475830382
22	 0.9734675475830382
23	 0.9734675475830382
24	 0.36523982924100706
25	 0.36523982924100706
26	 0.36523982924100706
27	 0.36523982924100706
28	 0.36523982924100706
29	 0.36523982924100706
30	 0.36523982924100706
31	 0.36523982924100706
32	 0.9038423901307868
33	 1.909497071534108
34	 1.1996012113187173
35	 0.46108900029965283
36	 0.46108900029965283
37	 0.46210287404141226
38	 0.8932967402813766
39	 0.46210287404141204
40	 0.6543417044613108
41	 1.9226666549865927
42	 1.061626613361465
43	 0.7544201302086254
44	 1.0579560795218927
45	 1.390708835880945
46	 1.0008365165520292
47	 1.2411297539731017
48	 1.107072863661915
49	 0.7600741188840292
50	 1.2062484450125905
51	 0.649168327930412
52	 1.3111300015681697
53	 0.8650451237925877
54	 0.5395236165952332
55	 1.2053111906048717
56	 1.2081105355874244
57	 0.46108900029965283
58	 0.46108900029965283
59	 0.46210287404141226
60	 0.46210287404141226
61	 0.46210287404141226
62	 0.46210287404141226
63	 0.46210287404141226
64	 0.46210287404141226
65	 0.46210287404141226
66	 0.46210287404141226
67	 0.46210287404141226
68	 0.46210287404141226
69	 0.46210287404141226
70	 0.46210287404141226
71	 0.46210287404141226
72	 0.46210287404141226
73	 0.46210287404141226
74	 0.46210287404141226
75	 0.46210287404141226
76	 0.46210287404141226
77	 0.46210287404141226
78	 0.46210287404141226
79	 0.46210287404141226
80	 0.46210287404141226
81	 0.46210287404141226
82	 0.46210287404141226
83	 0.46210287404141226
84	 0.46210287404141226
85	 0.46210287404141226
86	 0.46210287404141226
87	 0.46210287404141226
88	 0.46210287404141226
89	 0.46210287404141226
90	 0.46210287404141226
91	 0.46210287404141226
92	 0.46210287404141226
93	 0.46210287404141226
94	 0.46210287404141226
95	 0.46210287404141226
96	 0.46210287404141226
97	 0.46210287404141226
98	 0.46210287404141226
99	 0.46210287404141226
100	 0.46210287404141226
101	 0.46210287404141226
102	 0.46210287404141226
103	 0.46210287404141226
104	 0.46210287404141226
105	 0.46210287404141226
106	 0.46210287404141226
107	 0.46210287404141226
108	 0.46210287404141226
109	 0.46210287404141226
110	 0.46210287404141226
111	 0.46210287404141226
112	 0.46210287404141226
113	 0.46210287404141226
114	 0.46210287404141226
115	 0.46210287404141226
116	 0.46210287404141226
117	 0.46210287404141226
118	 0.46210287404141226
119	 0.46210287404141226
120	 0.46210287404141226
121	 0.46210287404141226
122	 0.46210287404141226
123	 0.46210287404141226
124	 0.46210287404141226
125	 0.46210287404141226
126	 0.46210287404141226
127	 0.46210287404141226
128	 0.46210287404141226
129	 0.46210287404141226
130	 0.46210287404141226
131	 0.46210287404141226
132	 0.46210287404141226
133	 0.46210287404141226
134	 0.46210287404141226
135	 0.46210287404141226
136	 0.46210287404141226
137	 0.46210287404141226
138	 0.46210287404141226
139	 0.46210287404141226
140	 0.46210287404141226
141	 0.46210287404141226
142	 0.46210287404141226
143	 0.46210287404141226
144	 0.46210287404141226
145	 0.46210287404141226
146	 0.46210287404141226
147	 0.46210287404141226
148	 0.46210287404141226
149	 0.46210287404141226
150	 0.46210287404141226
151	 0.46210287404141226
152	 0.46210287404141226
153	 0.46210287404141226
154	 0.46210287404141226
155	 0.46210287404141226
156	 0.46210287404141226
157	 0.46210287404141226
158	 0.46210287404141226
159	 0.46210287404141226
160	 0.46210287404141226
161	 0.46210287404141226
162	 0.46210287404141226
163	 0.46210287404141226
164	 0.46210287404141226
165	 0.46210287404141226
166	 0.46210287404141226
167	 0.46210287404141226
168	 0.46210287404141226
169	 0.46210287404141226
170	 0.46210287404141226
171	 0.46210287404141226
172	 0.46210287404141226
173	 0.46210287404141226
174	 0.46210287404141226
175	 0.46210287404141226
176	 0.46210287404141226
177	 0.46210287404141226
178	 0.46210287404141226
179	 0.46210287404141226
180	 0.46210287404141226
181	 0.46210287404141226
182	 0.46210287404141226
183	 0.46210287404141226
184	 0.46210287404141226
185	 0.46210287404141226
186	 0.46210287404141226
187	 0.46210287404141226
188	 0.46210287404141226
189	 0.46210287404141226
190	 0.46210287404141226
191	 0.46210287404141226
192	 0.46210287404141226
193	 0.46210287404141226
194	 0.46210287404141226
195	 0.46210287404141226
196	 0.46210287404141226
197	 0.46210287404141226
198	 0.46210287404141226
199	 0.46210287404141226
200	 0.46210287404141226
201	 0.46210287404141226
202	 0.46210287404141226
203	 0.46210287404141226
204	 0.46210287404141226
205	 0.46210287404141226
206	 0.46210287404141226
207	 0.46210287404141226
208	 0.46210287404141226
209	 0.46210287404141226
210	 0.46210287404141226
211	 0.46210287404141226
212	 0.46210287404141226
213	 0.46210287404141226
214	 0.46210287404141226
215	 0.46210287404141226
216	 0.46210287404141226
217	 0.46210287404141226
218	 0.46210287404141226
219	 0.46210287404141226
220	 0.46210287404141226
221	 0.46210287404141226
222	 0.46210287404141226
223	 0.46210287404141226
224	 0.46210287404141226
225	 0.46210287404141226
226	 0.46210287404141226
227	 0.46210287404141226
228	 0.46210287404141226
229	 0.46210287404141226
230	 0.46210287404141226
231	 0.46210287404141226
232	 0.46210287404141226
233	 0.46210287404141226
234	 0.46210287404141226
235	 0.46210287404141226
236	 0.46210287404141226
237	 0.46210287404141226
238	 0.46210287404141226
239	 0.46210287404141226
240	 0.46210287404141226
241	 0.46210287404141226
242	 0.46210287404141226
243	 0.46210287404141226
244	 0.46210287404141226
245	 0.46210287404141226
246	 0.46210287404141226
247	 0.46210287404141226
248	 0.46210287404141226
249	 0.46210287404141226
250	 0.46210287404141226
251	 0.46210287404141226
252	 0.46210287404141226
253	 0.46210287404141226
254	 0.46210287404141226
255	 0.46210287404141226
256	 0.46210287404141226
257	 0.46210287404141226
258	 0.46210287404141226
259	 0.46210287404141226
260	 0.46210287404141226
261	 0.46210287404141226
262	 0.46210287404141226
263	 0.46210287404141226
264	 0.46210287404141226
265	 0.46210287404141226
266	 0.46210287404141226
267	 0.46210287404141226
268	 0.46210287404141226
269	 0.46210287404141226
270	 0.46210287404141226
271	 0.46210287404141226
272	 0.46210287404141226
273	 0.46210287404141226
274	 0.46210287404141226
275	 0.46210287404141226
276	 0.46210287404141226
277	 0.46210287404141226
278	 0.46210287404141226
279	 0.46210287404141226
280	 0.46210287404141226
281	 0.46210287404141226
282	 0.46210287404141226
283	 0.46210287404141226
284	 0.46210287404141226
285	 0.46210287404141226
286	 0.46210287404141226
287	 0.46210287404141226
288	 0.46210287404141226
289	 0.46210287404141226
290	 0.46210287404141226
291	 0.46210287404141226
292	 0.46210287404141226
293	 0.46210287404141226
294	 0.46210287404141226
295	 0.46210287404141226
296	 0.46210287404141226
297	 0.46210287404141226
298	 0.46210287404141226
299	 0.46210287404141226
300	 0.46210287404141226
301	 0.46210287404141226
302	 0.46210287404141226
303	 0.46210287404141226
304	 0.46210287404141226
305	 0.46210287404141226
306	 0.46210287404141226
307	 0.46210287404141226
308	 0.46210287404141226
309	 0.46210287404141226
310	 0.46210287404141226
311	 0.46210287404141226
312	 0.46210287404141226
313	 0.46210287404141226
314	 0.46210287404141226
315	 0.46210287404141226
316	 0.46210287404141226
317	 0.46210287404141226
318	 0.46210287404141226
319	 0.46210287404141226
320	 0.46210287404141226
321	 0.46210287404141226
322	 0.46210287404141226
323	 0.46210287404141226
324	 0.46210287404141226
325	 0.46210287404141226
326	 0.46210287404141226
327	 0.46210287404141226
328	 0.46210287404141226
329	 0.46210287404141226
330	 0.46210287404141226
331	 0.46210287404141226
332	 0.46210287404141226
333	 0.46210287404141226
334	 0.46210287404141226
335	 0.46210287404141226
336	 0.46210287404141226
337	 0.46210287404141226
338	 0.46210287404141226
339	 0.46210287404141226
340	 0.46210287404141226
341	 0.46210287404141226
342	 0.46210287404141226
343	 0.46210287404141226
344	 0.46210287404141226
345	 0.46210287404141226
346	 0.46210287404141226
347	 0.46210287404141226
348	 0.46210287404141226
349	 0.46210287404141226
350	 0.46210287404141226
351	 0.46210287404141226
352	 0.46210287404141226
353	 0.46210287404141226
354	 0.46210287404141226
355	 0.46210287404141226
356	 0.46210287404141226
357	 0.46210287404141226
358	 0.46210287404141226
