C C C C C C C C C C C C 
C C D D D D C C D D D D 
D D D D E E D D D D E E 
E E F F F F E E F F F F 
F F F F G G F F F F G G 
G G G G G G G G G G G G 
E E E E E E A A A A A A C C C C C C A A A A A A A A A A A A 
E E E E E E A A A A A A C C C C C C A A A A A A A A A A A A 




C C C C C C C C C C C C 
C C D D D D C C D D D D 
D D D D E E D D D D E E 
E E F F F F E E F F F F 
F F F F G G F F F F G G 
G G G G G G G G G G G G 
E E E E E E A A A A A A C C C C C C A A A A A A A A A A A A 
E E E E E E A A A A A A C C C C C C A A A A A A A A A A A A 




E E E E E E A A A A A A C C C C C C A A A A A A A A A A A A 
E E E E E E A A A A A A C C C C C C A A A A A A A A A A A A 






A A A D D D B B B B B B 
D D D A A A D D D D D D 
A A A E E E C C C C C C 
E E E A A A E E E E E E 
A A A E E E E E E E E E 
E E E A A A A A A A A A 
B B B E E E C C C C C C 
E E E B B B E E E E E E 
B B B F F F D D D D D D 
F F F B B B F F F F F F 
B B B F F F F F F F F F 
F F F B B B A A A A A A 
C C C F F F D D D D D D 
F F F C C C F F F F F F 
C C C F F F E E E E E E 
F F F C C C F F F F F F 
C C C G G G A A A A A A A A A A A A 
G G G C C C A A A A A A A A A A A A G G G G G G E E E E E E 
F F F B B B B B B A A A A A A A A A A A A 
F F F C C C C C C A A A A A A A A A A A A F F F F F F D D D D D D 
B B B F F F A A A A A A A A A A A A 
F F F B B B A A A A A A A A A A A A F F F F F F C C C C C C 
B B B D D D D D D D D D 
D D D B B B D D D D D D 
A A A E E E C C C C C C 
E E E A A A E E E E E E 
A A A E E E E E E E E E 
E E E A A A A A A A A A 











































































































































































































































































































